<?xml version="1.0" encoding="UTF-8" standalone="no"?>
<!-- Created with Inkscape (http://www.inkscape.org/) -->

<svg
   xmlns:dc="http://purl.org/dc/elements/1.1/"
   xmlns:cc="http://creativecommons.org/ns#"
   xmlns:rdf="http://www.w3.org/1999/02/22-rdf-syntax-ns#"
   xmlns:svg="http://www.w3.org/2000/svg"
   xmlns="http://www.w3.org/2000/svg"
   xmlns:sodipodi="http://sodipodi.sourceforge.net/DTD/sodipodi-0.dtd"
   xmlns:inkscape="http://www.inkscape.org/namespaces/inkscape"
   width="46.182354mm"
   height="37.752789mm"
   viewBox="0 0 46.182354 37.752788"
   version="1.1"
   id="svg33075"
   inkscape:version="0.91 r13725"
   sodipodi:docname="carnets-01-couleur.svg">
  <defs
     id="defs33069">
    <inkscape:path-effect
       effect="spiro"
       id="path-effect16517"
       is_visible="true" />
    <inkscape:path-effect
       is_visible="true"
       id="path-effect5701"
       effect="spiro" />
    <inkscape:path-effect
       effect="spiro"
       id="path-effect5662"
       is_visible="true" />
    <inkscape:path-effect
       effect="spiro"
       id="path-effect5588"
       is_visible="true" />
    <inkscape:path-effect
       effect="spiro"
       id="path-effect5346-9"
       is_visible="true" />
    <inkscape:path-effect
       effect="spiro"
       id="path-effect5342-1"
       is_visible="true" />
    <inkscape:path-effect
       effect="spiro"
       id="path-effect5314-0"
       is_visible="true" />
    <inkscape:path-effect
       effect="spiro"
       id="path-effect5318-6"
       is_visible="true" />
    <inkscape:path-effect
       effect="spiro"
       id="path-effect5322-3"
       is_visible="true" />
    <inkscape:path-effect
       effect="spiro"
       id="path-effect5326-9"
       is_visible="true" />
    <inkscape:path-effect
       effect="spiro"
       id="path-effect5330-0"
       is_visible="true" />
    <inkscape:path-effect
       effect="spiro"
       id="path-effect5334-7"
       is_visible="true" />
    <inkscape:path-effect
       effect="spiro"
       id="path-effect5338-2"
       is_visible="true" />
    <inkscape:path-effect
       effect="spiro"
       id="path-effect5584-9"
       is_visible="true" />
    <inkscape:path-effect
       effect="spiro"
       id="path-effect5310-6"
       is_visible="true" />
    <inkscape:path-effect
       effect="spiro"
       id="path-effect5306-2"
       is_visible="true" />
    <inkscape:path-effect
       effect="spiro"
       id="path-effect5302-6"
       is_visible="true" />
    <inkscape:path-effect
       effect="spiro"
       id="path-effect5294-1"
       is_visible="true" />
    <inkscape:path-effect
       effect="spiro"
       id="path-effect5306-2-2"
       is_visible="true" />
    <inkscape:path-effect
       effect="spiro"
       id="path-effect5302-6-9"
       is_visible="true" />
    <inkscape:path-effect
       effect="spiro"
       id="path-effect5346-9-9"
       is_visible="true" />
    <inkscape:path-effect
       effect="spiro"
       id="path-effect5294-1-3"
       is_visible="true" />
    <inkscape:path-effect
       effect="spiro"
       id="path-effect16517-0"
       is_visible="true" />
    <inkscape:path-effect
       is_visible="true"
       id="path-effect5701-2"
       effect="spiro" />
    <inkscape:path-effect
       effect="spiro"
       id="path-effect5310-6-4"
       is_visible="true" />
    <inkscape:path-effect
       effect="spiro"
       id="path-effect6081"
       is_visible="true" />
    <inkscape:path-effect
       effect="spiro"
       id="path-effect6083"
       is_visible="true" />
    <inkscape:path-effect
       effect="spiro"
       id="path-effect6085"
       is_visible="true" />
    <inkscape:path-effect
       effect="spiro"
       id="path-effect6099"
       is_visible="true" />
    <inkscape:path-effect
       effect="spiro"
       id="path-effect6097"
       is_visible="true" />
    <inkscape:path-effect
       effect="spiro"
       id="path-effect6095"
       is_visible="true" />
    <clipPath
       clipPathUnits="userSpaceOnUse"
       id="clipPath1755-8-5">
      <rect
         style="fill:#ffffff;fill-opacity:1;fill-rule:evenodd;stroke:#000000;stroke-width:1.875;stroke-linecap:round;stroke-linejoin:round;stroke-miterlimit:4;stroke-dasharray:none;stroke-opacity:1"
         id="rect1757-46-5"
         width="160.91911"
         height="73.499458"
         x="-66.708733"
         y="91.882065" />
    </clipPath>
    <inkscape:path-effect
       effect="spiro"
       id="path-effect6119"
       is_visible="true" />
    <inkscape:path-effect
       effect="spiro"
       id="path-effect6121"
       is_visible="true" />
    <inkscape:path-effect
       effect="spiro"
       id="path-effect6133"
       is_visible="true" />
    <inkscape:path-effect
       effect="spiro"
       id="path-effect6131"
       is_visible="true" />
    <inkscape:path-effect
       effect="spiro"
       id="path-effect6127"
       is_visible="true" />
    <inkscape:path-effect
       effect="spiro"
       id="path-effect6129"
       is_visible="true" />
    <inkscape:path-effect
       effect="spiro"
       id="path-effect6125"
       is_visible="true" />
    <inkscape:path-effect
       effect="spiro"
       id="path-effect6123"
       is_visible="true" />
    <clipPath
       clipPathUnits="userSpaceOnUse"
       id="clipPath1755-1-8">
      <rect
         style="fill:#ffffff;fill-opacity:1;fill-rule:evenodd;stroke:#000000;stroke-width:1.875;stroke-linecap:round;stroke-linejoin:round;stroke-miterlimit:4;stroke-dasharray:none;stroke-opacity:1"
         id="rect1757-9-0"
         width="160.91911"
         height="73.499458"
         x="-66.708733"
         y="91.882065" />
    </clipPath>
    <clipPath
       clipPathUnits="userSpaceOnUse"
       id="clipPath1755-1-8-8">
      <rect
         style="fill:#ffffff;fill-opacity:1;fill-rule:evenodd;stroke:#000000;stroke-width:1.875;stroke-linecap:round;stroke-linejoin:round;stroke-miterlimit:4;stroke-dasharray:none;stroke-opacity:1"
         id="rect1757-9-0-9"
         width="160.91911"
         height="73.499458"
         x="-66.708733"
         y="91.882065" />
    </clipPath>
  </defs>
  <sodipodi:namedview
     id="base"
     pagecolor="#ffffff"
     bordercolor="#666666"
     borderopacity="1.0"
     inkscape:pageopacity="0.0"
     inkscape:pageshadow="2"
     inkscape:zoom="2.1517608"
     inkscape:cx="-109.63316"
     inkscape:cy="72.96459"
     inkscape:document-units="mm"
     inkscape:current-layer="layer2"
     showgrid="false"
     fit-margin-top="0"
     fit-margin-left="0"
     fit-margin-right="0"
     fit-margin-bottom="0"
     inkscape:window-width="1920"
     inkscape:window-height="1031"
     inkscape:window-x="0"
     inkscape:window-y="27"
     inkscape:window-maximized="1" />
  <metadata
     id="metadata33072">
    <rdf:RDF>
      <cc:Work
         rdf:about="">
        <dc:format>image/svg+xml</dc:format>
        <dc:type
           rdf:resource="http://purl.org/dc/dcmitype/StillImage" />
        <dc:title />
      </cc:Work>
    </rdf:RDF>
  </metadata>
  <g
     inkscape:groupmode="layer"
     id="layer2"
     inkscape:label="color"
     style="display:inline"
     transform="translate(-0.22793978,-7.1928617)">
    <path
       style="fill:#000000;fill-opacity:1;stroke:none;stroke-width:0.5291667;stroke-linecap:butt;stroke-linejoin:miter;stroke-miterlimit:4;stroke-dasharray:none;stroke-opacity:1"
       d="m 29.320171,37.000671 c -0.196928,-0.207708 -0.405012,-0.404839 -0.623057,-0.590257 -0.2525,-0.214718 -0.529324,-0.418982 -0.852654,-0.491906 -0.214608,-0.0484 -0.438811,-0.03596 -0.655851,0 -0.138868,0.02301 -0.276846,0.05573 -0.406673,0.110124 -0.129827,0.05439 -0.251662,0.131166 -0.347564,0.234201 -0.123476,0.132661 -0.200806,0.309243 -0.20648,0.490387 -0.0057,0.181144 0.06228,0.364986 0.19015,0.493419 0.107037,0.107509 0.251505,0.173671 0.400931,0.199884 0.149425,0.02621 0.303774,0.01416 0.451693,-0.01954 0.0953,-0.02171 0.188624,-0.05231 0.28502,-0.06845 0.0964,-0.01614 0.19816,-0.01706 0.288874,0.01933 0.0805,0.03228 0.147454,0.09209 0.20181,0.159671 0.05436,0.06759 0.09743,0.143348 0.142512,0.217445 0.08371,0.137593 0.176185,0.271832 0.294972,0.380591 0.118787,0.108758 0.266509,0.191228 0.426501,0.209702 0.192822,0.02227 0.383321,-0.04855 0.561679,-0.125132 0.178358,-0.07658 0.35936,-0.161631 0.553282,-0.170029 0.183703,-0.008 0.362162,0.05366 0.5394,0.102619 0.08862,0.02448 0.178469,0.04602 0.270039,0.05424 0.09157,0.0082 0.185302,0.0028 0.272723,-0.02568 0.107376,-0.03496 0.203632,-0.105652 0.264902,-0.200508 0.06127,-0.09486 0.0861,-0.213645 0.06305,-0.32419 -0.01603,-0.07688 -0.05432,-0.148318 -0.105517,-0.207873 -0.0512,-0.05955 -0.115033,-0.107534 -0.184034,-0.145045 -0.138002,-0.07502 -0.294305,-0.108079 -0.448318,-0.138951 -0.201797,-0.04045 -0.404033,-0.07872 -0.606659,-0.114785"
       id="path5292"
       inkscape:connector-curvature="0"
       inkscape:path-effect="#path-effect5294-1-3"
       inkscape:original-d="m 29.320171,37.000671 c -0.207506,-0.191458 -0.4152,-0.393675 -0.623057,-0.590257 -0.207888,-0.196582 -0.568255,-0.328118 -0.852654,-0.491906 -0.284371,-0.163786 -0.437045,-1.92e-4 -0.655851,0 -0.218811,1.63e-4 -0.502634,0.229346 -0.754237,0.344325 -0.251604,0.114977 -0.01123,0.655689 -0.01633,0.983806 -0.0058,0.328118 0.568607,0.120038 0.852624,0.180345 0.284047,0.06038 0.382788,-0.03302 0.573894,-0.04912 0.191104,-0.01633 0.22973,0.25122 0.344322,0.377116 0.114592,0.1259 0.481174,0.393357 0.721473,0.590293 0.240299,0.196934 0.743477,-0.196936 1.114961,-0.295161 0.371479,-0.09813 0.721633,0.08727 1.082162,0.131179 0.36056,0.04391 0.218808,-0.349956 0.327954,-0.524698 0.109147,-0.174706 -0.49171,-0.328114 -0.737869,-0.491869 -0.246128,-0.163819 -0.404277,-0.07674 -0.606659,-0.114785" />
    <path
       style="fill:#000000;fill-opacity:1;stroke:none;stroke-width:0.5291667;stroke-linecap:butt;stroke-linejoin:miter;stroke-miterlimit:4;stroke-dasharray:none;stroke-opacity:1"
       d="m 13.240436,29.668841 c -0.410032,0.02571 -0.819737,0.05662 -1.228985,0.09272 -0.177731,0.01568 -0.355995,0.03243 -0.52993,0.07219 -0.173935,0.03976 -0.344407,0.10342 -0.490349,0.206061 -0.176895,0.12441 -0.311747,0.302304 -0.407106,0.496408 -0.09536,0.194104 -0.153068,0.40463 -0.195799,0.61663 -0.08902,0.441646 -0.115054,0.894938 -0.09272,1.344912 0.02719,0.547851 0.125562,1.090175 0.255062,1.623195 0.01669,0.06868 0.03394,0.137515 0.0413,0.207814 0.0074,0.0703 0.0045,0.142681 -0.01826,0.209596 -0.02155,0.06333 -0.06009,0.119516 -0.102394,0.171339 -0.0423,0.05182 -0.0888,0.100181 -0.129483,0.153287 -0.06987,0.09121 -0.122058,0.196513 -0.147684,0.30851 -0.02563,0.111996 -0.02424,0.230664 0.0086,0.340774 0.04049,0.135932 0.126598,0.254084 0.224276,0.356924 0.09768,0.10284 0.207905,0.192926 0.309077,0.29233 0.125468,0.123275 0.236483,0.260351 0.356941,0.388527 0.120457,0.128175 0.252379,0.248868 0.408278,0.33032 0.159196,0.08318 0.341172,0.122815 0.520417,0.111294 0.179245,-0.01152 0.35518,-0.07443 0.499862,-0.180864 0.23345,-0.171737 0.376961,-0.453992 0.396606,-0.743139 0.01965,-0.289148 -0.07997,-0.581402 -0.257477,-0.810493 -0.187939,-0.24255 -0.457103,-0.416325 -0.62609,-0.67244 -0.08577,-0.129999 -0.143678,-0.281467 -0.146143,-0.437195 -0.0025,-0.155727 0.05459,-0.315304 0.169183,-0.420777 0.08906,-0.08197 0.205806,-0.127001 0.322525,-0.159032 0.116719,-0.03203 0.236801,-0.05305 0.349945,-0.09603 0.13125,-0.04987 0.255005,-0.133167 0.324626,-0.255094 0.06568,-0.115019 0.07743,-0.255568 0.05155,-0.385465 -0.02588,-0.129896 -0.08692,-0.250424 -0.159216,-0.361405 -0.144583,-0.221962 -0.338711,-0.417382 -0.425655,-0.667606 -0.06461,-0.185934 -0.06374,-0.393489 0,-0.579722 0.05104,-0.149136 0.144666,-0.287334 0.278257,-0.371002 0.08455,-0.05295 0.182046,-0.08254 0.280559,-0.09829 0.09851,-0.01575 0.19861,-0.01819 0.298351,-0.02035 0.09974,-0.0022 0.199818,-0.0041 0.298476,-0.01893 0.09866,-0.01481 0.19648,-0.04297 0.282024,-0.0943 0.103876,-0.06233 0.185327,-0.156061 0.255096,-0.255096 0.142309,-0.202004 0.243144,-0.43235 0.301441,-0.672473 0.06726,-0.277042 0.07713,-0.573986 -0.01572,-0.843529 -0.04643,-0.134772 -0.118347,-0.261322 -0.214754,-0.366321 -0.09641,-0.104999 -0.217581,-0.188039 -0.352295,-0.234636 -0.181914,-0.06292 -0.386775,-0.05686 -0.564651,0.0167 -0.177876,0.07357 -0.327169,0.213983 -0.411492,0.38702 -0.08432,0.173037 -0.102917,0.377142 -0.05125,0.562568 0.05167,0.185426 0.173128,0.350507 0.334782,0.455007 l 2.69e-4,6.8e-5 z"
       id="path5300"
       inkscape:connector-curvature="0"
       inkscape:path-effect="#path-effect5302-6-9"
       inkscape:original-d="m 13.240436,29.668841 c -0.20033,0.13192 -0.819134,0.06162 -1.228985,0.09272 -0.40985,0.03107 -0.680027,0.185308 -1.020279,0.278252 -0.340287,0.09294 -0.401748,0.741842 -0.602905,1.113038 -0.20117,0.371191 -0.06162,0.896438 -0.09272,1.344912 -0.03109,0.448507 0.170223,1.08197 0.255062,1.623195 0.08477,0.541259 0.01566,0.278093 0.02304,0.41741 0.0068,0.139285 -0.154403,0.216213 -0.231877,0.324626 -0.0775,0.108352 -0.0926,0.432654 -0.139129,0.649284 -0.04653,0.2166 0.355753,0.432654 0.533353,0.649254 0.177587,0.216629 0.510315,0.479061 0.765219,0.718847 0.254867,0.239788 0.680378,-0.04654 1.020279,-0.06957 0.339912,-0.02306 0.09294,-1.035913 0.139129,-1.553632 0.04618,-0.517686 -0.417216,-0.448474 -0.62609,-0.67244 -0.208886,-0.223965 0.01566,-0.572164 0.02304,-0.857972 0.0069,-0.285812 0.448503,-0.170226 0.67247,-0.255066 0.223969,-0.08477 0.216591,-0.170256 0.324626,-0.255094 0.108034,-0.08475 -0.35538,-0.943165 -0.533319,-1.414476 -0.177973,-0.471312 1.93e-4,-0.386665 0,-0.579722 -1.93e-4,-0.19306 0.18569,-0.247505 0.278257,-0.371002 0.0926,-0.123497 0.77313,-0.154788 1.15941,-0.231876 0.386303,-0.07718 0.170222,-0.170257 0.255096,-0.255096 0.08477,-0.08475 0.201123,-0.448475 0.301441,-0.672473 0.100318,-0.223965 -0.223911,-1.732279 -0.582774,-1.444486 -0.35883,0.287798 -0.492284,1.28938 -0.692613,1.421299 z"
       sodipodi:nodetypes="sccccccccccccccccscccsczs" />
    <path
       style="fill:#000000;fill-opacity:1;stroke:none;stroke-width:0.5291667;stroke-linecap:butt;stroke-linejoin:miter;stroke-miterlimit:4;stroke-dasharray:none;stroke-opacity:1"
       d="m 7.9866521,25.550064 c -0.044828,0.04562 -0.076694,0.102547 -0.1011432,0.161648 -0.024449,0.0591 -0.041925,0.120794 -0.061513,0.181678 -0.019588,0.06088 -0.041526,0.121499 -0.074063,0.176562 -0.032538,0.05506 -0.076417,0.104703 -0.1321985,0.135993 -0.057184,0.03208 -0.1240171,0.04338 -0.1895801,0.04403 -0.065563,6.5e-4 -0.1307409,-0.0088 -0.1959485,-0.01563 -0.065208,-0.0068 -0.1314233,-0.0111 -0.1960719,-1.64e-4 -0.064649,0.01093 -0.1282541,0.0383 -0.1726788,0.08652 -0.031387,0.03407 -0.052073,0.07752 -0.060607,0.123051 -0.00853,0.04553 -0.0051,0.09303 0.00806,0.137441 0.026317,0.08883 0.09055,0.163173 0.1673354,0.215015 0.1263931,0.08533 0.2824418,0.112975 0.4341832,0.128196 0.1517413,0.01522 0.3065179,0.02047 0.4512356,0.06858 0.1530507,0.05087 0.2868919,0.147244 0.4088914,0.252736 0.1219994,0.105493 0.2349238,0.221523 0.361752,0.321158 0.2033561,0.159755 0.4471176,0.276852 0.7050735,0.295129 0.1857193,0.01316 0.3710855,-0.02478 0.5518632,-0.06933 0.1807774,-0.04454 0.3611114,-0.09613 0.5466974,-0.111049 0.161054,-0.01295 0.323262,0.002 0.484493,-0.0085 0.161231,-0.01051 0.327675,-0.05001 0.450119,-0.15543 0.06539,-0.0563 0.115111,-0.128839 0.155081,-0.205307 0.03997,-0.07647 0.07078,-0.157303 0.10352,-0.237132 0.03274,-0.07983 0.06775,-0.159279 0.115234,-0.23132 0.04749,-0.07204 0.108289,-0.136856 0.183654,-0.178867 0.07768,-0.0433 0.167372,-0.06062 0.256115,-0.06638 0.08874,-0.0058 0.177809,-6.08e-4 0.266726,-0.0021 0.08892,-0.0015 0.179041,-0.01 0.262121,-0.04171 0.08308,-0.03172 0.159141,-0.08898 0.198823,-0.16856 0.02373,-0.04758 0.03367,-0.101664 0.03037,-0.15473 -0.0033,-0.05307 -0.01967,-0.105054 -0.04566,-0.151438 -0.05198,-0.09277 -0.141123,-0.161169 -0.23941,-0.201755 -0.09829,-0.04059 -0.205567,-0.05517 -0.311863,-0.05814 -0.106296,-0.003 -0.212544,0.0053 -0.31883,0.0086 -0.418041,0.01292 -0.849144,-0.04947 -1.246166,0.08206 -0.206606,0.06844 -0.393275,0.186573 -0.596378,0.264803 -0.101551,0.03912 -0.2078472,0.06827 -0.316487,0.0746 -0.1086398,0.0063 -0.2200301,-0.01101 -0.3168791,-0.06064 -0.097251,-0.04983 -0.1761328,-0.12998 -0.2407895,-0.218075 -0.064657,-0.08809 -0.1164751,-0.184767 -0.17189,-0.27895 -0.055415,-0.09418 -0.1152991,-0.187015 -0.1931774,-0.263671 -0.077878,-0.07666 -0.1756744,-0.136743 -0.28367,-0.153421 -0.092513,-0.01429 -0.1877046,0.0039 -0.2751964,0.03715 -0.087492,0.03329 -0.1685039,0.08127 -0.2491046,0.128879 -0.053776,0.03176 -0.1082635,0.06399 -0.1520389,0.108532 z"
       id="path5304"
       inkscape:connector-curvature="0"
       inkscape:path-effect="#path-effect5306-2-2"
       inkscape:original-d="m 7.9866521,25.550064 c -0.1675765,0.18665 -0.1625599,0.513275 -0.3689178,0.655881 -0.2092215,0.144585 -0.6124742,-0.09636 -0.7542793,0.114753 -0.090917,0.135355 0.076714,0.316814 0.1147867,0.475507 0.038017,0.158692 0.5904571,0.130991 0.8854188,0.196773 0.2949732,0.06572 0.5139476,0.382404 0.7706434,0.573894 0.2566957,0.191457 0.470223,0.196549 0.7050735,0.295129 0.2348165,0.09861 0.7325586,-0.12042 1.0985606,-0.180375 0.366,-0.05979 0.623274,-0.109498 0.934612,-0.163947 0.311371,-0.05449 0.371833,-0.568609 0.557489,-0.852626 0.185634,-0.284049 0.656049,-0.186013 0.983785,-0.278764 0.327758,-0.09271 -0.590071,-0.371834 -0.885395,-0.557494 -0.295348,-0.185629 -0.830585,0.05449 -1.246166,0.08206 -0.415558,0.02753 -0.9562644,0.44255 -1.2297441,0.278761 -0.2734457,-0.163787 -0.4771823,-0.810507 -0.8895269,-0.914117 -0.177794,-0.04467 -0.3603071,0.0841 -0.524301,0.166033 -0.055703,0.02783 -0.1104402,0.0622 -0.1520389,0.108532 z"
       sodipodi:nodetypes="aaacccccscccscaaa" />
    <path
       style="fill:#000000;fill-opacity:1;stroke:none;stroke-width:0.5291667;stroke-linecap:butt;stroke-linejoin:miter;stroke-miterlimit:4;stroke-dasharray:none;stroke-opacity:1"
       d="m 20.666615,32.339677 c 0.06445,0.239496 0.0385,0.493893 -0.0077,0.737574 -0.04617,0.243681 -0.112222,0.484845 -0.127286,0.732403 -0.01506,0.247558 0.02626,0.508773 0.174831,0.707368 0.07428,0.0993 0.174672,0.180314 0.290697,0.224088 0.116025,0.04378 0.247719,0.04882 0.364161,0.0062 0.136587,-0.05003 0.243901,-0.161214 0.317253,-0.286826 0.07335,-0.125613 0.116567,-0.266136 0.15876,-0.405344 0.04219,-0.139207 0.08455,-0.27989 0.156447,-0.406344 0.07189,-0.126454 0.177043,-0.239305 0.312434,-0.292486 0.09266,-0.03639 0.194579,-0.04316 0.293932,-0.03695 0.09935,0.0062 0.197448,0.02488 0.296161,0.03774 0.09871,0.01286 0.1994,0.01985 0.297464,0.0027 0.09806,-0.01711 0.194128,-0.06028 0.260229,-0.13471 0.05112,-0.05757 0.08222,-0.131884 0.09104,-0.208368 0.0088,-0.07648 -0.0042,-0.154892 -0.03378,-0.225969 -0.05918,-0.142153 -0.1819,-0.250972 -0.31959,-0.319901 -0.199781,-0.100013 -0.427736,-0.122928 -0.649023,-0.15371 -0.221286,-0.03078 -0.449995,-0.0746 -0.629947,-0.207009 -0.103963,-0.0765 -0.186134,-0.178931 -0.257659,-0.286375 -0.07153,-0.107444 -0.133593,-0.220953 -0.205212,-0.328335 -0.07162,-0.107381 -0.153981,-0.209687 -0.258143,-0.285913 -0.104162,-0.07623 -0.232381,-0.124891 -0.361147,-0.115983 -0.08184,0.0057 -0.161946,0.03467 -0.22843,0.08273 -0.06648,0.04807 -0.119138,0.115043 -0.150132,0.191003 -0.03215,0.0788 -0.04088,0.165922 -0.03348,0.25071 0.0074,0.08479 0.03048,0.167564 0.05996,0.247406 0.05896,0.159685 0.1439,0.309919 0.188132,0.474293 z"
       id="path5344"
       inkscape:connector-curvature="0"
       inkscape:path-effect="#path-effect5346-9-9"
       inkscape:original-d="m 20.666615,32.339677 c 0.09816,0.382788 0.640285,2.002973 0.694732,2.407603 0.05449,0.404629 0.453214,-1.325603 0.944894,-1.391 0.491743,-0.06536 0.765382,-0.0876 1.147786,-0.131184 0.382403,-0.04346 -0.174708,-0.503016 -0.262334,-0.754238 -0.08763,-0.251253 -0.852464,-0.240683 -1.27897,-0.360719 -0.426503,-0.120038 -0.721249,-0.677919 -1.082161,-1.016606 -0.360914,-0.338653 -0.225344,0.24075 -0.378562,0.273735 -0.153185,0.03302 0.116387,0.589652 0.214615,0.972409 z"
       sodipodi:nodetypes="ccccccscc" />
    <path
       style="color:#000000;font-style:normal;font-variant:normal;font-weight:normal;font-stretch:normal;font-size:medium;line-height:normal;font-family:sans-serif;text-indent:0;text-align:start;text-decoration:none;text-decoration-line:none;text-decoration-style:solid;text-decoration-color:#000000;letter-spacing:normal;word-spacing:normal;text-transform:none;direction:ltr;block-progression:tb;writing-mode:lr-tb;baseline-shift:baseline;text-anchor:start;white-space:normal;clip-rule:nonzero;display:inline;overflow:visible;visibility:visible;opacity:1;isolation:auto;mix-blend-mode:normal;color-interpolation:sRGB;color-interpolation-filters:linearRGB;solid-color:#000000;solid-opacity:1;fill:#000000;fill-opacity:1;fill-rule:evenodd;stroke:none;stroke-width:0.5291667;stroke-linecap:round;stroke-linejoin:round;stroke-miterlimit:4;stroke-dasharray:none;stroke-dashoffset:0;stroke-opacity:1;color-rendering:auto;image-rendering:auto;shape-rendering:auto;text-rendering:auto;enable-background:accumulate"
       d="m 30.478169,29.01059 c -0.157568,0.0042 -0.419669,0.22092 -0.355021,0.364676 0,0 -0.09716,0.07844 -0.06749,0.736647 0.03426,0.761295 0.31515,2.431783 0.191275,2.816837 -0.19459,0.604863 -0.612899,1.205807 -0.703694,1.951451 -0.0621,0.510038 0.06913,1.432841 0.337382,1.871067 0.147871,0.271425 1.002733,-0.37261 0.828919,-0.628199 -0.214913,-0.351089 -0.307125,-0.780483 -0.25737,-1.189114 0.07352,-0.603766 0.462427,-1.180807 0.684149,-1.870005 0.264743,-0.822929 0.241897,-2.029005 0.205468,-2.899047 -0.03533,-0.0842 -0.424781,-0.396863 -0.51605,-0.394113 z"
       id="path16512"
       inkscape:connector-curvature="0"
       sodipodi:nodetypes="ccsscccssccc" />
    <path
       style="fill:#000000;fill-opacity:1;stroke:none;stroke-width:0.5291667;stroke-linecap:butt;stroke-linejoin:miter;stroke-miterlimit:4;stroke-dasharray:none;stroke-opacity:1"
       d="m 17.180916,29.83141 c 0.01278,0.03056 0.0168,0.06432 0.01495,0.09739 -0.0019,0.03307 -0.0094,0.0656 -0.01907,0.09729 -0.0193,0.06338 -0.04716,0.12469 -0.05622,0.190321 -0.0095,0.06866 0.0025,0.139669 0.0309,0.202897 0.0284,0.06323 0.07286,0.118738 0.12622,0.162973 0.106724,0.08847 0.245848,0.130357 0.383946,0.142433 0.232874,0.02036 0.471389,-0.03761 0.699322,0.01427 0.176866,0.04026 0.333552,0.143939 0.508734,0.190988 0.131851,0.03541 0.2751,0.03703 0.40277,-0.01134 0.06383,-0.02418 0.123209,-0.06067 0.17214,-0.108268 0.04893,-0.0476 0.08726,-0.106379 0.109055,-0.171067 0.02348,-0.06968 0.0275,-0.145341 0.01508,-0.21781 -0.01242,-0.07247 -0.04099,-0.141761 -0.08021,-0.203954 -0.07843,-0.124385 -0.197346,-0.218561 -0.324362,-0.29266 -0.377108,-0.219999 -0.831686,-0.278818 -1.207361,-0.501254 -0.126911,-0.07514 -0.242616,-0.167759 -0.367266,-0.246596 -0.124651,-0.07884 -0.261894,-0.144818 -0.4088,-0.157923 -0.07345,-0.0066 -0.148556,5.02e-4 -0.218137,0.02493 -0.06958,0.02443 -0.133455,0.06663 -0.179851,0.123951 -0.0464,0.05732 -0.07463,0.129984 -0.07475,0.203728 -1.23e-4,0.07374 0.02882,0.14792 0.08189,0.199129 0.05758,0.05556 0.136951,0.08063 0.210694,0.111679 0.03687,0.01553 0.07322,0.03309 0.105224,0.05709 0.03201,0.024 0.05967,0.05489 0.0751,0.0918 z"
       id="path5308"
       inkscape:connector-curvature="0"
       inkscape:path-effect="#path-effect5310-6-4"
       inkscape:original-d="m 17.180916,29.83141 c 0.05223,0.118938 -0.102504,0.262134 -0.06034,0.385001 0.08032,0.23406 0.311935,0.414841 0.541066,0.508303 0.215887,0.08806 0.470351,-0.02971 0.699322,0.01427 0.177882,0.03417 0.327641,0.194856 0.508734,0.190988 0.247666,-0.0053 0.602544,-0.05671 0.683965,-0.290671 0.08915,-0.256164 -0.187843,-0.533026 -0.389491,-0.714424 -0.323964,-0.291434 -0.775508,-0.443034 -1.207361,-0.501254 -0.388541,-0.05238 -1.077096,-0.234408 -1.166916,0.14722 -0.03588,0.152463 0.328047,0.117157 0.391021,0.260568 z"
       sodipodi:nodetypes="aaaaaaaaaa" />
  </g>
  <g
     inkscape:label="Layer 1"
     inkscape:groupmode="layer"
     id="layer1"
     transform="translate(119.38244,2.9552903)"
     style="display:none">
    <path
       style="fill:none;stroke:#000000;stroke-width:0.5291667;stroke-linecap:round;stroke-linejoin:round;stroke-miterlimit:4;stroke-dasharray:none;stroke-opacity:1"
       d="m -88.885856,34.413231 0,-3.990175 -26.628164,-15.806386 0,5.050191 22.772746,14.863985"
       id="path5206"
       inkscape:connector-curvature="0"
       sodipodi:nodetypes="ccccc" />
    <path
       style="fill:none;stroke:#000000;stroke-width:0.5291667;stroke-linecap:butt;stroke-linejoin:miter;stroke-miterlimit:4;stroke-dasharray:none;stroke-opacity:1"
       d="m -88.885856,30.423056 15.398475,-6.966653"
       id="path5208"
       inkscape:connector-curvature="0"
       sodipodi:nodetypes="cc" />
    <path
       style="fill:none;stroke:#000000;stroke-width:0.5291667;stroke-linecap:round;stroke-linejoin:miter;stroke-miterlimit:4;stroke-dasharray:none;stroke-opacity:1"
       d="M -115.51402,14.61667 -82.938666,4.9775554"
       id="path5212"
       inkscape:connector-curvature="0"
       sodipodi:nodetypes="cc" />
    <path
       style="fill:none;stroke:#000000;stroke-width:0.5291667;stroke-linecap:butt;stroke-linejoin:miter;stroke-miterlimit:4;stroke-dasharray:none;stroke-opacity:1"
       d="m -110.64655,13.602374 -0.0573,2.03404"
       id="path5214"
       inkscape:connector-curvature="0" />
    <path
       style="fill:none;fill-opacity:1;stroke:#000000;stroke-width:0.5291667;stroke-linecap:round;stroke-linejoin:round;stroke-miterlimit:4;stroke-dasharray:none;stroke-opacity:1"
       d="m -110.64655,13.602374 c 3e-5,-0.154274 0.24374,-0.279342 0.54434,-0.279342 0.3006,0 0.54432,0.125068 0.54432,0.279342"
       id="path5216"
       inkscape:connector-curvature="0"
       sodipodi:nodetypes="ccc" />
    <path
       inkscape:connector-curvature="0"
       id="path5219"
       d="m -109.55789,13.602374 -0.0573,2.03404"
       style="fill:none;stroke:#000000;stroke-width:0.5291667;stroke-linecap:butt;stroke-linejoin:miter;stroke-miterlimit:4;stroke-dasharray:none;stroke-opacity:1" />
    <path
       sodipodi:nodetypes="ccc"
       inkscape:connector-curvature="0"
       id="path5221"
       d="m -110.70385,15.636414 c -3e-5,0.154244 0.24374,0.279341 0.54434,0.279341 0.30064,0 0.54433,-0.125069 0.54433,-0.279341"
       style="fill:none;fill-opacity:1;stroke:#000000;stroke-width:0.5291667;stroke-linecap:round;stroke-linejoin:round;stroke-miterlimit:4;stroke-dasharray:none;stroke-opacity:1" />
    <path
       inkscape:connector-curvature="0"
       id="path5223"
       d="m -104.66391,16.570483 -0.0573,2.034038"
       style="fill:none;stroke:#000000;stroke-width:0.5291667;stroke-linecap:butt;stroke-linejoin:miter;stroke-miterlimit:4;stroke-dasharray:none;stroke-opacity:1" />
    <path
       sodipodi:nodetypes="ccc"
       inkscape:connector-curvature="0"
       id="path5225"
       d="m -104.66391,16.570483 c 0,-0.154241 0.24369,-0.279339 0.54428,-0.279339 0.30065,0 0.54434,0.125098 0.54437,0.279339"
       style="fill:none;fill-opacity:1;stroke:#000000;stroke-width:0.5291667;stroke-linecap:round;stroke-linejoin:round;stroke-miterlimit:4;stroke-dasharray:none;stroke-opacity:1" />
    <path
       style="fill:none;stroke:#000000;stroke-width:0.5291667;stroke-linecap:butt;stroke-linejoin:miter;stroke-miterlimit:4;stroke-dasharray:none;stroke-opacity:1"
       d="m -103.57526,16.570483 -0.0573,2.034038"
       id="path5227"
       inkscape:connector-curvature="0" />
    <path
       style="fill:none;fill-opacity:1;stroke:#000000;stroke-width:0.5291667;stroke-linecap:round;stroke-linejoin:round;stroke-miterlimit:4;stroke-dasharray:none;stroke-opacity:1"
       d="m -104.72122,18.604521 c -7e-5,0.154244 0.2437,0.279341 0.5443,0.279341 0.30065,0 0.54433,-0.125064 0.54433,-0.279341"
       id="path5229"
       inkscape:connector-curvature="0"
       sodipodi:nodetypes="ccc" />
    <path
       inkscape:connector-curvature="0"
       id="path5239"
       d="m -98.078394,20.002377 -0.0573,2.034039"
       style="fill:none;stroke:#000000;stroke-width:0.5291667;stroke-linecap:butt;stroke-linejoin:miter;stroke-miterlimit:4;stroke-dasharray:none;stroke-opacity:1" />
    <path
       sodipodi:nodetypes="ccc"
       inkscape:connector-curvature="0"
       id="path5241"
       d="m -98.078394,20.002377 c 0,-0.154276 0.24369,-0.279341 0.544304,-0.279341 0.30064,0 0.544328,0.125065 0.544328,0.279341"
       style="fill:none;fill-opacity:1;stroke:#000000;stroke-width:0.5291667;stroke-linecap:round;stroke-linejoin:round;stroke-miterlimit:4;stroke-dasharray:none;stroke-opacity:1" />
    <path
       style="fill:none;stroke:#000000;stroke-width:0.5291667;stroke-linecap:butt;stroke-linejoin:miter;stroke-miterlimit:4;stroke-dasharray:none;stroke-opacity:1"
       d="m -96.989762,20.002377 -0.05729,2.034039"
       id="path5243"
       inkscape:connector-curvature="0" />
    <path
       style="fill:none;fill-opacity:1;stroke:#000000;stroke-width:0.5291667;stroke-linecap:round;stroke-linejoin:round;stroke-miterlimit:4;stroke-dasharray:none;stroke-opacity:1"
       d="m -98.135724,22.036416 c 0,0.154241 0.24372,0.279308 0.544334,0.279308 0.30064,0 0.544332,-0.125067 0.544332,-0.279308"
       id="path5245"
       inkscape:connector-curvature="0"
       sodipodi:nodetypes="ccc" />
    <ellipse
       style="fill:none;fill-opacity:1;stroke:#000000;stroke-width:0.5291667;stroke-linecap:round;stroke-linejoin:round;stroke-miterlimit:4;stroke-dasharray:none;stroke-opacity:1"
       id="path5247"
       cx="-89.866631"
       cy="26.269321"
       rx="0.93353367"
       ry="0.4349834" />
    <g
       id="g5716"
       transform="matrix(1.1348177,0,0,1.1348177,-383.9548,-114.76338)"
       style="stroke-width:0.46630105;stroke-miterlimit:4;stroke-dasharray:none">
      <path
         sodipodi:nodetypes="ccccccc"
         inkscape:connector-curvature="0"
         id="path5233"
         d="m 263.8688,122.55427 c -0.1787,-0.29275 -0.042,-0.6565 0.0749,-0.72592 l 3.45221,-1.78977 c 0.11686,-0.0694 0.54525,0.0155 0.68782,0.32993 0.13533,0.22774 -0.0375,0.54812 -0.15437,0.61757 l -3.45221,1.78978 c -0.11686,0.0695 -0.47302,0.006 -0.60836,-0.22158 z"
         style="fill:none;fill-opacity:1;stroke:#000000;stroke-width:0.46630105;stroke-linecap:round;stroke-linejoin:round;stroke-miterlimit:4;stroke-dasharray:none;stroke-opacity:1" />
      <path
         sodipodi:nodetypes="czc"
         inkscape:connector-curvature="0"
         id="path5249"
         d="m 264.03935,121.76785 c 0,0 0.37551,-0.12286 0.61046,0.27815 0.23494,0.40099 -0.0542,0.64657 -0.0542,0.64657"
         style="fill:none;stroke:#000000;stroke-width:0.46630105;stroke-linecap:round;stroke-linejoin:miter;stroke-miterlimit:4;stroke-dasharray:none;stroke-opacity:1" />
    </g>
    <path
       style="fill:none;fill-opacity:1;stroke:#000000;stroke-width:0.5291667;stroke-linecap:round;stroke-linejoin:round;stroke-miterlimit:4;stroke-dasharray:none;stroke-opacity:1"
       d="m -104.66391,16.570483 c -5e-5,0.154275 0.24369,0.279339 0.54428,0.279339 0.30065,0 0.54437,-0.125064 0.54437,-0.279339"
       id="path5229-3"
       inkscape:connector-curvature="0"
       sodipodi:nodetypes="ccc" />
    <path
       style="fill:none;fill-opacity:1;stroke:#000000;stroke-width:0.5291667;stroke-linecap:round;stroke-linejoin:round;stroke-miterlimit:4;stroke-dasharray:none;stroke-opacity:1"
       d="m -98.078394,20.002377 c -4e-5,0.154242 0.24369,0.279309 0.544304,0.279309 0.30064,0 0.544328,-0.125067 0.544328,-0.279309"
       id="path5229-5"
       inkscape:connector-curvature="0"
       sodipodi:nodetypes="ccc" />
    <path
       style="fill:none;fill-opacity:1;stroke:#000000;stroke-width:0.5291667;stroke-linecap:round;stroke-linejoin:round;stroke-miterlimit:4;stroke-dasharray:none;stroke-opacity:1"
       d="m -110.64655,13.602374 c 0,0.154243 0.24374,0.279307 0.54434,0.279307 0.30063,0 0.54432,-0.125034 0.54432,-0.279307"
       id="path5229-6"
       inkscape:connector-curvature="0"
       sodipodi:nodetypes="ccc" />
    <g
       transform="matrix(0.92849248,0.65246675,-0.65246666,0.92849248,-255.14612,-262.63656)"
       id="g5612"
       style="stroke-width:0.46630105;stroke-miterlimit:4;stroke-dasharray:none">
      <path
         inkscape:connector-curvature="0"
         id="path5280"
         d="m 262.28541,114.77365 0.0409,4.37278 c 0,0 0.42698,0.38478 0.51368,0.45702 0.0867,0.0723 0.57794,-0.0144 0.53459,-0.21673 -0.0433,-0.20229 -0.99695,-0.30343 -0.99695,-0.30343"
         style="fill:none;stroke:#000000;stroke-width:0.46630105;stroke-linecap:butt;stroke-linejoin:miter;stroke-miterlimit:4;stroke-dasharray:none;stroke-opacity:1" />
      <path
         sodipodi:nodetypes="cczc"
         inkscape:connector-curvature="0"
         id="path5282"
         d="m 263.44682,119.25668 c 0.37172,-1.08065 1.95918,-3.77044 1.64719,-4.11789 -0.33231,-0.36121 -1.0951,-0.6273 -1.61825,-0.63573 -0.52315,-0.008 -1.1903,0.27059 -1.1903,0.27059"
         style="fill:none;stroke:#000000;stroke-width:0.46630105;stroke-linecap:round;stroke-linejoin:round;stroke-miterlimit:4;stroke-dasharray:none;stroke-opacity:1" />
      <path
         sodipodi:nodetypes="ccccc"
         inkscape:original-d="m 262.11753,115.38442 c -0.78007,-0.56847 -0.37551,-0.58774 -1.1559,-1.15589 -0.78038,-0.56816 2.24454,-0.74186 3.95895,-0.83803 1.71441,-0.0962 1.57989,0.98235 2.3696,1.47377 0.78969,0.49142 -1.70886,0.95246 -2.39292,1.52094"
         inkscape:path-effect="#path-effect5314-0"
         inkscape:connector-curvature="0"
         id="path5312"
         d="m 262.11753,115.38442 c -0.3039,0.005 -0.60779,-0.11827 -0.82271,-0.33318 -0.21492,-0.21492 -0.33799,-0.51881 -0.33319,-0.82271 0.003,-0.19854 0.059,-0.39518 0.15474,-0.56915 0.0957,-0.17396 0.23069,-0.32537 0.3884,-0.44601 0.31542,-0.24128 0.7155,-0.35559 1.1123,-0.37174 0.79359,-0.0323 1.54833,0.30284 2.30351,0.54887 0.45801,0.14921 0.92907,0.26851 1.35985,0.48407 0.21538,0.10779 0.41995,0.23974 0.59584,0.40427 0.17589,0.16453 0.32272,0.36251 0.41391,0.58543 0.12661,0.3095 0.14081,0.6636 0.0394,0.98224 -0.10142,0.31865 -0.31768,0.59939 -0.5999,0.77877 -0.28221,0.17937 -0.62821,0.256 -0.95977,0.21256 -0.33157,-0.0434 -0.64615,-0.20661 -0.87263,-0.45263"
         style="fill:none;stroke:#000000;stroke-width:0.46630105;stroke-linecap:round;stroke-linejoin:round;stroke-miterlimit:4;stroke-dasharray:none;stroke-opacity:1" />
      <path
         inkscape:original-d="m 261.22172,113.10152 c 0.26023,-0.56847 0.5203,-1.13678 0.78023,-1.70494 0.2599,-0.56815 1.17532,0.0576 1.76273,0.0867 0.58743,0.0291 2.8321,0.77044 4.24792,1.1559 1.41581,0.38546 0.36619,0.8475 0.54906,1.27149 0.18286,0.42399 -0.71265,1.29058 -1.0692,1.93613"
         inkscape:path-effect="#path-effect5318-6"
         inkscape:connector-curvature="0"
         id="path5316"
         d="m 261.22172,113.10152 c -0.12226,-0.3252 -0.10925,-0.69892 0.0353,-1.01484 0.14457,-0.31591 0.41889,-0.57005 0.74491,-0.6901 0.27977,-0.10302 0.58694,-0.10851 0.88303,-0.0736 0.29609,0.0349 0.58607,0.10863 0.8797,0.1603 0.73986,0.13021 1.49806,0.11982 2.24088,0.23193 0.37141,0.056 0.74004,0.1433 1.08564,0.29043 0.34561,0.14713 0.66839,0.35592 0.9214,0.63354 0.31687,0.34769 0.51671,0.80219 0.54906,1.27149 0.0268,0.3887 -0.0609,0.7846 -0.2492,1.12567 -0.18836,0.34107 -0.47675,0.62611 -0.82,0.81046"
         style="fill:none;stroke:#000000;stroke-width:0.46630105;stroke-linecap:round;stroke-linejoin:round;stroke-miterlimit:4;stroke-dasharray:none;stroke-opacity:1" />
      <path
         inkscape:original-d="m 262.30138,109.70614 c 0.89598,-0.16392 1.31899,0.005 2.21464,-0.159 0.89565,-0.16359 4.30608,2.42144 6.21314,3.35595"
         inkscape:path-effect="#path-effect5338-2"
         inkscape:connector-curvature="0"
         id="path5336"
         d="m 262.30138,109.70614 c 0.72685,-0.15063 1.47373,-0.20425 2.21464,-0.159 2.42497,0.14811 4.75969,1.40919 6.21314,3.35595"
         style="fill:none;stroke:#000000;stroke-width:0.46630105;stroke-linecap:round;stroke-linejoin:round;stroke-miterlimit:4;stroke-dasharray:none;stroke-opacity:1"
         sodipodi:nodetypes="csc" />
      <path
         style="fill:none;stroke:#000000;stroke-width:0.46630105;stroke-linecap:round;stroke-linejoin:round;stroke-miterlimit:4;stroke-dasharray:none;stroke-opacity:1"
         d="m 268.98763,113.8337 c 0.79406,-0.22507 1.52385,-0.67239 2.08476,-1.27783 0.62808,-0.67795 1.51432,-1.66259 1.7501,-2.55619 m -9.86621,-14.248805 c -0.30001,1.389655 -1.25048,4.812395 -1.73318,6.149615 -0.51014,1.41322 -1.20035,2.76599 -1.56208,4.22427 -0.18087,0.72914 -0.2777,1.48416 -0.22082,2.23324 0.0569,0.74908 0.272,1.49331 0.67922,2.1246 0.268,0.41547 0.61703,0.77846 1.02168,1.06254"
         id="path5582"
         inkscape:connector-curvature="0"
         sodipodi:nodetypes="csccsscsc" />
    </g>
    <path
       style="fill:none;stroke:#000000;stroke-width:0.5291667;stroke-linecap:round;stroke-linejoin:round;stroke-miterlimit:4;stroke-dasharray:none;stroke-opacity:1"
       d="m -97.674667,-2.6527981 -11.543063,9.7568397 -6.49307,2.4266926 c 3.99943,-3.5184922 8.95493,-7.8758219 13.75948,-12.1049556"
       id="path5348"
       inkscape:connector-curvature="0"
       sodipodi:nodetypes="cccc" />
    <path
       style="fill:none;stroke:#000000;stroke-width:0.5291667;stroke-linecap:round;stroke-linejoin:round;stroke-miterlimit:4;stroke-dasharray:none;stroke-opacity:1"
       d="m -115.7108,9.5307342 -3.40504,-5.422755"
       id="path5350"
       inkscape:connector-curvature="0"
       sodipodi:nodetypes="cc" />
    <ellipse
       style="fill:none;fill-opacity:1;stroke:#000000;stroke-width:0.5291667;stroke-linecap:round;stroke-linejoin:round;stroke-miterlimit:4;stroke-dasharray:none;stroke-opacity:1"
       id="path5356"
       transform="matrix(0.66226897,0.74926618,-0.74926618,0.66226897,0,0)"
       ry="0.74604803"
       rx="0.22331028"
       cy="84.777428"
       cx="-68.150131" />
    <ellipse
       cx="-68.240875"
       cy="78.507591"
       rx="0.22331028"
       ry="0.74604803"
       transform="matrix(0.66226897,0.74926618,-0.74926618,0.66226897,0,0)"
       id="ellipse5358"
       style="fill:none;fill-opacity:1;stroke:#000000;stroke-width:0.5291667;stroke-linecap:round;stroke-linejoin:round;stroke-miterlimit:4;stroke-dasharray:none;stroke-opacity:1" />
    <path
       style="fill:none;stroke:#000000;stroke-width:0.5291667;stroke-linecap:round;stroke-linejoin:miter;stroke-miterlimit:4;stroke-dasharray:none;stroke-opacity:1"
       d="m -98.440024,1.84509 c 0.871233,0.673615 1.644106,1.4742351 2.286585,2.368676 1.174679,1.6353543 1.904853,3.5867876 2.092215,5.5915693 0.187362,2.0047817 -0.168572,4.0577197 -1.019883,5.8824187"
       id="path5586"
       inkscape:connector-curvature="0"
       inkscape:path-effect="#path-effect5588"
       inkscape:original-d="m -98.440024,1.84509 c 0.762238,0.7895122 1.524433,1.5790709 2.286585,2.368676 2.001374,2.0734646 0.715164,7.649024 1.072332,11.473988"
       sodipodi:nodetypes="csc" />
    <path
       inkscape:transform-center-y="0.095624084"
       inkscape:transform-center-x="2.1498902"
       style="fill:#000000;fill-rule:evenodd;stroke:none;stroke-width:0.5291667;stroke-linecap:round;stroke-linejoin:round;stroke-miterlimit:4;stroke-dasharray:none;stroke-opacity:1"
       d="m -93.012958,13.629949 -2.796286,4.610809 -0.245422,-5.384647 1.17014,1.773884 z"
       id="path16510"
       inkscape:connector-curvature="0"
       sodipodi:nodetypes="ccccc" />
    <path
       style="fill:none;stroke:#000000;stroke-width:0.5291667;stroke-linecap:butt;stroke-linejoin:miter;stroke-miterlimit:4;stroke-dasharray:none;stroke-opacity:1"
       d="m -83.902463,34.457618 10.516503,-5.46506"
       id="path5210"
       inkscape:connector-curvature="0"
       sodipodi:nodetypes="cc" />
    <path
       inkscape:connector-curvature="0"
       id="path5578-5"
       style="display:inline;fill:none;stroke:#000000;stroke-width:0.5291667;stroke-linecap:round;stroke-linejoin:round;stroke-miterlimit:4;stroke-dasharray:none;stroke-opacity:1"
       d="m -119.02644,-2.690707 17.22633,0 28.29089,0 0,0.3105184 0,36.8899026 -45.51722,0 z"
       sodipodi:nodetypes="ccccccc" />
  </g>
  <g
     inkscape:groupmode="layer"
     id="layer3"
     inkscape:label="vecto"
     style="display:none">
    <g
       transform="matrix(0.28222222,0,0,0.28222224,-20.23,-10.330982)"
       clip-path="url(#clipPath1755-1-8-8)"
       style="font-style:normal;font-weight:normal;line-height:0.01%;font-family:sans-serif;letter-spacing:0px;word-spacing:0px;fill:#000000;fill-opacity:1;stroke:#000000;stroke-width:0.375;stroke-linecap:round;stroke-linejoin:round;stroke-miterlimit:4;stroke-dasharray:none;stroke-opacity:1"
       id="flowRoot63170">
      <path
         d="m 86.527344,160.59766 1.464843,0 0,0.35156 -3.75,0 0,-0.35156 1.464844,0 0,-0.9961 0,-0.23437 0,-7.61719 -1.464844,0.29297 0,-0.35156 1.992188,-0.76172 0.292969,0 0,8.4375 0,0.23437 0,0.9961 z"
         style="font-style:normal;font-variant:normal;font-weight:normal;font-stretch:normal;font-size:15px;line-height:100%;font-family:'Ume Mincho Balsa';-inkscape-font-specification:'Ume Mincho Balsa, Normal';text-align:start;writing-mode:lr-tb;text-anchor:start;fill:#000000;stroke:#000000;stroke-width:0.375;stroke-linecap:round;stroke-linejoin:round;stroke-miterlimit:4;stroke-dasharray:none;stroke-opacity:1"
         id="path4906"
         inkscape:connector-curvature="0" />
    </g>
  </g>
</svg>
