<?xml version="1.0" encoding="UTF-8" standalone="no"?>
<!-- Created with Inkscape (http://www.inkscape.org/) -->

<svg
   xmlns:dc="http://purl.org/dc/elements/1.1/"
   xmlns:cc="http://creativecommons.org/ns#"
   xmlns:rdf="http://www.w3.org/1999/02/22-rdf-syntax-ns#"
   xmlns:svg="http://www.w3.org/2000/svg"
   xmlns="http://www.w3.org/2000/svg"
   xmlns:sodipodi="http://sodipodi.sourceforge.net/DTD/sodipodi-0.dtd"
   xmlns:inkscape="http://www.inkscape.org/namespaces/inkscape"
   width="46.390385mm"
   height="50.438782mm"
   viewBox="0 0 46.390385 50.438782"
   version="1.1"
   id="svg49766"
   inkscape:version="0.91 r13725"
   sodipodi:docname="coeur-02-blanc.svg">
  <defs
     id="defs49760">
    <clipPath
       clipPathUnits="userSpaceOnUse"
       id="clipPath1755-8">
      <rect
         style="fill:#ffffff;fill-opacity:1;fill-rule:evenodd;stroke:#000000;stroke-width:1.875;stroke-linecap:round;stroke-linejoin:round;stroke-miterlimit:4;stroke-dasharray:none;stroke-opacity:1"
         id="rect1757-46"
         width="160.91911"
         height="73.499458"
         x="-66.708733"
         y="91.882065" />
    </clipPath>
    <clipPath
       id="clipPath5283"
       clipPathUnits="userSpaceOnUse">
      <rect
         y="810.53168"
         x="195.86858"
         height="166.17009"
         width="162.28101"
         id="rect5285"
         style="color:#000000;clip-rule:nonzero;display:inline;overflow:visible;visibility:visible;opacity:1;isolation:auto;mix-blend-mode:normal;color-interpolation:sRGB;color-interpolation-filters:linearRGB;solid-color:#000000;solid-opacity:1;fill:#000000;fill-opacity:1;fill-rule:nonzero;stroke:#000000;stroke-width:1.875;stroke-linecap:round;stroke-linejoin:round;stroke-miterlimit:4;stroke-dasharray:none;stroke-dashoffset:0;stroke-opacity:1;color-rendering:auto;image-rendering:auto;shape-rendering:auto;text-rendering:auto;enable-background:accumulate" />
    </clipPath>
    <inkscape:path-effect
       is_visible="true"
       id="path-effect5156"
       effect="spiro" />
    <inkscape:path-effect
       is_visible="true"
       id="path-effect5160"
       effect="spiro" />
    <inkscape:path-effect
       is_visible="true"
       id="path-effect5158"
       effect="spiro" />
    <inkscape:path-effect
       is_visible="true"
       id="path-effect5226"
       effect="spiro" />
    <inkscape:path-effect
       is_visible="true"
       id="path-effect5228"
       effect="spiro" />
    <inkscape:path-effect
       is_visible="true"
       id="path-effect5230"
       effect="spiro" />
    <inkscape:path-effect
       is_visible="true"
       id="path-effect5232"
       effect="spiro" />
    <inkscape:path-effect
       is_visible="true"
       id="path-effect5234"
       effect="spiro" />
    <inkscape:path-effect
       is_visible="true"
       id="path-effect5236"
       effect="spiro" />
    <inkscape:path-effect
       is_visible="true"
       id="path-effect5238"
       effect="spiro" />
    <inkscape:path-effect
       is_visible="true"
       id="path-effect5240"
       effect="spiro" />
    <inkscape:path-effect
       is_visible="true"
       id="path-effect5242"
       effect="spiro" />
    <clipPath
       clipPathUnits="userSpaceOnUse"
       id="clipPath1755-8-2">
      <rect
         style="fill:#ffffff;fill-opacity:1;fill-rule:evenodd;stroke:#000000;stroke-width:1.875;stroke-linecap:round;stroke-linejoin:round;stroke-miterlimit:4;stroke-dasharray:none;stroke-opacity:1"
         id="rect1757-46-9"
         width="160.91911"
         height="73.499458"
         x="-66.708733"
         y="91.882065" />
    </clipPath>
  </defs>
  <sodipodi:namedview
     id="base"
     pagecolor="#ffffff"
     bordercolor="#666666"
     borderopacity="1.0"
     inkscape:pageopacity="0.0"
     inkscape:pageshadow="2"
     inkscape:zoom="4.0615732"
     inkscape:cx="39.281176"
     inkscape:cy="84.333268"
     inkscape:document-units="mm"
     inkscape:current-layer="layer1"
     showgrid="false"
     fit-margin-top="0"
     fit-margin-left="0"
     fit-margin-right="0"
     fit-margin-bottom="0"
     inkscape:window-width="1920"
     inkscape:window-height="1031"
     inkscape:window-x="0"
     inkscape:window-y="27"
     inkscape:window-maximized="1" />
  <metadata
     id="metadata49763">
    <rdf:RDF>
      <cc:Work
         rdf:about="">
        <dc:format>image/svg+xml</dc:format>
        <dc:type
           rdf:resource="http://purl.org/dc/dcmitype/StillImage" />
        <dc:title></dc:title>
      </cc:Work>
    </rdf:RDF>
  </metadata>
  <g
     inkscape:label="Layer 1"
     inkscape:groupmode="layer"
     id="layer1"
     transform="translate(-52.400047,-148.06037)">
    <rect
       style="color:#000000;clip-rule:nonzero;display:inline;overflow:visible;visibility:visible;opacity:1;isolation:auto;mix-blend-mode:normal;color-interpolation:sRGB;color-interpolation-filters:linearRGB;solid-color:#000000;solid-opacity:1;fill:#ffffff;fill-opacity:1;fill-rule:nonzero;stroke:none;stroke-width:0.49800101;stroke-linecap:round;stroke-linejoin:round;stroke-miterlimit:4;stroke-dasharray:none;stroke-dashoffset:0;stroke-opacity:1;color-rendering:auto;image-rendering:auto;shape-rendering:auto;text-rendering:auto;enable-background:accumulate"
       id="rect5244"
       width="45.892384"
       height="48.940781"
       x="52.649048"
       y="149.30937" />
  </g>
</svg>
