<?xml version="1.0" encoding="UTF-8" standalone="no"?>
<!-- Created with Inkscape (http://www.inkscape.org/) -->

<svg
   xmlns:dc="http://purl.org/dc/elements/1.1/"
   xmlns:cc="http://creativecommons.org/ns#"
   xmlns:rdf="http://www.w3.org/1999/02/22-rdf-syntax-ns#"
   xmlns:svg="http://www.w3.org/2000/svg"
   xmlns="http://www.w3.org/2000/svg"
   xmlns:sodipodi="http://sodipodi.sourceforge.net/DTD/sodipodi-0.dtd"
   xmlns:inkscape="http://www.inkscape.org/namespaces/inkscape"
   width="46.354206mm"
   height="52.364464mm"
   viewBox="0 0 164.24718 185.54339"
   id="svg7337"
   version="1.1"
   inkscape:version="0.91 r13725"
   sodipodi:docname="iclit-side-03.svg">
  <defs
     id="defs7339">
    <inkscape:path-effect
       effect="spiro"
       id="path-effect4144-3-9"
       is_visible="true" />
    <inkscape:path-effect
       effect="spiro"
       id="path-effect4253"
       is_visible="true" />
    <inkscape:path-effect
       is_visible="true"
       id="path-effect4431"
       effect="spiro" />
    <inkscape:path-effect
       effect="spiro"
       id="path-effect4144"
       is_visible="true" />
    <inkscape:path-effect
       effect="spiro"
       id="path-effect4144-35"
       is_visible="true" />
    <inkscape:path-effect
       effect="spiro"
       id="path-effect4283"
       is_visible="true" />
    <inkscape:path-effect
       effect="spiro"
       id="path-effect4279"
       is_visible="true" />
    <inkscape:path-effect
       effect="spiro"
       id="path-effect4291"
       is_visible="true" />
    <inkscape:path-effect
       effect="spiro"
       id="path-effect4295"
       is_visible="true" />
    <inkscape:path-effect
       is_visible="true"
       id="path-effect4299"
       effect="spiro" />
    <inkscape:path-effect
       effect="spiro"
       id="path-effect4303"
       is_visible="true" />
    <inkscape:path-effect
       is_visible="true"
       id="path-effect4307"
       effect="spiro" />
    <inkscape:path-effect
       effect="spiro"
       id="path-effect4311"
       is_visible="true" />
    <inkscape:path-effect
       is_visible="true"
       id="path-effect4325"
       effect="spiro" />
    <inkscape:path-effect
       effect="spiro"
       id="path-effect4329"
       is_visible="true" />
    <inkscape:path-effect
       is_visible="true"
       id="path-effect4333"
       effect="spiro" />
    <inkscape:path-effect
       effect="spiro"
       id="path-effect4337"
       is_visible="true" />
    <inkscape:path-effect
       is_visible="true"
       id="path-effect4357"
       effect="spiro" />
    <inkscape:path-effect
       effect="spiro"
       id="path-effect4148"
       is_visible="true" />
    <inkscape:path-effect
       effect="spiro"
       id="path-effect4175"
       is_visible="true" />
    <inkscape:path-effect
       effect="spiro"
       id="path-effect4179"
       is_visible="true" />
    <inkscape:path-effect
       effect="spiro"
       id="path-effect4187"
       is_visible="true" />
    <inkscape:path-effect
       effect="spiro"
       id="path-effect4456"
       is_visible="true" />
    <inkscape:path-effect
       effect="spiro"
       id="path-effect4231"
       is_visible="true" />
    <inkscape:path-effect
       effect="spiro"
       id="path-effect4448"
       is_visible="true" />
    <inkscape:path-effect
       effect="spiro"
       id="path-effect4452"
       is_visible="true" />
    <inkscape:path-effect
       effect="spiro"
       id="path-effect4460"
       is_visible="true" />
    <inkscape:path-effect
       effect="spiro"
       id="path-effect4464"
       is_visible="true" />
    <inkscape:path-effect
       effect="spiro"
       id="path-effect5732"
       is_visible="true" />
    <inkscape:path-effect
       effect="spiro"
       id="path-effect4223-2-3"
       is_visible="true" />
    <inkscape:path-effect
       effect="spiro"
       id="path-effect4144-3"
       is_visible="true" />
    <inkscape:path-effect
       effect="spiro"
       id="path-effect4152"
       is_visible="true" />
    <inkscape:path-effect
       effect="spiro"
       id="path-effect4144-3-9-3"
       is_visible="true" />
    <inkscape:path-effect
       effect="spiro"
       id="path-effect4253-9"
       is_visible="true" />
    <inkscape:path-effect
       is_visible="true"
       id="path-effect4431-2"
       effect="spiro" />
    <inkscape:path-effect
       effect="spiro"
       id="path-effect4144-1"
       is_visible="true" />
    <inkscape:path-effect
       effect="spiro"
       id="path-effect4144-35-2"
       is_visible="true" />
    <inkscape:path-effect
       effect="spiro"
       id="path-effect4283-0"
       is_visible="true" />
    <inkscape:path-effect
       effect="spiro"
       id="path-effect4279-2"
       is_visible="true" />
    <inkscape:path-effect
       effect="spiro"
       id="path-effect4291-3"
       is_visible="true" />
    <inkscape:path-effect
       effect="spiro"
       id="path-effect4295-7"
       is_visible="true" />
    <inkscape:path-effect
       is_visible="true"
       id="path-effect4299-5"
       effect="spiro" />
    <inkscape:path-effect
       effect="spiro"
       id="path-effect4303-9"
       is_visible="true" />
    <inkscape:path-effect
       is_visible="true"
       id="path-effect4307-2"
       effect="spiro" />
    <inkscape:path-effect
       effect="spiro"
       id="path-effect4311-2"
       is_visible="true" />
    <inkscape:path-effect
       is_visible="true"
       id="path-effect4325-8"
       effect="spiro" />
    <inkscape:path-effect
       effect="spiro"
       id="path-effect4329-9"
       is_visible="true" />
    <inkscape:path-effect
       is_visible="true"
       id="path-effect4333-7"
       effect="spiro" />
    <inkscape:path-effect
       effect="spiro"
       id="path-effect4337-3"
       is_visible="true" />
    <inkscape:path-effect
       is_visible="true"
       id="path-effect4357-6"
       effect="spiro" />
    <inkscape:path-effect
       effect="spiro"
       id="path-effect4148-6"
       is_visible="true" />
    <inkscape:path-effect
       effect="spiro"
       id="path-effect4175-1"
       is_visible="true" />
    <inkscape:path-effect
       effect="spiro"
       id="path-effect4179-8"
       is_visible="true" />
    <inkscape:path-effect
       effect="spiro"
       id="path-effect4187-7"
       is_visible="true" />
    <inkscape:path-effect
       effect="spiro"
       id="path-effect4456-9"
       is_visible="true" />
    <inkscape:path-effect
       effect="spiro"
       id="path-effect4223-2"
       is_visible="true" />
    <inkscape:path-effect
       effect="spiro"
       id="path-effect4231-6"
       is_visible="true" />
    <inkscape:path-effect
       effect="spiro"
       id="path-effect4144-3-0"
       is_visible="true" />
    <inkscape:path-effect
       effect="spiro"
       id="path-effect4152-6"
       is_visible="true" />
    <inkscape:path-effect
       effect="spiro"
       id="path-effect4448-3"
       is_visible="true" />
    <inkscape:path-effect
       effect="spiro"
       id="path-effect4452-9"
       is_visible="true" />
    <inkscape:path-effect
       effect="spiro"
       id="path-effect4460-0"
       is_visible="true" />
    <inkscape:path-effect
       effect="spiro"
       id="path-effect4464-7"
       is_visible="true" />
    <marker
       inkscape:stockid="Arrow1Mstart"
       orient="auto"
       refY="0"
       refX="0"
       id="Arrow1Mstart"
       style="overflow:visible"
       inkscape:isstock="true">
      <path
         inkscape:connector-curvature="0"
         id="path6172"
         d="M 0,0 5,-5 -12.5,0 5,5 0,0 Z"
         style="fill:#000000;fill-opacity:1;fill-rule:evenodd;stroke:#000000;stroke-width:1pt;stroke-opacity:1"
         transform="matrix(0.4,0,0,0.4,4,0)" />
    </marker>
    <marker
       inkscape:stockid="Arrow1Mend"
       orient="auto"
       refY="0"
       refX="0"
       id="Arrow1Mend"
       style="overflow:visible"
       inkscape:isstock="true">
      <path
         inkscape:connector-curvature="0"
         id="path6175"
         d="M 0,0 5,-5 -12.5,0 5,5 0,0 Z"
         style="fill:#000000;fill-opacity:1;fill-rule:evenodd;stroke:#000000;stroke-width:1pt;stroke-opacity:1"
         transform="matrix(-0.4,0,0,-0.4,-4,0)" />
    </marker>
    <inkscape:path-effect
       effect="spiro"
       id="path-effect6160"
       is_visible="true" />
    <inkscape:path-effect
       effect="spiro"
       id="path-effect4144-3-9-3-0"
       is_visible="true" />
    <inkscape:path-effect
       effect="spiro"
       id="path-effect4253-9-6"
       is_visible="true" />
    <inkscape:path-effect
       is_visible="true"
       id="path-effect4431-2-2"
       effect="spiro" />
    <inkscape:path-effect
       effect="spiro"
       id="path-effect4144-1-6"
       is_visible="true" />
    <inkscape:path-effect
       effect="spiro"
       id="path-effect4144-35-2-1"
       is_visible="true" />
    <inkscape:path-effect
       effect="spiro"
       id="path-effect4283-0-8"
       is_visible="true" />
    <inkscape:path-effect
       effect="spiro"
       id="path-effect4279-2-7"
       is_visible="true" />
    <inkscape:path-effect
       effect="spiro"
       id="path-effect4291-3-9"
       is_visible="true" />
    <inkscape:path-effect
       effect="spiro"
       id="path-effect4295-7-2"
       is_visible="true" />
    <inkscape:path-effect
       is_visible="true"
       id="path-effect4299-5-0"
       effect="spiro" />
    <inkscape:path-effect
       effect="spiro"
       id="path-effect4303-9-2"
       is_visible="true" />
    <inkscape:path-effect
       is_visible="true"
       id="path-effect4307-2-3"
       effect="spiro" />
    <inkscape:path-effect
       effect="spiro"
       id="path-effect4311-2-7"
       is_visible="true" />
    <inkscape:path-effect
       is_visible="true"
       id="path-effect4325-8-5"
       effect="spiro" />
    <inkscape:path-effect
       effect="spiro"
       id="path-effect4329-9-9"
       is_visible="true" />
    <inkscape:path-effect
       is_visible="true"
       id="path-effect4333-7-2"
       effect="spiro" />
    <inkscape:path-effect
       effect="spiro"
       id="path-effect4337-3-2"
       is_visible="true" />
    <inkscape:path-effect
       is_visible="true"
       id="path-effect4357-6-8"
       effect="spiro" />
    <inkscape:path-effect
       effect="spiro"
       id="path-effect4148-6-9"
       is_visible="true" />
    <inkscape:path-effect
       effect="spiro"
       id="path-effect4175-1-7"
       is_visible="true" />
    <inkscape:path-effect
       effect="spiro"
       id="path-effect4187-7-3"
       is_visible="true" />
    <inkscape:path-effect
       effect="spiro"
       id="path-effect4223-2-6"
       is_visible="true" />
    <inkscape:path-effect
       effect="spiro"
       id="path-effect4231-6-1"
       is_visible="true" />
    <inkscape:path-effect
       effect="spiro"
       id="path-effect4144-3-0-2"
       is_visible="true" />
    <inkscape:path-effect
       effect="spiro"
       id="path-effect4152-6-9"
       is_visible="true" />
    <inkscape:path-effect
       effect="spiro"
       id="path-effect4179-8-3"
       is_visible="true" />
    <inkscape:path-effect
       effect="spiro"
       id="path-effect4452-9-1"
       is_visible="true" />
    <inkscape:path-effect
       effect="spiro"
       id="path-effect4460-0-9"
       is_visible="true" />
    <inkscape:path-effect
       effect="spiro"
       id="path-effect4464-7-4"
       is_visible="true" />
    <marker
       inkscape:stockid="Arrow1Mstart"
       orient="auto"
       refY="0"
       refX="0"
       id="Arrow1Mstart-7"
       style="overflow:visible"
       inkscape:isstock="true">
      <path
         inkscape:connector-curvature="0"
         id="path6172-8"
         d="M 0,0 5,-5 -12.5,0 5,5 0,0 Z"
         style="fill:#000000;fill-opacity:1;fill-rule:evenodd;stroke:#000000;stroke-width:1pt;stroke-opacity:1"
         transform="matrix(0.4,0,0,0.4,4,0)" />
    </marker>
    <marker
       inkscape:stockid="Arrow1Mend"
       orient="auto"
       refY="0"
       refX="0"
       id="Arrow1Mend-4"
       style="overflow:visible"
       inkscape:isstock="true">
      <path
         inkscape:connector-curvature="0"
         id="path6175-5"
         d="M 0,0 5,-5 -12.5,0 5,5 0,0 Z"
         style="fill:#000000;fill-opacity:1;fill-rule:evenodd;stroke:#000000;stroke-width:1pt;stroke-opacity:1"
         transform="matrix(-0.4,0,0,-0.4,-4,0)" />
    </marker>
    <inkscape:path-effect
       effect="spiro"
       id="path-effect6160-0"
       is_visible="true" />
    <inkscape:path-effect
       effect="spiro"
       id="path-effect4179-8-0"
       is_visible="true" />
    <inkscape:path-effect
       effect="spiro"
       id="path-effect4179-8-0-3"
       is_visible="true" />
    <inkscape:path-effect
       effect="spiro"
       id="path-effect4144-3-9-7"
       is_visible="true" />
    <inkscape:path-effect
       effect="spiro"
       id="path-effect4253-8"
       is_visible="true" />
    <inkscape:path-effect
       is_visible="true"
       id="path-effect4431-6"
       effect="spiro" />
    <inkscape:path-effect
       effect="spiro"
       id="path-effect4144-8"
       is_visible="true" />
    <inkscape:path-effect
       effect="spiro"
       id="path-effect4144-35-8"
       is_visible="true" />
    <inkscape:path-effect
       effect="spiro"
       id="path-effect4283-4"
       is_visible="true" />
    <inkscape:path-effect
       effect="spiro"
       id="path-effect4279-3"
       is_visible="true" />
    <inkscape:path-effect
       effect="spiro"
       id="path-effect4291-1"
       is_visible="true" />
    <inkscape:path-effect
       effect="spiro"
       id="path-effect4295-4"
       is_visible="true" />
    <inkscape:path-effect
       is_visible="true"
       id="path-effect4299-9"
       effect="spiro" />
    <inkscape:path-effect
       effect="spiro"
       id="path-effect4303-2"
       is_visible="true" />
    <inkscape:path-effect
       is_visible="true"
       id="path-effect4307-0"
       effect="spiro" />
    <inkscape:path-effect
       effect="spiro"
       id="path-effect4311-6"
       is_visible="true" />
    <inkscape:path-effect
       is_visible="true"
       id="path-effect4325-89"
       effect="spiro" />
    <inkscape:path-effect
       effect="spiro"
       id="path-effect4329-2"
       is_visible="true" />
    <inkscape:path-effect
       is_visible="true"
       id="path-effect4333-6"
       effect="spiro" />
    <inkscape:path-effect
       effect="spiro"
       id="path-effect4337-6"
       is_visible="true" />
    <inkscape:path-effect
       is_visible="true"
       id="path-effect4357-4"
       effect="spiro" />
    <inkscape:path-effect
       effect="spiro"
       id="path-effect4148-9"
       is_visible="true" />
    <inkscape:path-effect
       effect="spiro"
       id="path-effect4175-5"
       is_visible="true" />
    <inkscape:path-effect
       effect="spiro"
       id="path-effect4179-0"
       is_visible="true" />
    <inkscape:path-effect
       effect="spiro"
       id="path-effect4187-4"
       is_visible="true" />
    <inkscape:path-effect
       effect="spiro"
       id="path-effect4456-8"
       is_visible="true" />
    <inkscape:path-effect
       effect="spiro"
       id="path-effect4231-7"
       is_visible="true" />
    <inkscape:path-effect
       effect="spiro"
       id="path-effect4448-1"
       is_visible="true" />
    <inkscape:path-effect
       effect="spiro"
       id="path-effect4452-7"
       is_visible="true" />
    <inkscape:path-effect
       effect="spiro"
       id="path-effect4460-2"
       is_visible="true" />
    <inkscape:path-effect
       effect="spiro"
       id="path-effect4464-72"
       is_visible="true" />
    <inkscape:path-effect
       effect="spiro"
       id="path-effect4223-2-3-1"
       is_visible="true" />
    <inkscape:path-effect
       effect="spiro"
       id="path-effect4144-3-06"
       is_visible="true" />
    <inkscape:path-effect
       effect="spiro"
       id="path-effect4152-1"
       is_visible="true" />
    <inkscape:path-effect
       effect="spiro"
       id="path-effect8503"
       is_visible="true" />
    <marker
       inkscape:stockid="Arrow1Mstart"
       orient="auto"
       refY="0"
       refX="0"
       id="Arrow1Mstart-6"
       style="overflow:visible"
       inkscape:isstock="true">
      <path
         id="path6172-1"
         d="M 0,0 5,-5 -12.5,0 5,5 0,0 Z"
         style="fill:#000000;fill-opacity:1;fill-rule:evenodd;stroke:#000000;stroke-width:1pt;stroke-opacity:1"
         transform="matrix(0.4,0,0,0.4,4,0)"
         inkscape:connector-curvature="0" />
    </marker>
    <marker
       inkscape:stockid="Arrow1Mend"
       orient="auto"
       refY="0"
       refX="0"
       id="Arrow1Mend-0"
       style="overflow:visible"
       inkscape:isstock="true">
      <path
         id="path6175-6"
         d="M 0,0 5,-5 -12.5,0 5,5 0,0 Z"
         style="fill:#000000;fill-opacity:1;fill-rule:evenodd;stroke:#000000;stroke-width:1pt;stroke-opacity:1"
         transform="matrix(-0.4,0,0,-0.4,-4,0)"
         inkscape:connector-curvature="0" />
    </marker>
    <inkscape:path-effect
       effect="spiro"
       id="path-effect6160-3"
       is_visible="true" />
    <inkscape:path-effect
       effect="spiro"
       id="path-effect4144-3-9-36-2-2"
       is_visible="true" />
    <inkscape:path-effect
       effect="spiro"
       id="path-effect4253-7-9-7"
       is_visible="true" />
    <inkscape:path-effect
       is_visible="true"
       id="path-effect4431-5-3-2"
       effect="spiro" />
    <inkscape:path-effect
       effect="spiro"
       id="path-effect4144-356-1-2"
       is_visible="true" />
    <inkscape:path-effect
       effect="spiro"
       id="path-effect4144-35-29-9-6"
       is_visible="true" />
    <inkscape:path-effect
       effect="spiro"
       id="path-effect4283-1-4-1"
       is_visible="true" />
    <inkscape:path-effect
       effect="spiro"
       id="path-effect4279-27-7-0"
       is_visible="true" />
    <inkscape:path-effect
       effect="spiro"
       id="path-effect4291-0-8-6"
       is_visible="true" />
    <inkscape:path-effect
       effect="spiro"
       id="path-effect4295-9-4-1"
       is_visible="true" />
    <inkscape:path-effect
       is_visible="true"
       id="path-effect4299-3-5-5"
       effect="spiro" />
    <inkscape:path-effect
       effect="spiro"
       id="path-effect4303-6-0-9"
       is_visible="true" />
    <inkscape:path-effect
       is_visible="true"
       id="path-effect4307-0-3-4"
       effect="spiro" />
    <inkscape:path-effect
       effect="spiro"
       id="path-effect4311-6-6-9"
       is_visible="true" />
    <inkscape:path-effect
       is_visible="true"
       id="path-effect4325-2-1-0"
       effect="spiro" />
    <inkscape:path-effect
       effect="spiro"
       id="path-effect4329-6-0-9"
       is_visible="true" />
    <inkscape:path-effect
       is_visible="true"
       id="path-effect4333-1-6-1"
       effect="spiro" />
    <inkscape:path-effect
       effect="spiro"
       id="path-effect4337-8-3-7"
       is_visible="true" />
    <inkscape:path-effect
       is_visible="true"
       id="path-effect4357-7-2-7"
       effect="spiro" />
    <inkscape:path-effect
       effect="spiro"
       id="path-effect4148-9-0-1"
       is_visible="true" />
    <inkscape:path-effect
       effect="spiro"
       id="path-effect4175-2-6-1"
       is_visible="true" />
    <inkscape:path-effect
       effect="spiro"
       id="path-effect4179-0-1-5"
       is_visible="true" />
    <inkscape:path-effect
       effect="spiro"
       id="path-effect4187-2-5-9"
       is_visible="true" />
    <inkscape:path-effect
       effect="spiro"
       id="path-effect4456-3-5-7"
       is_visible="true" />
    <inkscape:path-effect
       effect="spiro"
       id="path-effect4231-7-4-7"
       is_visible="true" />
    <inkscape:path-effect
       effect="spiro"
       id="path-effect4448-5-7-6"
       is_visible="true" />
    <inkscape:path-effect
       effect="spiro"
       id="path-effect4452-92-6-7"
       is_visible="true" />
    <inkscape:path-effect
       effect="spiro"
       id="path-effect4460-2-5-3"
       is_visible="true" />
    <inkscape:path-effect
       effect="spiro"
       id="path-effect4464-8-6-6"
       is_visible="true" />
    <inkscape:path-effect
       effect="spiro"
       id="path-effect5732-9-9-5"
       is_visible="true" />
    <inkscape:path-effect
       effect="spiro"
       id="path-effect4223-2-3-7-3-6"
       is_visible="true" />
    <inkscape:path-effect
       effect="spiro"
       id="path-effect4144-3-3-7-3"
       is_visible="true" />
    <inkscape:path-effect
       effect="spiro"
       id="path-effect4152-61-4-9"
       is_visible="true" />
    <clipPath
       clipPathUnits="userSpaceOnUse"
       id="clipPath1755-8-7">
      <rect
         style="fill:#ffffff;fill-opacity:1;fill-rule:evenodd;stroke:#000000;stroke-width:1.875;stroke-linecap:round;stroke-linejoin:round;stroke-miterlimit:4;stroke-dasharray:none;stroke-opacity:1"
         id="rect1757-46-3"
         width="160.91911"
         height="73.499458"
         x="-66.708733"
         y="91.882065" />
    </clipPath>
    <clipPath
       clipPathUnits="userSpaceOnUse"
       id="clipPath1755-8-7-5">
      <rect
         style="fill:#ffffff;fill-opacity:1;fill-rule:evenodd;stroke:#000000;stroke-width:1.875;stroke-linecap:round;stroke-linejoin:round;stroke-miterlimit:4;stroke-dasharray:none;stroke-opacity:1"
         id="rect1757-46-3-7"
         width="160.91911"
         height="73.499458"
         x="-66.708733"
         y="91.882065" />
    </clipPath>
    <clipPath
       clipPathUnits="userSpaceOnUse"
       id="clipPath1755-8-7-1">
      <rect
         style="fill:#ffffff;fill-opacity:1;fill-rule:evenodd;stroke:#000000;stroke-width:1.875;stroke-linecap:round;stroke-linejoin:round;stroke-miterlimit:4;stroke-dasharray:none;stroke-opacity:1"
         id="rect1757-46-3-8"
         width="160.91911"
         height="73.499458"
         x="-66.708733"
         y="91.882065" />
    </clipPath>
  </defs>
  <sodipodi:namedview
     id="base"
     pagecolor="#ffffff"
     bordercolor="#666666"
     borderopacity="1.0"
     inkscape:pageopacity="0.0"
     inkscape:pageshadow="2"
     inkscape:zoom="5.2975675"
     inkscape:cx="61.274932"
     inkscape:cy="66.083363"
     inkscape:document-units="px"
     inkscape:current-layer="layer9"
     showgrid="false"
     fit-margin-top="0"
     fit-margin-left="0"
     fit-margin-right="0"
     fit-margin-bottom="0"
     inkscape:window-width="1920"
     inkscape:window-height="1031"
     inkscape:window-x="0"
     inkscape:window-y="27"
     inkscape:window-maximized="1" />
  <metadata
     id="metadata7342">
    <rdf:RDF>
      <cc:Work
         rdf:about="">
        <dc:format>image/svg+xml</dc:format>
        <dc:type
           rdf:resource="http://purl.org/dc/dcmitype/StillImage" />
        <dc:title />
      </cc:Work>
    </rdf:RDF>
  </metadata>
  <g
     inkscape:label="Layer 1"
     inkscape:groupmode="layer"
     id="layer1"
     transform="translate(-317.93231,-668.28714)">
    <g
       transform="translate(66.195519,449.71984)"
       id="g7164-5" />
    <rect
       style="color:#000000;clip-rule:nonzero;display:inline;overflow:visible;visibility:visible;opacity:1;isolation:auto;mix-blend-mode:normal;color-interpolation:sRGB;color-interpolation-filters:linearRGB;solid-color:#000000;solid-opacity:1;fill:#ffffff;fill-opacity:1;fill-rule:nonzero;stroke:#000000;stroke-width:1.87500024;stroke-linecap:butt;stroke-linejoin:round;stroke-miterlimit:3.7651515;stroke-dasharray:none;stroke-dashoffset:28.077528;stroke-opacity:1;color-rendering:auto;image-rendering:auto;shape-rendering:auto;text-rendering:auto;enable-background:accumulate"
       id="rect9562"
       width="162.37399"
       height="171.63422"
       x="318.8689"
       y="669.22552" />
    <path
       style="fill:#ffffff;fill-rule:evenodd;stroke:#000000;stroke-width:1.50000024;stroke-linecap:butt;stroke-linejoin:miter;stroke-miterlimit:3.7651515;stroke-dasharray:none;stroke-opacity:1"
       d="m 403.06437,745.97819 c 0.37937,-0.14006 0.7127,-0.40191 0.93861,-0.73732 0.22591,-0.33541 0.34327,-0.74272 0.33048,-1.14691 -0.009,-0.27483 -0.0756,-0.54607 -0.0741,-0.82103 7.6e-4,-0.13748 0.0191,-0.27617 0.0688,-0.40434 0.0498,-0.12817 0.13244,-0.24562 0.24554,-0.3238 0.0995,-0.0688 0.22033,-0.10523 0.34132,-0.10755 0.12099,-0.002 0.24188,0.0289 0.34888,0.0854 0.21401,0.11302 0.36648,0.32361 0.44175,0.55364 0.0753,0.23002 0.0789,0.47846 0.0475,0.71842 -0.0315,0.23997 -0.0969,0.47395 -0.15795,0.70815 -0.8992,3.4514 -0.85427,7.06836 -0.82397,10.63485 0.025,2.94441 0.0361,5.88901 0.0862,8.8331 0.10036,5.8956 0.35733,11.78788 0.71351,17.67356 0.0777,1.28451 0.1602,2.57292 0.0773,3.85711 -0.0516,0.79986 -0.17219,1.61125 -0.52787,2.32954 -0.17784,0.35914 -0.41415,0.69155 -0.71091,0.9609 -0.29676,0.26934 -0.65515,0.47435 -1.0439,0.57173 -0.10462,0.0262 -0.21151,0.0448 -0.31291,0.0815 -0.16919,0.0613 -0.31697,0.17115 -0.44748,0.29503 -0.13052,0.12388 -0.24592,0.2626 -0.36885,0.39401 -0.16711,0.17863 -0.35129,0.34788 -0.46452,0.5647 -0.0566,0.10841 -0.0943,0.22822 -0.0972,0.35049 -0.003,0.12227 0.0306,0.24707 0.10449,0.34453 0.0659,0.087 0.16199,0.14936 0.26656,0.1806 0.10456,0.0312 0.21716,0.0321 0.32382,0.009 0.21331,-0.0462 0.39676,-0.18446 0.54298,-0.34651 0.14622,-0.16205 0.26123,-0.3492 0.38858,-0.52646 0.12734,-0.17727 0.2712,-0.34852 0.45764,-0.46201 0.14737,-0.0897 0.31743,-0.14007 0.48949,-0.15272 0.17207,-0.0126 0.34603,0.0118 0.51043,0.0642 0.3288,0.10466 0.61428,0.31744 0.85578,0.5639 0.483,0.49292 0.81502,1.13042 1.35703,1.5576 0.45902,0.36177 1.03488,0.54392 1.60962,0.64999 0.57473,0.10607 1.16065,0.14328 1.73458,0.2536 1.28756,0.24749 2.53508,0.90052 3.29454,1.96929 0.42265,0.59479 0.67842,1.28865 0.94777,1.96678 0.059,0.14855 0.11971,0.2983 0.21216,0.42869 0.0925,0.13039 0.22089,0.24153 0.37531,0.28281 0.14457,0.0387 0.30299,0.0122 0.43371,-0.0607 0.13072,-0.0729 0.2343,-0.18965 0.30282,-0.32269 0.13703,-0.26608 0.13423,-0.58249 0.0897,-0.87846 -0.0824,-0.54785 -0.29494,-1.06828 -0.5463,-1.56199 -0.44355,-0.87122 -1.01022,-1.6732 -1.58773,-2.46202 -1.02624,-1.40174 -2.11025,-2.80371 -2.68284,-4.44389 -0.85712,-2.45522 -0.47516,-5.1463 -0.12799,-7.72355 0.81437,-6.04555 1.38149,-12.12296 1.77913,-18.21014 0.29807,-4.56302 0.50105,-9.13496 0.4524,-13.70745 -0.0171,-1.61027 -0.0647,-3.23183 0.20246,-4.81988 0.26022,-1.5469 0.81376,-3.02906 1.15002,-4.56124 0.33625,-1.53217 0.44239,-3.18323 -0.17154,-4.62674 -0.43692,-1.02729 -1.2237,-1.89057 -2.17024,-2.48243 -0.94654,-0.59186 -2.04694,-0.91878 -3.15933,-1.01262 -1.27803,-0.10781 -2.5807,0.0886 -3.77011,0.5685"
       id="path4142-6-1-9"
       inkscape:path-effect="#path-effect4144-3-9-7"
       inkscape:original-d="m 403.06437,745.97819 c -62.24426,-21.14853 -14.81626,-6.01418 1.26909,-1.88423 16.08534,4.12995 -0.2734,-1.34257 0.24025,-1.54917 1.02728,-0.41321 1.22695,-3.00045 1.02149,1.95807 -0.20546,4.95852 -2.67309,3.40368 -0.82397,10.63485 0.92456,3.61559 -0.0695,4.93875 0.0862,8.8331 0.0389,0.97358 0.60118,12.63334 0.71351,17.67356 0.11233,5.04021 -0.011,3.12287 0.0773,3.85711 0.17669,1.46849 -2.02587,4.01712 -2.28268,3.86217 -1.0273,-0.6198 -3.39477,-0.74488 -0.31291,0.0815 0.77047,0.20661 -0.55156,-0.21478 -0.81633,0.68904 -0.26477,0.90382 -0.41265,0.31233 -0.45719,1.25972 -0.0445,0.94739 1.18622,-1.65764 1.97958,-1.14539 0.79335,0.51226 2.82775,2.37488 3.21273,2.03296 2.65852,-2.3613 2.10393,-0.34673 3.3442,0.90359 4.35229,4.38755 3.3114,2.19035 3.29454,1.96929 -0.0168,-0.22107 0.50492,1.17061 0.94777,1.96678 1.77139,3.18466 0.79292,1.74452 0.58747,0.7115 -0.0514,-0.25826 0.69855,-0.58894 0.82625,-1.26183 0.12769,-0.6729 -0.62108,-1.688 -0.5463,-1.56199 0.14956,0.25202 -34.12245,15.64961 -1.58773,-2.46202 2.75347,-1.53281 -2.25568,0.79323 -2.68284,-4.44389 -0.21358,-2.61856 -0.40615,-1.72461 -0.12799,-7.72355 0.27817,-5.99895 1.75345,-17.97772 1.77913,-18.21014 0.10274,-0.92973 1.74541,-9.44762 0.4524,-13.70745 -0.64651,-2.12992 0.15227,-1.44223 0.20246,-4.81988 0.0502,-3.37767 1.13257,-8.61982 0.97848,-9.18798 -0.077,-0.28409 -3.00776,-2.31525 -5.32957,-3.49505 -2.3218,-1.17979 -2.72199,0.87292 -3.77011,0.5685"
       inkscape:connector-curvature="0"
       sodipodi:nodetypes="csssssssssssssssssssssssssssc" />
    <path
       style="fill:#ffffff;fill-rule:evenodd;stroke:#000000;stroke-width:1.50000024;stroke-linecap:butt;stroke-linejoin:miter;stroke-miterlimit:3.7651515;stroke-dasharray:none;stroke-opacity:1"
       d="m 408.98394,806.92511 c 1.11527,-1.78182 1.41458,-4.05288 0.79905,-6.06281 -0.42434,-1.38561 -1.25764,-2.62797 -2.30077,-3.63388 -1.04314,-1.0059 -2.29158,-1.783 -3.60946,-2.38563 -2.63576,-1.20526 -5.52368,-1.71902 -8.32725,-2.45381 -3.3191,-0.86991 -6.55755,-2.06184 -9.92847,-2.70218 -3.37092,-0.64034 -6.96697,-0.69594 -10.12022,0.6569 -1.98483,0.85155 -3.77085,2.2974 -4.7216,4.23666 -0.35751,0.72922 -0.59305,1.51805 -0.69392,2.3239 2.52556,-0.0274 5.05278,0.0988 7.56304,0.37775 4.33434,0.48164 8.60337,1.416 12.87752,2.2821 1.38632,0.28092 2.77542,0.55512 4.14004,0.92745 1.05681,0.28835 2.11027,0.63751 3.20399,0.69893 0.44497,0.025 0.90124,0.003 1.32489,0.14167 0.21182,0.0692 0.41314,0.1796 0.56801,0.33983 0.15487,0.16022 0.26055,0.37285 0.27033,0.59547 0.007,0.16668 -0.0388,0.33338 -0.11827,0.48008 -0.0795,0.1467 -0.19131,0.2742 -0.31713,0.38377 -0.25163,0.21913 -0.55589,0.36667 -0.84072,0.54049 -0.8359,0.5101 -1.51072,1.25385 -2.04824,2.07239 -0.53752,0.81854 -0.94565,1.71418 -1.33377,2.61323 -1.92136,4.45064 -3.40399,9.07625 -5.15065,13.59831 -0.75251,1.94823 -1.55639,3.8822 -2.56456,5.71125 -0.43885,0.79617 -0.92008,1.58109 -1.18018,2.4522 -0.13004,0.43555 -0.20296,0.891 -0.18085,1.34502 0.0221,0.45401 0.14168,0.90697 0.37621,1.29635 0.33896,0.56275 0.89551,0.96217 1.47884,1.26435 0.58333,0.30218 1.20613,0.52259 1.79012,0.8235 1.01246,0.52169 1.88497,1.27232 2.81112,1.93525 0.92615,0.66294 1.95094,1.2554 3.08248,1.38516 0.56578,0.0649 1.15038,0.009 1.67837,-0.20459 0.52799,-0.21339 0.99623,-0.58932 1.28183,-1.08201 0.2856,-0.49269 0.37788,-1.1029 0.21004,-1.64709 -0.0839,-0.27209 -0.23087,-0.5252 -0.42962,-0.7291 -0.19875,-0.2039 -0.44932,-0.35784 -0.72266,-0.43762 -0.42436,-0.12386 -0.88276,-0.0664 -1.30664,0.0591 -0.42388,0.12551 -0.82517,0.31654 -1.24142,0.46539 -0.41626,0.14885 -0.85924,0.25623 -1.29827,0.20447 -0.21951,-0.0259 -0.4356,-0.0922 -0.62503,-0.20612 -0.18943,-0.1139 -0.35143,-0.27643 -0.45279,-0.47285 -0.10755,-0.20842 -0.14389,-0.44561 -0.1678,-0.67892 -0.2493,-2.43269 0.7024,-4.85645 2.07282,-6.8818 1.37043,-2.02535 3.14799,-3.73426 4.80081,-5.53656 3.88762,-4.23922 7.134,-9.06545 9.59494,-14.26433"
       id="path4251-4"
       inkscape:path-effect="#path-effect4253-8"
       inkscape:original-d="m 408.98394,806.92511 c 0.87168,-0.87655 4.57634,-2.84879 0.79905,-6.06281 -3.77729,-3.21402 -10.89603,-7.30458 -14.23748,-8.47332 -3.34145,-1.16873 -19.24964,-1.7531 -20.04869,-2.04528 -0.79904,-0.29218 -3.41408,3.21402 -4.7216,4.23666 -1.30753,1.02264 -1.16225,1.82614 -0.69392,2.3239 1.84947,0.36416 5.9697,0.21571 7.56304,0.37775 4.08349,0.41527 11.65757,2.04974 12.87752,2.2821 1.21996,0.23236 2.758,0.59895 4.14004,0.92745 1.38204,0.32851 2.60807,0.61893 3.20399,0.69893 4.15246,0.5575 3.97522,0.0496 2.16323,1.07697 -1.812,1.02736 -3.19414,2.12261 -1.27612,1.40434 17.89585,-6.70172 4.50867,-3.07376 -3.38201,4.68562 -7.89068,7.75939 -0.99032,12.30644 -5.15065,13.59831 -67.0019,20.80555 -18.36503,7.5636 -2.56456,5.71125 15.80046,-1.85235 -25.47687,19.21588 -0.98482,5.09357 38.66865,-22.29663 -1.79865,1.97692 3.26896,2.08785 5.06761,0.11093 4.67743,-0.38543 7.91156,-0.78 6.46826,-0.78914 -5.23234,1.39293 -4.92415,0.05 0.61637,-2.68586 5.23665,-0.73509 -0.1678,-0.67892 -30.80361,0.32012 14.31883,-15.4183 6.87363,-12.41836 -12.12299,4.88481 9.89914,-8.91455 9.59494,-14.26433"
       inkscape:connector-curvature="0"
       sodipodi:nodetypes="csssscsssssssssssssssc" />
    <path
       sodipodi:nodetypes="sssssssscsscs"
       inkscape:connector-curvature="0"
       inkscape:original-d="m 400.24147,831.61332 c -0.82182,5.37173 8.99419,0.78523 8.37782,3.47109 -0.30819,1.34293 4.92743,1.53485 -1.54083,2.32399 -1.61706,0.19729 -0.80303,0.64418 -3.08746,0.91833 -2.28443,0.27413 -7.66734,0.37552 -10.20115,0.32005 -2.53381,-0.0555 -4.2706,0.18875 -5.64965,0.29201 -1.37904,0.10326 -2.40034,0.0656 -3.50317,-0.55371 -4.34172,-2.43804 -3.79427,2.22727 -0.12405,-3.38532 1.95682,-2.99241 12.30039,25.24211 2.51119,-6.39686 0.38564,-0.0927 2.02004,-1.77279 2.96437,0.0168 0.94432,1.78962 4.68529,3.36012 5.26641,2.11833 0.58113,-1.24178 1.02686,-2.04621 1.02686,-2.04621 7.38246,-3.00087 4.16512,1.57853 3.95966,2.92147 z"
       inkscape:path-effect="#path-effect4431-6"
       id="path4429-9"
       d="m 400.24147,831.61332 c 0.56049,-0.93052 1.46255,-1.65003 2.49439,-1.98961 1.03184,-0.33958 2.1849,-0.2964 3.18846,0.11939 1.00355,0.4158 1.84928,1.20075 2.33861,2.17058 0.48933,0.96983 0.6182,2.11648 0.35636,3.17073 -0.2289,0.92163 -0.7633,1.77879 -1.54083,2.32399 -0.88891,0.62329 -2.00817,0.80088 -3.08746,0.91833 -3.38387,0.36823 -6.79732,0.31165 -10.20115,0.32005 -1.88727,0.005 -3.78067,0.0299 -5.64965,0.29201 -0.61168,0.0858 -1.22628,0.19719 -1.84266,0.15739 -0.30819,-0.0199 -0.61551,-0.0782 -0.90218,-0.19315 -0.28666,-0.1149 -0.55247,-0.28773 -0.75833,-0.51795 -0.19761,-0.22099 -0.33671,-0.49123 -0.41902,-0.77603 -0.0823,-0.2848 -0.10892,-0.58404 -0.0962,-0.88022 0.0254,-0.59236 0.20507,-1.16613 0.39118,-1.72907 0.7194,-2.17601 1.55814,-4.31257 2.51119,-6.39686 0.93861,-0.3842 2.03017,-0.37802 2.96437,0.0168 0.9114,0.38518 1.63639,1.101 2.46668,1.63916 0.41515,0.26908 0.86421,0.4966 1.3473,0.60323 0.4831,0.10664 1.00431,0.0856 1.45243,-0.12406 0.37275,-0.17436 0.68396,-0.4771 0.86854,-0.8449 0.18457,-0.3678 0.2413,-0.79825 0.15832,-1.20131 l 3.95966,2.92147 0,3e-5 z"
       style="fill:#ffffff;fill-rule:evenodd;stroke:#000000;stroke-width:1.50000024;stroke-linecap:butt;stroke-linejoin:miter;stroke-miterlimit:3.7651515;stroke-dasharray:none;stroke-opacity:1" />
    <path
       style="fill:#ffffff;fill-rule:evenodd;stroke:#000000;stroke-width:1.50000024;stroke-linecap:butt;stroke-linejoin:miter;stroke-miterlimit:3.7651515;stroke-dasharray:none;stroke-opacity:1"
       d="m 384.75845,834.53645 c 1.52544,1.20526 1.96128,1.35135 4.1768,-0.0365 2.21553,-1.38787 4.72162,-0.69394 5.84754,-0.18261 0.56296,0.25566 6.83726,1.12308 10.00164,1.53396 3.16439,0.41088 3.18255,-0.69393 3.94527,-1.24178"
       id="path4433-0"
       inkscape:connector-curvature="0"
       sodipodi:nodetypes="csssc" />
    <path
       style="fill:#ffffff;fill-rule:evenodd;stroke:#000000;stroke-width:1.50000024;stroke-linecap:butt;stroke-linejoin:miter;stroke-miterlimit:3.7651515;stroke-dasharray:none;stroke-opacity:1"
       d="m 395.5207,737.3817 c -5.00857,5.742 -7.20764,13.38178 -11.338,19.78463 -4.23325,6.56236 -10.36248,11.63495 -16.37775,16.61506 -2.35503,1.94976 -4.78819,4.0064 -6.01599,6.80644 -0.70327,1.60384 -0.96868,3.38564 -0.85396,5.13313 0.11472,1.74749 0.60287,3.46099 1.34379,5.04779 0.69739,1.49355 1.62955,2.8935 2.85074,4.00064 1.22118,1.10713 2.74349,1.9111 4.37531,2.14391 1.69086,0.24123 3.4037,-0.12937 5.11134,-0.16378 2.36746,-0.0477 4.69269,0.55006 7.02206,0.97568 4.11822,0.75248 8.31852,0.97285 12.44169,1.69773 1.39341,0.24497 2.77722,0.54752 4.14003,0.92745 1.05526,0.29419 2.11024,0.63697 3.20399,0.69893 0.44444,0.0252 0.90013,0.005 1.3231,0.14373 0.21148,0.0694 0.41246,0.17969 0.56744,0.33945 0.15498,0.15976 0.26131,0.37151 0.27269,0.5938 0.009,0.16699 -0.0362,0.33444 -0.11472,0.48207 -0.0785,0.14764 -0.18976,0.27621 -0.31549,0.38644 -0.25145,0.22046 -0.55703,0.36737 -0.84591,0.53583 -1.11165,0.64823 -1.99583,1.63336 -2.69962,2.7107 -0.70378,1.07734 -1.24118,2.25272 -1.79198,3.41573 -3.49316,7.37582 -7.66821,14.54642 -9.52538,22.49348 -1.18526,5.07187 -1.43903,10.48374 -3.94228,15.05128 -0.32814,0.59874 -0.70193,1.20631 -0.74915,1.88744 -0.0461,0.66539 0.23997,1.33076 0.70094,1.81282 0.46097,0.48205 1.08342,0.79048 1.73178,0.947 1.29671,0.31304 2.65164,0.0443 3.97589,-0.11635 6.07461,-0.7371 12.22229,0.83913 18.32571,0.40041 0.52221,-0.0375 1.047,-0.0905 1.54951,-0.23744 0.5025,-0.14695 0.98551,-0.39364 1.34655,-0.7728 0.38867,-0.40817 0.61826,-0.95748 0.66704,-1.51898 0.0488,-0.5615 -0.0786,-1.13275 -0.333,-1.63566 -0.50889,-1.00583 -1.49601,-1.7053 -2.55494,-2.09171 -1.05894,-0.38641 -2.19646,-0.49415 -3.3206,-0.57768 -1.12414,-0.0835 -2.25999,-0.14777 -3.34479,-0.45414 -1.65174,-0.46648 -3.13315,-1.50037 -4.16269,-2.87364 -1.02953,-1.37328 -1.60536,-3.07607 -1.64807,-4.79188 -0.056,-2.25042 0.77954,-4.44224 1.91947,-6.3834 1.13993,-1.94116 2.58359,-3.68323 3.89293,-5.51439 4.14964,-5.80342 6.92235,-12.45767 10.43779,-18.66581 0.8907,-1.57294 1.83489,-3.12898 2.4623,-4.82422 0.62741,-1.69524 0.92364,-3.56759 0.47454,-5.31853 -0.38235,-1.49071 -1.30923,-2.83537 -2.56636,-3.72309 -1.25712,-0.88773 -2.83438,-1.31138 -4.36711,-1.17301 -5.45054,-2.45493 -10.71084,-5.33211 -15.71822,-8.59727 -1.31359,-0.85655 -2.61707,-1.74383 -4.04377,-2.39476 -0.26011,-0.11867 -0.5288,-0.23236 -0.74271,-0.42204 -0.10696,-0.0948 -0.19885,-0.20849 -0.25807,-0.3386 -0.0592,-0.13011 -0.0846,-0.27729 -0.0603,-0.41816 0.0211,-0.12235 0.079,-0.23689 0.1579,-0.33276 0.0789,-0.0959 0.17827,-0.17366 0.28575,-0.23581 0.21498,-0.12428 0.45921,-0.18608 0.6974,-0.25628 1.86676,-0.55017 3.5181,-1.68771 4.92007,-3.03751 1.40197,-1.34979 2.57684,-2.91387 3.74243,-4.47236 2.02838,-2.7121 4.09669,-5.47762 6.86306,-7.43133 1.48978,-1.05214 3.14632,-1.84185 4.70234,-2.79329 1.55603,-0.95143 3.04837,-2.10551 3.98314,-3.6716 1.17632,-1.97078 1.34637,-4.37924 1.23017,-6.67145 -0.1162,-2.2922 -0.48736,-4.58626 -0.27427,-6.87149 0.11077,-1.18798 0.37845,-2.3567 0.50039,-3.54359 0.12193,-1.18689 0.0902,-2.42234 -0.37388,-3.52153 -0.35165,-0.83292 -0.93654,-1.55256 -1.27533,-2.39079 -0.3891,-0.96272 -0.42957,-2.0621 -0.11229,-3.05082 0.31728,-0.98872 0.9899,-1.85928 1.86653,-2.41583 l -13.76565,-6.50806 c 1.20112,2.30081 1.35493,5.12338 0.41092,7.54108 -0.59281,1.51824 -1.58157,2.85067 -2.66416,4.06904 -1.0826,1.21838 -2.26894,2.34189 -3.34031,3.57015 z"
       id="path4142-9"
       inkscape:path-effect="#path-effect4144-8"
       inkscape:original-d="m 395.5207,737.3817 c -0.94743,1.28093 -7.43431,15.44593 -11.338,19.78463 -3.90369,4.33871 -33.08831,18.75081 -16.37775,16.61506 8.77251,-1.12119 -9.41242,1.26121 -6.01599,6.80644 2.73884,4.47161 -1.78549,7.1469 0.48983,10.18092 0.5463,0.72846 6.58395,6.05508 7.22605,6.14455 1.01121,0.14091 2.38521,-0.29747 5.11134,-0.16378 1.74433,0.0855 5.42872,0.81365 7.02206,0.97568 4.0835,0.41527 11.22174,1.46537 12.44169,1.69773 1.21995,0.23236 2.758,0.59895 4.14003,0.92745 1.38205,0.32851 2.60808,0.61893 3.20399,0.69893 4.15246,0.55749 3.97523,0.0496 2.16323,1.07698 -1.812,1.02735 -3.19413,2.1226 -1.27612,1.40434 17.89585,-6.70173 3.39909,-1.63295 -4.4916,6.12643 -7.89068,7.75938 -10.81894,18.31267 -9.52538,22.49348 9.78919,31.63896 -1.98546,12.05888 -3.94228,15.05128 -3.67022,5.61259 -5.09087,-0.55061 -0.74915,1.88744 2.20565,1.23855 1.34099,2.53253 6.40861,2.64347 5.06761,0.11094 15.09158,0.79497 18.32571,0.40041 6.46826,-0.78914 2.58787,0.33269 2.89606,-1.01024 0.61637,-2.68587 -9.70812,-0.90644 -8.88629,-6.27817 0.10272,-0.67146 -5.63749,-4.95643 -5.81076,-7.66552 -0.17327,-2.70909 9.535,-13.39777 5.8124,-11.89779 -12.12299,4.8848 10.74199,-13.31603 10.43779,-18.66581 -0.45579,-8.01556 3.55321,-8.18 2.93684,-10.14275 -0.30819,-0.98137 -2.45486,-2.6707 -6.93347,-4.8961 2.11092,-13.87526 -10.90139,-5.74991 -15.71822,-8.59727 -2.7089,-1.60132 -4.31636,-2.08045 -4.04377,-2.39476 0.27259,-0.31432 0.78806,-0.0425 -1.06106,-1.1788 -3.69823,-2.27266 -1.83274,0.90144 1.14105,-0.82485 2.97379,-1.72628 8.21812,-8.71818 8.6625,-7.50987 0.50393,1.37021 10.97221,0.41966 6.86306,-7.43133 -4.10915,-7.85098 9.30185,-2.3328 8.68548,-6.46489 -0.30818,-2.06606 -0.55148,-8.42615 0.9559,-13.54294 1.50738,-5.11679 3.3111,-8.51136 0.12651,-7.06512 -6.36918,2.89247 1.51762,-0.28171 -1.27533,-2.39079 -0.43278,-0.32681 1.75424,-5.46665 1.75424,-5.46665 l -13.76565,-6.50806 c 0,0 1.07866,5.73329 0.41092,7.54108 -0.66774,1.8078 -5.05704,6.35827 -6.00447,7.63919 z"
       inkscape:connector-curvature="0"
       sodipodi:nodetypes="zsssssssssssssssssssssssscsssscsssssccsz" />
    <g
       transform="matrix(0.42584543,0,0,0.42822377,236.17297,693.90342)"
       id="g4285-1"
       style="fill:#ffffff;stroke-width:3.51260996;stroke-miterlimit:3.7651515;stroke-dasharray:none">
      <path
         sodipodi:nodetypes="ssssssssscsssss"
         inkscape:connector-curvature="0"
         inkscape:original-d="m 382.17199,340.3105 c 4.92878,18.17834 10.78105,5.90591 10.29858,9.04196 -1.92987,12.54421 23.67945,8.40097 22.23204,14.67307 -0.72371,3.13605 6.45358,5.03413 -8.73564,6.87696 -3.7973,0.4607 -11.6087,0.26761 -19.9583,-0.073 -8.3496,-0.34065 -17.23738,-0.82885 -23.18745,-0.95838 -5.95007,-0.12953 -8.74919,-0.49742 -10.70822,-1.19446 -1.95903,-0.69705 -3.07798,-1.72325 -5.6677,-3.1694 -10.19554,-5.69337 -8.22767,5.71291 0.39101,-7.39376 4.59514,-6.98795 30.16396,54.08456 7.17629,-19.79962 -0.23231,3.57202 0.90675,9.15973 6.02412,7.96568 5.11736,-1.19405 4.23503,-2.73646 5.5135,-5.75829 0.5991,-1.41605 8.46616,-4.27015 11.41834,-6.89972 2.95218,-2.62957 3.66131,1.00131 4.10433,2.63526 z"
         inkscape:path-effect="#path-effect4144-35-8"
         id="path4142-62-7"
         d="m 382.17199,340.3105 c 1.88259,4.30563 5.86575,7.48228 10.29858,9.04196 4.7019,1.65436 9.87612,1.64624 14.53496,3.41826 2.32942,0.886 4.53416,2.24872 6.05281,4.22479 0.75933,0.98804 1.33756,2.12155 1.63899,3.33065 0.30144,1.20911 0.32144,2.49403 0.005,3.69937 -0.4944,1.88487 -1.7917,3.496 -3.3811,4.62337 -1.58939,1.12738 -3.45811,1.80558 -5.35454,2.25359 -6.50529,1.53679 -13.29649,0.47546 -19.9583,-0.073 -7.71047,-0.6348 -15.46065,-0.56999 -23.18745,-0.95838 -3.59073,-0.18049 -7.18866,-0.46057 -10.70822,-1.19446 -1.09247,-0.2278 -2.18546,-0.50247 -3.18804,-0.9926 -1.00258,-0.49013 -1.91768,-1.21266 -2.47966,-2.1768 -0.64273,-1.10269 -0.77841,-2.44287 -0.62181,-3.70955 0.15661,-1.26669 0.58544,-2.48156 1.01282,-3.68421 2.35065,-6.6148 4.74281,-13.21485 7.17629,-19.79962 -0.67709,0.8931 -1.05311,2.0104 -1.05378,3.13115 -6.7e-4,1.12075 0.37403,2.2385 1.05005,3.13241 0.67603,0.89391 1.64949,1.55883 2.72807,1.86339 1.07857,0.30456 2.25604,0.24702 3.29978,-0.16127 1.25522,-0.49102 2.27217,-1.45223 3.11761,-2.50195 0.84543,-1.04973 1.55138,-2.20587 2.39589,-3.25634 2.83139,-3.52188 7.07257,-5.66089 11.41834,-6.89972 0.4757,-0.13561 0.95954,-0.26109 1.45395,-0.27624 0.49442,-0.0152 0.99892,0.0882 1.42227,0.34402 0.42336,0.25582 0.74942,0.65989 0.93625,1.11789 0.18683,0.45801 0.23395,0.95834 0.29186,1.44959 0.16451,1.39544 0.53619,2.76628 1.0991,4.0537 z"
         style="fill:#ffffff;fill-rule:evenodd;stroke:#000000;stroke-width:3.51260996;stroke-linecap:butt;stroke-linejoin:miter;stroke-miterlimit:3.7651515;stroke-dasharray:none;stroke-opacity:1" />
      <path
         inkscape:connector-curvature="0"
         inkscape:original-d="m 355.09756,365.19627 c 2.89482,-0.48247 8.56384,0.12061 10.61433,0.60308 2.0505,0.48247 3.98037,0.24124 3.98037,0.24124 0,0 0.60309,0.48247 0.96494,-0.60309"
         inkscape:path-effect="#path-effect4283-4"
         id="path4281-7"
         d="m 355.09756,365.19627 c 3.53865,0.19131 7.07678,0.39234 10.61433,0.60308 1.32687,0.079 2.65366,0.15946 3.98037,0.24124 l 0.96494,-0.60309"
         style="fill:#ffffff;fill-rule:evenodd;stroke:#000000;stroke-width:3.51260996;stroke-linecap:butt;stroke-linejoin:miter;stroke-miterlimit:3.7651515;stroke-dasharray:none;stroke-opacity:1" />
    </g>
    <path
       style="fill:#ffffff;fill-rule:evenodd;stroke:#000000;stroke-width:1.50000024;stroke-linecap:butt;stroke-linejoin:miter;stroke-miterlimit:3.7651515;stroke-dasharray:none;stroke-opacity:1"
       d="m 384.43156,846.15074 c 1.67282,-0.17881 3.39007,0.0751 4.93954,0.73046 1.61052,0.68114 3.04006,1.78467 4.7216,2.26442 1.15184,0.32863 2.36501,0.34749 3.55937,0.43828 2.34776,0.17847 4.66292,0.64194 6.9869,1.02004 1.59191,0.259 3.20953,0.4787 4.81366,0.3113 1.10975,-0.11581 2.19985,-0.41774 3.21104,-0.8894"
       id="path4277-1"
       inkscape:path-effect="#path-effect4279-3"
       inkscape:original-d="m 384.43156,846.15074 c 2.97825,1.31483 3.84994,0.29218 4.93954,0.73046 1.0896,0.43827 3.05088,2.33747 4.7216,2.26442 1.67073,-0.0731 3.19617,0.21914 3.55937,0.43828 0.18161,0.10957 3.91785,0.52699 6.9869,1.02004 1.53453,0.24653 3.36819,0.43984 4.81366,0.3113 1.44548,-0.12855 2.5028,-0.57896 3.21104,-0.8894"
       inkscape:connector-curvature="0"
       sodipodi:nodetypes="csssssc" />
    <path
       style="fill:#ffffff;fill-rule:evenodd;stroke:#000000;stroke-width:1.50000024;stroke-linecap:butt;stroke-linejoin:miter;stroke-miterlimit:3.7651515;stroke-dasharray:none;stroke-opacity:1"
       d="m 392.93699,838.61596 c 1.32521,1.91689 3.17324,3.46852 5.29054,4.44201 1.57677,0.72496 3.29917,1.13146 5.0337,1.18797"
       id="path4289-15"
       inkscape:path-effect="#path-effect4291-1"
       inkscape:original-d="m 392.93699,838.61596 c 0,0 3.69824,4.02879 5.29054,4.44201 1.59229,0.4132 2.92776,3.87384 5.0337,1.18797"
       inkscape:connector-curvature="0" />
    <path
       style="fill:#ffffff;fill-rule:evenodd;stroke:#000000;stroke-width:1.50000024;stroke-linecap:butt;stroke-linejoin:miter;stroke-miterlimit:3.7651515;stroke-dasharray:none;stroke-opacity:1"
       d="m 393.45063,839.2616 c 0.28564,-0.29633 0.61578,-0.54969 0.97592,-0.74894 0.65364,-0.36163 1.40662,-0.54151 2.15314,-0.51438 0.74651,0.0271 1.48445,0.26121 2.11011,0.66933"
       id="path4293-9"
       inkscape:path-effect="#path-effect4295-4"
       inkscape:original-d="m 393.45063,839.2616 c 0,0 0.51365,-0.59399 0.97592,-0.74894 0.46229,-0.15496 3.95507,-1.03303 4.26325,0.15495"
       inkscape:connector-curvature="0"
       sodipodi:nodetypes="ccc" />
    <path
       sodipodi:nodetypes="ccc"
       inkscape:connector-curvature="0"
       inkscape:original-d="m 394.04133,839.80814 c 0,0 0.12841,-0.28408 0.59069,-0.43903 0.46228,-0.15496 3.95506,-1.03303 4.26324,0.15495"
       inkscape:path-effect="#path-effect4299-9"
       id="path4297-7"
       d="m 394.04133,839.80814 c 0.18243,-0.16457 0.38051,-0.31179 0.59069,-0.43903 0.64381,-0.38976 1.40267,-0.58678 2.15477,-0.55945 0.7521,0.0273 1.49465,0.27893 2.10847,0.7144"
       style="fill:#ffffff;fill-rule:evenodd;stroke:#000000;stroke-width:1.50000024;stroke-linecap:butt;stroke-linejoin:miter;stroke-miterlimit:3.7651515;stroke-dasharray:none;stroke-opacity:1" />
    <path
       style="fill:#ffffff;fill-rule:evenodd;stroke:#000000;stroke-width:1.50000024;stroke-linecap:butt;stroke-linejoin:miter;stroke-miterlimit:3.7651515;stroke-dasharray:none;stroke-opacity:1"
       d="m 394.89302,840.66459 c 0.18084,-0.16644 0.37918,-0.31386 0.59069,-0.43904 0.59913,-0.3546 1.30524,-0.52565 2.00023,-0.48454 0.69498,0.0411 1.37601,0.29422 1.92915,0.71698"
       id="path4301-7"
       inkscape:path-effect="#path-effect4303-2"
       inkscape:original-d="m 394.89302,840.66459 c 0,0 0.12841,-0.28408 0.59069,-0.43904 0.46228,-0.15495 3.62119,-0.95554 3.92938,0.23244"
       inkscape:connector-curvature="0"
       sodipodi:nodetypes="ccc" />
    <path
       sodipodi:nodetypes="ccc"
       inkscape:connector-curvature="0"
       inkscape:original-d="m 395.53508,841.3877 c 0,0 0.41091,-0.3099 0.87319,-0.46486 0.46228,-0.15495 3.28732,-0.85224 3.59551,0.33574"
       inkscape:path-effect="#path-effect4307-0"
       id="path4305-6"
       d="m 395.53508,841.3877 c 0.27071,-0.18969 0.56467,-0.34618 0.87319,-0.46486 1.16415,-0.4478 2.5344,-0.31985 3.59551,0.33574"
       style="fill:#ffffff;fill-rule:evenodd;stroke:#000000;stroke-width:1.50000024;stroke-linecap:butt;stroke-linejoin:miter;stroke-miterlimit:3.7651515;stroke-dasharray:none;stroke-opacity:1" />
    <path
       style="fill:#ffffff;fill-rule:evenodd;stroke:#000000;stroke-width:1.50000024;stroke-linecap:butt;stroke-linejoin:miter;stroke-miterlimit:3.7651515;stroke-dasharray:none;stroke-opacity:1"
       d="m 396.40827,842.03335 c 0.40581,-0.28977 0.87273,-0.49352 1.36115,-0.59399 0.99192,-0.20403 2.06685,0.0373 2.87641,0.64564"
       id="path4309-7"
       inkscape:path-effect="#path-effect4311-6"
       inkscape:original-d="m 396.40827,842.03335 c 0,0 0.89888,-0.43904 1.36115,-0.59399 0.46228,-0.15496 2.56823,-0.54234 2.87641,0.64564"
       inkscape:connector-curvature="0"
       sodipodi:nodetypes="ccc" />
    <path
       sodipodi:nodetypes="ccc"
       inkscape:connector-curvature="0"
       inkscape:original-d="m 397.40987,842.62734 c 0,0 0.34656,-0.2199 0.80883,-0.37486 0.46228,-0.15495 2.85105,-0.85981 3.15923,0.32817"
       inkscape:path-effect="#path-effect4325-89"
       id="path4323-3"
       d="m 397.40987,842.62734 c 0.25401,-0.15548 0.52601,-0.28154 0.80883,-0.37486 1.03593,-0.34182 2.21568,-0.21928 3.15923,0.32817"
       style="fill:#ffffff;fill-rule:evenodd;stroke:#000000;stroke-width:1.50000024;stroke-linecap:butt;stroke-linejoin:miter;stroke-miterlimit:3.7651515;stroke-dasharray:none;stroke-opacity:1" />
    <path
       style="fill:#ffffff;fill-rule:evenodd;stroke:#000000;stroke-width:1.50000024;stroke-linecap:butt;stroke-linejoin:miter;stroke-miterlimit:3.7651515;stroke-dasharray:none;stroke-opacity:1"
       d="m 398.39052,843.19344 c 0.42961,-0.20211 0.88609,-0.347 1.35362,-0.42963 0.61691,-0.10903 1.25292,-0.10918 1.86988,-4.3e-4"
       id="path4327-6"
       inkscape:path-effect="#path-effect4329-2"
       inkscape:original-d="m 398.39052,843.19344 c 0,0 0.89135,-0.27467 1.35362,-0.42963 0.46229,-0.15495 1.56169,-1.18852 1.86988,-4.3e-4"
       inkscape:connector-curvature="0"
       sodipodi:nodetypes="ccc" />
    <path
       sodipodi:nodetypes="ccc"
       inkscape:connector-curvature="0"
       inkscape:original-d="m 399.87964,843.70476 c 0,0 0.16496,-0.21988 0.62723,-0.37485 0.46228,-0.15495 1.92488,-1.24329 2.23307,-0.0552"
       inkscape:path-effect="#path-effect4333-6"
       id="path4331-56"
       d="m 399.87964,843.70476 c 0.19244,-0.15034 0.40368,-0.27658 0.62723,-0.37485 0.69917,-0.30734 1.51956,-0.32762 2.23307,-0.0552"
       style="fill:#ffffff;fill-rule:evenodd;stroke:#000000;stroke-width:1.50000024;stroke-linecap:butt;stroke-linejoin:miter;stroke-miterlimit:3.7651515;stroke-dasharray:none;stroke-opacity:1" />
    <path
       style="fill:#ffffff;fill-rule:evenodd;stroke:#000000;stroke-width:1.50000024;stroke-linecap:butt;stroke-linejoin:miter;stroke-miterlimit:3.7651515;stroke-dasharray:none;stroke-opacity:1"
       d="m 401.25981,843.97869 c 0.24214,-0.0708 0.48798,-0.12887 0.73618,-0.17397 0.73553,-0.13365 1.49183,-0.15234 2.23307,-0.0552"
       id="path4335-3"
       inkscape:path-effect="#path-effect4337-6"
       inkscape:original-d="m 401.25981,843.97869 c 0,0 0.27391,-0.019 0.73618,-0.17397 0.46228,-0.15496 1.92488,-1.24331 2.23307,-0.0552"
       inkscape:connector-curvature="0"
       sodipodi:nodetypes="ccc" />
    <path
       sodipodi:nodetypes="ccc"
       inkscape:connector-curvature="0"
       inkscape:original-d="m 402.78525,844.21609 c 0,0 0.52815,0.1636 0.99042,0.009 0.46229,-0.15496 1.68881,-1.35288 1.99699,-0.16478"
       inkscape:path-effect="#path-effect4357-4"
       id="path4355-9"
       d="m 402.78525,844.21609 c 0.32995,0.013 0.66029,0.016 0.99042,0.009 0.66819,-0.0141 1.33552,-0.0692 1.99699,-0.16478"
       style="fill:#ffffff;fill-rule:evenodd;stroke:#000000;stroke-width:1.50000024;stroke-linecap:butt;stroke-linejoin:miter;stroke-miterlimit:3.7651515;stroke-dasharray:none;stroke-opacity:1" />
    <path
       style="fill:#ffffff;fill-rule:evenodd;stroke:#000000;stroke-width:1.50000024;stroke-linecap:butt;stroke-linejoin:miter;stroke-miterlimit:3.7651515;stroke-dasharray:none;stroke-opacity:1"
       d="m 417.1913,724.00922 c 0.15187,-0.61671 0.36756,-1.2162 0.52184,-1.83231 0.15427,-0.61611 0.24662,-1.25948 0.14589,-1.88657 -0.15206,-0.94663 -0.72499,-1.76746 -1.04013,-2.67295 -0.27213,-0.78192 -0.34834,-1.61604 -0.43102,-2.43982 -0.0827,-0.82378 -0.17661,-1.65826 -0.48069,-2.42831 -0.50522,-1.2794 -1.58663,-2.29983 -2.86199,-2.81515 -1.27537,-0.51532 -2.72643,-0.54017 -4.04769,-0.15757 -1.32126,0.3826 -2.51321,1.1587 -3.46871,2.14821 -0.95551,0.9895 -1.6807,2.18738 -2.20588,3.45872 -0.62558,1.51438 -0.97323,3.13156 -1.5923,4.64861 -0.36587,0.89658 -0.827,1.75979 -1.07348,2.69625 -0.14046,0.53367 -0.20899,1.09507 -0.11418,1.63871 0.0948,0.54364 0.36564,1.06951 0.80744,1.40017 0.22091,0.16533 0.48159,0.2793 0.75472,0.31851 0.27312,0.0392 0.55823,0.002 0.80802,-0.1149 0.24979,-0.11721 0.46245,-0.31572 0.58725,-0.56181 0.1248,-0.24608 0.15893,-0.53884 0.0841,-0.80441 -0.0426,-0.15101 -0.11891,-0.29309 -0.13964,-0.44861 -0.0104,-0.0778 -0.006,-0.15877 0.023,-0.23162 0.0291,-0.0728 0.0848,-0.13682 0.15752,-0.16622 0.0407,-0.0164 0.0856,-0.0218 0.12928,-0.0168 0.0436,0.005 0.0859,0.02 0.12366,0.0424 0.0755,0.0448 0.13149,0.11807 0.16651,0.19861 0.07,0.16106 0.0595,0.34365 0.0677,0.51909 0.0212,0.45266 0.17641,0.89349 0.41122,1.28107 0.2348,0.38758 0.54732,0.72404 0.89219,1.01802 0.88118,0.75115 1.95909,1.22307 2.99348,1.7434 1.06679,0.53664 2.11671,1.14011 3.27431,1.43337 0.5788,0.14663 1.1821,0.21302 1.77554,0.14713 0.59344,-0.0659 1.17725,-0.26794 1.65768,-0.62247 0.40372,-0.29792 0.72674,-0.69691 0.97093,-1.13522 0.24418,-0.43831 0.41181,-0.91592 0.53614,-1.40201 0.24867,-0.97218 0.32731,-1.98116 0.56726,-2.95553 z"
       id="path4146-4"
       inkscape:path-effect="#path-effect4148-9"
       inkscape:original-d="m 417.1913,724.00922 c 2.40452,-0.99155 1.28411,-3.40897 0.66773,-3.71888 -0.30818,-0.15496 -0.47511,-0.4003 -1.04013,-2.67295 -0.565,-2.27266 0.78331,-4.45492 -0.91171,-4.86813 -3.39005,-0.82642 -11.55698,-3.15072 -12.58427,2.63421 -1.02729,5.78494 -0.56501,4.95852 -1.5923,4.64861 -1.02728,-0.30991 -1.39933,-16.46707 -1.07348,2.69625 0.036,2.11928 3.03005,2.59939 2.92732,1.87627 -0.0514,-0.36155 -1.09831,-1.9377 0.0409,-0.84645 0.5696,0.54563 0.18495,0.45699 0.48719,0.74331 0.30225,0.28632 0.89185,1.86066 1.30341,2.29909 0.53234,0.56708 1.07508,1.19939 2.99348,1.7434 1.91841,0.54401 5.75729,1.47454 6.70753,0.95803 1.90048,-1.13633 -3.93789,-3.0135 2.07434,-5.49276 z"
       inkscape:connector-curvature="0"
       sodipodi:nodetypes="sssssssssssscs" />
    <path
       style="fill:#ffffff;fill-rule:evenodd;stroke:#000000;stroke-width:1.00000012;stroke-linecap:butt;stroke-linejoin:miter;stroke-miterlimit:3.7651515;stroke-dasharray:none;stroke-opacity:1"
       d="m 412.41441,717.21709 c -0.14657,0.68739 0.0275,1.43632 0.46228,1.98857 0.22772,0.28927 0.51796,0.52174 0.8009,0.75727 0.28294,0.23553 0.56484,0.48081 0.76873,0.78734 0.10194,0.15326 0.18339,0.32121 0.2298,0.49933 0.0464,0.17813 0.0571,0.36672 0.0202,0.54705 -0.0369,0.18033 -0.12267,0.35194 -0.25262,0.48231 -0.12995,0.13036 -0.30484,0.2176 -0.48832,0.23238 -0.19029,0.0153 -0.37889,-0.0456 -0.55222,-0.12564 -0.17332,-0.08 -0.33752,-0.1798 -0.51508,-0.2499 -0.17757,-0.0701 -0.37485,-0.10952 -0.55983,-0.0623 -0.0925,0.0236 -0.18014,0.0691 -0.24826,0.13597 -0.0681,0.0669 -0.11584,0.1556 -0.12782,0.2503 -0.008,0.0652 4.8e-4,0.13251 0.0251,0.19347 0.0246,0.061 0.0651,0.11545 0.11628,0.15665 0.0512,0.0412 0.11311,0.069 0.17793,0.08 0.0648,0.011 0.13241,0.005 0.19435,-0.0169"
       id="path4173-8"
       inkscape:path-effect="#path-effect4175-5"
       inkscape:original-d="m 412.41441,717.21709 c -0.41091,0.61982 -0.51364,0.0775 0.46228,1.98857 0.97592,1.9111 2.1573,2.84082 1.07865,3.30568 -1.07865,0.46486 -1.54093,-0.30991 -2.00321,-0.0516 -0.46228,0.25825 -0.10273,0.77476 0.51365,0.4132"
       inkscape:connector-curvature="0"
       sodipodi:nodetypes="csssc" />
    <path
       sodipodi:nodetypes="cscssc"
       style="fill:#000000;fill-rule:evenodd;stroke:#000000;stroke-width:1.00000012;stroke-linecap:butt;stroke-linejoin:miter;stroke-miterlimit:3.7651515;stroke-dasharray:none;stroke-opacity:1"
       d="m 409.84619,716.67475 c -0.57803,-0.30408 -1.25579,-0.4146 -1.90048,-0.3099 -0.77077,0.12518 -1.48657,0.56085 -1.95184,1.18797 0.25069,-0.32331 0.61248,-0.5588 1.00959,-0.65715 0.39712,-0.0984 0.82699,-0.0589 1.1996,0.10998 0.25609,0.1161 0.48412,0.29032 0.7469,0.39034 0.13139,0.05 0.27192,0.0809 0.41227,0.0727 0.14034,-0.008 0.28071,-0.0577 0.38443,-0.15256 0.0862,-0.0789 0.14452,-0.1877 0.16243,-0.30319 0.0179,-0.11548 -0.005,-0.23685 -0.0629,-0.33815 l 3e-5,0 z"
       id="path4177-1"
       inkscape:path-effect="#path-effect4179-0"
       inkscape:original-d="m 409.84619,716.67475 c -0.66773,-0.3099 -1.23274,-0.46486 -1.90048,-0.3099 -0.66773,0.15495 -1.90048,0.77476 -1.95184,1.18797 0.20609,-0.23806 1.39199,-0.38282 2.20919,-0.54717 0.8172,-0.16435 0.9988,0.12783 1.5436,0.31044 0.54481,0.18262 0.19977,-0.38349 0.0995,-0.64134 z"
       inkscape:connector-curvature="0" />
    <path
       style="fill:#ffffff;fill-rule:evenodd;stroke:#000000;stroke-width:1.00000012;stroke-linecap:butt;stroke-linejoin:miter;stroke-miterlimit:3.7651515;stroke-dasharray:none;stroke-opacity:1"
       d="m 415.49628,723.90593 c -0.10981,0.12295 -0.17994,0.27719 -0.22381,0.4361 -0.0439,0.15891 -0.0628,0.32348 -0.0807,0.48735 -0.036,0.32952 -0.069,0.66195 -0.16634,0.97881 -0.0974,0.31686 -0.26532,0.62141 -0.52689,0.82503 -0.20071,0.15625 -0.44895,0.24624 -0.70178,0.2741 -0.25282,0.0279 -0.51014,-0.005 -0.75433,-0.0759 -0.48837,-0.1424 -0.91778,-0.43316 -1.3388,-0.71869 -0.54108,-0.36695 -1.08317,-0.7324 -1.62627,-1.09635 l -0.43659,-0.18078 c 1.50232,-0.15074 2.99551,-0.39236 4.4687,-0.72312 0.62018,-0.13924 1.23681,-0.29426 1.84911,-0.46486 -0.17698,0.0317 -0.3425,0.12416 -0.46227,0.25826 z"
       id="path4185-2"
       inkscape:path-effect="#path-effect4187-4"
       inkscape:original-d="m 415.49628,723.90593 c -0.41092,0.25825 -0.20182,-0.006 -0.30454,0.92345 -0.0514,0.46486 -0.23737,1.65535 -0.69323,1.80384 -0.45586,0.1485 -2.10149,-0.49461 -2.79491,-0.52044 -1.38684,-0.0516 -1.47217,-0.8381 -1.62627,-1.09635 l -0.43659,-0.18078 c 1.64365,-0.20661 3.33868,-1.03303 4.4687,-0.72312 1.13001,0.30991 1.84911,-0.46486 1.84911,-0.46486 z"
       inkscape:connector-curvature="0"
       sodipodi:nodetypes="csssccscc" />
    <path
       sodipodi:nodetypes="csccsc"
       inkscape:connector-curvature="0"
       inkscape:original-d="m 416.48404,716.10171 c 0.0182,0.21913 -0.69008,-0.0365 -1.41648,-0.42002 -0.7264,-0.38349 -1.40402,0.24367 -1.83987,0.44454 -0.43583,0.20088 0.16344,-0.5661 -0.0181,-0.25565 0.19975,-0.19175 1.42218,-0.52672 2.11226,-0.50846 0.69008,0.0182 1.02605,0.60262 1.16224,0.73959 z"
       inkscape:path-effect="#path-effect4456-8"
       id="path4454-9"
       d="m 416.48404,716.10171 c -0.14489,-0.22588 -0.37284,-0.39715 -0.63013,-0.47344 -0.25728,-0.0763 -0.54175,-0.057 -0.78635,0.0534 -0.332,0.14983 -0.57343,0.45016 -0.89253,0.6258 -0.15955,0.0878 -0.34282,0.14348 -0.52357,0.12118 -0.0904,-0.0112 -0.17883,-0.042 -0.25388,-0.0936 -0.0751,-0.0516 -0.13625,-0.12424 -0.16989,-0.20886 -0.0321,-0.0806 -0.0385,-0.17128 -0.0181,-0.25565 0.56121,-0.50474 1.38283,-0.70252 2.11226,-0.50846 0.4508,0.11993 0.86266,0.38202 1.16224,0.73959 l -5e-5,0 z"
       style="fill:#000000;fill-rule:evenodd;stroke:#000000;stroke-width:1.00000012;stroke-linecap:butt;stroke-linejoin:miter;stroke-miterlimit:3.7651515;stroke-dasharray:none;stroke-opacity:1" />
    <path
       style="fill:#ffffff;fill-rule:evenodd;stroke:#000000;stroke-width:1.50000024;stroke-linecap:butt;stroke-linejoin:miter;stroke-miterlimit:3.7651515;stroke-dasharray:none;stroke-opacity:1"
       d="m 372.0341,770.74535 c 3.18546,-0.96457 6.72634,-0.70041 9.73341,0.72616 3.04139,1.44285 5.50625,4.06161 6.76248,7.18471 l -0.56501,1.08468 c -1.84108,-0.62179 -3.83578,-0.78297 -5.75281,-0.46486 -3.58978,0.59568 -6.76901,2.84987 -8.98876,5.73328 -2.60145,3.37924 -3.99698,7.66775 -3.88242,11.93081 -3.15999,-0.9512 -5.87776,-3.28253 -7.29877,-6.26096 -1.42101,-2.97843 -1.52319,-6.55766 -0.27439,-9.6123 0.89967,-2.20066 2.44126,-4.0846 4.15242,-5.73513 1.83833,-1.7732 3.89711,-3.31762 6.11385,-4.58639 z"
       id="path4229-3"
       inkscape:path-effect="#path-effect4231-7"
       inkscape:original-d="m 372.0341,770.74535 c 1.95184,0.61982 7.67884,-0.72007 9.73341,0.72616 2.05458,1.44624 6.76248,7.18471 6.76248,7.18471 l -0.56501,1.08468 c 0,0 -1.54093,-1.60118 -5.75281,-0.46486 -4.21188,1.13633 -7.44784,1.80779 -8.98876,5.73328 -1.54094,3.9255 -5.21789,10.38128 -3.88242,11.93081 0.98227,1.3081 -12.44006,-3.01719 -7.57316,-15.87326 2.43345,-6.42803 1.88249,-1.67282 4.15242,-5.73513 2.26992,-4.06232 4.81833,-3.86696 6.11385,-4.58639 z"
       inkscape:connector-curvature="0"
       sodipodi:nodetypes="csccsscssc" />
    <path
       style="fill:none;fill-rule:evenodd;stroke:#000000;stroke-width:1.00000012;stroke-linecap:butt;stroke-linejoin:miter;stroke-miterlimit:3.7651515;stroke-dasharray:none;stroke-opacity:1"
       d="m 416.06636,717.15174 c -0.549,-0.26169 -1.18359,-0.33983 -1.77968,-0.21914 -0.26643,0.0539 -0.53298,0.15133 -0.73002,0.33861 -0.0985,0.0936 -0.1777,0.209 -0.2213,0.33773 -0.0436,0.12874 -0.0505,0.27099 -0.0112,0.40109 0.0287,0.095 0.0817,0.18235 0.15134,0.25302 0.0697,0.0707 0.15593,0.12462 0.24938,0.15803 0.18691,0.0668 0.39994,0.0487 0.57885,-0.0373 0.12831,-0.0616 0.24021,-0.15706 0.32136,-0.27401 0.0812,-0.11695 0.13137,-0.25517 0.14422,-0.39694 0.0128,-0.14177 -0.0117,-0.28676 -0.0705,-0.41639 -0.0588,-0.12963 -0.15173,-0.24361 -0.26686,-0.32732"
       id="path4446-9"
       inkscape:path-effect="#path-effect4448-1"
       inkscape:original-d="m 416.06636,717.15174 c -0.3632,-0.80351 -1.48912,-0.25566 -1.77968,-0.21914 -0.29057,0.0365 -1.39217,0.73108 -0.96249,1.07743 0.21044,0.16963 0.6826,0.53485 0.97957,0.37375 0.29697,-0.16111 0.40059,-0.72072 0.1282,-1.41466"
       inkscape:connector-curvature="0"
       sodipodi:nodetypes="csssc" />
    <path
       style="fill:none;fill-rule:evenodd;stroke:#000000;stroke-width:1.00000012;stroke-linecap:butt;stroke-linejoin:miter;stroke-miterlimit:3.7651515;stroke-dasharray:none;stroke-opacity:1"
       d="m 409.98274,718.28395 c -0.59542,-0.12637 -1.20971,-0.16343 -1.816,-0.10957 -0.26292,0.0234 -0.53248,0.0666 -0.75744,0.20464 -0.11248,0.069 -0.21181,0.16167 -0.27964,0.27488 -0.0678,0.1132 -0.10294,0.24755 -0.0888,0.37877 0.012,0.11163 0.0593,0.21853 0.13011,0.30564 0.0708,0.0871 0.16462,0.15462 0.26788,0.1987 0.20652,0.0881 0.44489,0.0811 0.65983,0.0161 0.1347,-0.0407 0.26335,-0.10372 0.37351,-0.19129 0.11015,-0.0876 0.20143,-0.20012 0.25755,-0.32917 0.0617,-0.14185 0.0796,-0.3024 0.0506,-0.45435 -0.0289,-0.15196 -0.10458,-0.29468 -0.21408,-0.40394"
       id="path4450-0"
       inkscape:path-effect="#path-effect4452-7"
       inkscape:original-d="m 409.98274,718.28395 c -1.12592,-0.29218 -0.69008,-0.54784 -1.816,-0.10957 -1.12592,0.43828 -1.96128,0.0913 -1.12592,0.85829 0.41768,0.38349 0.50848,0.50219 1.05782,0.52046 0.54934,0.0182 0.63106,-0.13697 0.63106,-0.52046 0,-0.76698 0.38137,-0.85829 -0.16344,-0.85829"
       inkscape:connector-curvature="0"
       sodipodi:nodetypes="cssssc" />
    <path
       style="fill:#ffffff;fill-rule:evenodd;stroke:#000000;stroke-width:1.00000012;stroke-linecap:butt;stroke-linejoin:miter;stroke-miterlimit:3.7651515;stroke-dasharray:none;stroke-opacity:1"
       d="m 410.21883,724.93113 c 0.4972,0.427 1.11789,0.70849 1.76669,0.80121 0.6488,0.0927 1.32349,-0.004 1.9204,-0.27426 0.65961,-0.29906 1.2208,-0.81076 1.57932,-1.44003"
       id="path4458-8"
       inkscape:path-effect="#path-effect4460-2"
       inkscape:original-d="m 410.21883,724.93113 c 0.29056,0.10956 6.693,7.59655 3.68709,0.52695 -0.26635,-0.62644 1.32508,-1.29394 1.57932,-1.44003"
       inkscape:connector-curvature="0"
       sodipodi:nodetypes="csc" />
    <path
       style="fill:#ffffff;fill-rule:evenodd;stroke:#000000;stroke-width:1.50000024;stroke-linecap:butt;stroke-linejoin:miter;stroke-miterlimit:3.7651515;stroke-dasharray:none;stroke-opacity:1"
       d="m 407.84298,762.17949 c 0.44734,0.38321 1.02123,0.61612 1.60911,0.65307 0.58788,0.037 1.18641,-0.12229 1.67821,-0.44647 0.54531,-0.35945 0.95443,-0.92045 1.13002,-1.54953"
       id="path4462-8"
       inkscape:path-effect="#path-effect4464-72"
       inkscape:original-d="m 407.84298,762.17949 c 1.23275,0.41321 2.97914,0.92972 3.28732,0.2066 0.30819,-0.72312 1.13002,-1.54953 1.13002,-1.54953"
       inkscape:connector-curvature="0"
       sodipodi:nodetypes="csc" />
    <path
       sodipodi:nodetypes="csccsccsc"
       inkscape:connector-curvature="0"
       inkscape:original-d="m 404.55538,763.53033 c 0,0 -7.36159,-5.52857 -9.00525,-7.07811 -1.64365,-1.54954 -6.41438,-1.8111 -8.9826,-3.05072 -0.40321,-2.80457 7.82791,-19.77627 8.27628,-17.33066 -0.30813,2.49144 -0.52757,7.7767 0.33279,9.75236 0.86035,1.97566 4.30594,3.34442 11.1374,2.56965 0.57555,0.0607 7.22409,-1.2006 7.22409,-1.2006 0,0 -4.83169,15.6545 -4.16542,15.32889 33.9387,-16.58609 -4.82698,0.52721 -4.81729,1.00919 z"
       inkscape:path-effect="#path-effect4223-2-3-1"
       id="path4221-7-0-0"
       d="m 404.55538,763.53033 c -2.52975,-2.8889 -5.60047,-5.30248 -9.00525,-7.07811 -2.81481,-1.46795 -5.856,-2.50082 -8.9826,-3.05072 l 8.27628,-17.33066 c -0.91741,1.46225 -1.38599,3.20193 -1.32712,4.92714 0.0589,1.72522 0.64495,3.42891 1.65991,4.82522 1.22168,1.6807 3.06377,2.89948 5.08839,3.36661 2.02461,0.46712 4.21447,0.17861 6.04901,-0.79696 l 7.22409,-1.2006 c 1.68793,2.4871 2.22798,5.72103 1.43978,8.62163 -0.7882,2.90061 -2.89068,5.41647 -5.6052,6.70726 -1.49565,0.7112 -3.16195,1.06028 -4.81729,1.00919 z"
       style="fill:#ffffff;fill-rule:evenodd;stroke:#000000;stroke-width:1.50000024;stroke-linecap:butt;stroke-linejoin:miter;stroke-miterlimit:3.7651515;stroke-dasharray:none;stroke-opacity:1" />
    <path
       style="fill:#ffffff;fill-rule:evenodd;stroke:#000000;stroke-width:1.50000024;stroke-linecap:butt;stroke-linejoin:miter;stroke-miterlimit:3.7651515;stroke-dasharray:none;stroke-opacity:1"
       d="m 404.1456,747.27495 c 0.37937,-0.14005 0.71271,-0.4019 0.93862,-0.73731 0.22591,-0.33541 0.34327,-0.74273 0.33047,-1.14692 -0.009,-0.27483 -0.0756,-0.54607 -0.0741,-0.82104 7.6e-4,-0.13748 0.0191,-0.27618 0.0688,-0.40434 0.0498,-0.12817 0.13245,-0.24563 0.24555,-0.3238 0.0995,-0.0688 0.22033,-0.10522 0.34132,-0.10754 0.12098,-0.002 0.24187,0.0289 0.34887,0.0854 0.21399,0.11303 0.36645,0.32362 0.44171,0.55363 0.0753,0.23002 0.0789,0.47845 0.0475,0.71841 -0.0315,0.23997 -0.0969,0.47394 -0.1579,0.70814 -0.89881,3.45144 -0.85115,7.06841 -0.82397,10.63486 0.0224,2.94444 0.0269,5.88916 0.0862,8.83309 0.1187,5.89497 0.45699,11.78299 0.71351,17.67357 0.056,1.285 0.10804,2.57126 0.0773,3.85711 -0.006,0.25119 -0.0159,0.50669 -0.0978,0.74427 -0.0409,0.11878 -0.0999,0.23212 -0.1806,0.32841 -0.0807,0.0963 -0.18365,0.17516 -0.30095,0.22014 -0.10071,0.0386 -0.20924,0.0517 -0.3129,0.0815 -0.17486,0.0503 -0.33381,0.14823 -0.46914,0.26986 -0.13534,0.12162 -0.24802,0.26662 -0.34719,0.41918 -0.24579,0.37811 -0.4126,0.81094 -0.45719,1.25971 -0.0485,0.48791 0.05,0.98894 0.2762,1.42396 0.30102,0.57899 0.81507,1.02639 1.38547,1.34338 0.5704,0.31699 1.19883,0.51374 1.82726,0.68957 1.11209,0.31115 2.24056,0.5637 3.3442,0.9036 0.62205,0.19158 1.23864,0.4121 1.80943,0.72489 0.57079,0.3128 1.09685,0.72199 1.48511,1.24439 0.43553,0.58599 0.68082,1.28721 0.94777,1.96678 0.0585,0.14883 0.11909,0.29872 0.21166,0.42911 0.0926,0.13039 0.22126,0.24134 0.37581,0.2824 0.14458,0.0384 0.30289,0.0118 0.43353,-0.0611 0.13063,-0.0729 0.23416,-0.18965 0.30267,-0.32263 0.13703,-0.26596 0.13443,-0.58224 0.0901,-0.87812 -0.0822,-0.54789 -0.29488,-1.06831 -0.5463,-1.56199 -0.44366,-0.87115 -1.01026,-1.67317 -1.58773,-2.46201 -1.02618,-1.40179 -2.11023,-2.80373 -2.68284,-4.4439 -0.85716,-2.45521 -0.47517,-5.1463 -0.12799,-7.72355 0.8144,-6.04554 1.38151,-12.12296 1.77914,-18.21014 0.29807,-4.56302 0.50104,-9.13496 0.45239,-13.70745 -0.0171,-1.61027 -0.0647,-3.23183 0.20246,-4.81988 0.26022,-1.5469 0.81376,-3.02906 1.15002,-4.56124 0.33625,-1.53217 0.4424,-3.18323 -0.17154,-4.62674 -0.43692,-1.02729 -1.22371,-1.89057 -2.17024,-2.48243 -0.94654,-0.59185 -2.04694,-0.91877 -3.15933,-1.01261 -1.27803,-0.10781 -2.5807,0.0886 -3.77011,0.5685"
       id="path4142-6-9"
       inkscape:path-effect="#path-effect4144-3-06"
       inkscape:original-d="m 404.1456,747.27495 c -62.24426,-21.14854 -14.81626,-6.01418 1.26909,-1.88423 16.08534,4.12995 -0.2734,-1.34258 0.24024,-1.54918 1.02729,-0.41321 1.22695,-3.00044 1.0215,1.95807 -0.20546,4.95852 -2.67309,3.40368 -0.82397,10.63486 0.92456,3.61558 -0.0695,4.93875 0.0862,8.83309 0.0389,0.97359 0.60118,12.63335 0.71351,17.67357 0.11233,5.04021 -0.011,3.12287 0.0773,3.85711 0.17669,1.46848 -0.32248,1.44778 -0.57931,1.29282 -1.02729,-0.6198 -3.39476,-0.74488 -0.3129,0.0815 0.77047,0.2066 -0.55156,-0.21479 -0.81633,0.68904 -0.26476,0.90381 -0.41265,0.31232 -0.45719,1.25971 -0.0445,0.9474 -0.51716,0.91171 0.2762,1.42396 0.79335,0.51225 2.82775,2.37489 3.21273,2.03295 2.65852,-2.3613 2.10393,-0.34672 3.3442,0.9036 4.35229,4.38755 3.3114,2.19035 3.29454,1.96928 -0.0169,-0.22106 0.50492,1.17062 0.94777,1.96678 1.77139,3.18467 0.79292,1.74453 0.58747,0.71151 -0.0514,-0.25826 0.69855,-0.58895 0.82625,-1.26184 0.12769,-0.67289 -0.62107,-1.68799 -0.5463,-1.56199 0.14956,0.25202 -34.12246,15.64961 -1.58773,-2.46201 2.75347,-1.53282 -2.25568,0.79322 -2.68284,-4.4439 -0.21358,-2.61856 -0.40615,-1.7246 -0.12799,-7.72355 0.27816,-5.99894 1.75345,-17.97771 1.77914,-18.21014 0.10272,-0.92972 1.7454,-9.44761 0.45239,-13.70745 -0.64651,-2.12991 0.15227,-1.44222 0.20246,-4.81988 0.0502,-3.37766 1.13257,-8.61981 0.97848,-9.18798 -0.077,-0.28408 -3.00777,-2.31524 -5.32957,-3.49504 -2.3218,-1.1798 -2.72198,0.87292 -3.77011,0.5685"
       inkscape:connector-curvature="0"
       sodipodi:nodetypes="csssssssssssssssssssssssssssc" />
    <path
       style="fill:#000000;fill-rule:evenodd;stroke:#000000;stroke-width:1.50000024;stroke-linecap:butt;stroke-linejoin:miter;stroke-miterlimit:3.7651515;stroke-dasharray:none;stroke-opacity:1"
       d="m 435.17158,731.19731 c -2.14023,-4.16648 -4.79872,-8.06642 -7.89471,-11.58139 -1.08137,-1.22771 -2.24689,-2.46 -2.76456,-4.01199 -0.25884,-0.77599 -0.34165,-1.62315 -0.14474,-2.41711 0.19691,-0.79397 0.69031,-1.52786 1.40048,-1.93384 0.7542,-0.43116 1.67178,-0.46447 2.53584,-0.3744 0.86407,0.0901 1.71909,0.29202 2.58783,0.29033 0.43437,-8.4e-4 0.87159,-0.0537 1.28278,-0.1937 0.41118,-0.14002 0.79623,-0.37012 1.0872,-0.69263 0.29098,-0.32252 0.48329,-0.74056 0.50208,-1.17453 0.0188,-0.43397 -0.14518,-0.87984 -0.46565,-1.17306 -0.26468,-0.24217 -0.61355,-0.36901 -0.95897,-0.4659 -1.86608,-0.52342 -3.91826,-0.31652 -5.66465,0.52395 -1.74638,0.84047 -3.1784,2.29945 -4.03196,4.03948 -0.85356,1.74002 -1.13176,3.74833 -0.83385,5.6634 0.29791,1.91507 1.16392,3.73121 2.42561,5.20239 1.26168,1.47119 2.91177,2.59785 4.72347,3.28631 1.8117,0.68847 3.78089,0.94218 5.71283,0.78773 3.86388,-0.30891 7.50259,-2.25338 10.20817,-5.02914 2.0563,-2.10964 3.62042,-4.71038 4.43524,-7.54146 0.81481,-2.83108 0.86918,-5.88911 0.0707,-8.72483 -0.79852,-2.83572 -2.45875,-5.43574 -4.75091,-7.2864 -2.29217,-1.85065 -5.21292,-2.93034 -8.15893,-2.92968 -2.27636,5.1e-4 -4.51635,0.62765 -6.60868,1.52428 -2.09234,0.89663 -4.05725,2.06043 -6.03209,3.19261 -0.67008,0.38416 -1.35395,0.7698 -2.10631,0.94455 -0.37618,0.0874 -0.7673,0.12024 -1.15024,0.0702 -0.38294,-0.05 -0.75768,-0.1849 -1.06991,-0.41218 -0.32308,-0.23518 -0.57297,-0.56548 -0.72887,-0.93343 -0.15591,-0.36795 -0.21935,-0.77243 -0.20259,-1.17169 0.0335,-0.79853 0.38249,-1.55811 0.85545,-2.20238 0.94592,-1.28854 2.36858,-2.16399 3.32199,-3.447 0.67441,-0.90755 1.08969,-1.99495 1.26373,-3.11218 0.17405,-1.11722 0.11207,-2.26406 -0.10976,-3.37278 -0.64148,-3.20611 -2.64368,-6.0825 -5.32375,-7.95543 -2.68008,-1.87293 -5.99797,-2.76098 -9.26638,-2.67076 -3.26841,0.0902 -6.48036,1.13225 -9.28597,2.81131 -2.8056,1.67906 -5.21329,3.98117 -7.18071,6.59267 -0.93201,1.23712 -1.77147,2.54982 -2.41986,3.95648 -0.63438,1.37626 -1.08416,2.84499 -1.24229,4.35215 -0.15813,1.50716 -0.0194,3.05407 0.48664,4.4825 0.82678,2.33362 2.69654,4.3146 5.04219,5.10661 1.17283,0.39601 2.44727,0.4965 3.66337,0.26532 1.2161,-0.23117 2.37025,-0.79617 3.28262,-1.63279 0.91236,-0.83661 1.57764,-1.94432 1.86426,-3.14856 0.28662,-1.20423 0.18972,-2.50034 -0.29476,-3.63948 -0.48447,-1.13913 -1.35745,-2.11291 -2.44843,-2.69779 -1.09099,-0.58488 -2.39391,-0.77236 -3.60053,-0.49593 -0.41913,0.096 -0.82719,0.24595 -1.25405,0.29775 -0.21343,0.0259 -0.43134,0.0267 -0.64196,-0.0164 -0.21062,-0.0431 -0.41409,-0.1316 -0.57782,-0.27094 -0.21422,-0.18231 -0.35244,-0.44823 -0.39108,-0.72686 -0.0386,-0.27863 0.0202,-0.56791 0.15339,-0.81566 0.13323,-0.24776 0.33887,-0.45408 0.57971,-0.59943 0.24084,-0.14535 0.51597,-0.23065 0.79571,-0.26022 0.41017,-0.0434 0.83086,0.033 1.20439,0.20792 0.37353,0.17492 0.69961,0.44698 0.94751,0.77663 0.49578,0.6593 0.6636,1.53536 0.52749,2.34897 -0.13611,0.8136 -0.55878,1.56383 -1.12437,2.16431 -0.5656,0.60048 -1.26939,1.05834 -2.01348,1.41445 -2.34965,1.12451 -5.0497,1.24461 -7.65158,1.11979 -2.60188,-0.12481 -5.21093,-0.47346 -7.80228,-0.2084 -2.44889,0.25049 -4.85675,1.06488 -6.87145,2.47937 -2.0147,1.41449 -3.62002,3.44231 -4.39462,5.77893 -0.77459,2.33662 -0.68515,4.97532 0.3786,7.19528 1.06374,2.21997 3.12266,3.9716 5.52027,4.5295 2.29743,0.53459 4.68873,-0.006 7.04489,-0.11819 1.17808,-0.0559 2.37587,-8.7e-4 3.50359,0.34442 1.12773,0.34528 2.1868,1.00174 2.85998,1.97015 0.74675,1.07424 0.95947,2.41623 1.34545,3.66629 0.19299,0.62503 0.43633,1.24149 0.8071,1.78042 0.37077,0.53892 0.87833,0.99902 1.49047,1.22966 0.45825,0.17266 0.96408,0.21138 1.44604,0.12467 0.48195,-0.0867 0.93939,-0.29722 1.3278,-0.59545 0.7768,-0.59647 1.25767,-1.53155 1.4011,-2.50038 0.14344,-0.96883 -0.0316,-1.96722 -0.39108,-2.87824 -0.35951,-0.91102 -0.89782,-1.74167 -1.49253,-2.51982 -1.68576,-2.20576 -3.93221,-4.07697 -6.60056,-4.8432 -2.94415,-0.84543 -6.23354,-0.24162 -8.78621,1.4515 -2.55267,1.69311 -4.3625,4.41583 -5.11089,7.38613 -0.74839,2.97031 -0.46375,6.16317 0.62835,9.02501 1.0921,2.86183 2.96866,5.39589 5.26785,7.41987 2.43342,2.14214 5.36735,3.73827 8.52434,4.47565 3.15698,0.73737 6.53434,0.5978 9.57233,-0.53397 3.03799,-1.13178 5.71447,-3.27232 7.36572,-6.06224 1.65124,-2.78993 2.23726,-6.22088 1.46959,-9.37064 -0.47537,-1.95047 -1.4358,-3.74522 -2.08623,-5.6445 -0.32521,-0.94963 -0.57381,-1.9322 -0.63657,-2.93402 -0.0627,-1.00181 0.066,-2.02654 0.46923,-2.94577 0.39496,-0.90041 1.04599,-1.679 1.82886,-2.27385 0.78287,-0.59484 1.69471,-1.00964 2.64401,-1.26566 1.89862,-0.51203 3.91068,-0.39311 5.85641,-0.10841 0.5858,0.0857 1.19286,0.19556 1.67188,0.54349 0.31757,0.23067 0.55927,0.55446 0.73552,0.90517 0.17625,0.35071 0.29035,0.72918 0.38715,1.10956 0.19358,0.76077 0.33109,1.56119 0.77267,2.21022 0.3131,0.4602 0.75837,0.8115 1.19878,1.15188 0.4404,0.34038 0.88992,0.68427 1.21627,1.13517 0.34877,0.48187 0.53935,1.06702 0.60132,1.65863 0.062,0.5916 -1.5e-4,1.19091 -0.12249,1.77304 -0.24467,1.16425 -0.72717,2.26888 -0.96139,3.43528 -0.38453,1.91487 -0.0644,3.96316 0.88595,5.66943 0.95038,1.70627 2.52338,3.05669 4.35387,3.7378 1.83048,0.68111 3.90362,0.6874 5.73821,0.0174 1.83458,-0.67 3.41574,-2.01085 4.37646,-3.71132 l 0,-3e-5 z"
       id="path4150-6"
       inkscape:path-effect="#path-effect4152-1"
       inkscape:original-d="m 435.17158,731.19731 c -0.82791,0.48953 -6.64353,-7.37368 -7.89471,-11.58139 -1.25117,-4.20771 -2.19636,-4.75991 -1.50882,-8.36294 0.68753,-3.60302 6.53735,-5.13324 7.53008,-3.31799 0.99273,1.81524 -0.46865,-1.06853 -0.95897,-0.4659 -0.98064,1.20526 12.74646,19.73819 12.53962,14.47412 -0.20685,-5.26407 -9.6025,-30.13466 -8.40394,-26.48237 0.59928,1.82615 -10.90616,4.72317 -12.64077,4.71689 -1.73462,-0.006 -0.69445,0.47934 -4.32646,0.60261 -7.26401,0.24652 6.91431,-9.32499 3.24598,-7.7545 -3.66833,1.57049 2.57508,20.61265 1.15397,-6.48496 -1.42109,-27.09762 -16.51803,-105.46091 -31.05681,-1.22221 -0.0351,0.25189 -2.32426,3.78433 -2.41986,3.95648 -0.0956,0.17216 -0.65934,8.44138 -0.75565,8.83465 -0.024,0.0983 6.87769,-5.61965 7.50872,-6.24262 0.63102,-0.62297 -3.19125,0.54561 -2.47383,0.0104 1.43484,-1.0705 1.15639,-2.85979 1.13773,-2.40217 -0.0373,0.91525 -0.53989,5.17422 -0.45846,6.91228 0.32569,6.95226 38.08672,-45.92786 -15.45386,0.91139 -0.87138,0.76232 -7.05204,17.72941 -5.3672,19.98308 1.68484,2.25367 11.17099,-0.0409 13.40846,2.19638 2.23747,2.23726 -1.84017,6.61221 3.64302,6.67637 40.54734,0.47443 8.55218,-10.93317 2.29133,-8.36922 -3.13042,1.28198 -12.44294,-5.28344 -6.60056,-4.8432 2.92118,0.22011 -14.51282,24.40575 -8.0009,25.28251 6.51192,0.87675 26.7799,-11.46153 26.93198,-11.4912 1.21672,-0.23741 -4.10034,-7.36274 -2.25357,-11.52429 1.84676,-4.16155 9.15397,-1.87346 10.32928,-3.64792 2.35061,-3.54892 -0.97949,3.92186 1.67188,0.54349 1.47096,-2.03615 1.84565,1.73677 1.89534,4.22495 0.0497,2.48818 1.37244,-0.47201 2.41505,2.28705 1.04261,2.75907 -0.98891,4.36509 -0.48256,6.86695 0.50635,2.50187 21.21163,2.25009 15.35449,5.71331 z"
       inkscape:connector-curvature="0"
       sodipodi:nodetypes="sssssssssssssssssssssssssssscssss" />
    <path
       style="fill:none;fill-rule:evenodd;stroke:#000000;stroke-width:1.50000024;stroke-linecap:butt;stroke-linejoin:miter;stroke-miterlimit:3.7651515;stroke-dasharray:none;stroke-opacity:1"
       d="m 416.36537,711.85668 c -0.45487,2.14229 0.0864,4.47506 1.43819,6.19815 1.14084,1.45421 2.78757,2.45223 3.9037,3.92549 0.93766,1.23768 1.45792,2.78595 1.45792,4.3387 0,1.55276 -0.52026,3.10103 -1.45792,4.33871"
       id="path8501"
       inkscape:path-effect="#path-effect8503"
       inkscape:original-d="m 416.36537,711.85668 c 0.61637,2.06605 -0.82183,4.95852 1.43819,6.19815 2.26004,1.23962 4.93099,-0.20661 3.9037,3.92549 -1.02729,4.1321 -3.69824,6.40475 0,8.67741"
       inkscape:connector-curvature="0"
       sodipodi:nodetypes="cssc" />
    <path
       sodipodi:nodetypes="csc"
       style="fill:none;fill-rule:evenodd;stroke:#000000;stroke-width:1.50000024;stroke-linecap:square;stroke-linejoin:miter;stroke-miterlimit:3.7651515;stroke-dasharray:none;stroke-opacity:1;marker-start:url(#Arrow1Mstart-6);marker-end:url(#Arrow1Mend-0)"
       d="m 368.42117,763.8789 c -4.57408,0.0513 -9.1037,1.90837 -12.39742,5.08267 -3.29373,3.17431 -5.31671,7.63229 -5.53684,12.20136 -0.26023,5.40136 2.0429,10.8709 6.0885,14.45915"
       id="path6158"
       inkscape:path-effect="#path-effect6160-3"
       inkscape:original-d="m 368.42117,763.8789 c 0,0 -18.68776,4.36742 -17.93426,17.28403 0.75349,12.9166 4.47745,12.16733 6.0885,14.45915"
       inkscape:connector-curvature="0"
       inkscape:transform-center-x="7.1527661"
       inkscape:transform-center-y="13.570451" />
  </g>
  <g
     inkscape:groupmode="layer"
     id="layer9"
     inkscape:label="vecto">
    <g
       transform="translate(64.35852,2.7698845)"
       clip-path="url(#clipPath1755-8-7-1)"
       style="font-style:normal;font-weight:normal;line-height:0.01%;font-family:sans-serif;letter-spacing:0px;word-spacing:0px;fill:#000000;fill-opacity:1;stroke:#000000;stroke-width:0.37500003;stroke-linecap:round;stroke-linejoin:round;stroke-miterlimit:4;stroke-dasharray:none;stroke-opacity:1"
       id="flowRoot49570">
      <path
         d="m 88.8125,158.13672 q 0,1.23047 -0.732422,2.05078 -0.732422,0.82031 -2.138672,0.82031 -0.820312,0 -1.40625,-0.29297 -0.585937,-0.29297 -0.9375,-0.76172 -0.351562,-0.46875 -0.351562,-0.8789 0,-0.46875 0.205078,-0.67383 0.205078,-0.20508 0.498047,-0.20508 0.292968,0 0.439453,0.20508 0.146484,0.20508 0.146484,0.43945 0,0.41016 -0.292969,0.70313 0.05859,0.17578 0.556641,0.49805 0.498047,0.32226 1.142578,0.32226 0.820313,0 1.31836,-0.61523 0.498046,-0.61524 0.498046,-1.61133 0,-0.9961 -0.439453,-1.52344 -0.439453,-0.52734 -0.908203,-0.67383 -0.46875,-0.14648 -0.820312,-0.0879 l 0,-0.58594 2.753906,-3.51562 -3.28125,0 q -0.9375,0 -1.289063,1.93359 l -0.410156,0 0.410156,-2.7539 5.15625,0 0,0.82031 -2.871093,3.57422 q 0.410156,-0.0586 1.142578,0.26367 0.732422,0.32227 1.171875,0.99609 0.439453,0.67383 0.439453,1.55274 z"
         style="font-style:normal;font-variant:normal;font-weight:normal;font-stretch:normal;font-size:15px;line-height:100%;font-family:'Ume Mincho Balsa';-inkscape-font-specification:'Ume Mincho Balsa, Normal';text-align:start;writing-mode:lr-tb;text-anchor:start;fill:#000000;stroke:#000000;stroke-width:0.37500003;stroke-linecap:round;stroke-linejoin:round;stroke-miterlimit:4;stroke-dasharray:none;stroke-opacity:1"
         id="path5378"
         inkscape:connector-curvature="0" />
    </g>
  </g>
</svg>
