<?xml version="1.0" encoding="UTF-8" standalone="no"?>
<!-- Created with Inkscape (http://www.inkscape.org/) -->

<svg
   xmlns:dc="http://purl.org/dc/elements/1.1/"
   xmlns:cc="http://creativecommons.org/ns#"
   xmlns:rdf="http://www.w3.org/1999/02/22-rdf-syntax-ns#"
   xmlns:svg="http://www.w3.org/2000/svg"
   xmlns="http://www.w3.org/2000/svg"
   xmlns:sodipodi="http://sodipodi.sourceforge.net/DTD/sodipodi-0.dtd"
   xmlns:inkscape="http://www.inkscape.org/namespaces/inkscape"
   width="46.269981mm"
   height="42.930843mm"
   viewBox="0 0 46.269982 42.930843"
   version="1.1"
   id="svg51137"
   inkscape:version="0.91 r13725"
   sodipodi:docname="lost-03.svg">
  <defs
     id="defs51131">
    <clipPath
       clipPathUnits="userSpaceOnUse"
       id="clipPath1755-8">
      <rect
         style="fill:#ffffff;fill-opacity:1;fill-rule:evenodd;stroke:#000000;stroke-width:1.875;stroke-linecap:round;stroke-linejoin:round;stroke-miterlimit:4;stroke-dasharray:none;stroke-opacity:1"
         id="rect1757-46"
         width="160.91911"
         height="73.499458"
         x="-66.708733"
         y="91.882065" />
    </clipPath>
    <inkscape:path-effect
       effect="spiro"
       id="path-effect6123"
       is_visible="true" />
    <inkscape:path-effect
       effect="spiro"
       id="path-effect6125"
       is_visible="true" />
    <inkscape:path-effect
       effect="spiro"
       id="path-effect6129"
       is_visible="true" />
    <inkscape:path-effect
       effect="spiro"
       id="path-effect6127"
       is_visible="true" />
    <inkscape:path-effect
       effect="spiro"
       id="path-effect6131"
       is_visible="true" />
    <inkscape:path-effect
       effect="spiro"
       id="path-effect6133"
       is_visible="true" />
    <inkscape:path-effect
       effect="spiro"
       id="path-effect6121"
       is_visible="true" />
    <inkscape:path-effect
       effect="spiro"
       id="path-effect6119"
       is_visible="true" />
  </defs>
  <sodipodi:namedview
     id="base"
     pagecolor="#ffffff"
     bordercolor="#666666"
     borderopacity="1.0"
     inkscape:pageopacity="0.0"
     inkscape:pageshadow="2"
     inkscape:zoom="3.2826316"
     inkscape:cx="20.798464"
     inkscape:cy="55.839315"
     inkscape:document-units="mm"
     inkscape:current-layer="layer2"
     showgrid="false"
     inkscape:window-width="1920"
     inkscape:window-height="1031"
     inkscape:window-x="0"
     inkscape:window-y="27"
     inkscape:window-maximized="1"
     fit-margin-top="0"
     fit-margin-left="0"
     fit-margin-right="0"
     fit-margin-bottom="0" />
  <metadata
     id="metadata51134">
    <rdf:RDF>
      <cc:Work
         rdf:about="">
        <dc:format>image/svg+xml</dc:format>
        <dc:type
           rdf:resource="http://purl.org/dc/dcmitype/StillImage" />
        <dc:title></dc:title>
      </cc:Work>
    </rdf:RDF>
  </metadata>
  <g
     inkscape:groupmode="layer"
     id="layer2"
     inkscape:label="color"
     transform="translate(7.753933e-7,8.4753933e-6)">
    <rect
       style="color:#000000;clip-rule:nonzero;display:inline;overflow:visible;visibility:visible;opacity:1;isolation:auto;mix-blend-mode:normal;color-interpolation:sRGB;color-interpolation-filters:linearRGB;solid-color:#000000;solid-opacity:1;fill:#fe5000;fill-opacity:1;fill-rule:nonzero;stroke:none;stroke-width:1.875;stroke-linecap:round;stroke-linejoin:round;stroke-miterlimit:4;stroke-dasharray:3.75, 3.75;stroke-dashoffset:0;stroke-opacity:1;color-rendering:auto;image-rendering:auto;shape-rendering:auto;text-rendering:auto;enable-background:accumulate"
       id="rect5092"
       width="45.242828"
       height="26.139267"
       x="1.0271527"
       y="16.755726" />
  </g>
  <g
     inkscape:label="Layer 1"
     inkscape:groupmode="layer"
     id="layer1"
     transform="translate(-82.749509,-127.36792)">
    <path
       inkscape:connector-curvature="0"
       id="path5580"
       d="m 83.00126,143.35798 45.31594,0"
       style="fill:none;fill-rule:evenodd;stroke:#000000;stroke-width:0.52916664;stroke-linecap:butt;stroke-linejoin:miter;stroke-miterlimit:4;stroke-dasharray:none;stroke-opacity:1"
       sodipodi:nodetypes="cc" />
    <path
       style="fill:#ffffff;fill-rule:evenodd;stroke:#000000;stroke-width:0.52916664;stroke-linecap:round;stroke-linejoin:round;stroke-miterlimit:4;stroke-dasharray:none;stroke-opacity:1"
       d="m 93.427226,157.26939 c 0.162809,-0.16104 0.265795,-0.38123 0.285029,-0.60942 0.01923,-0.22819 -0.04544,-0.46251 -0.178998,-0.64853 -0.122155,-0.17014 -0.295082,-0.29569 -0.463755,-0.41986 -0.168673,-0.12417 -0.33958,-0.25356 -0.455048,-0.4283 -0.108789,-0.16464 -0.162428,-0.37037 -0.122525,-0.56363 0.01995,-0.0966 0.06298,-0.18882 0.126828,-0.26404 0.06385,-0.0752 0.148682,-0.13304 0.243065,-0.1618 0.07951,-0.0242 0.163953,-0.0278 0.24696,-0.0235 0.08301,0.004 0.165456,0.016 0.248374,0.0217 0.08292,0.006 0.167197,0.005 0.247886,-0.0147 0.08069,-0.0199 0.158082,-0.0607 0.210917,-0.12484 0.04472,-0.0543 0.06999,-0.12345 0.0754,-0.19359 0.0054,-0.0701 -0.0085,-0.14112 -0.03577,-0.20597 -0.05451,-0.12971 -0.159378,-0.23196 -0.272651,-0.31541 -0.113273,-0.0834 -0.237198,-0.15171 -0.349567,-0.23637 -0.112369,-0.0847 -0.215248,-0.18948 -0.265547,-0.32087 -0.05061,-0.1322 -0.04151,-0.28809 0.03273,-0.40862 0.03712,-0.0603 0.08965,-0.11115 0.151728,-0.14516 0.06208,-0.034 0.13361,-0.0509 0.20428,-0.0469 0.100243,0.006 0.194443,0.0521 0.274651,0.11254 0.08021,0.0604 0.148721,0.13461 0.220229,0.20508 0.07151,0.0705 0.1477,0.13843 0.237922,0.18248 0.04511,0.022 0.0935,0.0378 0.143337,0.0439 0.04983,0.006 0.101148,0.002 0.148695,-0.0139 0.07672,-0.026 0.141085,-0.0837 0.180471,-0.15444 0.03939,-0.0708 0.05452,-0.15382 0.04859,-0.2346 -0.0059,-0.0808 -0.03231,-0.15933 -0.07108,-0.23045 -0.03877,-0.0711 -0.08972,-0.13507 -0.146086,-0.19324 -0.112724,-0.11634 -0.246638,-0.20975 -0.367772,-0.3173 -0.121134,-0.10756 -0.232579,-0.23468 -0.280229,-0.38951 -0.03183,-0.10341 -0.03332,-0.21535 -0.0088,-0.32072 0.02457,-0.10537 0.07474,-0.20416 0.14171,-0.28914 0.133943,-0.16996 0.331384,-0.28154 0.538478,-0.3443 0.09902,-0.03 0.201989,-0.0499 0.305436,-0.0475 0.103448,0.002 0.207687,0.0277 0.295302,0.0827 0.08836,0.0555 0.157136,0.13986 0.200098,0.23496 0.04296,0.0951 0.06077,0.2006 0.05842,0.30493 -0.0047,0.20867 -0.08774,0.40781 -0.187814,0.59097 -0.09521,0.17425 -0.208068,0.34186 -0.264296,0.5323 -0.02811,0.0952 -0.04144,0.19576 -0.02937,0.2943 0.01207,0.0986 0.05057,0.19509 0.116965,0.2689 0.08591,0.0955 0.215217,0.14749 0.343677,0.1486 0.12846,0.001 0.255081,-0.0462 0.358207,-0.12285 0.103126,-0.0766 0.183543,-0.18127 0.241309,-0.29602 0.05777,-0.11474 0.09361,-0.23953 0.116975,-0.36585 0.05573,-0.30126 0.04347,-0.61921 0.161757,-0.90182 0.05915,-0.14131 0.152746,-0.27175 0.282264,-0.35355 0.06476,-0.0409 0.137889,-0.0691 0.213819,-0.0791 0.07593,-0.0101 0.154614,-0.002 0.225628,0.027 0.06565,0.0265 0.123477,0.0696 0.175133,0.11803 0.05166,0.0484 0.09773,0.10241 0.145552,0.15462 0.04782,0.0522 0.09785,0.10305 0.15579,0.14375 0.05794,0.0407 0.124529,0.0711 0.19496,0.0783 0.0543,0.006 0.109266,-0.003 0.161969,-0.0169 0.0527,-0.0142 0.103584,-0.0344 0.154853,-0.0531 0.05127,-0.0188 0.103336,-0.0362 0.157245,-0.0448 0.05391,-0.009 0.11008,-0.008 0.162006,0.009 0.04932,0.016 0.0936,0.0465 0.127456,0.0858 0.03386,0.0393 0.05739,0.0871 0.06956,0.13751 0.02434,0.1008 0.0027,0.20943 -0.04704,0.30044 -0.04971,0.091 -0.125765,0.16557 -0.21033,0.2256 -0.08456,0.06 -0.177887,0.10646 -0.271402,0.15129 -0.09351,0.0448 -0.187946,0.0885 -0.275812,0.14354 -0.08787,0.0551 -0.169595,0.1224 -0.229392,0.20712 -0.0598,0.0847 -0.0965,0.18816 -0.08977,0.29165 0.0034,0.0517 0.01758,0.10294 0.04293,0.14817 0.02536,0.0452 0.06196,0.0844 0.106357,0.11114 0.04932,0.0298 0.107378,0.0438 0.164983,0.0437 0.05761,-1e-4 0.114747,-0.014 0.167602,-0.0369 0.105709,-0.0458 0.192654,-0.12581 0.272008,-0.20933 0.07935,-0.0835 0.15394,-0.17259 0.244737,-0.24351 0.0908,-0.0709 0.201701,-0.12339 0.316841,-0.11938 0.07373,0.003 0.146097,0.0286 0.206137,0.0715 0.06004,0.0429 0.107789,0.1022 0.139266,0.16893 0.06296,0.13344 0.059,0.29256 0.008,0.43101 -0.04442,0.12059 -0.121805,0.22651 -0.208368,0.32149 -0.08656,0.095 -0.18292,0.18049 -0.273046,0.2721 -0.09013,0.0916 -0.174883,0.19062 -0.232797,0.30534 -0.05791,0.11472 -0.08755,0.24708 -0.06325,0.37327 0.02826,0.14683 0.130072,0.27539 0.261844,0.34606 0.131772,0.0707 0.290508,0.0851 0.435826,0.0499 0.145318,-0.0352 0.277076,-0.11806 0.380246,-0.22628 0.10317,-0.10823 0.178585,-0.24109 0.22962,-0.38163 0.139913,-0.3853 0.099,-0.81941 0.247368,-1.20153 0.0565,-0.14551 0.138932,-0.27921 0.214611,-0.41573 0.07568,-0.13652 0.145753,-0.27894 0.174123,-0.43243 0.0303,-0.16399 0.0116,-0.3331 -0.0186,-0.49712 -0.0302,-0.16401 -0.07175,-0.32633 -0.08744,-0.49236 -0.03537,-0.37427 0.06661,-0.75912 0.278152,-1.0699 0.21153,-0.31078 0.53033,-0.54599 0.88802,-0.6617 0.10124,-0.0327 0.20712,-0.0564 0.31335,-0.0503 0.10623,0.006 0.21349,0.0445 0.28741,0.121 0.0426,0.0441 0.0728,0.0993 0.0902,0.15806 0.0174,0.0587 0.0223,0.12079 0.0177,0.18187 -0.009,0.12215 -0.0554,0.23848 -0.10925,0.3485 -0.0539,0.11002 -0.116,0.21627 -0.16059,0.33036 -0.0446,0.1141 -0.0712,0.23875 -0.0501,0.35942 0.0187,0.10727 0.0736,0.20427 0.12661,0.29937 0.053,0.0951 0.10612,0.19348 0.12076,0.30139 0.0174,0.12816 -0.0215,0.25818 -0.0797,0.3737 -0.0581,0.11552 -0.13525,0.22029 -0.20166,0.33127 -0.0664,0.11098 -0.12308,0.23164 -0.13387,0.36052 -0.005,0.0644 0.001,0.13027 0.0228,0.19118 0.0217,0.0609 0.0591,0.11673 0.10976,0.1569 0.0771,0.0611 0.18013,0.0824 0.27828,0.0759 0.0982,-0.006 0.19278,-0.0384 0.28432,-0.0744 0.0915,-0.036 0.18172,-0.0765 0.27686,-0.10156 0.0951,-0.025 0.19704,-0.0339 0.29137,-0.006 0.12139,0.0359 0.22087,0.13243 0.27067,0.24881 0.0498,0.11638 0.052,0.25036 0.0169,0.37198 -0.0351,0.12162 -0.10595,0.2312 -0.19435,0.32181 -0.0884,0.0906 -0.19408,0.16299 -0.30523,0.22357 -0.12074,0.0658 -0.2485,0.11828 -0.36779,0.18667 -0.1193,0.0684 -0.2321,0.15527 -0.30365,0.2727 -0.0846,0.13879 -0.10393,0.31385 -0.0593,0.47012 0.0446,0.15628 0.15093,0.29261 0.28738,0.38092 0.13644,0.0883 0.30148,0.1293 0.4639,0.12337 0.16241,-0.006 0.32188,-0.0578 0.46126,-0.14135 0.27877,-0.16717 0.47,-0.45416 0.57996,-0.76004 0.10996,-0.30589 0.14633,-0.63269 0.17511,-0.95646 0.0484,-0.54496 0.0782,-1.09511 0.212,-1.6256 0.10562,-0.41876 0.27869,-0.82611 0.55121,-1.16115 0.27251,-0.33504 0.65046,-0.59395 1.07439,-0.67642 0.18252,-0.0355 0.36956,-0.0383 0.55492,-0.053 0.18537,-0.0147 0.37327,-0.0425 0.54056,-0.12369 0.25656,-0.12449 0.44077,-0.36361 0.56844,-0.61861 0.12767,-0.25499 0.2075,-0.53083 0.31502,-0.79496 0.1349,-0.33137 0.31791,-0.64981 0.58169,-0.89152 0.26378,-0.24171 0.616,-0.40066 0.97322,-0.38065 0.11328,0.006 0.22674,0.0308 0.32755,0.0828 0.10081,0.0521 0.18847,0.13307 0.23788,0.2352 0.0368,0.0761 0.0516,0.1618 0.0494,0.2463 -0.002,0.0845 -0.0209,0.168 -0.0483,0.24797 -0.0548,0.15993 -0.14373,0.30571 -0.21315,0.45987 -0.15869,0.35243 -0.21251,0.75929 -0.10602,1.13084 0.0263,0.0918 0.0624,0.18152 0.1144,0.26166 0.052,0.0801 0.12055,0.15065 0.20366,0.19777 0.0892,0.0506 0.19344,0.0729 0.29587,0.068 0.10243,-0.005 0.20294,-0.0362 0.29241,-0.0863 0.17895,-0.10021 0.30985,-0.27159 0.39564,-0.45787 0.17159,-0.37257 0.17652,-0.80188 0.32359,-1.18479 0.0708,-0.18429 0.17703,-0.35915 0.33076,-0.48301 0.0769,-0.0619 0.16506,-0.11039 0.2598,-0.13808 0.0948,-0.0277 0.19609,-0.0343 0.2929,-0.015 0.11834,0.0236 0.22624,0.0846 0.32303,0.15662 0.0968,0.072 0.18438,0.15561 0.27774,0.23206 0.10274,0.0841 0.21378,0.16089 0.29619,0.26501 0.0412,0.0521 0.0748,0.11087 0.0928,0.17476 0.018,0.0639 0.02,0.13313 -3.1e-4,0.19635 -0.0255,0.0794 -0.0839,0.14453 -0.15038,0.19482 -0.0665,0.0503 -0.14152,0.0878 -0.21386,0.12915 -0.0723,0.0414 -0.14348,0.088 -0.19681,0.15201 -0.0267,0.032 -0.0486,0.0683 -0.0623,0.10764 -0.0137,0.0394 -0.0189,0.0819 -0.0128,0.12315 0.0101,0.0682 0.0507,0.12901 0.10143,0.1757 0.0507,0.0467 0.11146,0.0809 0.17203,0.11388 0.0606,0.0329 0.12208,0.0653 0.17542,0.10902 0.0533,0.0437 0.0987,0.10024 0.11653,0.16684 0.0133,0.0497 0.0108,0.10247 0.001,0.15299 -0.01,0.0505 -0.0262,0.0994 -0.041,0.14869 -0.0147,0.0493 -0.0277,0.0996 -0.0298,0.15098 -0.002,0.0514 0.007,0.1044 0.0344,0.14807 0.0274,0.044 0.0722,0.0764 0.12187,0.0914 0.0497,0.0149 0.10391,0.0128 0.15326,-0.003 0.0493,-0.0161 0.0938,-0.0457 0.1298,-0.0831 0.036,-0.0374 0.0636,-0.0824 0.0834,-0.13036 0.0396,-0.0959 0.0479,-0.20185 0.0469,-0.30562 -9.7e-4,-0.10377 -0.0107,-0.20756 -0.005,-0.31119 0.0149,-0.27951 0.14096,-0.54357 0.30776,-0.76834 0.16681,-0.22477 0.37393,-0.41583 0.57567,-0.60986 0.18834,-0.18115 0.37364,-0.36658 0.58065,-0.52606 0.20702,-0.15947 0.43821,-0.29336 0.69156,-0.35741 0.0898,-0.0227 0.18283,-0.0365 0.27509,-0.0284 0.0923,0.008 0.1841,0.0394 0.25498,0.0991 0.0594,0.05 0.10226,0.11847 0.12587,0.19248 0.0236,0.074 0.0285,0.15336 0.019,0.23046 -0.019,0.15421 -0.0936,0.29617 -0.18016,0.42516 -0.16006,0.23838 -0.36766,0.45011 -0.47125,0.7179 -0.0518,0.1339 -0.0755,0.28145 -0.0477,0.4223 0.0139,0.0704 0.0406,0.13857 0.0805,0.19823 0.0399,0.0597 0.0932,0.11071 0.15578,0.14581 0.088,0.0493 0.19283,0.0658 0.29262,0.0514 0.0998,-0.0144 0.19429,-0.0588 0.27279,-0.12207 0.11478,-0.0925 0.1949,-0.2239 0.23844,-0.36473 0.0435,-0.14082 0.052,-0.29086 0.039,-0.4377 -0.0259,-0.29367 -0.13435,-0.57273 -0.20676,-0.85851 -0.11829,-0.46685 -0.1363,-0.97778 0.0645,-1.4155 0.10042,-0.21885 0.25523,-0.41471 0.45418,-0.55036 0.19895,-0.13566 0.44272,-0.20878 0.68277,-0.18978 0.1559,0.0123 0.31349,0.0661 0.42407,0.1767 0.0768,0.0768 0.12736,0.17769 0.15103,0.28364 0.0237,0.10594 0.0212,0.21676 9.7e-4,0.32342 -0.0404,0.21331 -0.14904,0.40669 -0.258,0.59448 -0.0851,0.1466 -0.17173,0.2933 -0.23277,0.45141 -0.061,0.15811 -0.0958,0.32985 -0.0726,0.49775 0.0116,0.0839 0.0377,0.16621 0.0798,0.23975 0.0421,0.0735 0.10044,0.1382 0.1713,0.18468 0.0709,0.0465 0.15433,0.0744 0.23905,0.0764 0.0847,0.002 0.17039,-0.0225 0.23932,-0.0718 0.0729,-0.0521 0.12517,-0.13033 0.15357,-0.21534 0.0284,-0.085 0.0339,-0.17659 0.0244,-0.26572 -0.0189,-0.17826 -0.0953,-0.34437 -0.15913,-0.51189 -0.0638,-0.16752 -0.11643,-0.34769 -0.0851,-0.52419 0.0157,-0.0883 0.0531,-0.17371 0.11379,-0.23963 0.0607,-0.0659 0.1457,-0.11101 0.23518,-0.1162 0.0842,-0.005 0.16595,0.0244 0.2478,0.0446 0.0409,0.0101 0.0827,0.018 0.12485,0.0182 0.0422,1.7e-4 0.0849,-0.008 0.12208,-0.0276 0.0518,-0.0277 0.0894,-0.0773 0.11243,-0.1314 0.023,-0.0541 0.0326,-0.11284 0.0393,-0.17122 0.007,-0.0584 0.0107,-0.11726 0.0232,-0.17467 0.0125,-0.0574 0.0343,-0.11405 0.0724,-0.15878 0.0411,-0.0483 0.0982,-0.0794 0.1515,-0.11372 0.0267,-0.0171 0.0528,-0.0354 0.0758,-0.0572 0.023,-0.0218 0.0429,-0.0473 0.0554,-0.0765 0.0181,-0.0425 0.0195,-0.0907 0.0111,-0.13604 -0.008,-0.0454 -0.0261,-0.0885 -0.0451,-0.13055 -0.019,-0.042 -0.0396,-0.0836 -0.0543,-0.12732 -0.0147,-0.0438 -0.0233,-0.0904 -0.0177,-0.13618 0.005,-0.0403 0.0211,-0.0791 0.0452,-0.11173 0.0242,-0.0327 0.0562,-0.0593 0.0923,-0.078 0.0721,-0.0375 0.15859,-0.0426 0.23729,-0.0224 0.0787,0.0202 0.14989,0.0643 0.20966,0.11937 0.0598,0.055 0.10873,0.1208 0.15266,0.18915 0.0879,0.13669 0.15833,0.28701 0.27191,0.40322 0.0568,0.0581 0.12444,0.10695 0.20106,0.13395 0.0766,0.027 0.16271,0.031 0.23883,0.003 0.051,-0.019 0.0965,-0.0521 0.13143,-0.0938 0.035,-0.0417 0.0595,-0.0919 0.0724,-0.14477 0.0259,-0.10575 0.005,-0.22006 -0.0473,-0.31571 -0.052,-0.0956 -0.13306,-0.17348 -0.22467,-0.23229 -0.0916,-0.0588 -0.19375,-0.0995 -0.29762,-0.13211 -0.20774,-0.0652 -0.42707,-0.10032 -0.62035,-0.20058 -0.0966,-0.0501 -0.18604,-0.11693 -0.25205,-0.2035 -0.066,-0.0866 -0.10746,-0.19397 -0.10473,-0.3028 0.003,-0.12144 0.0625,-0.23951 0.15564,-0.31751 0.0931,-0.078 0.21797,-0.1157 0.3391,-0.10652 0.0881,0.007 0.17276,0.0367 0.2534,0.0728 0.0806,0.0361 0.15845,0.0784 0.24026,0.11164 0.0818,0.0333 0.16892,0.0576 0.25722,0.0552 0.0883,-0.002 0.17828,-0.0338 0.23862,-0.0983 0.0512,-0.0547 0.0778,-0.13009 0.079,-0.205 0.001,-0.0749 -0.0218,-0.1491 -0.0595,-0.21387 -0.0753,-0.12953 -0.20361,-0.2185 -0.33227,-0.29528 -0.12865,-0.0768 -0.26409,-0.14752 -0.368,-0.25545 -0.052,-0.054 -0.0954,-0.11713 -0.1206,-0.18767 -0.0252,-0.0705 -0.0316,-0.14875 -0.0115,-0.2209 0.016,-0.0574 0.0484,-0.10965 0.0893,-0.15301 0.0409,-0.0434 0.0903,-0.0782 0.1428,-0.10653 0.10495,-0.0567 0.22142,-0.0877 0.33328,-0.12917 0.0803,-0.0297 0.16024,-0.0661 0.22258,-0.12478 0.0312,-0.0294 0.0576,-0.0642 0.0749,-0.10333 0.0173,-0.0392 0.0254,-0.0827 0.0206,-0.12529 -0.005,-0.0408 -0.021,-0.0798 -0.0446,-0.11333 -0.0236,-0.0336 -0.0542,-0.0618 -0.088,-0.0851 -0.0676,-0.0465 -0.14664,-0.0729 -0.22439,-0.0991 -0.0778,-0.0262 -0.15665,-0.0534 -0.22329,-0.10126 -0.0333,-0.0239 -0.0633,-0.053 -0.0858,-0.0872 -0.0226,-0.0342 -0.0376,-0.0739 -0.0406,-0.11477 -0.005,-0.0652 0.0213,-0.13009 0.0617,-0.18151 0.0404,-0.0514 0.0942,-0.0907 0.15023,-0.12442 0.0561,-0.0337 0.11502,-0.0624 0.1707,-0.0966 0.0557,-0.0343 0.10872,-0.0748 0.14742,-0.12755 0.0617,-0.084 0.082,-0.19426 0.0668,-0.29738 -0.0151,-0.10311 -0.0635,-0.19936 -0.12711,-0.28193 -0.12719,-0.16514 -0.3104,-0.27581 -0.46979,-0.41013 -0.31462,-0.26514 -0.53526,-0.62157 -0.77747,-0.95417 -0.0649,-0.0892 -0.1323,-0.17793 -0.17733,-0.27864 -0.045,-0.1007 -0.0663,-0.2164 -0.0347,-0.3221 0.0232,-0.0777 0.0743,-0.14606 0.14004,-0.19348 0.0658,-0.0474 0.14555,-0.0742 0.22641,-0.0798 0.0809,-0.006 0.16265,0.009 0.23783,0.0396 0.0752,0.0303 0.14385,0.0757 0.20397,0.13008 0.12022,0.10877 0.20496,0.25131 0.27323,0.39835 0.0683,0.14705 0.12184,0.30059 0.19072,0.44735 0.32719,0.69718 0.97514,1.19629 1.34287,1.87297 0.27795,0.51147 0.38194,1.10052 0.41339,1.68179 0.0315,0.58126 -0.005,1.16416 0.0107,1.74605 0.0276,0.99325 0.20785,2.00505 -0.0353,2.96847 -0.25277,1.00157 -0.94257,1.84237 -1.73161,2.50904 -0.64097,0.54157 -1.35837,0.99131 -2.1203,1.34287 -0.11997,0.0554 -0.24271,0.10932 -0.34459,0.19344 -0.0509,0.0421 -0.0962,0.0916 -0.12951,0.14866 -0.0333,0.0571 -0.0543,0.1219 -0.056,0.18794 -0.002,0.0643 0.0147,0.12799 0.0398,0.18719 0.0251,0.0592 0.0586,0.11437 0.0927,0.16887 0.0341,0.0545 0.0689,0.10875 0.0968,0.16666 0.0279,0.0579 0.0489,0.11996 0.0535,0.18408 0.007,0.10028 -0.0272,0.2018 -0.0888,0.28128 -0.0616,0.0795 -0.14913,0.13726 -0.24451,0.16905 -0.0954,0.0318 -0.19827,0.0383 -0.29799,0.0254 -0.0997,-0.0128 -0.19643,-0.0445 -0.28752,-0.0871 -0.22648,-0.10577 -0.41575,-0.27565 -0.60094,-0.44353 -0.18519,-0.16788 -0.37344,-0.33862 -0.59884,-0.44668 -0.11269,-0.054 -0.23411,-0.0916 -0.35867,-0.10181 -0.12456,-0.0102 -0.25241,0.008 -0.36595,0.06 -0.11354,0.0522 -0.21201,0.13975 -0.26969,0.25062 -0.0577,0.11088 -0.0725,0.24507 -0.0323,0.36341 0.0254,0.0748 0.0713,0.14135 0.1244,0.19993 0.0531,0.0586 0.11348,0.10994 0.17277,0.16221 0.0593,0.0523 0.11793,0.10596 0.16662,0.16824 0.0487,0.0623 0.0873,0.13395 0.10164,0.21169 0.0133,0.0722 0.005,0.14798 -0.0214,0.21653 -0.0264,0.0685 -0.0705,0.12987 -0.12544,0.1786 -0.10991,0.0975 -0.26045,0.14214 -0.40733,0.1397 -0.14687,-0.002 -0.2904,-0.0491 -0.42116,-0.116 -0.13075,-0.0669 -0.25008,-0.1539 -0.36753,-0.24213 -0.22028,-0.16548 -0.43801,-0.338 -0.68471,-0.46066 -0.2467,-0.12266 -0.52916,-0.19314 -0.79952,-0.14011 -0.13606,0.0267 -0.26856,0.0862 -0.36487,0.18597 -0.0482,0.0499 -0.0867,0.10937 -0.11,0.17466 -0.0233,0.0653 -0.0311,0.1364 -0.0199,0.20481 0.0142,0.0864 0.0576,0.16521 0.10583,0.23832 0.0482,0.0731 0.10219,0.14287 0.14154,0.22111 0.0883,0.17554 0.0959,0.38732 0.0317,0.57305 -0.0641,0.18572 -0.19698,0.34475 -0.36186,0.45164 -0.16487,0.10688 -0.36035,0.16285 -0.55662,0.17219 -0.19626,0.009 -0.39328,-0.0268 -0.57822,-0.0932 -0.36988,-0.13274 -0.68606,-0.38107 -0.98087,-0.64092 -0.2948,-0.25985 -0.57802,-0.53725 -0.91129,-0.74549 -0.41277,-0.25792 -0.88532,-0.39943 -1.34287,-0.56543 -0.10319,-0.0374 -0.20631,-0.0764 -0.31356,-0.0998 -0.10725,-0.0234 -0.21978,-0.0308 -0.32646,-0.005 -0.10668,0.0259 -0.20723,0.0876 -0.26561,0.18057 -0.0292,0.0465 -0.0474,0.10011 -0.0504,0.15492 -0.003,0.0548 0.009,0.11066 0.0372,0.15799 0.0371,0.0632 0.0995,0.10851 0.16694,0.13725 0.0674,0.0287 0.14016,0.0424 0.21246,0.0543 0.0723,0.0119 0.14527,0.0225 0.2148,0.0456 0.0695,0.0231 0.13633,0.0599 0.18324,0.11625 0.0316,0.0379 0.0532,0.0835 0.0649,0.13141 0.0117,0.0479 0.0137,0.0978 0.008,0.14684 -0.0108,0.098 -0.0504,0.19053 -0.0972,0.27726 -0.0468,0.0867 -0.10121,0.16931 -0.1451,0.25755 -0.0439,0.0882 -0.0774,0.1839 -0.0784,0.28245 -0.001,0.12463 0.0506,0.246 0.12806,0.34363 0.0775,0.0976 0.17938,0.17337 0.28685,0.23649 0.21495,0.12623 0.45908,0.20825 0.64526,0.37401 0.16146,0.14375 0.26946,0.34779 0.29115,0.56288 0.0217,0.21509 -0.0448,0.43891 -0.18515,0.60329 -0.16327,0.19114 -0.42029,0.29365 -0.67143,0.28271 -0.26695,-0.0116 -0.5147,-0.14096 -0.7354,-0.29159 -0.2207,-0.15063 -0.42581,-0.32606 -0.66251,-0.45003 -0.11836,-0.062 -0.24453,-0.11075 -0.37616,-0.13367 -0.13162,-0.0229 -0.26903,-0.0193 -0.39644,0.0209 -0.1274,0.0402 -0.24425,0.11833 -0.32177,0.22714 -0.0775,0.10881 -0.11331,0.24882 -0.0874,0.37989 0.0151,0.0762 0.0499,0.14745 0.0931,0.21196 0.0433,0.0645 0.095,0.12285 0.14709,0.1805 0.10413,0.1153 0.21383,0.23502 0.25451,0.38497 0.0341,0.12577 0.0145,0.26373 -0.0461,0.37909 -0.0606,0.11535 -0.16057,0.20817 -0.27648,0.26773 -0.11591,0.0596 -0.24715,0.0867 -0.37747,0.0866 -0.13032,-1e-4 -0.25981,-0.0269 -0.38269,-0.0703 -0.24575,-0.0868 -0.46273,-0.23788 -0.67679,-0.38658 -0.21406,-0.1487 -0.4321,-0.29859 -0.67884,-0.38255 -0.23856,-0.0812 -0.49354,-0.0972 -0.74123,-0.14354 -0.12384,-0.0232 -0.24683,-0.0543 -0.36253,-0.10415 -0.11569,-0.0499 -0.22426,-0.11921 -0.30978,-0.21174 -0.0842,-0.0911 -0.14412,-0.20246 -0.18874,-0.31823 -0.0446,-0.11577 -0.0746,-0.23655 -0.10516,-0.35681 -0.0305,-0.12026 -0.0618,-0.2408 -0.10872,-0.35565 -0.0469,-0.11486 -0.11032,-0.22453 -0.19814,-0.31218 -0.12459,-0.12435 -0.29249,-0.19819 -0.46434,-0.23636 -0.17185,-0.0382 -0.34913,-0.0431 -0.52513,-0.0463 -0.14382,-0.003 -0.28825,-0.004 -0.430875,0.0144 -0.142626,0.0187 -0.284304,0.0585 -0.407032,0.13352 -0.122728,0.075 -0.225605,0.18749 -0.272769,0.32338 -0.02358,0.068 -0.03298,0.14104 -0.02501,0.21252 0.008,0.0715 0.03352,0.14122 0.07551,0.19961 0.06095,0.0847 0.153979,0.1425 0.252729,0.1763 0.09875,0.0338 0.203656,0.0453 0.307825,0.0519 0.104168,0.007 0.208858,0.008 0.312128,0.0235 0.10326,0.0152 0.2062,0.0445 0.29352,0.10171 0.078,0.0511 0.1413,0.12322 0.18686,0.2046 0.0456,0.0814 0.0738,0.17182 0.0883,0.26394 0.029,0.18424 0.004,0.37248 -0.0278,0.55626 -0.0873,0.50406 -0.22656,1.01514 -0.14137,1.51957 0.0804,0.47599 0.3522,0.89372 0.60077,1.30754 0.0979,0.16305 0.19447,0.33101 0.23647,0.51651 0.021,0.0928 0.0279,0.18929 0.0136,0.28332 -0.0142,0.094 -0.0501,0.18552 -0.10879,0.26034 -0.0666,0.0849 -0.16092,0.14598 -0.26309,0.1806 -0.10217,0.0346 -0.21194,0.0436 -0.31948,0.035 -0.21506,-0.0171 -0.418,-0.10188 -0.61893,-0.18044 -0.528347,-0.20656 -1.075592,-0.37909 -1.558522,-0.67675 -0.241466,-0.14882 -0.465584,-0.32901 -0.646322,-0.54762 -0.180738,-0.2186 -0.31719,-0.47686 -0.374866,-0.75458 -0.0532,-0.25619 -0.0388,-0.52078 -0.03591,-0.78243 0.0029,-0.26164 -0.0073,-0.52995 -0.105452,-0.7725 -0.07123,-0.17602 -0.186414,-0.33149 -0.317535,-0.46883 -0.13112,-0.13734 -0.278537,-0.25791 -0.424569,-0.37928 -0.168434,-0.13999 -0.33652,-0.28222 -0.524774,-0.39415 -0.188254,-0.11192 -0.399698,-0.19313 -0.618624,-0.19929 -0.109464,-0.003 -0.21987,0.0129 -0.322444,0.0512 -0.102575,0.0383 -0.197147,0.0994 -0.270937,0.18032 -0.07379,0.0809 -0.126303,0.18186 -0.145685,0.28964 -0.01938,0.10778 -0.0049,0.22208 0.04483,0.31965 0.05082,0.0997 0.136285,0.17908 0.233163,0.23511 0.09688,0.056 0.205046,0.09 0.314359,0.11404 0.218624,0.048 0.447842,0.0584 0.654011,0.14559 0.09897,0.0418 0.191022,0.10118 0.266468,0.17769 0.07545,0.0765 0.133974,0.1704 0.164684,0.27337 0.03071,0.10297 0.03299,0.21495 0.0018,0.31776 -0.03123,0.10282 -0.09657,0.19575 -0.18555,0.25598 -0.118195,0.08 -0.268756,0.0983 -0.410958,0.086 -0.142203,-0.0122 -0.280334,-0.0522 -0.42044,-0.0795 -0.140106,-0.0272 -0.286872,-0.0414 -0.424173,-0.002 -0.06865,0.0195 -0.134007,0.0524 -0.187352,0.0998 -0.05335,0.0474 -0.09427,0.10966 -0.111981,0.17879 -0.02277,0.0889 -0.0061,0.18512 0.03493,0.26723 0.04098,0.0821 0.104847,0.15111 0.176311,0.20869 0.142929,0.11517 0.316449,0.18735 0.460195,0.30149 0.18366,0.14583 0.313708,0.36494 0.328664,0.59898 0.0075,0.11702 -0.01365,0.23617 -0.06396,0.34208 -0.05032,0.10592 -0.130047,0.19817 -0.229369,0.2605 -0.117524,0.0738 -0.256429,0.10357 -0.391671,0.13456 -0.135242,0.031 -0.27381,0.0662 -0.385766,0.14812 -0.07616,0.0558 -0.136759,0.13138 -0.180091,0.21523 -0.04333,0.0838 -0.06978,0.17581 -0.0838,0.26914 -0.02804,0.18668 -0.007,0.3768 0.01273,0.56454 0.01974,0.18773 0.03805,0.37849 0.0047,0.56429 -0.01666,0.0929 -0.04639,0.18397 -0.09324,0.2659 -0.04686,0.0819 -0.111237,0.15458 -0.190432,0.20593 -0.109161,0.0708 -0.243417,0.0985 -0.373085,0.088 -0.129668,-0.0106 -0.254777,-0.0579 -0.365433,-0.12636 -0.221312,-0.13683 -0.381552,-0.35128 -0.533655,-0.56239 -0.213591,-0.29645 -0.424378,-0.60094 -0.549849,-0.9441 -0.125472,-0.34316 -0.158529,-0.73392 -0.01559,-1.07018 0.138827,-0.32658 0.423162,-0.56484 0.633493,-0.85066 0.105166,-0.14291 0.193559,-0.30196 0.229253,-0.47577 0.03569,-0.1738 0.01413,-0.36423 -0.08528,-0.5112 -0.09759,-0.14428 -0.256539,-0.23211 -0.392996,-0.34037 -0.06823,-0.0541 -0.13239,-0.1151 -0.178682,-0.18887 -0.04629,-0.0738 -0.07378,-0.16161 -0.06442,-0.2482 0.01053,-0.0975 0.06694,-0.18581 0.139984,-0.25124 0.07304,-0.0654 0.16197,-0.11036 0.25205,-0.1491 0.09008,-0.0387 0.182683,-0.0722 0.269188,-0.11834 0.08651,-0.0462 0.167862,-0.10653 0.222246,-0.18812 0.04832,-0.0725 0.0734,-0.16025 0.07067,-0.24734"
       id="path6101"
       inkscape:connector-curvature="0"
       inkscape:path-effect="#path-effect6119"
       inkscape:original-d="m 93.427226,157.26939 c 0,0 0.258459,-0.86571 0.106031,-1.25795 -0.150989,-0.38851 -0.799536,-0.44876 -0.918803,-0.84816 -0.09728,-0.32574 -0.0045,-0.76112 0.247368,-0.98947 0.238195,-0.21599 0.823665,0.15245 0.954137,-0.14136 0.206812,-0.46578 -0.844635,-0.76257 -0.848135,-1.27221 -0.0028,-0.2385 0.158214,-0.53949 0.388733,-0.60073 0.371715,-0.0987 0.742103,0.79078 1.024834,0.53006 0.403634,-0.37225 -0.695509,-0.97366 -0.636101,-1.51954 0.04208,-0.38661 0.321141,-0.78519 0.671435,-0.95416 0.180679,-0.0872 0.458639,-0.10634 0.600738,0.0352 0.267603,0.26653 0.0891,0.75362 0.0707,1.13086 -0.01806,0.36946 -0.482995,0.88813 -0.1767,1.0955 0.341264,0.23106 0.761013,-0.35263 1.060168,-0.63612 0.38179,-0.36178 0.365111,-1.21813 0.883468,-1.30751 0.273954,-0.0472 0.401038,0.43002 0.671435,0.49473 0.209042,0.05 0.503569,-0.27525 0.636073,-0.106 0.40338,0.51509 -1.250188,1.34993 -0.777438,1.80224 0.312138,0.29868 0.755763,-0.70025 1.166171,-0.5654 0.240284,0.079 0.361498,0.41862 0.353398,0.67141 -0.0158,0.49676 -1.054579,0.85965 -0.777466,1.2722 0.246211,0.36649 0.988794,0.0936 1.307536,-0.21198 0.295204,-0.28295 0.120142,-0.81291 0.247368,-1.20153 0.09677,-0.29554 0.338724,-0.54122 0.388734,-0.84816 0.0533,-0.32741 -0.185845,-0.66749 -0.106032,-0.98948 0.167442,-0.67541 0.533772,-1.44119 1.166172,-1.7316 0.18325,-0.0841 0.47865,-0.0898 0.60076,0.0707 0.28149,0.36988 -0.2672,0.91666 -0.21203,1.37821 0.0257,0.21502 0.22648,0.3852 0.24737,0.60076 0.0463,0.47829 -0.60438,1.05659 -0.2827,1.41357 0.25343,0.28126 0.87494,-0.38504 1.13083,-0.10603 0.26707,0.29117 0.003,0.8347 -0.21203,1.16617 -0.14755,0.22755 -0.80543,0.2236 -0.67144,0.45937 0.34635,0.6094 1.49338,-0.31851 1.90831,-0.88344 0.32345,-0.44043 -0.0144,-1.12821 0.212,-1.6256 0.3387,-0.74439 0.90918,-1.4432 1.6256,-1.83757 0.32402,-0.1784 0.78732,0.0279 1.09548,-0.1767 0.46292,-0.30732 0.51632,-0.9965 0.88346,-1.41357 0.4425,-0.50267 0.88776,-1.21421 1.55491,-1.27217 0.21545,-0.0186 0.47726,0.12059 0.56543,0.31803 0.13279,0.29752 -0.1614,0.63229 -0.21204,0.95414 -0.0588,0.374 -0.2019,0.76457 -0.10602,1.13084 0.0472,0.18017 0.13188,0.45372 0.31806,0.45943 0.70429,0.0217 0.79872,-1.17351 1.30751,-1.66094 0.26204,-0.25104 0.52073,-0.62704 0.88346,-0.63607 0.23845,-0.006 0.43432,0.21787 0.60077,0.38868 0.17343,0.17796 0.41159,0.3887 0.38873,0.63612 -0.0292,0.31561 -0.64442,0.38992 -0.6361,0.70677 0.007,0.26645 0.47069,0.31629 0.56541,0.56544 0.0713,0.18748 -0.22448,0.53393 -0.0353,0.60073 0.28665,0.10121 0.35966,-0.49039 0.5301,-0.7421 0.30592,-0.45187 0.50478,-0.98527 0.88343,-1.3782 0.35829,-0.37175 0.77039,-0.76212 1.27221,-0.88347 0.17328,-0.042 0.41548,-0.0658 0.53007,0.0707 0.18192,0.21672 -0.003,0.56701 -0.0353,0.8481 -0.0577,0.50033 -0.62727,1.11693 -0.28271,1.48424 0.12994,0.13851 0.43672,0.069 0.56541,-0.0707 0.3755,-0.40753 -0.0801,-1.12765 0.0707,-1.66094 0.22377,-0.7916 0.42426,-1.88614 1.2015,-2.15564 0.1447,-0.0501 0.34482,0.0457 0.42407,0.1767 0.20808,0.34406 -0.14825,0.80165 -0.106,1.20154 0.0505,0.47797 -0.0553,1.4139 0.42404,1.3782 0.62966,-0.0469 -0.21026,-1.47845 0.28273,-1.87297 0.12906,-0.10332 0.35503,0.1237 0.49473,0.0352 0.19219,-0.12169 0.11679,-0.4498 0.24737,-0.63607 0.0719,-0.10256 0.24246,-0.12881 0.2827,-0.2474 0.0579,-0.17063 -0.24644,-0.41715 -0.106,-0.53009 0.41103,-0.33051 1.13092,1.057 1.44887,0.63612 0.4237,-0.56077 -1.40315,-0.92535 -1.34287,-1.6256 0.0186,-0.21638 0.2862,-0.36327 0.49474,-0.42403 0.3199,-0.0931 0.80416,0.41816 0.9895,0.14133 0.29667,-0.4432 -0.92806,-0.85742 -0.8128,-1.37817 0.0494,-0.22335 0.3935,-0.23789 0.5654,-0.38871 0.11916,-0.10456 0.32865,-0.1953 0.31806,-0.3534 -0.0206,-0.30852 -0.69426,-0.29184 -0.70676,-0.60076 -0.0102,-0.24968 0.49352,-0.2829 0.53006,-0.5301 0.0547,-0.37016 -0.3226,-0.6781 -0.53006,-0.98944 -0.2275,-0.34146 -0.57664,-0.5964 -0.77747,-0.95417 -0.10394,-0.18519 -0.37567,-0.46544 -0.21203,-0.60074 0.37832,-0.3129 0.90915,0.41165 1.2722,0.74205 0.56811,0.51712 1.06324,1.15745 1.34287,1.87297 0.41907,1.07239 0.36008,2.27829 0.42407,3.42784 0.055,0.98803 0.26463,2.02545 -0.0353,2.96847 -0.30808,0.96836 -0.99899,1.80481 -1.73161,2.50904 -0.60313,0.57977 -1.46716,0.82008 -2.1203,1.34287 -0.1951,0.15613 -0.47984,0.2853 -0.5301,0.53004 -0.051,0.24855 0.38038,0.47264 0.2827,0.7068 -0.12796,0.30694 -0.58903,0.34586 -0.9188,0.3887 -0.7434,0.0966 -1.84684,-0.96452 -2.22634,-0.318 -0.15739,0.26819 0.68495,0.45499 0.56543,0.74207 -0.17351,0.41681 -0.89501,0.23382 -1.34287,0.1767 -0.52945,-0.0675 -0.965,-0.72435 -1.48423,-0.60077 -0.24362,0.058 -0.46663,0.31657 -0.49474,0.56544 -0.0195,0.17283 0.34276,0.314 0.24737,0.45943 -0.61584,0.93909 -2.26667,-0.0144 -3.35715,-0.28274 -0.47162,-0.11604 -0.85719,-0.56582 -1.34287,-0.56543 -0.33257,2.9e-4 -0.91442,0.0562 -0.9188,0.38874 -0.004,0.28467 0.65081,0.0985 0.77744,0.35339 0.16654,0.33528 -0.36085,0.73875 -0.24737,1.09551 0.1441,0.45305 0.84726,0.52905 1.06017,0.95413 0.17478,0.349 0.30694,0.83151 0.106,1.16617 -0.12502,0.2082 -0.43137,0.24607 -0.67143,0.28271 -0.85395,0.13035 -2.12833,-0.98392 -2.57971,-0.24737 -0.1605,0.26187 0.64835,0.51144 0.49473,0.77743 -0.40688,0.70449 -1.63779,0.0389 -2.43837,-0.10597 -0.48754,-0.0881 -1.04507,-0.12821 -1.41354,-0.45943 -0.36468,-0.3278 -0.2302,-1.02164 -0.60076,-1.34287 -0.2592,-0.22468 -0.65385,-0.35362 -0.98947,-0.2827 -0.450064,0.0951 -1.151668,0.43262 -1.060172,0.88344 0.0808,0.39804 0.887332,0.0581 1.166202,0.3534 0.24124,0.25552 0.22205,0.67431 0.24737,1.0248 0.0366,0.50741 -0.22691,1.01815 -0.14137,1.51957 0.0807,0.47281 0.46744,0.84681 0.60077,1.30754 0.0991,0.34248 0.37222,0.7885 0.14133,1.06017 -0.25947,0.3053 -0.82025,0.15844 -1.2015,0.0352 -1.031298,-0.33323 -2.056781,-1.02972 -2.57971,-1.97895 -0.25115,-0.45587 0.06358,-1.07653 -0.141365,-1.55493 -0.147941,-0.3453 -0.390427,-0.71611 -0.742104,-0.84811 -0.57864,-0.21719 -1.758498,-0.36559 -1.837633,0.24737 -0.05546,0.42957 0.919677,0.16587 1.201533,0.49474 0.228656,0.26684 0.439081,0.73028 0.247368,1.0248 -0.287387,0.44148 -1.379587,-0.21403 -1.554904,0.28273 -0.113961,0.32289 0.547342,0.45828 0.671435,0.77741 0.145232,0.37347 0.260378,0.87004 0.03533,1.20156 -0.154855,0.22818 -0.592412,0.0782 -0.777437,0.28268 -0.481161,0.53173 0.118618,1.77932 -0.530098,2.08503 -0.424236,0.19987 -0.969462,-0.2426 -1.272173,-0.6008 -0.45015,-0.53264 -0.60955,-1.31829 -0.565438,-2.01428 0.04208,-0.66378 0.872095,-1.17929 0.777465,-1.83763 -0.04764,-0.33144 -0.671237,-0.44447 -0.6361,-0.77744 0.0396,-0.37505 0.674539,-0.39285 0.883468,-0.7068 0.0475,-0.0714 0.07067,-0.24734 0.07067,-0.24734"
       sodipodi:nodetypes="caaaaaaaaaaaaaaaaaaaaaaaaaaaaaaaaaaaaaaaaaaaaaaaaaaaaaaaaaaaaaaaaaaaaaaaaaaaaaaaaaaaaaaaaaaaaaaaaaaaaaaaaaaaaaaaaaaaaaaaaaaaaaaaaaac" />
    <path
       style="fill:none;fill-rule:evenodd;stroke:#000000;stroke-width:0.52916664;stroke-linecap:round;stroke-linejoin:round;stroke-miterlimit:4;stroke-dasharray:none;stroke-opacity:1"
       d="m 120.89411,149.51683 c -1.01363,0.62478 -2.13261,1.07817 -3.29526,1.33517 -0.86988,0.19229 -1.76056,0.27489 -2.6504,0.31803 -2.20216,0.10676 -4.50073,-0.008 -6.50328,0.91469 -1.51168,0.69625 -2.73208,1.93631 -4.27267,2.56602 -1.54337,0.63085 -3.27024,0.59553 -4.89557,0.96734 -1.332178,0.30475 -2.587158,0.88131 -3.906068,1.23915 -2.006407,0.54436 -4.151653,0.56832 -6.169716,0.0689 l 0.04654,-0.56865 c 1.753287,0.57097 3.654873,0.67963 5.461789,0.31211 1.311277,-0.26671 2.56259,-0.77635 3.870057,-1.06115 1.577018,-0.34352 3.217898,-0.35612 4.775168,-0.78026 1.39615,-0.38026 2.70086,-1.09191 3.77645,-2.05986"
       id="path6103"
       inkscape:connector-curvature="0"
       inkscape:path-effect="#path-effect6121"
       inkscape:original-d="m 120.89411,149.51683 c 0,0 -2.1476,1.03943 -3.29526,1.33517 -0.86165,0.22202 -1.76806,0.20306 -2.6504,0.31803 -2.17074,0.28288 -4.4397,0.18407 -6.50328,0.91469 -1.56608,0.55448 -2.72254,1.96841 -4.27267,2.56602 -1.55206,0.59834 -3.28433,0.55397 -4.89557,0.96734 -1.323114,0.33946 -2.557357,1.02263 -3.906068,1.23915 -2.030702,0.326 -6.169716,0.0689 -6.169716,0.0689 -0.129568,-0.13925 -0.09999,-0.44737 0.04654,-0.56865 0,0 3.648314,0.50372 5.461789,0.31211 1.330226,-0.14054 2.56317,-0.77605 3.870057,-1.06115 1.575788,-0.34378 3.249708,-0.25663 4.775168,-0.78026 1.35622,-0.46553 3.77645,-2.05986 3.77645,-2.05986"
       sodipodi:nodetypes="caaaaaassaaac" />
    <path
       style="fill:#000000;fill-rule:evenodd;stroke:#000000;stroke-width:0.52916664;stroke-linecap:round;stroke-linejoin:round;stroke-miterlimit:4;stroke-dasharray:none;stroke-opacity:1"
       d="m 103.94345,151.23839 c 0.28071,0.40939 0.75609,0.67872 1.25154,0.70908 0.24738,0.0152 0.49447,-0.0259 0.74213,-0.0353 0.29907,-0.0114 0.60587,0.0224 0.89229,-0.0644 0.14322,-0.0434 0.27948,-0.11825 0.37878,-0.2302 0.0993,-0.11196 0.15851,-0.26333 0.14247,-0.41211 -0.009,-0.0865 -0.0431,-0.16904 -0.0881,-0.24356 -0.0449,-0.0745 -0.10087,-0.14175 -0.15792,-0.20746 -0.11409,-0.13143 -0.23738,-0.26484 -0.28413,-0.43248 -0.0179,-0.0642 -0.0237,-0.13095 -0.032,-0.19704 -0.008,-0.0661 -0.0194,-0.13278 -0.0469,-0.19347 -0.0401,-0.0887 -0.11422,-0.15997 -0.20069,-0.2047 -0.0865,-0.0447 -0.18476,-0.064 -0.28212,-0.0643 -0.19472,-6.1e-4 -0.38132,0.0716 -0.56333,0.1408 -0.34462,0.13101 -0.69637,0.25722 -0.99873,0.46818 -0.34015,0.23733 -0.60638,0.57906 -0.75331,0.96692 l -3e-5,5e-5 z"
       id="path6105"
       inkscape:connector-curvature="0"
       inkscape:path-effect="#path-effect6133"
       inkscape:original-d="m 103.94345,151.23839 c 0.0937,0.47024 0.78514,0.59791 1.25154,0.70908 0.2409,0.0574 0.50252,0.0274 0.74213,-0.0353 0.50967,-0.13315 1.26625,-0.20097 1.41354,-0.70674 0.096,-0.32975 -0.40592,-0.56329 -0.5301,-0.8835 -0.048,-0.12381 0.0186,-0.30031 -0.0789,-0.39051 -0.25787,-0.23862 -0.69921,-0.18353 -1.04614,-0.12818 -0.36311,0.0579 -0.7114,0.23881 -0.99873,0.46818 -0.31933,0.25487 -0.83318,0.56622 -0.75331,0.96692 z"
       sodipodi:nodetypes="aaaaaaaaa" />
    <path
       style="fill:#000000;fill-rule:evenodd;stroke:#000000;stroke-width:0.52916664;stroke-linecap:butt;stroke-linejoin:miter;stroke-miterlimit:4;stroke-dasharray:none;stroke-opacity:1"
       d="m 108.1281,155.55201 c -0.80049,0.49882 -1.81972,0.63119 -2.72108,0.3534 -0.1754,-0.0541 -0.34729,-0.12297 -0.52836,-0.153 -0.0905,-0.015 -0.18319,-0.0201 -0.2742,-0.008 -0.091,0.0118 -0.18046,0.0409 -0.25758,0.0906 -0.1129,0.0728 -0.19357,0.18506 -0.26963,0.29579 -0.0761,0.11073 -0.1525,0.22498 -0.26047,0.30492 -0.12632,0.0935 -0.28384,0.13149 -0.43495,0.17472 -0.0755,0.0216 -0.15088,0.0452 -0.22196,0.0787 -0.0711,0.0335 -0.13814,0.0774 -0.19119,0.13538 -0.0691,0.0755 -0.11246,0.17455 -0.11941,0.27668 -0.007,0.10213 0.0229,0.20666 0.084,0.28876 0.0481,0.0645 0.11402,0.11437 0.186,0.15029 0.072,0.0359 0.15,0.0584 0.22883,0.0745 0.15767,0.032 0.32059,0.0389 0.4747,0.0851 0.30016,0.09 0.53631,0.31825 0.81148,0.46815 0.1382,0.0753 0.29028,0.13159 0.44761,0.13544 0.0787,0.002 0.15797,-0.009 0.23169,-0.037 0.0737,-0.0275 0.14174,-0.0713 0.19457,-0.12967 0.0703,-0.0776 0.11181,-0.179 0.1251,-0.28286 0.0133,-0.10386 -6.2e-4,-0.2101 -0.0315,-0.31015 -0.0512,-0.16588 -0.14707,-0.31365 -0.22553,-0.46851 -0.0785,-0.15486 -0.14117,-0.32698 -0.11779,-0.499 0.0157,-0.11558 0.0707,-0.2247 0.15051,-0.30974 0.0798,-0.085 0.1838,-0.14624 0.2955,-0.17985 0.22339,-0.0672 0.47014,-0.0229 0.67757,0.0839 0.24761,0.12742 0.44234,0.33503 0.64421,0.52685 0.20187,0.19182 0.42669,0.3771 0.69781,0.44066 0.2427,0.0569 0.50634,0.007 0.71786,-0.12483 0.11231,-0.07 0.21142,-0.1632 0.27992,-0.27644 0.0685,-0.11325 0.10529,-0.24707 0.0946,-0.37899 -0.01,-0.1198 -0.0579,-0.23444 -0.1259,-0.33353 -0.068,-0.0991 -0.15542,-0.18355 -0.24861,-0.25945 -0.0981,-0.0799 -0.20326,-0.15108 -0.31388,-0.21245 l 8e-5,1e-5 z"
       id="path6107"
       inkscape:connector-curvature="0"
       inkscape:path-effect="#path-effect6131"
       inkscape:original-d="m 108.1281,155.55201 c -0.88994,-0.21116 -1.80688,0.32478 -2.72108,0.3534 -0.35399,0.011 -0.73265,-0.20551 -1.06014,-0.0707 -0.24694,0.10169 -0.31569,0.44148 -0.5301,0.60071 -0.24965,0.18542 -0.67208,0.13239 -0.8481,0.38876 -0.10691,0.15568 -0.1399,0.40815 -0.0354,0.56544 0.17382,0.2615 0.60404,0.17918 0.88953,0.30985 0.28395,0.12996 0.50843,0.39277 0.81148,0.46815 0.28284,0.0704 0.65569,0.16208 0.87387,-0.0312 0.1498,-0.1327 0.11207,-0.39373 0.0936,-0.59301 -0.0315,-0.34075 -0.48957,-0.65814 -0.34332,-0.96751 0.17021,-0.35998 0.72923,-0.46093 1.12358,-0.40572 0.54616,0.0764 0.80462,0.84381 1.34202,0.96751 0.2367,0.0545 0.51904,0.0147 0.71786,-0.12483 0.20597,-0.14455 0.38007,-0.40386 0.37451,-0.65543 -0.005,-0.23374 -0.21186,-0.42506 -0.37451,-0.59298 -0.0879,-0.0907 -0.19095,-0.1833 -0.31388,-0.21245 z"
       sodipodi:nodetypes="aaaaaaaaaaaaaaaaa" />
    <path
       style="fill:none;fill-rule:evenodd;stroke:#000000;stroke-width:0.52916664;stroke-linecap:round;stroke-linejoin:round;stroke-miterlimit:4;stroke-dasharray:none;stroke-opacity:1"
       d="m 94.628758,153.71444 c 0.0055,0.59048 -0.02998,1.18133 -0.10603,1.76691 -0.0649,0.49972 -0.159355,0.99561 -0.282702,1.4842"
       id="path6109"
       inkscape:connector-curvature="0"
       inkscape:path-effect="#path-effect6127"
       inkscape:original-d="m 94.628758,153.71444 c 0,0 -0.03299,1.18138 -0.10603,1.76691 -0.06231,0.49975 -0.282702,1.4842 -0.282702,1.4842"
       sodipodi:nodetypes="cac" />
    <path
       style="fill:none;fill-rule:evenodd;stroke:#000000;stroke-width:0.52916664;stroke-linecap:round;stroke-linejoin:round;stroke-miterlimit:4;stroke-dasharray:none;stroke-opacity:1"
       d="m 93.456125,157.31017 c 0.3863,0.6676 0.608769,1.42922 0.642564,2.19979 0.02897,0.66052 -0.08006,1.32677 -0.318065,1.9436"
       id="path6111"
       inkscape:connector-curvature="0"
       inkscape:path-effect="#path-effect6129"
       inkscape:original-d="m 93.456125,157.31017 c 0,0 0.595997,1.4373 0.642564,2.19979 0.03999,0.65526 -0.318065,1.9436 -0.318065,1.9436"
       sodipodi:nodetypes="cac" />
    <path
       style="fill:none;fill-rule:evenodd;stroke:#000000;stroke-width:0.52916664;stroke-linecap:round;stroke-linejoin:round;stroke-miterlimit:4;stroke-dasharray:none;stroke-opacity:1"
       d="m 119.46124,150.36189 c 0.29018,-0.51239 0.41904,-1.11462 0.36395,-1.7009 -0.0274,-0.29125 -0.0991,-0.57829 -0.21203,-0.84816"
       id="path6113"
       inkscape:connector-curvature="0"
       inkscape:path-effect="#path-effect6125"
       inkscape:original-d="m 119.46124,150.36189 c 0,0 0.37386,-1.12118 0.36395,-1.7009 -0.005,-0.29136 -0.21203,-0.84816 -0.21203,-0.84816"
       sodipodi:nodetypes="cac" />
    <path
       style="fill:none;fill-rule:evenodd;stroke:#000000;stroke-width:0.52916664;stroke-linecap:round;stroke-linejoin:round;stroke-miterlimit:4;stroke-dasharray:none;stroke-opacity:1"
       d="m 121.36539,149.04425 0.21615,-2.17858"
       id="path6115"
       inkscape:connector-curvature="0"
       inkscape:path-effect="#path-effect6123"
       inkscape:original-d="m 121.36539,149.04425 c 0,0 -0.11811,-1.03827 0.21615,-2.17858"
       sodipodi:nodetypes="cc" />
    <path
       inkscape:connector-curvature="0"
       id="path5578-5"
       style="fill:none;stroke:#000000;stroke-width:0.65042895;stroke-linecap:round;stroke-linejoin:round;stroke-miterlimit:4;stroke-dasharray:none;stroke-opacity:1"
       d="m 83.074723,127.69313 45.517217,0 0,42.28041 -45.517217,0 z" />
    <flowRoot
       clip-path="url(#clipPath1755-8)"
       transform="matrix(0.2822222,0,0,0.2822222,61.07956,122.62521)"
       style="font-style:normal;font-weight:normal;line-height:0.01%;font-family:sans-serif;letter-spacing:0px;word-spacing:0px;fill:#000000;fill-opacity:1;stroke:#000000;stroke-width:0.75;stroke-linecap:round;stroke-linejoin:round;stroke-miterlimit:4;stroke-dasharray:none;stroke-opacity:1"
       id="flowRoot50916"
       xml:space="preserve"><flowRegion
         style="fill:#000000;stroke:#000000;stroke-opacity:1"
         id="flowRegion50912"><rect
           y="148.35118"
           x="82.30909"
           height="16.611736"
           width="11.322989"
           id="rect50910"
           style="fill:#000000;stroke:#000000;stroke-width:0.75;stroke-linecap:round;stroke-linejoin:round;stroke-miterlimit:4;stroke-dasharray:none;stroke-opacity:1" /></flowRegion><flowPara
         style="font-style:normal;font-variant:normal;font-weight:normal;font-stretch:normal;font-size:15px;line-height:100%;font-family:'Ume Mincho Balsa';-inkscape-font-specification:'Ume Mincho Balsa, Normal';text-align:start;writing-mode:lr-tb;text-anchor:start;fill:#000000;stroke:#000000;stroke-width:0.75;stroke-linecap:round;stroke-linejoin:round;stroke-miterlimit:4;stroke-dasharray:none;stroke-opacity:1"
         id="flowPara50914">2</flowPara></flowRoot>  </g>
</svg>
