<?xml version="1.0" encoding="UTF-8" standalone="no"?>
<!-- Created with Inkscape (http://www.inkscape.org/) -->

<svg
   xmlns:dc="http://purl.org/dc/elements/1.1/"
   xmlns:cc="http://creativecommons.org/ns#"
   xmlns:rdf="http://www.w3.org/1999/02/22-rdf-syntax-ns#"
   xmlns:svg="http://www.w3.org/2000/svg"
   xmlns="http://www.w3.org/2000/svg"
   xmlns:xlink="http://www.w3.org/1999/xlink"
   xmlns:sodipodi="http://sodipodi.sourceforge.net/DTD/sodipodi-0.dtd"
   xmlns:inkscape="http://www.inkscape.org/namespaces/inkscape"
   width="46.127903mm"
   height="33.596622mm"
   viewBox="0 0 46.127903 33.596623"
   version="1.1"
   id="svg32476"
   inkscape:version="0.91 r13725"
   sodipodi:docname="ludum-02-couleur.svg">
  <defs
     id="defs32470">
    <inkscape:path-effect
       effect="spiro"
       id="path-effect5106"
       is_visible="true" />
    <inkscape:path-effect
       effect="spiro"
       id="path-effect5110"
       is_visible="true" />
    <inkscape:path-effect
       effect="spiro"
       id="path-effect5114"
       is_visible="true" />
    <inkscape:path-effect
       effect="spiro"
       id="path-effect5118"
       is_visible="true" />
    <inkscape:path-effect
       effect="spiro"
       id="path-effect5122"
       is_visible="true" />
  </defs>
  <sodipodi:namedview
     id="base"
     pagecolor="#ffffff"
     bordercolor="#666666"
     borderopacity="1.0"
     inkscape:pageopacity="0.0"
     inkscape:pageshadow="2"
     inkscape:zoom="3.7423402"
     inkscape:cx="98.120155"
     inkscape:cy="45.849153"
     inkscape:document-units="mm"
     inkscape:current-layer="layer4"
     showgrid="false"
     fit-margin-top="0"
     fit-margin-left="0"
     fit-margin-right="0"
     fit-margin-bottom="0"
     inkscape:window-width="1920"
     inkscape:window-height="1031"
     inkscape:window-x="0"
     inkscape:window-y="27"
     inkscape:window-maximized="1" />
  <metadata
     id="metadata32473">
    <rdf:RDF>
      <cc:Work
         rdf:about="">
        <dc:format>image/svg+xml</dc:format>
        <dc:type
           rdf:resource="http://purl.org/dc/dcmitype/StillImage" />
        <dc:title />
      </cc:Work>
    </rdf:RDF>
  </metadata>
  <g
     inkscape:groupmode="layer"
     id="layer4"
     inkscape:label="vecto"
     style="display:inline">
    <image
       style="display:inline"
       y="3.511395"
       x="3.0006332"
       id="image4296"
       xlink:href="data:image/png;base64,iVBORw0KGgoAAAANSUhEUgAABJoAAAO8AQAAAAApQOOOAAAJJGlDQ1BpY2MAAHjalZVnUJNZF8fv 8zzphUASQodQQ5EqJYCUEFoo0quoQOidUEVsiLgCK4qINEUQUUDBVSmyVkSxsCgoYkE3yCKgrBtX ERWUF/Sd0Xnf2Q/7n7n3/OY/Z+4995wPFwCCOFgSvLQnJqULvJ3smIFBwUzwg8L4aSkcT0838I96 Pwyg5XhvBfj3IkREpvGX4sLSyuWnCNIBgLKXWDMrPWWZDy8xPTz+K59dZsFSgUt8Y5mjv/Ho15xv LPqa4+vNXXoVCgAcKfoHDv+B/3vvslQ4gvTYqMhspk9yVHpWmCCSmbbcCR6Xy/QUJEfFJkT+UPC/ Sv4HpUdmpy9HbnLKBkFsdEw68/8ONTIwNATfZ/HW62uPIUb//85nWd+95HoA2LMAIHu+e+GVAHTu AED68XdPbamvlHwAOu7wMwSZ3zzU8oYGBEABdCADFIEq0AS6wAiYAUtgCxyAC/AAviAIrAN8EAMS gQBkgVywDRSAIrAH7AdVoBY0gCbQCk6DTnAeXAHXwW1wFwyDJ0AIJsArIALvwTwEQViIDNEgGUgJ Uod0ICOIDVlDDpAb5A0FQaFQNJQEZUC50HaoCCqFqqA6qAn6BToHXYFuQoPQI2gMmob+hj7BCEyC 6bACrAHrw2yYA7vCvvBaOBpOhXPgfHg3XAHXwyfgDvgKfBsehoXwK3gWAQgRYSDKiC7CRriIBxKM RCECZDNSiJQj9Ugr0o30IfcQITKDfERhUDQUE6WLskQ5o/xQfFQqajOqGFWFOo7qQPWi7qHGUCLU FzQZLY/WQVugeehAdDQ6C12ALkc3otvR19DD6An0ewwGw8CwMGYYZ0wQJg6zEVOMOYhpw1zGDGLG MbNYLFYGq4O1wnpgw7Dp2AJsJfYE9hJ2CDuB/YAj4pRwRjhHXDAuCZeHK8c14y7ihnCTuHm8OF4d b4H3wEfgN+BL8A34bvwd/AR+niBBYBGsCL6EOMI2QgWhlXCNMEp4SyQSVYjmRC9iLHErsYJ4iniD OEb8SKKStElcUggpg7SbdIx0mfSI9JZMJmuQbcnB5HTybnIT+Sr5GfmDGE1MT4wnFiG2RaxarENs SOw1BU9Rp3Ao6yg5lHLKGcodyow4XlxDnCseJr5ZvFr8nPiI+KwETcJQwkMiUaJYolnipsQUFUvV oDpQI6j51CPUq9RxGkJTpXFpfNp2WgPtGm2CjqGz6Dx6HL2IfpI+QBdJUiWNJf0lsyWrJS9IChkI Q4PBYyQwShinGQ8Yn6QUpDhSkVK7pFqlhqTmpOWkbaUjpQul26SHpT/JMGUcZOJl9sp0yjyVRclq y3rJZskekr0mOyNHl7OU48sVyp2WeywPy2vLe8tvlD8i3y8/q6Co4KSQolCpcFVhRpGhaKsYp1im eFFxWommZK0Uq1SmdEnpJVOSyWEmMCuYvUyRsryys3KGcp3ygPK8CkvFTyVPpU3lqSpBla0apVqm 2qMqUlNSc1fLVWtRe6yOV2erx6gfUO9Tn9NgaQRo7NTo1JhiSbN4rBxWC2tUk6xpo5mqWa95Xwuj xdaK1zqodVcb1jbRjtGu1r6jA+uY6sTqHNQZXIFeYb4iaUX9ihFdki5HN1O3RXdMj6Hnppen16n3 Wl9NP1h/r36f/hcDE4MEgwaDJ4ZUQxfDPMNuw7+NtI34RtVG91eSVzqu3LKya+UbYx3jSONDxg9N aCbuJjtNekw+m5qZCkxbTafN1MxCzWrMRth0tie7mH3DHG1uZ77F/Lz5RwtTi3SL0xZ/Wepaxls2 W06tYq2KXNWwatxKxSrMqs5KaM20DrU+bC20UbYJs6m3eW6rahth22g7ydHixHFOcF7bGdgJ7Nrt 5rgW3E3cy/aIvZN9of2AA9XBz6HK4ZmjimO0Y4ujyMnEaaPTZWe0s6vzXucRngKPz2viiVzMXDa5 9LqSXH1cq1yfu2m7Cdy63WF3F/d97qOr1Vcnre70AB48j30eTz1Znqmev3phvDy9qr1eeBt653r3 +dB81vs0+7z3tfMt8X3ip+mX4dfjT/EP8W/ynwuwDygNEAbqB24KvB0kGxQb1BWMDfYPbgyeXeOw Zv+aiRCTkIKQB2tZa7PX3lwnuy5h3YX1lPVh68+EokMDQptDF8I8wurDZsN54TXhIj6Xf4D/KsI2 oixiOtIqsjRyMsoqqjRqKtoqel/0dIxNTHnMTCw3tir2TZxzXG3cXLxH/LH4xYSAhLZEXGJo4rkk alJ8Um+yYnJ28mCKTkpBijDVInV/qkjgKmhMg9LWpnWl05c+xf4MzYwdGWOZ1pnVmR+y/LPOZEtk J2X3b9DesGvDZI5jztGNqI38jT25yrnbcsc2cTbVbYY2h2/u2aK6JX/LxFanrce3EbbFb/stzyCv NO/d9oDt3fkK+Vvzx3c47WgpECsQFIzstNxZ+xPqp9ifBnat3FW560thROGtIoOi8qKFYn7xrZ8N f674eXF31O6BEtOSQ3swe5L2PNhrs/d4qURpTun4Pvd9HWXMssKyd/vX779Zblxee4BwIOOAsMKt oqtSrXJP5UJVTNVwtV11W418za6auYMRB4cO2R5qrVWoLar9dDj28MM6p7qOeo368iOYI5lHXjT4 N/QdZR9tapRtLGr8fCzpmPC49/HeJrOmpmb55pIWuCWjZfpEyIm7J+1PdrXqtta1MdqKToFTGade /hL6y4PTrqd7zrDPtJ5VP1vTTmsv7IA6NnSIOmM6hV1BXYPnXM71dFt2t/+q9+ux88rnqy9IXii5 SLiYf3HxUs6l2cspl2euRF8Z71nf8+Rq4NX7vV69A9dcr9247nj9ah+n79INqxvnb1rcPHeLfavz tuntjn6T/vbfTH5rHzAd6Lhjdqfrrvnd7sFVgxeHbIau3LO/d/0+7/7t4dXDgw/8HjwcCRkRPox4 OPUo4dGbx5mP559sHUWPFj4Vf1r+TP5Z/e9av7cJTYUXxuzH+p/7PH8yzh9/9UfaHwsT+S/IL8on lSabpoymzk87Tt99ueblxKuUV/MzBX9K/FnzWvP12b9s/+oXBYom3gjeLP5d/Fbm7bF3xu96Zj1n n71PfD8/V/hB5sPxj+yPfZ8CPk3OZy1gFyo+a33u/uL6ZXQxcXHxPy6ikLxyKdSVAAAAIGNIUk0A AHomAACAhAAA+gAAAIDoAAB1MAAA6mAAADqYAAAXcJy6UTwAAAACYktHRAAB3YoTpAAAAAlwSFlz AAADIAAAAyAAPOSjYgAAAAd0SU1FB+IGCAgON/WBFF8AAEv2SURBVHja7Z1djB3HlZjr8tJzKYji paAHU9DPnY2D1UsQ0VCwpmBZPc4u1i+L6DlAEM9mAxgBFhAXBmIZq2W3146lxWpNGnkIg8geJS/7 yg3yoMUKOy3LEBmEK+pRiyia1k9IPWjFpiiIPZqe7tz6P1V1qrq7bk80D2rA1vB2d9XXp06d+jt1 irSH78rJF03wJdSXUF9CjX+9exihopM+QKjm2LXDB0XI/NBB3SHkxKGDep+Qo+khg2o2CZlGvntg UCUhZHbIoOriEEJVSybylUMG9TKFuv9wQZUZhVocLihWeocN6hUGlRwqqOoMg0oPFVR+mkFFv34Q UPu/YkzzQwVVPr+SSh0MVM6YTqSHEGq+wvvjM+1nq5XegUARft0+TFDcmpNJfAoHAFVzqO8dJqj6 X60qqAOAeucYg/rmoYJaIyvWvQOAqjcZ0+lDBVUyqCPfWiWN8aFWL73xoQqyUlfqQKBq3u49caig uDlfe3KlRMaGKlbXqPGhRlDz0aHeYUwn00MFxXpS0+pQQe0wqLUVmUaGemMEIzU61FHG9OCqyYwK xbt3X3nnMEFVFxjU11ZOaEyoK1yj/uAwQqWHCepytuIY9CCgOFP0TNmBQNW8e3f39mGCGk9Q40ON kdRoUGJcHLvycaBQ6aGCKscrvdGg9kZUqbGgmrOcKXaJ6GCg1jnUzUMFxZm+PkpiY0FdHWUUMzJU vvJE2fhQ3EitjaPmY0HxLufsxqGC4hr19EhM40DVIxrO0aCOM6aNQwVV/YRBfftQQZ0es4kZCUos e4zS5xwN6hLvIPxgNKYRoG5zqGPpoYLignrwUEG9uvKi1fhQO2JcPFYTMwqUGFo9NSLTaFDpoYL6 vRGHVmNBiX7woYLavzra/M94UGIIOvKyxYpQYiHtx4cRalymFaHeOzvKWsy4UMXpgxDUalCib776 xPkBQC0OFRQ3CNP0MEEl5QEYzlWhXuQTCNuHCoq3MHePzrQSVH5ApbcKFPeLWDtUUDe5J/WR8cag I0Bd5j5JR8Zniofayg+gd7cq1KIceQJhDKiE91ruO0xQeyf4NOcq/oCjQ90ae/pnRKj5YYLiPooT d3XvxhgzQrFQGwxqYf/ejDJNFQd1Q3TvHrJvVKOshMRBFW951mLKjTGWQuKguOE8uYHd+MKguOF8 wPl9vxplZTsOKvcYqboYZSUrCqr2Gal6nOW1GKjbrPQmk9S588oXB/Uu691Nttw7R8cZLsdAiWVQ F6oZqdMXAVVnXgeSkfxKIqA+4IK65t75gy8OqvAuYjMBJl8IlH+498VBifngJEHS+sKK76IYxWzj UGP0RQdD7eVeX43R+qKDofzOW7zrsPNFQF30TpSxWnl0BKbBULV/FJONNpIYClUSn0qx9e0TybDk 7GsrBqryW06G+3C6EtO7FyKgmioPQy1WE5SgGQa1y0sPDTlQjqBSUVCi9O7HE8QGgoOuOxk3NcOg ArP5ta9Y+1/NaVGDoqCwW9XqE0P1uvjeYVD+usehktWgyApQ7/pSnK0GVWRRUJm/c9Ks3kMoZNM5 DCrQOanHsFJCMyKg5uitamWVoj7R00ioGS6PcuXpa937GKxT0/fxW9UYdS8a6s6BQrXDoYpADctW LL08FqoM1LBsxXFMpnvZQ6H+vffeT76xEtMudRY9EQP1YsA8PrcSE5+YX4uBOj/f9t67thoUHMkO 7A5f2x70eP+Lj7uf246BOrCrhq3qIYFiIdAOHRRTKekr2hPqRnrAVG/AHm0/qJf/bXLAUMZ4pB/U qQNa2FPXe0afqA9U9fxBrTaqi6nUc/pf3W/sXjhwKNrwTXaGQNGx+sFCVWaPtg/U2fwAvMmM67Q5 xO0DtfqIruNibcx0PgSKvbJav6TjYm3MbHsIVGAIM9L1sZVDN9TfHTzUB5aCdEM9n48wGxa+CmvW pBPqH7yTnONd9LOfHgIVmGgZ6/rYnpjvghIrMQcK9TrN4Y8HQK0eX67zqp2JuA6oks+8Hnv0AKEq Z36pA+rnHOp4etBQ8wFQf/4SCa24jMK6ORSKh7TxRf+pHhmBqSQDobjLstecV2OsOJZuRQpDvRC0 nHvlaFBmDkGo5qh3xZEJaqQFY2duNwjFrfnRu/C7++UoPiRkGJRYLiav4bfrs2NAsd75ACjuRk3I efx2Q8aAYoJaDIDiTPdu+6F2VmW6gdXuAFSZB+ve28fHkNR7Q6HCbXFFRoCq0aU6P1SzyaF+G7/N FklX7jzUqMnxQ3Ek7xT1bjYGVDUMqglDNc/4F7QGCKpCU/FCiUVQX1wNaqRG8Lb5CB2UeKE2ONST T+O3n8nGgNr/NcGc+3xQovSOJZ7bp7MxRoNswDfrDfUshzrlSU0wL8aAcr/MA/XZOs/1AU9q2ThQ nkQ8UL/mdvNVT65NNsoYp6FtxnH3dw8U70hNdzypjRMrrPm9HNdLHOptnqlvl9z7pziTZz2y78X2 JEyQGoxC7V0Nq8x7x4LGvu/1gi8TFErsPyHbPqjweKLv9aJPL1Eo2T/wQNVi0mNrNSbeUiGCwqH4 MQzT857ETm6OYg+aM77ODwbVhEtHVL2Vp6war1XBoF4Mq7mESseAun+7J1R4CDoWVHOOZdIPal+c DeHdwMQ7ZtObKwqq2vC2CS5UfSzYkRJ1c/X9q4OgXg93g0VjfGTlETv7tr/uB3Uj72jXeN2cxp7k BHL26q0DdV2o8VfDkkq2VkPaF8n0gpIDq0CvJBtjwNe+RlP5adoLKucdgFB4uTF6UnxGZ3Iev2dD /YpDhU7VoZJaOYY221vt01sL6uXf4YV3PpAehWpWhfrTUA23oIS1DlatLP5kN32RAVBigSFUOkuT sLYYByrpBTXhPalZkwah5isz3abZeE9nNKFI3mOUEta4fhfLx+vmb0DJSY3wlo7s8WsrQ7FPP9cL 6pwYFs+DCZaPrziKEVD+vg+Eap7gzVpHHL5VT2lYXp/3hyo3ONRfhlPcX5mp/e9hzQVQvyi9nZYR hGNcF8I9VwCV8ap3aoFAJeNCkf5Qwpq7UHfqcYM1NB3jaw11W9iDB7adh24/Ma7n3v/oDfVXxDvu 3T02LlTXYEhDXfRDVdmoUKxCHQ88oKD2/N3ga7mv+m5HQWXeAZ8FJbvByARCfdUHde3eeKi0h6TE djRsQFD7+uRVXBem6RxfS6h3M99YvKl9aRRxEy9lZ0dEQO3mDAqb6/NDbZKo4lun6QV3bUlJcUGh +5ae8UDV61GDmqZ7HklAPSeaPUwgPhXI46aHuZEOPsKhZJBlzCOj8SRC19ZiJPV+l5WyoTBBbXr0 sowbKO/+qrP0BNQx0eVM0SfwhiqPGyjfyntCfSxamF8iD1SePha+fNh9vdtpOjlUyVdi0Gq6X3nK 9eM4KNNFPwBVCI3CZMrnGt1iun21o/vhg+o05wIqD6g5F9Tc+f39LA6q7TYIBhTmuSUOIlk4N9j0 0iRph15v9Sl1DYXvmS08BcveQWLg9BJUl4ApVOaRRitPDUV42WjsSBzUgz2g9v0aJboOrq/SDvEX w81Adqx5WGx3Q+16S29LQLlpnwpAfZz4syvxauNCfebLYE8McNzI9TKMCprk1UdD2fWEqnFptDv/ lWv5UTdvHpnnMTzJzK8yfJJ+pwdUhUPVx4WpQCZl+fHCeIjDVwIt4uXOTqcJ5eRczwSUK+3rJJD4 y4Eaf61f27SEylGoW3IGDXVmCEDlgVx/0qPh41Bo67a394GEcjaC7OcBE3hfkU23PZn1DfQgJWU9 upN9U5gDLKR37re2zST3B1ZiiuLxXLOgCqT4fiyRsA/j1dV15mFQgSbxDjufsceRkUqnjIS+NyMB qDJQem8ECuhCn26LgMpcKLKmoAj2jh/qg0DPpOzb21GSguo8yTTT/3FeEdXyJppe0QE1+YshUNA8 Ayi96c7M11NGwfpFM5r+WT8oQaDMx26t5TRxp4KFoPBiYJNcp/GsWLKBLd+IpLTJA2WHfXQRgjoV gPqQtVk9mCjUS2b+QE7kCHJQPWc+OkeTy/ydB/41i55Qhak9sPCm7lydMOeerRg53liyq1+7Z0LJ j6g01Byb5+cixKURGkAx3nuGQt3PlbpUTOtPusLeKwIahbZY8soCQkSh1ukLp65YUKR15VFatcK4 msC94VCbLLUX2C9ScHgQzCAUdyfy7PDpa85bYRImbCQ1mRhQT1xGHt8WUKjHkD+Enkx2CNSMT1gz KD4DQSZZuoM9fymQMYfyLMKyZHvu0WVQU1Eq4HMnOwn2+C63UqfRjHkixntb1+RfoZJFoIolFK/o r21JqEm+tYU9/iqDWnsWJS6hZWFXs5D/YnXgTM8TvZZQJVVbbaoY059nO+jjXFBz9B7ied08KP9V +rXNK6n2dG5A3UblFD42hQvK6D3X6tFiMNRMth6phLqxjcoiD0Hxm0+ZnPLRTOpsb6i5fIv2n9cn Xvsnaibe4lYZcTIuREnvs6PrzgyGWpdGoZhunvB7xjA9R6GEBTN+k5aJz731XqZXUDzNH9K1qe/P tzxPCz0PQaXgp0ZC1etDSk8Yz+UffELo8WVKc6TJa9lJeMLD8zlPSk7FvKigBpjzVnSHZ1oK2/hj BQO5wK0Z+kTlqtsdBXm1f2MsoC5xKD4RluCPFYD7VfQJXnrGmkWjKupP/HXWA1UKwQbsYp1P1BOe 6SUOZSwEaag88L1hqMxf8BVTYN+KCLtY/TL94koFVXirRy8o9Htojf6ufABX82bDqXvMwZ9BXR9W ehDql7xuuc/s0e6WpJ54woS5VkqN4Hmj6JmM9EBdFFD7PnN96zSHChmEENQr7L3bg6CeN6FcMWen Get1xGSrC+meH5PledFTAiGoUr5w1lN+QoAsRJTv1OPaqQSsWqzRv5h5e3Io1Ez9A+tgVEKAVwJW CgmFXCpdYMluDYOqFFSBlV8jGhf+wXNPOhwKfo/qQV0fWnq87XsEpjOx8n1nk+tSGehKCSjjZiFR WKUddLQta/tSkA6ZWJO7cm7hkr8rJZ4yXV9yAbWH6kQ3lEzsA6z+rRNwBTcZGOFHWa9DN05DoXJL p0yoy0U31BYvPmOqOpNQlaKLg+K1j8x3wAOv5RBqjqXxyn/gdQ3e1L6A7KM8IRf8UIUNdewpfV/u 7CE+y7q8tnMuDwhVy0+4OVzPdXdYiXx5XdP3LxhMyQ6WxmNLjfFCFYFmoA/UVOYNpjZMQaVYEsxB vbT6NKU05wzq30VA8ULRU3gqYG7zOwaTd1ZqSvOGd28rlcpDhsQPlXNJXS515lIiFekBdRWB0lZ8 RagLDtSNXbP00LQbIqDm4Edm8ejQdm9wG9NCk/C7IHfhinOjNSWVYin8Lb3zW5aeF8I28co7b4dd rJdA277P/hnIfcIPOH7XFBRuAVkX7qSJ3BTCfNwabs5b0Uu4TzufQu3ZLUxB4UMG9RDIWjXPZYRB EJK6FyStoe4UpfljgiXwEVK4fOrgW5L421FQk9bSaPZxNyxQ3LOlgN8hodYFJO8kv9qLxIX60IZK t1Dp9YNSHQPuHHI+CmraEPs6O6vWrJ/Q0hNLNabGaS/MLMIgCEWf1g4Umb1p/fAj9P13FRTYAcR0 ke7n2iErQL3gQs0tLcfdhG9MFBQwGPSfxx9uxX70pBeIA0UUlMqCTN43oXAPZFDuWiAPKpRMFmMM 1HFJMrGUW18L9PU9BKpho1BqkFmzfKoniQkFONZmtYfpOA4FylitJryiPoLJvff0qweKbri7ehqF muOvl8gTrMyYKWV/RRynaUDRdOvTxxEmX+wEIOXEgKKCumrpfwzU8SefWv7QfH3e3J/ZULMd/HX9 oLYIL0mowtT/KKgF/2X3ufabpQ21wN/WGnhaZc6HVLN2hbN6mEUnRi05b6gKr5VbvaF49CbqGFRt UqZFO/xSUMZIctNkOuL7XNldPkIWqfyJTTK/L2961wn6QcFfC0tSvsVDaTun394xf6J/lYb6D4Ti BGYPzoJKPW8LqN/UVWzvbxVU8M1+UAvjZ7P6eWOMCp36weym/OXWk/ILWbdlLYZJOuAcv2fL+Nls +P61D4qpzTqhdUNc5RlZ5di3/ngVKGdXlSEqfxkwKKiOOvDd6VgrJYrviDsPTUlPCi0OGGWGDITM fa+od86tdRIdVoFJau33t+zfM+qaIKz5+SCUcZRfkYkqx8cOkdFDuKfZ953flz9Ocw41T/2vZ5MX jNksXmkSuuMs0BD0g3J/XxqZuahboePvsvnPoPeJOA+8ldEk46EKTMp0fudisN1j1+XE+Oc59UJZ xJeeOZNnQonr/jT0/rbx0m/K0uPleLmNu3xQ2qYv+icmvoT+yQzdtXioEs1XGqohR/LJtQm5uyuS iQ8csHyVpJLeaYlzEKncP5IKHy8pbPikoPqnxY0tO5P4oxWslICajwIlLIia6Zy81vtVF6pCoXKp UzFQzLXFdwDaCpKKhWKusuUKpXd/ACobWnxigxvrlJey/xJx/ShQfAoq7SuoTaJQ2F8346CyLb7D aIHcU4r+nZ6JfaotCDeiO3FQy8/yQenBU09nnppvPP03FIq1Mf3chJ2rkFBpEOpmr8S4NZ/8kqZF i342j2JqNpdSYFCJLw9WiZI+iVXcmk9+1sq6dy0Oinqd+hS9UFC92hkecZKQf9m2Lb5lqedVEw5V ouFlhkHJJob9PUQV7aukiTAoJ9smBVC9puL4o8zJhrfLIM0BXi4sfilefM25pzMN1cd8/hJAvVua 5nxvyOBv+erDWCfvjbZ49H9yKLZWeqRHw3qBlx6DKqw25taPut+XV81kbKy28+vqH2Uz7tdC7mZs G0lnYhmoqJmpUs3GAJ2nWvMNZOBwdzPJ5MT6/Xz4vuiTFhEHNl1jPYRtDTWkS3ZaQpm176+Zt5Rs 9+7kvZpW/nSeyBIgX9NQ1YCpF7FG70D9DVTxFDl3xS8oDsX+8QcpvJn0hXqFSJ2CffTq3SmEWvAs OoIaNs9yNWeHN/Pd8No5orkyAOphLgkGpWN73wKWnImICfRUR6p8BW12WwkKzC/UA3o/rGd5whn3 lQbT8gZvmKfBZGve2LV3VAogTGIxAIqt0yUW1L7w1gSSYkvU5L5gsgVoYvjzYNt02behakU/LLF8 8vgJZgYUPyDkgWCyEOom/QcIpEOPWuntj/c6BvUcAlVrq+i7MvlsK8Yb4AASqmLIbkr0YvaHWjjo Ulk9V1hQ9AavhgGqLfbEP1poqT2gRNMMgpJNwRLqtISq58S+WjFV8WAAij14hBfZfmG2APUzpP9Y 6zNRehCqlmc7GdaTH77iOzqhlY4Ja9yJWvqEKigyAKoUOXIn+TlP4A2HSW2kId796u0ZAaXT/b1U 3dyWJdLnKkTZwMFo7QqK3WERh7zVmkc5lytrDArs+mh0FegHJdyb2iv8U/YrgkPdzM0iMZm4dT3J ewK2p2JzOvCqcympaijFdGT6/fIUqH7B3akC6sxCQwEV4o1U2va6SpWN9sm7IqFmi7ZMgabvh6BK /phwmaysgmb/fmi7H1Qu9RxML2YCY/Kf2ma/BVDtFXrrKN7955btQY7cnLSguIHoCUW/4KgFJZnO b4F/MSjeYceh2C0ZIMGJoZapj+++3ltfPvukhKpMKCgBriCsg0t+jiZFIJS9kegTZuL6McE1SyUp oRxnEvAIEZ0W7ui8g6TE539E09j8niWoN4cYhFJLVUFx0fyWlLWqi0kb2oj9MLzDz4sDd48Nhmo1 1FxBqVDAJYTiurKJUBEDiklNx/9tyBCozJLUTCZ/UkXzVlDarRUR1T5Uw/Ydi4Gb80U/Jlo0J9eA pGayWZ0Zz/Act1X5JXZCzR9qC9u63lKD2hiaoYzCLItPL7NC0cvf+BElDpSYWZP/fJ4YQbMHtTFs GleGb5IWnRUXDDggbSn/1AL96NwoPTvEfHfcTktQKgMJZZWenkcXm8vZbTsDDv5jmG5i3R7Ul3oK Qk15w2fEtFFQvPzYX09Ypcee+YqclKEMcNX+5xkZ1pda13kzqMwpflV8TKhNiUDxTb5S5pdtqJNk IJR6VgwcMsvsQccSNvdc0yesMCRm4Kpc1VVxXSB+ZzD7YsdPmlBkzy1+UHxbSnKGLC0oymCsheYD BGW2mtyDg8rFOhdFFx8vP6cm2Fu0jX+0wkUh6Ql11agkHIquFhwxt5HwHFkPlHoe1IaZBIKSsqlt qBw1be21FrveMKwHcH8zoUTRSUmZDQq7SuMXuyfM98s4UP97gUK9brysAq1ZCfDimmxtyowzy+QL g6q8dy9YxUu3Xkzc2c430QJlxmUOoV7mTF9PjceEpM5KXA4Fp88KiMGPbrps3p085GSfo4G62Ck9 On8dVcmUq4S6JW+Jp2yoR43nQTau8Om1l6GHyr1JcCjrxAgZyPCWtGDCRICeeg71gGBQ7mRNia/Z FA4Uz25hfoFyxiiEUgmomfmE/Cd3ft2BuROk4as9VoImDiKgeHzyZNASEfNLiQLEj2rg1zF5wv1y BQpV4VBsP9ITLpQ9gaEkxc6BWPaSBdRJ/Qgsr1yaDvn6BqpSJQ71gVl6FOpt7KMaKSkmsvtSZeEN qFQnQ+AZhLvs9X+e2rkXBO310RhecHC/hHrLsjAAaiZHAxpKvwv/kZkawF3z/rWTe45D5ZYApaLb z+mRSM2rUW6b2AZ0gNi2m6f12/9QWgWivwOBqjesh4VJcCpqo7Sf/fWY69FRg4QYw1P67dc3MTXn quAKqrIBhKJP0Pd5rlzliLykC1EDPtqqa/yLttDckSgfj3ug3HMyMwnF5mzBdh/V2uVqKzsb7Bz/ L/rls7hImKTxQsWgEufJTCkQs1SJglKZFXP514u2rhAU6o0NgsVyYN/7NQtqafrfdJ4E40CmxSc0 lCyWQoW4et5Sa5aN68v8awrlBpYtHZMmNoh5oJgsmB8p2JglRXJLMeQW1POWKXWEb1yFU1PhioOb wlw8Y1xfRz9goZNtDHZ9ESd3lfxR6xeP8yloJzITat1+lkElKrfLDApZI8Q1jU3J/QsXCnM+3QCf ZULZ6bKlDvDjZSbZhxyR5E4tYxd1jzjyqA0VcBRMtSTAZRVMZmbWHAmVnlsoVKWsQy3Cfp4C6qQJ ZRk1FuRWC/sGN/zOh7JKRv4YhbIexn1dWnNi116LMKv1cwbUHb5D3nWkZQki+04L1/izBhmDygNQ 5vPaeNCLL3KTIzYU3ybtau8eiYXS9e8005dt8CDfxr4j/lVf5SsoTrgi34kCJaL9rPZhUAV4mC8t aijjg9k9NZ6QlSLF0sPP03a13+tlXcJ6/qplqqBHI7ulNvHVHlsmFpfdfAguqQqdG/FBnbGgzN3r /1c86A45Mxyq8UJhzUwBNfq2YjrxRG6ayncNVSnFY0/ZyfHoR+4Ze2zMYDsZM+9Fr0WX//oEGM7C zDSHUNXD4jH8G5GGH1MpDoWE2ayNRGoAdckoPzbdpiRa/RP+FN67dg2qZ2Yt6L2o0pZBF2lnmM2H qNOQdw2VYvsMl9ef2MnxeDhbTjbMeiGkeINsnQ6gFyB4wapjodgN5W/zls8g8Pe3nWyuooXKxn0G 1A4LKGidDqChUqNyswlUnaqspE427Abim/mCD+qiaTx32lN7fy2qkYLataFm224pV3yKhvzTuZMN gZqnL6arbrx7p5dw5p1zF89+vTprfbESVSq8Mmb6Z7WHtRCPbLm54JazRs0Hr33wy46fINX6pFy3 dKPWUCxchzjO+jRM9acs70mWOrkwCSKaW6MKCFwAxHWUkKWU1jd8UDMoHuPMrFJs9T7vZs52dSGn 8NY+42We4ybzzqzig1B6Jt7QPGnNF04muxeWP68hXvMlXqqWpJ4nxmWXAGE9V61UrLzElJXYeIGV HlfIHTf303ip6rA8y+u17cxggpJVdxLQuOa6UkmP9EnmZvKsR8+v4xbVMJ7ffY1YFyiJnwCoQupO pqHqJwTUo04e3iVSms5dSRjqKzYTrAFvAFA5fL4NVOoirxqeDYz4maoUygj4B6Hm+l2vpFQUOLU0 PzVqOmFQE0xzmPPtPQiU9d0mFINtTrlQJ0BKBQD9CYdi//6GzmB5YWdHsJV8ZOd96SlVDXWzJsgF vkNC0Yf/jspoClau93a89sDvf1VqjXSgRDNTYlDftpIQSsPWtERkEwZV/pTf/A0E6gb7Ag8UeuaD gtoh6JWqJ6UkqZ1oMvUAPztBiHGCbWe44dF/VuJoPFTm/ka/4mMcSps2VbwTQ6xPwrJF9xm+4IGi pyzhR9Mo43kdh7pb9fVVGD8Vu5Bex1mqO+Le41gWlsTV9afE57YgN17s/RSHmmpRSag1/h6/fkpz q+WZOVgOt3yll4WgaNho6E/5a/LDI9rl827wKCjR21pq+oxZ/7LZwgOFr8YzqHmbn1QUxfXH26mW m85I6hHXg4xoCcg7WNaY74C+kfig+I46cd3/F+WNtp1+oNV6x1QOkZIIhmVCoVnQvLGTd2sSgloO sdjqCL02Fr+gvz6u2xwQ/BhCyaVLduMl/jseH5PemSO/v+3R/1bOJSi55NeY428K3D61LmYQ6ob+ U3zA/WgG7/nU+SLxOlfxOU8JdbJWhaXGL7pKGapzU0Px30/9wpOBp1b6BSV0SkBNb+kbjQslayj/ 8LfUl5YBQfn9T32wEmpW8Ny+A6FUfXzIzEBCFRZUgmfgs1+eMYOEukKmHOroTXjnZQmlB7ZLqNkp mf97yl2OvY2H9rvzM3rvhntjrwpD5WTKCn59btyRGqRlQPsG8zPyh8+UAjMo/IAUfkYqcuNvekL9 vhmdQkNJWDafflqWWm1CLfxQWN4LesMXMp23fexVy426cqCYTp3MJMBmDyh2i+a9bUP5pSvbvgxJ FYGiAp1IqEZJiv6MnwzGXQnpWsDC+mQSKD0+FbSGVlv6IzsXUm0PY/+QqanjLJgAUzT1h+gt6vFS L14zqMPOstx/qsTiXtEE5wXUdCq8r6pPVKkuH7yEQgnnhuW96lvm2nHlL3EFVWFHO1FL8lAJ36b/ YDEZxavi94s+K3iVQ9FnN80ZnwZ+Kwa1bJB3PfM0k4TvQtRP8+EC+2o1MVKjI0rhhsmmX2tbLrSf u45KV0Atu8O7GXKMPIVq90oIRYFy+Y16YuR5fP/YG8r+O95A1Afv663vYlCL9tc7CDZb2mVfuwfK byZKhAUR4Nc7eEH8WrWdhQV1J1j5eNv3eHsdu8e646xSnxW/UFWYy9Zvs8O19O/Zq7SN4TsRwa0y 0EVohU55GniWeS3Nn4LKxEfmYV/z5i4mZOaoaxsAQydQqMozpliW3LS1Bh2i+k1usr8Tf7ptLfo+ 8yVMate1Mlh63hUHehV6YkyK+vllMVRilNwBVanmYPeiDWV86DAo7kVR/yGQ/dLyTGlNb7sltc6h Hmjb/2z3t1iAv60gVOGX1Ky1WoRld3N2JpObEYNQnGn6SPvput3Rq8OlZ855OvfmXCIa6mU6E5vJ mbMAlJiWPbIcoTHza0BcWQGq0JsuFjIv2jwf587PGXR4s67r8jTSX8rJDxhVOmwQ9FwCdgllKzPQ RtByeJhLKlM+uu71gVBztWcY+nAzKP8HyZ6nD2oqntFUy79T0ZPKAnbqFjecNACfcDO5qW+etf6N QRXh2md6PC4tzLyRPrJ+qE2iFIlDwenyPGw63WUQeBVgqkB6kiz/ngmogKR+RFTpVc/yv7bVTb5b PBaqBFBfU78t/+R66odSA9llEZxlBmHyH0GyG6RjR4bXAYdJaqKg5JfdplAZK05/jN1zQk5qyt3o ppTBrrCAqnxQUlJ3YBXeWHZSSwGV4u8pqOcU1G+A2xc7rFTAf6qlXbOJ/jYBwDzKK/almRfqvwmo Hbnd25g17hRUsPZVso6AjiP9c1GxkvNCCRvFpopzx5wHJssGQYG2ih3qxj10fUm/WnKouy4rKLiJ u+iy52GoWkI14GMF1PIVn2IIu8mmcLnn1Qz4uPADIzqhvJ08JSmqVEfUC2xRxg8F7QGP4GGkz24f b4NXuJMnoSr9cQJq7oWSs4LsMFbeGN9n307ioTLtBkEg35Q3l3hTsf+ghGpFuENydAHul92lF9Qp rUh01WBHQU14A4TXPuWOzaDYX87BYh2l1wEllYE6JM0BlDjuNkVf4tcxehOJFEV/6Ig9BH2H7bNJ 9zJNm6nWSkBNqMYiUHIxjEVR4cGMJoZ/GS1Qz5AOQjHVadJrtXXrltYpmtRd+s+EGgsU6jNYeEhH mGtZ0g11cfna7eaHS67nvVC1/rxlTgkFqjcQRX9dQqUa6hZ8gPSofNxOTdpJcyY5cY7s/j2Esvzf TKikzhEo6b3AFQI50awv1LKS3iRnTj5JPp5c/LNWbbnncfRAYvpnBrWfu8W3lQmoOf0XPz/KnFxh VtV5z4VafvrsKJ0e35iePKaZuEXSzwE/mwUbHSN2Sh33xaD4ouG3HKidDia4Z5TNZ57VX/EM7B+W ai634r30JRS6KQ3oOXHLilaEe4ZB0evJ78pbZ4CFaYDYeC994UI1GipRUOa8ZdHZlxJQpQG1Nr+e qu/WUM9qqFxC2TrVvKVSSVt0hyZbHP9+23U5ktIBBEtoi0ut6RlZYy2yU4tuau8rKRVy0XiG9WT+ uO269EZWfc2u4VALWXxrKR1VO04FQOQcnth79HNihPEaAiX0u4TFT31iRWrLbjeF+sTpupxWCdA7 3EHMLOE+5rxFdErVHUOn2EeKf11fZpWRqQulE6Dq9zBiJ6UQY6BO/dGWXXzg2LnPOFTtpG9ANQgU 63X2CCaNKLo0fqWR5Puq+jVksrTcEzfQo35d7jUl7xiPMKgbbeflgZo4UNfBgGayVTJJmVBnwevb lu84v+hk2UbbfaGKzkveLL7rBIxtFh1QU+HQMzczy0i/SCGoThE2/W1CNTZUZkHxU98kFAt3aHvF 65rdCaUbhw1IBeqbQNHj0ZRDGSnVxst8N82WU3q9ThyFUMaJbzPqDL8wnhRRP5ZQf1LKMtbXJ/Bl PoewMPPKSNfMhlt8V9b4/hNB+MSmmWpGtOvlpHGhoBbM+XmAFhT96Y96QonaN7l67uwTJ1WPiIXf sKAWuiDdumVA8TRNqL5WyoC62bbnvvkNQ92/amY6l3gTRGfheymv0aZJouU7udz2uDSUqKs3YOLw U3WPKsOi0xhuotw13Qr3Xrqq74fKhaR42o3YA0ZsO6OrHx0PwuLbsktvwqHM/US3C9LPSrlQy7wf 80BtAKhz4I39xf6+sQX33ra0o5u14tDSfhFxANQ2/+XzR35LJZ9AqFxGlimF27CAqo5t3NX+TDPd 83O+MHPCzIltMlu0fS6uU2xWTBR3k5w7hkmKPvcdATWBLUZFsgn3MBWKuI0YjLZ9bfnKybQvVMn6 3G4kQARqJkp4AvdQLR+evA1rxzZTentqhabZ89RDAbVOnLi8DlQpN3TQkNlaQdiEaLYJ7AFXiJWh dHzPVmXkWKJaxRYWhoi/wEcLBlTmWs4ORxIUKreq6yYC1QAouhAp/pUR85rhfnh9phUBVCGgnJA7 lrJqQ0VgOIrcglo4IXrotd+58mhC0ZVRNuUGwg3Vx2RRGM9KSU3Aeo0tqR2uZZaZ3L9EenYRNJTT wP6CC+BR81mioGoJ9aLFJBeNrZLiQTP6Q1V8TcPsPm+XrlK9AaJItjIPezf3VLgVW1B0ZgN4/HZC naVQla0GPDPDUVL1yvMJt07071LhrAsoNKASfYydbtS7+BZiKwVMqHaVSgWq3wRQm5akvsExjUCA bacjCQLF184JiCivDt2eg592ZXEWHIoWn/bmncryZir1PSefAecHKShnabB0bbqcmaVQuSDU9olL SAQXsrJhRdr3OB3puS+Ka8cpP6jpjSzO8nt8hbttYTTLXf4Rtf0a+4wBVgqEu6gRW2lpOi1R9s9b rW50FNRil2d81RGwhOrLpDeIMT/RhQO1lphJb4HbE6P4ElGBX8CgaOL/eDgU+xi4g1JAQc4S5rbO 64WCorP9lJOOguxgFzTtyccRUHSlCsZ8kS40JhScL05g8XHdn3I/drvyDzIIMITKtm2peHbfMdNe gH8s+FMbEgqYzpWhpFdQRpzRp5WWASUWvzJxWPiMQU34hEFiZrJLi+++tvcldhjxXJAT4Y06U8EI Pvzv/YywmkUXuTIi+sl2RHS6vRzbOhOEekxBwSjw0v6ApwvwAF/lXba+lZToFYKNUkXKMFJvD6iX YPQdF8qKTAL+ZnduiajzU7Y9Z3rZaTHdz+0DJUOoMKjz6g6t4etWe29CMRnuCt0TO7nZdJJVUqwZ HQi1rqeojXqTk7WzxAxCBotP+TMXspSNSOHgQitkB5RUGzandB+8xdXWgIL7jWbyDyEdFiMbafhK RHrdUOKF1021ppMrpQlVAQ9/FeArl1C05SE+qLTtf7HaJ8RN5ynBkb40dXooH1jahOuS0nNAbM3k UPfRP69ZeRQDS8+AYiE/zoO0ZnaUBQglDx4TswgL9hl0PGgPjVms1aFQqvi4b4xCoJpcnzb01oRK RAoA6muZO+Jke4mwvcAhqE2lSCYUG3qdNiRVAygRIUpG7Fmwz6C7uhYI1LwdchlBHHKjmuQybrqG Aovu0ru3NKAeQaBy0neyDEBp18jagprx8VoKHwcRWF2oKRVWYmVBKwIIANsX6lEIpdIs6daiO8Re 9ZNi5X99Iqfe6T8+mmHHJiLmtA+UFC6DUuazZMbcbGgKXeHF+puc9WP+9LMdF2qwlTIsupA00alN WnuFtYDFt2jBnAsbBLY7rn8mhQqcNuSFUq9k8Ku4yTY1HUAx794mg1DLq7J9i/iWrsFQIPrbbdj7 rNXWel0itbK0vNLqKX1fLyCi9GDXhV6nAAJfJK6NCq33z/Gu/cVOqKE9BCWppWzE6sAZEyq1oVoL ipfeBOlt6q8gA4ahCooWWDNTIAgUOJQuU45GhYa6N/NmXEdC0WpUqpV0XRDCvy0zxu6ZiG8hLDqr fOs/3PKaIgZ1bzvsEs1MSdS/4UktNKOrhvnMVe7M4DOoY9x5F02f6XmXYyAKtdCO8jSXB7Yl1KI1 S5Q7v8knv8Mfp7FtMk+by92Xcd4OqEQ7yue6Uaj5H7VRfSoXip7zkHughp3WBaByG0ovYLMfjeqn O8QZdT3LRZa7npy5X0AEFIHFR8NrivUs6ciZWVBqnSjhUFtcnGjvxAoiNwxKW/VMldYyo+/S/5bQ Mu5mspxyaRL2+AfMseSLWKiMQck0mQrtCL655EzUC5le3mZQk1dF7gmefCRUTr4K9s40ECqRUDDm hYBiqvKr9e+/H4ASPUCUdwjUZ1ozc+E+Z1S/XNpn9lQhN/mMD5UAqBpCcblvQi1+24CSLUEgpmts 8SVW8QkTnOnpGO2tKddChMHYUjLBcl4PdiC6odSHZgpKfmIDP7bWcVOgbJqAx/zQnguHSiHU27JZ Vw7nRkNT68Klr8i93A3WE2BWasOYtxkCBbdo0mp8w4ZSStVoKJhOU/igNqN1CuwcYFDf48JPdSk4 krI2M76CJP4E69hE6xQM4qCW/pTWZCbUXEAZCW0hidPdKr8ZB0WYTmlJ3SEqGleqZSeLAEClHWnT MEHk6SIaygjz+7xyqRTZFgBKrbl320RmpW6WWGzYTqiMHaUNoERpaShj7JcpqC5JFUzk1eAuuoYC MqYM34FQNWwqZN8z6wU11SvPA6ES83NKIgKcquCvGyDiVcmhms682FELjww7TD4AtcE368IJMi3J Uu1g6IAS3i2fR3fyjD1+YkaoxKHqvsVHS+/4Iq74GtrBbKCiM6jH4akFryNHumRdXW8K9XAaDdUa dorPKNwFg7k3rqTqronMz0WnpVv5EChWDubGQ+ZBY+zkJnolvlFQSTBlWl3o0lUTZTw5FDz0hIWu eRIOjcCIRo9RwwKQUHVU1+UlptRGvaVQD2Xgpw+MiCUiCkY45UJMltVRklq3TYKwxbBvchooVS6D lQQTVu5ucXaK9qUaU8ZsSArr/BnQT8il/gYTZmOGOZdsBBSt2wiUMa1Ug/kgvhDepeiFhLoTpVMZ c1Ax37Q7/DWBM7DTtlvRVee8iYRaOPV2g5izihTqafE3rxRdNV2VXpxJYPYoQzzeoenKtEuUMFRh AWi3zjpKpxiU9TmVDVXoiBeNXEdLu6Ae43/FSSpxN6rbUJUN1dF6MFF/j/91VzvwYm1fQrVxy/rd 8ShRO+eYsnSoin4/qviYwWls76LCmmn+3ICadeXF3DrvFoI92g68RNvndERKe2ICzBISsQASSPYv 9TRJbO1LqMuKCeWcuAygMhEjPZDsEfB6NJRrn+0JVDD/m3OdCkAZp8hEGs9He0AVEIrHL/Kn+ukG KPyBC8itGji4nVsaaRoclUmh9J5fFr8oUCqG028kVAqmMuX1K0vTK10eRS8oZZ3ioZwed+VC6S33 k3ClMlbtqyionDXINtTt3Kx+tc6HDZ17Q5XRUK6i7xXECAQ9BOoTCFWsApVad+yzWzOVD5sj+iQA VUAjV0bOeS7onqanrDuWQxCdIJqrO2FJGT3EOChmDdwQcMyTLtH/1ktFDd/y4YW6PQIU4VCJfasw zWcJIyYkoWamzGG/J2qI1YgAZT+wb1ldqtvG9tpA8bE9a8fU59RR/Sm22nHBrSP2vHymZEP/uO3N iymjDsUTNxhlxvOSO4eyZnUUMjCFnfgDRHGoufpnFanoLR0CJ/Yttp71Vfio6ozYs6QhqDjjycR7 ypWU7TOq+wkZOwdu7knS2p8WB8V6CcjJgrU1IC2JXqmlUyL3eJI8SYwzOmONZ9JiHmK2R4g2VAUJ jZwso7uC8fRCzeG/ZfKTNjA9TszgH7HGM1G+iPCqrMU6HZygfS0gKTqtyOL6KqjYZRBMb7mkDDcl WSzvB2r6W84wNs6itygUd30CMS8zZRN2/ZXqFdvmxhZfi9Y+4bqvf8/6mJ96RKjaV3zm2S4QCs+r sYdBcRadacqnPkU3PYL0Q74mrbRUKrKPzqbDSi+Uzrs2m7Q5mmBhQ30UP5pBvke6S8IfNKFPAJk1 B9HW8VC1V1Lab5c60av8PHP2diea/vK1duAlG+Qa7kL2QLWkG+pFB+rtKKiMr2I7m+Fl8d2bYFAe Q51Z81oUKq7tS9A81B5VBfUS0OEchWJbFw1BRXfyEtTsgFM8lXQgFJYX22SxbSUzYL+aTHufeKCU s/KT8pf/BWwCXvtesk0nffCRduCVk1q0fX6oJ5SoOqHo48eTUaBSvCkrBJQ6WnDP2Mszd1NjamgF BCm7lnU9UAntBblQTEGMjh6IW4m6ltVu6cVB7bPucIOVBhXVphfKd2CxxXApBort6V82yOghpIRt vjyaKhJ2ggMXyhR/wZ6+KTGRdkJlfKETyeONpQ7l0BqW0GUJ+YqMuB54RQxU418pu0n4kVkTcGCJ zAHtJWTEmXzDev+9oFJf9ygjMzaFIv8NNogVPig3hwgo2UuYoncTpicy2RrOW7vF53Tw+I+LCKjc LykJpdyDtMqcdAVwm0I5e+bK4OkIHqgmEztRPFBGcCMNlblQxTpBfE3y/sEbgKQ2wpIyIr/nIKgu kj2i52g5d0Plfp3K6PQs1JRC2UYEqkCsVLSi82AMONScm2ld5zSUM3O7MR6UWCPzmITzZre7VFBI qVCD8HUkjTgomiO6Tp2JlT0UaoFB/RBJA0m4C6oNuF6xcvsY6G8DJs5sqBoznfFQrWehs+HxZwpQ /ZRNcKGgQTOgkngo3CTQnEvQzCphuPpLBYWcyBelU600nil2dy6hdhRUikMVWGu8AtTCp1M85083 9dycytg5e4V1JxZuGlnkBMei9bhegQ3QiczCB0UfwkIrZjEj5CYAJU8xIirUsprhd+zUJWLsTlQX iZtLELUPSbDgq4BgPbnUUInxaGNNkAKo6Jk8n06lCooz1DJKlQ2FDWRwkfaESlqPRRc5l1oKqvNi Q32INnwtonx9oEI+WtJCvgChiMgrsR717NrJIwcOXijp1/GhNtYayhAAK2H0QMUoi14H276FzpLf l6Msyyayjfdo7is1M5hJ2HSh5JpMPjkPHmwKn0pFQmUCasu9q8pIrz1It4rcCIDGOnh41Y+EEmHA FgEoPfSVodytoyUyQrzTxYt24AWgEuzuXP4hS6ckMtoYzIu12XhM4eGbayFUit0VULr3KZcdctvl yw2+IaHmMVDiLAEUSuTM7DXzXNhX8fFS40FjiRZeUV2XXZ587u2ji+8lyhawgjagKmNqzU5j0Q68 ciIMD2Z4wWJMpspP7Og2ivuZIFTaDrxY9K/Wc2ro8tZTmk+UW06YhTKgWBSHnRGhGmnRXahS7Nk2 oAouEzswjreDEmWnpCe3+y61iPLHelNC3ZHHT1pQvg5KLFTaovrYgOasKZUw+BIS/AhvX4pBDV7X 1sN2bMgP29iGqO0B9L8NpKCV71jqyWEzBkoMrpC+2Ns2FHuwds9jLYNQgz2/taQQKGNFqpET6rUM 36qhAvacmecoSfGEE/eeFSZIbrqdmlB1Hqh8PbZx+qFybGbJPgZHzM9MzLwcN/HVodoBUCwO6kn2 AsirIIFN9RHb+7ROZfh04RZMnRxZtHLoBzYBU/jHxoWqZQDauXvP6CNnQtMrvlNDb5fOQqUXW3wC atEBRY0C3ZAlJKUK7ANyEFBCfRP3npGgtFQl4b7i8ndayoFonVmknQpAgR/VaQE58z1VtzYCDV88 lO9oeEtSattDxqFSwLoI5TAqVGFB5UIk66z4pE7d6YRK2oGXMp5v4h7N9r+ppSq4nRK/vh8uvR7R AhCoytvMlJak6EL3kfny9xkcUbOlt5veDJqoIZZw5EMa5NKu6qL86gWEkuZrVKhSQqX2vcJWlkJA NXDLaAdUxKa1TqgtW3T3LD/+HID6qw49j+t5ljKgf2Lf+8BuZ58VvZcUNGlUUMEYlNkkaQdeVKeO cLE4qwUf2VDPCfNJGWQHikJ9M5DBbuTAYY1DLex7tb0AdBM0vWBmD3hdulcVZRIa7qBR4E55qfHL mwpKmNwmNDaW1Gk78FIDB4J7n7qY9xpQZ8NdhHalETLWn6qdDqWeZpSrXiUhHXU+tueZtqj3ae0I QR8rJHsJnvU0I5EIqDoIZf1USg0SNrHuLL2IaBe8O0zfKnCX2B5Q2HoauIa7o+s+OrKE0riDlFz2 MkXbd4p0rQdF7PhlUCzVXyOzLq6kPt4gMl4E2wzinT1XV1zbJ6CwxSakYhWi/K6zuJ51L6jwAyEo XKcc0VeiS1fIMQSMQOqBSlaAmveFonOevBfGOjfhPGObGTFruHBuEs8QZyEcdtjY+IFwnuVqUI6k 9rAJnpyI/fYTYeB3whlE7LvQJgFzic2QBGmJ/VhUqguhmQ0FNXi1NqjoKBRr7G5wSWU9oHajJKWK 72n7Xo11SkSwJPopLNZqZ5ZR3WE1xEoRqOPOC2JATJ1V3wnNVOsc4maHfX30GuuVsENuZukSqjne 2Rq3UVux9FRQ2c9OycnEZV5s11VnjnFQwmuYud2an90EoF5e/i/vo1IRm2sh1Kx924TC2r5WuFhe WipW8f8FKu8FRQ3BbCmlExtdvU4OtYLxpMHyM9PHtsGhmIvlkuxIH5WK1CnR4aF+xyr2uYLCvpKZ T3Fhvkm2pCJXHFL28jdaMk+t9Lqg5p0ZxPWnKj4YrcljdgiP2lM8g6AiQppxi56y77/P3lLQeIKW AlEtekDF6NSe1KmpU3tJF9TvJp0ZxNW+RtU+ByrDodhpD+y62Z1BxP4wpugz/vK8tmeXfVCS6ei1 PlBxJoFB1UuojYl9E09wgJ5HWvRaWfS+xQdON+zOIE7RG6noM6f2Zp7q/PNcmM4eGUSEyVtCfca3 mS1rHwaVYi/J7Yg/6Ew+tvaJqJmYSfBJqj7KodKu1NuoHb8Mir11BdUpz1bxZ/pDxZqEqYDatVfB Lvi+km+StONd7GOPlsPdp1gzI6Gc6Unvpnq+8Tax88ehYoqv0oNRO59SnPTtUjEo+3zaMkUejR0h s+B6dKRFHEmFgn+4+9MS5MmVJs04lP2VvgQLzHJmBwB1FIHyiR6HWiBPxrV9lewlzFt32twHVSF6 jkdQqIYHVTLavgFQdW+oq1E9z0Z2XWatu+rhDVKUuVC47Y6FuscH5bcx2JgC76REBH/TQyxaVHaq fkVvUCgs+yLSosuuS0WsRczCb/iQrlZ5IFC1PcUZOO0A6ZR+gH5CXPHpZqa2B7yFG5gjIICP0U/w NlU9oVobKrCFGI0thMaaiGr7DCg7QS8UGtnrAKCmTjN1JQSV9Ms+rpegFH3SuD1PL1SBORGNDlVT KGfgMPW/1xMqziSIel9TO2VBXQlBOTV9TCjRwC3F5EAF9nblbgyS0lN83jQCULWCagZAPY/FIMDM ZBUlqQ/UFkykQfZCZZjDx3hQasVh6vTRM//kL8KLQ8UNsT6TPU9X0QNQqEmY9XuwB1SpOnkIlPzK Sh5Pqd9L7aR8tW9w/CJW+1jONQolv7KyDTgC9aGnkxdnPAXUtPJb9Lfd+NsLO6l6RKiiD1ThQiV2 UrWn+GKgPpUWfVp2QDWpvvWS3rwyV1BzNIO42eEpT3LyvjtlvVCPLf+6/hR8T0KV8hncIr0Z1fNU UMT5VA11kh1reBm+J28pKNyiR+ykg+M+4gxHtOMhj/n52/A9mVcmp6kKD9QDEVBqHn0agOInnYLS LfQeSUn3ARonLI+0UwJqUlsnLuzqSTSGlxuhdR2oymPR4wajYnJ/UhLTbgPPNaYZEGpDhwrRgWjm SAYFDF08VFJLe1D4oZgKFVP4noDS1qn0QCURUKXcwktKt/bppOemc6TyrdBQlQdqEQW14N+5/EuH xWaXni3OzL0WAKrqlBT2a0+ot5lOGfeaDVB8lntWpqFkncShYmeHWVo1Ifb7TQagUjP8sbIW+tfC 08lbofZViE5phx7KYKybE63oYai3VoEqafGZUKAvwiobdDpSsSi7oCJCcGiogpoEZ7Vd/NVssD1h wCQgksJ1KiLWDIM6waGmdtdHq0vNobSkdE2s1GG7uPasR9W+mntuMUmZXRcoqcm24WGgXSC0SSg8 UE9FQImBLdOpANSWESQHSkofroJDpRFQhWqQ7XE3qG70r12z+BbqryBUXDOjoKaVC5WCnGtUp3QD WaATiXHNzGdKUnbj1ZhQxvRVrnVKQ2ELHhGRM5eJf650qnLslNIpByrTDbL8tRIHTo8BVUkopPjU v3nxGYqe2g/hUBHb+1gffe6B0tay6QNVor3xCH9m3Z8qkQYZQNnnEagGuQR2Coeax0MVLpRWFwxK SAr2p7yREuMlNS2dZkZCfe5AoRZ9PCgVTG12yTlZUObCPBaMqQbQDOt9mvi4b7ESlD3BASTnQun+ ZhdUEgFVeds+UBvpX1btU1AzldR4UDWAsnVKx4admjoFG+SZ8zi8Yts+ATWze2kfwYC1aSRUnEVX AfpmJ/3dYQ6lS3cXGE+5D7L0DBwWEVCVVPQ1N9y61cxoqH01JKyBSZgjGcSN+1Qffe20A6XPQJ5Y c5oASv56yQO10sDh+Fmvoje89unbDXEHoxdGlFQlt6iQwmsSGvsQT63oWhKo9jRxnTwI5TcJM8s1 GXTtZDh7PPu4rouCmtjW74oJBYuvBrVvrqCw7CM210Koqd12vmAaT6joOBSWfRzUVQVlB1Z6MWA8 QddFz+Thw/YVJFW6kqqUXaxsKNh16Wr74qCERZ+6xlOPCWZO2wdvBaDiFL2QPU8HSrcbNYc6om41 gFdHTEeg6rgG+QMFZaf6JghrP+0DNXfTj4T6VHWHbajcnCI3Vql4sLzW7E8tkAzi+lOXlE7Ztc+B AsyZNp669o0HVcq2b2Y3U8UwKFRSdewQ625B0AFlTppJryb9EK5TERFUGNQDPPGFXad1eZT2Ada1 2iGlofDsVxohF3RrnAmV+aEqtQ6gX8o8UIOZoJ2alV6o3NapPQXVUftiwiVoKGbRH7HuJa0Ux9xs kKGx1+RzVFJxUMz8bFKouXXPgGqM4tMzCI/Dh5wrm8RAVTKm2SwENfNBFSJ8ia+Vi3Cy1r0EBKow oWpyTN1qkGkNFCpmJ53uJSxrnx8q5508fbtRxzLmQNHT0aAK2cws7G2pZRAqleTy18xT+2Kgchmy 16l9EGpiQ0mx6Do3ZvGJVDO351mCU57uN5djYaAuDYW5AMRCLXjiM6c7/Jx+amEt8SO9qDGhhCpc oJJaGPfqH+unFvaKg4ZKnL9Wh6pA8SXepxwoPX+XBqEiAgrq/lQegnrThZLWSfvtZZ5OXjzUcsw/ 8c+Zllyn4ASH1C+4cjQe1BW1XJsHoBITqgRQCwWFCDrSJAio58mRDX9AYxXKRUG5pz6NCaWM55r/ CCQHqkKgshFNQiFDbq11SAraKQi1UA9h3xQLlfIkkxBUYupUjkwAedq+qK6LklTqH/ZnNOgLnB3W hQYbSOT1mL3RbM6TfeCyhfVPkLAyMKHcSUV0gB6zk45BzYWkvAtOjYDS6gHHxRKl8BzRmrRDL9VL WCbuNZ6NiIClcy0BlBQvaiabWKgFT/zRLKDoqbnIWIK+gYRC61lMtItlmm/KYzV+l/SvfXrxIwe1 D8m+irXoAuqoH4rYkqrBcGGhHpq7b64GRciD/mG/OEVdG084Lp6rh5CZvN242veW7HmeCEhqYkHB gdVc/YVOxEZBPSMt+oMhnWppSWg3UF0TCTCec+TVOEk9Iy16ACrnx7HB4hN5NRtA0RGomBgOujuc k+NeneLGE4VqM9OV175iwiUwkyC6w/d0GE8cStuhAo2oEicpMQRdakQeNgkm1BTeElCp+2Zk8YlC IyEoYTznCFQWbpCbuOLLRShMCjX3PCVqnw4lAe3U0+ov5JsidUpAbZB5FoBKTONcAjuloc5jUFEm IZcWPfG3nRn1f61RKLhjBIGK7nnOeb5P+qFYyrWhUwt4S5Ajr8eEdYFQD3uheBUya58EhD7ryWhQ Qr2XDbJ3wekz0fOEbd83VQIaau6+GmkS1PzUt7xQnyINspwTBl4To45mFjzxxAvFx8OF0fOUABno eS6wV6MktS6NZ+JZg27o+UWpCfUhMljPcKgoO8X7ZrR58zTIFQKFzSCgMTJjXF0UVBuA+ib3N8kN KN3MiJeaDQyqjNOpTNY+L5TgfgvsqkKm9Gu0N74aFBu2L0JQMFBBDhRd/NV4oKIGDhelpHyD0YrI w2/07cKFaseUFIeqw1C0d152QWHZR3ZdMgmVeqBkgFNo0XNkUhGVVHR/SkKRLig4P6UllarfEvfl SJPA7fgS6slOqAn4rSdUpPHMu6AIIilV0vuwP5W6L9fejmOHpBYc6pwHSgaHhiUB94e5MhsLqqWb a3HjKaFyA0qggCl9gs+6rAZ1LgBF88uNrouGkiieKLerQT1M6DYi95JB1Qqj56mhWvsveEUXX8Kz ftIDlSM6BSQFthzsjAzFuy5pXyhgx7UjPWbRY6LyqOJrkLggCuCLgBKSqjySyoSdglBXdOOiIjFl uKJHQj3NoZ4J1D5+CiSEOlhJ5VJST3RICg6hctckNGg9iRw45Lr2haHQEbKxiQx5Pcbzm0E9yqAm vpVVoqBQO6VNAt5LiISat3wkS/xQs9YcgV9CLToCFRMAR/klNEj4qT5QNQkPRiObGXl+jK9Bbgja R08UlH5ugb0dOb0450k+i0PVGBSyP6xGT36vlc9XhKQ+oyE4/JKixfch+GgllUoZT3y5Ed8e2QnF +2uFF4rp1Hdas+uSAyiV/QRNfx4DxdMvvcWHQhVa0fWGHxwqso/+WCtHM+gjsvgKQ1JzBZWq51Is /ShJEdHMeI1nhkBlGiq8XBuzFUvpVE0muzhUKSVVGpJKFJQCxWddoqB4RarI8TLQzCxae3oxlVAS xRd+ah4H9Wgro7GmPigql0uGpBSUtlMj1j55YsLUs5tkT0KVuKKrBhktvpjAEkyn2pZP2eDFV2ko 7QaqFL3q0KkstpnhkvI1yAoKxHFrgPHs0qkVoAoaVMnf9nGoOXgtsVFwqJUkxZuZ7/aHWjgoZESd 4vH8ORT2RC1NAqxIBFj0IFTk/FTOgq8XNDJBGApO9JHJef6HnqnDiy9yfkr2EkgVUHQql4tGf2oh oWTQI9/AIbL4EvZFxFN8JVFGX8dD0FP6KuTYqKMZnhat2jhUru2UgoJzLbr24aOZRTv4ki6Vfjul jmXPjeJTKHpbCL5gFAn1aCtP4UiRJ2oMCq7y6b+2RoNSxXcdP96RKfqjrWkSIJR4ybcMsgIUKz70 QKlKSwpCpRJKbzXHoSLtlIDyrEGDti8BrwmoAkIh37TiPPosZNFdKCfT2jNsX8FOXUWisVpQJVZ8 OtMShTqzyrB9qTAe78cPJdSm0fY5UL7ii4RKJJTcNWQlK+rCpmGnhFRAM4IKeqVmJqfHYs0S5IlK nk1SGHYqle+HewnRklqw/36/Jmrzji0pEcMZSkpBdZmElaB+29P2FRpKpa/15wrY7IoXXyRUwr+4 8TfICJRCmTu/mW8v2sGX7g7PKn/tm1gfrU2aVrSRoZJWxJpBoQqt6ABKrsOUHVNBMRu2gU5919PM FNIkGH10CQV3tOIj5EhJLdgX7XimJ3PdIIOZPI2i92mOquhzBrXl8ekrNJTuDiNBlQqPTiVxULNW GM8wVIHZKQ31ybhQc/5yjZ82hJkEGBNLB1X6Cvp2JBQVQEa+69lNIpf7jHl6sDda/ojXk5Wglv9f eZxVJBRMP9OKPlcPjgqVMKgE/9RGHRYG0zfjmAQkFW2nUvZy6rFTAGrhQuVgJm+OvL0qVOWHOmpB NQBKKzoOhf3aAyrhX9T4dWqNP6o+ugZQC/UgXnwrQaUBKLEtEUIlMlMjmhci5xV6nsvxZuEvPhEn QAoFjFyyjq5LtE4l3Ef+I3/bZ0NB4yl/bDzLIPFQ3KKjJmFT2qkMMwmgj+xpkCOhUvbfFG/7aqKh HsWg5s5vo0iKQy0qj1uPVnQllAaBasbvTy1fxnueKBQmKVTQUXsOoU51Q+n0EZ3CoWL2HEKdqjyO mkS5PCuofdAgL9Rfo0NlhK6uYU9IOwWX+HXoRRjkCDeei3bwpY2nz69B1j66swb8mMr3w1DRzcyC D+RKP9TMzB9s9SsBFGbmyCRSUgoKbaaAog+Hajx+ft1QCW+4Sn/b5zbIcp0B1j6knjT5dCUoT3+q UQ2y0clzN9eixrPOrWMme0OlXFJ426ebGRKGQhV9n6zQzFBJ+c5KW153e6H0urNHp1awU1Qh8BF2 JdeLoE7dBuFODwhKpJirreEO1Jw/CqBkXpr0E4/xXEVSkxY/zx5CLbQA9D7WhfoNK311MsZQqITn gjvwqIVRCKUb33XQdUGDVMbaqZR9kWd2WTmawbZP1bTmrCoe32B0JxqqYm1fEAr2EnT13wRQePEN Z9JQU4+koE6l+kd3b3SDVt5oRV9w2QegFvzRm/JHPfAk6uiPz0cftlNF9wXIFloHNmJqpW505IZP 8F7CClDUeF7x6xSDKjTUp0ggs889Pc9IqIQ7BeX+to8hgPNQPgUbtmWmpXX+mIRK28GX0CkKVYSh YPowBIeGwiraqlB4f6oAUDJ/0M5lAGrUZmZLSuoxzwNqa4aGmiuoRRAqJhay1ClqON9DTxX9CECp H9WsHTDzKNR+NFQqPt1zso60U5ikQJminbxqtV7CvK39UAwhw6EW6jdEJaMiE8j+1EfLXPBxn+4l ZLD2uYFh8aYzxvuNQk1EirXH8/ueXEZ+QaD0/JOn7cN+HAKVYQ80NOIEfxScmNAbKouE4jFblsWH +9gvoTgNCHrV6EhYxP3NgIqYh6VQfPvJom1xqGyRT638l6/p9/VvGFS+CtSRxPfEa23Dzx8owKSM girAjlssicZ7onIYik2prHmfuCHPrC3n+sfXU/FHqSXxBvr6nSioGfvWH/V4FkjinISq5vKv9lpE 9j4ontXOoLca/f3vpIPe7AkV9VpMoRw41MFeX0J9CfUl1JdQX0J9CXWQUP8Pb1EtUK3Ztf8AAAAl dEVYdGRhdGU6Y3JlYXRlADIwMTgtMDYtMDhUMTA6MTQ6NTIrMDI6MDAN6aSZAAAAJXRFWHRkYXRl Om1vZGlmeQAyMDE4LTA2LTA4VDEwOjE0OjUyKzAyOjAwfLQcJQAAAB50RVh0cHM6SGlSZXNCb3Vu ZGluZ0JveAAxMDZ4ODYrMC0xVsIoxAAAABx0RVh0cHM6TGV2ZWwAQWRvYmUtMy4wIEVQU0YtMy4w Cptwu+MAAAAASUVORK5CYII= "
       preserveAspectRatio="none"
       height="30.353001"
       width="37.401497" />
  </g>
  <g
     inkscape:label="Layer 1"
     inkscape:groupmode="layer"
     id="layer1"
     transform="translate(0.86826684,12.980779)"
     style="display:none">
    <path
       inkscape:connector-curvature="0"
       id="path3002-3"
       style="fill:none;stroke:#000000;stroke-width:0.5291667;stroke-linecap:round;stroke-linejoin:round;stroke-miterlimit:4;stroke-dasharray:none;stroke-opacity:1"
       d="m -0.60368349,-12.716198 45.59873949,0 0,33.067459 -45.59873949,0 z" />
    <path
       style="fill:none;stroke:#000000;stroke-width:0.5291667;stroke-linecap:round;stroke-linejoin:round;stroke-miterlimit:4;stroke-dasharray:none;stroke-opacity:1"
       d="m 9.302952,10.555894 -0.8298828,1.731922 -0.9741972,0.974208 0.072159,-1.479349 0.9020386,-1.69584 c 0,0 0.1120309,-0.3528481 0.3923876,-0.2841383 0.4600448,0.1127195 0.4374924,0.7531973 0.4374924,0.7531973 z"
       id="path4976"
       inkscape:connector-curvature="0"
       sodipodi:nodetypes="cccccsc" />
    <path
       id="path4996"
       style="fill:#ffffff;stroke:#000000;stroke-width:0.5291667;stroke-linecap:round;stroke-linejoin:round;stroke-miterlimit:4;stroke-dasharray:none;stroke-opacity:1"
       d="m 22.220158,11.638355 c 0.649469,0.757701 1.912323,1.840159 1.912323,1.840159 l 1.241154,0.203352 -0.475062,-0.77847 c 0,0 -1.262854,-1.082449 -1.912323,-1.84016 -0.649467,-0.757721 -2.092731,-4.3297989 -2.092731,-4.3297989 0,0 -0.137668,-0.3784317 -0.528783,-0.2314419 -0.391118,0.1469813 -0.32284,0.5539993 -0.23731,0.8065515 0,0 1.443265,3.5720893 2.092732,4.3298083 z"
       inkscape:connector-curvature="0"
       sodipodi:nodetypes="ccccccscc" />
    <path
       style="fill:none;stroke:#000000;stroke-width:0.5291667;stroke-linecap:round;stroke-linejoin:round;stroke-miterlimit:4;stroke-dasharray:none;stroke-opacity:1"
       d="m 7.7516051,11.749108 0.7755886,0.150827"
       id="path5032"
       inkscape:connector-curvature="0"
       sodipodi:nodetypes="cc" />
    <path
       style="fill:none;stroke:#000000;stroke-width:0.5291667;stroke-linecap:round;stroke-linejoin:round;stroke-miterlimit:4;stroke-dasharray:none;stroke-opacity:1"
       d="m 23.796875,13.210648 0.953159,-0.413442"
       id="path5036"
       inkscape:connector-curvature="0"
       sodipodi:nodetypes="cc" />
    <g
       id="g6122"
       style="stroke-width:0.5291667;stroke-miterlimit:4;stroke-dasharray:none">
      <path
         inkscape:connector-curvature="0"
         id="path4970"
         d="m 12.369883,-6.2942021 -0.613384,5.70088845 c 0,0 0.311827,0.31926951 0.541449,0.26824938 0.229621,-0.0510992 0.433727,-0.0255129 0.433727,-0.0255129 l 0.255138,-0.28065022 0.612326,-5.63846931"
         style="fill:none;stroke:#000000;stroke-width:0.5291667;stroke-linecap:round;stroke-linejoin:round;stroke-miterlimit:4;stroke-dasharray:none;stroke-opacity:1" />
      <ellipse
         transform="matrix(0.99010134,0.1403543,-0.1403543,0.99010134,0,0)"
         ry="1.0715685"
         rx="2.4365425"
         cy="-8.8006687"
         cx="12.049482"
         id="ellipse4982"
         style="fill:#ffffff;fill-opacity:1;stroke:#000000;stroke-width:0.5291667;stroke-linecap:round;stroke-linejoin:round;stroke-miterlimit:4;stroke-dasharray:none;stroke-opacity:1" />
      <ellipse
         style="fill:#000000;fill-opacity:0;stroke:none;stroke-width:0.5291667;stroke-linecap:round;stroke-linejoin:round;stroke-miterlimit:4;stroke-dasharray:none;stroke-opacity:1"
         id="ellipse4984"
         cx="12.07861"
         cy="-9.0496111"
         rx="2.4365425"
         ry="1.0715685"
         transform="matrix(0.99010134,0.1403543,-0.1403543,0.99010134,0,0)" />
      <ellipse
         style="fill:#ffffff;fill-opacity:1;stroke:#000000;stroke-width:0.5291667;stroke-linecap:round;stroke-linejoin:round;stroke-miterlimit:4;stroke-dasharray:none;stroke-opacity:1"
         id="ellipse4986"
         cx="12.033505"
         cy="-9.0496454"
         rx="2.4365425"
         ry="1.0715685"
         transform="matrix(0.99010134,0.1403543,-0.1403543,0.99010134,0,0)" />
      <path
         sodipodi:nodetypes="ccc"
         inkscape:connector-curvature="0"
         id="path5038"
         d="m 12.32374,-5.7709621 c 0.06483,0.007 0.110261,0.081599 0.10147,0.1674791 -0.0087,0.0859 -0.06847,0.1500688 -0.133305,0.1434394"
         style="fill:#ffffff;fill-opacity:1;stroke:#000000;stroke-width:0.5291667;stroke-linecap:round;stroke-linejoin:round;stroke-miterlimit:4;stroke-dasharray:none;stroke-opacity:1" />
      <path
         style="fill:#ffffff;fill-opacity:1;stroke:#000000;stroke-width:0.5291667;stroke-linecap:round;stroke-linejoin:round;stroke-miterlimit:4;stroke-dasharray:none;stroke-opacity:1"
         d="m 12.275903,-5.2351746 c 0.06484,0.007 0.110259,0.081602 0.101459,0.1674707 -0.0087,0.0859 -0.06847,0.1500801 -0.133308,0.1434309"
         id="path5040"
         inkscape:connector-curvature="0"
         sodipodi:nodetypes="ccc" />
      <path
         sodipodi:nodetypes="ccc"
         inkscape:connector-curvature="0"
         id="path5042"
         d="m 12.221686,-4.6866334 c 0.06483,0.007 0.110261,0.081599 0.10147,0.1674707 -0.0087,0.0859 -0.06847,0.1500801 -0.133305,0.1434281"
         style="fill:#ffffff;fill-opacity:1;stroke:#000000;stroke-width:0.5291667;stroke-linecap:round;stroke-linejoin:round;stroke-miterlimit:4;stroke-dasharray:none;stroke-opacity:1" />
      <path
         style="fill:#ffffff;fill-opacity:1;stroke:#000000;stroke-width:0.5291667;stroke-linecap:round;stroke-linejoin:round;stroke-miterlimit:4;stroke-dasharray:none;stroke-opacity:1"
         d="m 13.454853,-5.5512945 c -0.06494,-0.00601 -0.123535,0.059701 -0.130889,0.1456521 -0.0073,0.085999 0.03932,0.1602091 0.104258,0.1657688"
         id="path5044"
         inkscape:connector-curvature="0"
         sodipodi:nodetypes="ccc" />
      <path
         sodipodi:nodetypes="ccc"
         inkscape:connector-curvature="0"
         id="path5046"
         d="m 13.402049,-5.0159726 c -0.06494,-0.00601 -0.123532,0.059698 -0.130886,0.1456492 -0.0073,0.085999 0.03932,0.1602091 0.104258,0.1657604"
         style="fill:#ffffff;fill-opacity:1;stroke:#000000;stroke-width:0.5291667;stroke-linecap:round;stroke-linejoin:round;stroke-miterlimit:4;stroke-dasharray:none;stroke-opacity:1" />
      <path
         style="fill:#ffffff;fill-opacity:1;stroke:#000000;stroke-width:0.5291667;stroke-linecap:round;stroke-linejoin:round;stroke-miterlimit:4;stroke-dasharray:none;stroke-opacity:1"
         d="m 13.353137,-4.4669347 c -0.06494,-0.00601 -0.123534,0.059701 -0.130886,0.1456521 -0.0073,0.085999 0.03932,0.160209 0.104258,0.1657603"
         id="path5048"
         inkscape:connector-curvature="0"
         sodipodi:nodetypes="ccc" />
      <path
         inkscape:connector-curvature="0"
         id="path5088"
         d="m 11.598804,-7.6612921 2.45355,-0.1804105"
         style="fill:none;stroke:#000000;stroke-width:0.5291667;stroke-linecap:round;stroke-linejoin:round;stroke-miterlimit:4;stroke-dasharray:none;stroke-opacity:1" />
      <path
         inkscape:connector-curvature="0"
         id="path5092"
         d="m 11.904499,-7.0462339 3.337545,-0.20747"
         style="fill:none;stroke:#000000;stroke-width:0.5291667;stroke-linecap:round;stroke-linejoin:round;stroke-miterlimit:4;stroke-dasharray:none;stroke-opacity:1" />
    </g>
    <g
       id="g6136"
       style="stroke-width:0.5291667;stroke-miterlimit:4;stroke-dasharray:none">
      <ellipse
         style="fill:#ffffff;fill-opacity:1;stroke:#000000;stroke-width:0.5291667;stroke-linecap:round;stroke-linejoin:round;stroke-miterlimit:4;stroke-dasharray:none;stroke-opacity:1"
         id="ellipse4992"
         cx="19.613079"
         cy="-3.998508"
         rx="1.4415147"
         ry="0.56156331" />
      <ellipse
         ry="0.56156331"
         rx="1.4415147"
         cy="-3.6750481"
         cx="19.645075"
         id="ellipse4994"
         style="fill:#ffffff;fill-opacity:1;stroke:#000000;stroke-width:0.5291667;stroke-linecap:round;stroke-linejoin:round;stroke-miterlimit:4;stroke-dasharray:none;stroke-opacity:1" />
      <path
         sodipodi:nodetypes="sccsccss"
         inkscape:connector-curvature="0"
         d="m 19.703704,-0.00298383 c -0.261553,0 -0.442237,-0.09149926 -0.442234,-0.19342945 L 19.23424,-3.2767331 c 0,-0.1018794 0.180681,-0.1934295 0.442233,-0.1934295 0.261555,0 0.423723,0.055499 0.423723,0.1573502 l 0.06331,3.08031983 c 3e-6,0.1018794 -0.198247,0.22950874 -0.459802,0.22950874 z"
         style="fill:#ffffff;fill-opacity:1;stroke:#000000;stroke-width:0.5291667;stroke-linecap:round;stroke-linejoin:round;stroke-miterlimit:4;stroke-dasharray:none;stroke-opacity:1"
         id="path4998" />
    </g>
  </g>
</svg>
