<?xml version="1.0" encoding="UTF-8" standalone="no"?>
<!-- Created with Inkscape (http://www.inkscape.org/) -->

<svg
   xmlns:dc="http://purl.org/dc/elements/1.1/"
   xmlns:cc="http://creativecommons.org/ns#"
   xmlns:rdf="http://www.w3.org/1999/02/22-rdf-syntax-ns#"
   xmlns:svg="http://www.w3.org/2000/svg"
   xmlns="http://www.w3.org/2000/svg"
   xmlns:xlink="http://www.w3.org/1999/xlink"
   xmlns:sodipodi="http://sodipodi.sourceforge.net/DTD/sodipodi-0.dtd"
   xmlns:inkscape="http://www.inkscape.org/namespaces/inkscape"
   width="46.410923mm"
   height="43.573994mm"
   viewBox="0 0 46.410923 43.573994"
   version="1.1"
   id="svg51305"
   inkscape:version="0.91 r13725"
   sodipodi:docname="pif-01-vecto.svg">
  <sodipodi:namedview
     id="base"
     pagecolor="#ffffff"
     bordercolor="#666666"
     borderopacity="1.0"
     inkscape:pageopacity="0.0"
     inkscape:pageshadow="2"
     inkscape:zoom="2.2868508"
     inkscape:cx="41.387874"
     inkscape:cy="76.125059"
     inkscape:document-units="mm"
     inkscape:current-layer="layer1"
     showgrid="false"
     fit-margin-top="0"
     fit-margin-left="0"
     fit-margin-right="0"
     fit-margin-bottom="0"
     inkscape:window-width="1920"
     inkscape:window-height="1031"
     inkscape:window-x="0"
     inkscape:window-y="27"
     inkscape:window-maximized="1" />
  <defs
     id="defs51299">
    <inkscape:path-effect
       effect="spiro"
       id="path-effect4758"
       is_visible="true" />
    <inkscape:path-effect
       effect="spiro"
       id="path-effect4750"
       is_visible="true" />
    <inkscape:path-effect
       effect="spiro"
       id="path-effect4746"
       is_visible="true" />
    <clipPath
       id="clipPath1755-8"
       clipPathUnits="userSpaceOnUse">
      <rect
         y="91.882065"
         x="-66.708733"
         height="73.499458"
         width="160.91911"
         id="rect1757-46"
         style="fill:#ffffff;fill-opacity:1;fill-rule:evenodd;stroke:#000000;stroke-width:1.875;stroke-linecap:round;stroke-linejoin:round;stroke-miterlimit:4;stroke-dasharray:none;stroke-opacity:1" />
    </clipPath>
    <inkscape:path-effect
       is_visible="true"
       id="path-effect1464"
       effect="spiro" />
    <inkscape:path-effect
       is_visible="true"
       id="path-effect1468"
       effect="spiro" />
    <inkscape:path-effect
       is_visible="true"
       id="path-effect1472"
       effect="spiro" />
    <inkscape:path-effect
       is_visible="true"
       id="path-effect1476"
       effect="spiro" />
    <inkscape:path-effect
       is_visible="true"
       id="path-effect1480"
       effect="spiro" />
    <inkscape:path-effect
       is_visible="true"
       id="path-effect1484"
       effect="spiro" />
    <inkscape:path-effect
       is_visible="true"
       id="path-effect1488"
       effect="spiro" />
    <inkscape:path-effect
       effect="spiro"
       id="path-effect1500"
       is_visible="true" />
    <clipPath
       id="clipPath4238"
       clipPathUnits="userSpaceOnUse">
      <path
         inkscape:connector-curvature="0"
         style="fill:#ff6600;stroke:none;stroke-width:3.4117589;stroke-linecap:round;stroke-linejoin:round;stroke-miterlimit:4;stroke-dasharray:none;stroke-opacity:1"
         d="m 86.95666,-19.091891 45.52487,0 0,42.364237 -45.52487,0 z"
         id="path4240"
         sodipodi:nodetypes="ccccc" />
    </clipPath>
    <inkscape:path-effect
       effect="spiro"
       id="path-effect1464-8"
       is_visible="true" />
    <inkscape:path-effect
       effect="spiro"
       id="path-effect1468-6"
       is_visible="true" />
    <inkscape:path-effect
       effect="spiro"
       id="path-effect1472-8"
       is_visible="true" />
    <inkscape:path-effect
       effect="spiro"
       id="path-effect1476-4"
       is_visible="true" />
    <inkscape:path-effect
       effect="spiro"
       id="path-effect1480-9"
       is_visible="true" />
    <inkscape:path-effect
       effect="spiro"
       id="path-effect1484-3"
       is_visible="true" />
    <inkscape:path-effect
       effect="spiro"
       id="path-effect1488-6"
       is_visible="true" />
    <inkscape:path-effect
       is_visible="true"
       id="path-effect1500-1"
       effect="spiro" />
    <clipPath
       clipPathUnits="userSpaceOnUse"
       id="clipPath5244">
      <path
         sodipodi:nodetypes="ccccc"
         id="path5246"
         d="m 166.48945,134.65566 45.52487,0 0,42.36424 -45.52487,0 z"
         style="fill:#ff6600;stroke:none;stroke-width:3.4117589;stroke-linecap:round;stroke-linejoin:round;stroke-miterlimit:4;stroke-dasharray:none;stroke-opacity:1"
         inkscape:connector-curvature="0" />
    </clipPath>
  </defs>
  <metadata
     id="metadata51302">
    <rdf:RDF>
      <cc:Work
         rdf:about="">
        <dc:format>image/svg+xml</dc:format>
        <dc:type
           rdf:resource="http://purl.org/dc/dcmitype/StillImage" />
        <dc:title></dc:title>
      </cc:Work>
    </rdf:RDF>
  </metadata>
  <g
     transform="translate(-166.03802,-134.116)"
     id="layer1"
     inkscape:groupmode="layer"
     inkscape:label="vecto"
     style="display:inline">
    <text
       xml:space="preserve"
       style="font-style:normal;font-variant:normal;font-weight:normal;font-stretch:normal;font-size:4.23333311px;line-height:125%;font-family:'Ume Mincho Balsa';-inkscape-font-specification:'Ume Mincho Balsa, Normal';text-align:start;letter-spacing:0px;word-spacing:0px;writing-mode:lr-tb;text-anchor:start;fill:#ffffff;fill-opacity:0.86666667;stroke:#ffffff;stroke-width:0.29999998;stroke-linecap:butt;stroke-linejoin:miter;stroke-miterlimit:4;stroke-dasharray:none;stroke-opacity:0.87843137"
       x="207.65364"
       y="174.70491"
       id="text5600"
       sodipodi:linespacing="125%"><tspan
         sodipodi:role="line"
         id="tspan5602"
         x="207.65364"
         y="174.70491">1</tspan></text>
  </g>
  <g
     inkscape:groupmode="layer"
     id="layer2"
     inkscape:label="crousti"
     style="display:inline"
     transform="translate(0.0261451,0.43954241)">
    <image
       style="display:inline"
       y="-0.43954241"
       x="-0.026145097"
       id="image5607"
       xlink:href="data:image/png;base64,iVBORw0KGgoAAAANSUhEUgAABbAAAAVXCAQAAAAtkIQKAAAJKWlDQ1BpY2MAAHjalZFnUJSHFobP 933bC22XpcPSm1QpC0hZepVeRQWW3lmWImJDxAhEFBFpiiCigIJRKRIrolgICopY0CwSBJQYjCIq KPdH7kyceyc/8vx65p13zjkzB4AiBgCAigGkpAr4fi727JDQMDZ8RyQvM53r4+MJ/8jHUUAAAB6s gn8PJTomkwcAywCQz0vnCwCQXADQyhGkCwCQowDAjEpKFwAg5wGAyQ8JDQNAbgEAM+4vHwcAZtRf Pg8ATH6AnwMAigMg0eK+86jv/L97AQBUuHxBQmxMLts/LVaQE8mPYWf6udiz3Rwc2D78tNiE5Jjv Dv5X5X9AEJMrAABwSEvfxE+Iixew/2+osaGREfz9i/e+gAAAwhr83/8AwHe9tEYAzgIAtu/vLKoa oHsXgPTTvzO1owCihQBd93hZ/Oy/MhwAAB4oIApMkAFFUAUt0ANjMAcrsAMncAdvCIBQ2AA8iIcU 4EMO5MMOKIIS2AcHoQbqoQlaoB3OQjdchGtwE+7CfRiFZyCEKXgD8/ARlhAEISJ0hIHIIEqIOqKL GCMcxAZxQjwRPyQUiUDikFQkC8lHdiIlSDlSgzQgLchPyAXkGnIbGUaeIBPILPIn8gXFUBrKRBVQ DdQA5aBc1AMNQNejcWgGmocWonvRKrQRPYV2odfQu+goKkTfoAsYYFSMhSljehgHc8C8sTAsFuNj W7FirBJrxNqxXmwAe4AJsTnsM46AY+DYOD2cFc4VF4jj4TJwW3GluBrcSVwXrh/3ADeBm8d9w9Px 8nhdvCXeDR+Cj8Pn4IvwlfhmfCf+Bn4UP4X/SCAQWARNgjnBlRBKSCRsJpQSDhM6CFcJw4RJwgKR SJQh6hKtid7ESKKAWESsJp4iXiGOEKeIn0hUkhLJmORMCiOlkgpIlaRW0mXSCGmatEQWI6uTLcne 5GjyJnIZuYncS75HniIvUcQpmhRrSgAlkbKDUkVpp9ygjFPeU6lUFaoF1ZeaQN1OraKeod6iTlA/ 0yRoOjQHWjgti7aXdoJ2lfaE9p5Op2vQ7ehhdAF9L72Ffp3+gv5JhCGiL+ImEi2yTaRWpEtkROSt KFlUXZQrukE0T7RS9JzoPdE5MbKYhpiDWKTYVrFasQtiY2IL4gxxI3Fv8RTxUvFW8dviMxJECQ0J J4loiUKJYxLXJSYZGEOV4cDgMXYymhg3GFNMAlOT6cZMZJYwTzOHmPOSEpImkkGSuZK1kpckhSyM pcFyYyWzylhnWY9YX6QUpLhSMVJ7pNqlRqQWpeWk7aRjpIulO6RHpb/IsGWcZJJk9st0yzyXxcnq yPrK5sgekb0hOyfHlLOS48kVy52VeyqPyuvI+8lvlj8mPyi/oKCo4KKQrlCtcF1hTpGlaKeYqFih eFlxVomhZKOUoFShdEXpNVuSzWUns6vY/ex5ZXllV+Us5QblIeUlFU2VQJUClQ6V56oUVY5qrGqF ap/qvJqSmpdavlqb2lN1sjpHPV79kPqA+qKGpkawxm6Nbo0ZTWlNN808zTbNcS26lq1Whlaj1kNt gjZHO0n7sPZ9HVTHVCdep1bnni6qa6aboHtYd3gVfpXFqtRVjavG9Gh6XL1svTa9CX2Wvqd+gX63 /lsDNYMwg/0GAwbfDE0Nkw2bDJ8ZSRi5GxUY9Rr9aaxjzDOuNX64mr7aefW21T2r35nomsSYHDF5 bMow9TLdbdpn+tXM3Ixv1m42a65mHmFeZz7GYXJ8OKWcWxZ4C3uLbRYXLT5bmlkKLM9a/mGlZ5Vk 1Wo1s0ZzTcyapjWT1irWkdYN1kIbtk2EzVEboa2ybaRto+1LO1W7aLtmu2muNjeRe4r71t7Qnm/f ab/oYOmwxeGqI+bo4ljsOOQk4RToVOP0wlnFOc65zXnexdRls8tVV7yrh+t+1zE3BTeeW4vbvLu5 +xb3fg+ah79HjcdLTx1PvmevF+rl7nXAa3yt+trUtd3e4O3mfcD7uY+mT4bPz74EXx/fWt9XfkZ+ +X4D/gz/jf6t/h8D7APKAp4FagVmBfYFiQaFB7UELQY7BpcHC0MMQraE3A2VDU0I7QkjhgWFNYct rHNad3DdVLhpeFH4o/Wa63PX394guyF5w6WNohsjN56LwEcER7RGLEd6RzZGLkS5RdVFzfMceId4 b6LtoiuiZ2OsY8pjpmOtY8tjZ+Ks4w7EzcbbxlfGzyU4JNQkvEt0TaxPXEzyTjqRtJIcnNyRQkqJ SLmQKpGalNqfppiWmzacrptelC7MsMw4mDHP9+A3ZyKZ6zN7BExBumAwSytrV9ZEtk12bfannKCc c7niuam5g5t0Nu3ZNJ3nnHd8M24zb3NfvnL+jvyJLdwtDVuRrVFb+7apbivcNrXdZfvJHZQdSTt+ KTAsKC/4sDN4Z2+hQuH2wsldLrvaikSK+EVju6121/+A+yHhh6E9q/dU7/lWHF18p8SwpLJkuZRX eudHox+rflzZG7t3qMys7Mg+wr7UfY/22+4/WS5enlc+ecDrQFcFu6K44sPBjQdvV5pU1h+iHMo6 JKzyrOqpVqveV71cE18zWmtf21EnX7enbvFw9OGRI3ZH2usV6kvqvxxNOPq4waWhq1GjsfIY4Vj2 sVdNQU0DxznHW5plm0uav55IPSE86Xeyv8W8paVVvrWsDW3Laps9FX7q/mnH0z3teu0NHayOkjNw JuvM658ifnp01uNs3znOufbz6ufrOhmdxV1I16au+e74bmFPaM/wBfcLfb1WvZ0/6/984qLyxdpL kpfKLlMuF15euZJ3ZeFq+tW5a3HXJvs29j27HnL9Yb9v/9ANjxu3bjrfvD7AHbhyy/rWxduWty/c 4dzpvmt2t2vQdLDzF9NfOofMhrrumd/ruW9xv3d4zfDlEduRaw8cH9x86Pbw7uja0eFHgY8ej4WP CR9HP555kvzk3dPsp0vPto/jx4ufiz2vfCH/ovFX7V87hGbCSxOOE4Mv/V8+m+RNvvkt87flqcJX 9FeV00rTLTPGMxdnnWfvv173eupN+puluaLfxX+ve6v19vwfdn8MzofMT73jv1v5s/S9zPsTH0w+ 9C34LLz4mPJxabH4k8ynk585nwe+BH+ZXspZJi5XfdX+2vvN49v4SsrKyn8ALqKQvFCn7rEAAAAC YktHRAD/h4/MvwAAAAlwSFlzAAALEwAACxMBAJqcGAAAAAd0SU1FB+IGBxYOCXo7l9gAACAASURB VHja7N3ZsusqskbhJcd8/1dWXXi71NFKqP9GxDm117SEIEkyf7AM//4BAAAAAAAAAAAAAAAAAAAA AAAAAAAAAAAAAB5A37/36QAAAC35PFs4tXl+37dtx/ryvvf1/1HX7ukd21vUyibferW28XU8tr5l rWxRa1nTnFb2D4/PfKnDXevqcJ8evMp4bxOTw/fWlJiL6CUlHmHTsnpeu6+fo3fGll3vv1dTSaU+ dp5XlT/5L11M182L7brp3+fXjP/6DT3LMv79+5Yz/VvX/cqPNSn12bzMWOgLP6Xvv3+PP6PW/Kly fraZ2iD/5LBs/t73s/ivlGl58zvDPfOr169muXak2j7/33ybhqfXPLWk/LS3Dlesae/UYut9ZVyz ny+G2pB72ryc35RseVdsZKZKDNV26TPTZ6U9e16zqT+vtXTZaJq3YdyCeAn56Pez0bS+w5gbj7Sx PXNPzrdxPoJT0bHGR5ceMI8Za0oP+Uos+oRbsfbJ8Sg0HgXhkud+03XhK8vk8vjOsafEvL/cO8bx N17iOuvNS51HqLr4XeOdUw9p0/ehOFieU5Z6oyRytOiJZVYvi43zbDLPwqn4GI7LQ8YKq6t4j82j aUrLpRTNXjI6Pg7LeuyvbGY+TghzSRyrRtdNB9809S9NNZYC4WvCny07Ot7wXwcOaXwuDJZDLC5R YuIjPRRCKSJu62UAHieDn12nf5u7wNRpQyK8dL4YluSxJDv0bL5HUrI7HUaWYiVsq3DpobQ1t1fI R4aapUbBXEKF2z/17nAoCqX1cDptk6CW/r4MxvEwG+rhef3G/x6Px+XYLEkj85FYkpTSQTss8OqT /LicYdkhn/JjsWYaMdJPzz0nPOX/9uTv/8K2GE8I4mNjqOt8eSPW+2E5OU+7oVg0HaXL3olbKyQz coKhTiKlvTP/jHmEX8bfpX1SvT+Pl3MrxUf/eJxOfXXae/EFq/z4DWXg9GJAepEk5H81wrRUzI1H S2ziG8+8cXuF+ja8MJafrqS/xS6xwzzfz7VguC9DMW15depbv5plyfjyzHLaudQL04WW8HJF6YQm s4Y1FixpN4uL6dAa5TxVrCckK0JyaB6opnVJX5t7Xk5SheoXCuYla90xiVIiXsNtDtkkHaTWzSBD 61QxF0+J0+n6X1xU1/VfyDZh6R5rT7zXQoI9FVbSPRJfy1sK9LJeil+ZHp1pQZ2yUM1IDo3S9LWx yVG+72M+G/a2Zb/mImZ6rMdEai5CxKZGsdGfiprlPrMlbpf75vxJ8ygRH/PhGJee9K3x29T3BvPv neIekbZIaHIaFuLxLL6Mr0uBVNLLsQWgnD6Yfk9dMg6Xk6twXE5l8pifhpeG8tJ4nU/nnjOOJfHJ zdrxNVdb6daGfaWkXXnrhb8zDI2RkLfGFmpiJaU9o3XEiiygpatQE0Zjwa1VUL4P+ZTexqZb7Jm/ NyzzzrVqerJ3ZD1Ln7Wvz6ensef20vFPDoXj9mWUllxriWW55W2onVTVLSpcPdaut1s+gl/F/5fT jO1t3F7PdgtlW2x8jfzUti/SS3T79PX6PpxOn2qelB9p6StKFyuP88/Z9+t+2ATcezJnDN8jaQIA 2kXSa0TZ+UIogQ0AAAA0E9vjf30YBAAAANjC7DVeK9gAAADAdn7r2FawAQAAgAb8Fq4JbAAAAKCh xP5jCAAAAGA7XhEBAAAAdoDABgAAAAhsAAAAgMAGAAAACOwl05NqttCupH3oumNruPfT1pZ/lBWu 4Q/71OKsvt3+3KuPUlwpYj69TSUtNGJ4PPDv38pdRNLnv3fd/DSbtSWlr/669pqDcoZyhuExL3l2 Hk9xm+ZXhp+wzWpr76i1d92zuq7v19RpfVCb2nn4V+jzcvuU35V+ztITBq+LPWO9T8coH4nxa4/p 1Tqrh8fn/H/bPG/Zi0tvi/nAllqESy4ts8Tfyryh5v762uWlS/zKXymp0krbMpQ1vb5eTA3lHD1u cqM4l+dK6r20T0kb49GwZXzqdjw4b6oaamu/jFcx7/7ZfxnLwrpkba7bYv2tds7Zsu3YSeXp0ly8 NqP8tXS6+tQcNm3fL8v9OlysBoMxQk4Yesr3b8tSQ08Z/jYufTwAap18Omjmd09bE75yWe94iFkm iZLkNlyzHN4xly1NmtNyfpJlKdBjIWVuga6bJshcQgwPm7QPL6VVfAD//hIWZzFZWDp+plYLWTQ+ tlJTx7RMWfrXMk0sS9hTZkx7fLB5LAGF/lXisdNo9Hva1FtjkbBmah5OnnPvmnp5eGx+6zavU8x/ c94Qjp9za/4iaiw6D1cPFiyfqsalRWzxZe4bcS+fXx3LNSlZmZJQ+09Yhz4PC+lYi8IRORWTYs/I 5dv0JGSeS1MlL4VPOv9No0S873NyffrE31WDVolbbjoWp70VW5jK2zk9Rpb+WDdhHvfEtMXj0TvV J7mpa8we5cJ4Wqs1ywbh5c+5f7ZbLqlcQc7P2JdyeOx+oYakgtky4KVKi8up0JXzYReaVYbatExk KRm3rHlZm0tbNA9Ly1QSa3toUjJPhfneXyadZepP93TOdqEBEat1qQVDfTgOc6leij8lJD1T18bT +S9sl1sv3fJwX4TqMH1qSEKHaxNOfcsxs11YhOsUF555C6aFU+3YLP0eIRXTlrUP/z0ssHMRJpZ4 lrEwPOVNxe/0gss6y4V8KN8vOQ/ITazjlkvZIGaR3GR/m+hOC9jQ31ORMyW2w5OldFti67VLuRRb Hljm2tBSTz5fpHNaPpuHWhOLiLHlqOVInk/V0+XEPXG57l3m76GRUaOw8uqpNvvHc086noUX8Mo1 Yaxl+clfbER2NV8hl5u4ZWCNmaaFwI4LmHh4XtfWsrvK29SefFre4q5bPKTOKltt2NqXc/U5ps/n Aav1M9MThvWrDnkZEU/xc8maFjnpSVELr6oRnjnZFrJrjVBssUSRmo7tFaFKRP7ahZiy57dv5Xwa umZVLrwGF857dUs4dWM+P5Lq83S4jbmpVUo/rM/hpRPNknG7duTUTQ23jO515YeXAerbWCaXwwtU bUfqcom3dGQ2EtjvpP204vwn4d4eeZaXlK2xb1mnWydNnzGCSiawW8XyU0fCfXp+zW9GSheIjvPP d/gX3psLa14F7srf7wGA42WEKAQjw5gA7jVOu84+2AAeLMyBe1Arl8lr4NrjlMAGcGh4IgwAAM/O Yn3vFREAB7Nmx3RRCO8ZH8YEcP8x+mcQAzh6/s8GQJuJKoBr5jiviAAgs4FbjQyjBzhvalt2HYEN 4EEhDXiLxCaygSuP3+zBuQBwBdksHsG4MB6A24xRAhvAPWS2iASjwXgA7jFWP20GOgCshVAA6keD DA2cJa3zoy970IwBDOA6QY0N8AaJ7f1q4N6T4a7LvCJSO58GgP2ls5gEI8JIAK48SguOSjeAAZy5 EgBI3ADuNkqzK9gSH4CriQpxCUaC0QBceZzaBxvADUUF8FQIZuAJGcs72ABuKLHFJRgRxgJwzbHZ dQUr2IYugLvLceB+2EsEuHP2+bQqCAC2yQk2ANak+5JdeQEcl6/63jvYAC4Ussp3ACbHgXlCB3C+ uP7xyRdi2AIgJ4DrpnJTTuBaGajvHZUO4JaiQnwCAFwVr4gAAHBJSnYr6Drr1wCBDQCHiQ/g3uSF c9+T18AVx27BNn2GLgASGzAKAJROaf8YCsATxIWlADwzlRPQwB3xigiAC4qKLVIbeOs0E8Bl8lh6 YFoTAnAX2SBe4c0jgf8DVxmRRUelmxsDOGn+7xcgAIBbUnDQDABcX2SLVzAKABwxInNXZI9K/65d G9gArh3MxCkAwJX45DU4AAC49jSz72Vs4CrjseAdbAMWwJmUyYbvVeIVAOASIjyXkHzxCuB8kV0R 1MQsvHYU8H7gKqPRPtgAHgSBAQA4W14T2AAeJZu9JAIAOD9rEdgASGzgEfS9nzoC1xiLn1ZJDQD2 ldil8YjAwLsnmQDOxzZ9AB6HyAUTUQAXFtgAcC3xUCYfSGy8c4SwAbAvZdkl+w62wQrgjsENeJrf l3u+97CBc6exXWcFG8BrQyDwRI/ue/4PnDsa+57ABvBIrODheUm9TDZ7Cxu4wmj8MxMGcLfQViKg v1eIX3ie/8e9n9cDV8EKNoAHyuup4ADeNbnk98BelI6uLn+huTCAewY48Qu8H8AZI9AKNgChEHgc 5DVwJgUCW4ICcEXpYEdsIDZCyGvgzKlrdh9sALi7gCCx8b70DuDcUfoxmAE8HRIb75LYfe+HjsC5 +cQKNgCCBOD1ABpCYAN4PNbyAABtpq5lryh2JYnHPBjA3cWzOIa3+T6fB84bfVawAbwkHFrHxpum leQ1cF426ftPq6EMAACuIbHJa+C86e2/f05yBPCSYCee4Y2+z+OBc7KOV0QA3JrSH5wAz/N9NgCu yh8TALg3XmIDAFwr41jBBvAieU2Mw/gAsD8Zge2rVwDXpj5GkRx4r/cDOGbUfSQiAHcPd3XvYRMl IAUA7Ev2FRESG8CTENPA2wFsmbiWLOl4BxsA0QEAQLM80nV2EQHwEL4rCuQzpPjpqOh7r4oAx8pr K9gAXhoc+97h6XiPt7MDcCxd2bAz+wVwFzFREQBFNrzC53k6cOyo67qiFWxDE8A9EK0AAOdnGq+I ACCxgUd7vFdEgKNH5Z9UBeCt+PEXSHAA9bkjn1scNANAmAQIaAAN84ZXRAA8Tm6UCY7vdSQ2ni8H eDlwNAQ2gNfKDjYAkQ2gjrIlHAIbwCMDoJ9+gb8DOEuCE9gAHhziAP4O4Fj6nsAGAOA1SR/AESOp 7z9mxACeSlkEc2g6yGcAbbGCDeD1Eps8wfPltfe0gSNzD4ENgMQGbu/nOU83hQSOGm0FP3I0IAHc m7IoZnUPxgKAdljBBvB6iGuQzwBajrRPOulIOwCeL56/AdNPHfF0X/eDXuAorGADeIX0SIsPsgNv mErWXAcgPoLy46hLJxUDEcD9KRfPYh6e7Of8GzhqtPmRIwAAD4B8Bq4ir61gAxAORT28yNd5OHBE PvkrK8aABHBnus43cpD6ARyVT7wiAoDw+H/YtJgAIwFAicjeJLClHACkB3CftF+yWR87AXvzlx+s jATgCcKjRFZ4KQ4AsHWS2nX2wQbwGonNBnh20u9769PA2fL6+442gQ0AwGMmkSaSwP7jLE9WYJsL AwDwlLQvswP7jrXv+LKCDUBQXIRHAgR3pdx3eTmw1yjzDjYAEB942ETSayLA2dnhkx+oTAkAwF3k dUnuNoEE9pTXjkoHIESKf3iZd383reThwH75wysiAF4IaQHeD2DdCCoZQ13Jbn4A8CSKv+IT//BI P//u08u/gf2yiG36AAB4HeQ1sCcfww/AWwVG/odglhjwRAnNs4FTBbYBCOCpwqN8T2z2wj3hu8BF BXZ6BgwAd5bYIhzIawAnCGyb1QMAQIADqBs9BT9yNAgBPBfLCODZAFpPTr2DDUCozFwhFgIAaiav nxYqHQCeKq8BAKgR4F1X8IqIr5kAPD0YsgFMLwGUjpt01vheYRcRAMKlOAi+D6CAbz7IS+yPtALg 7aESeK/EJrKBPSannbUbAMKkOAj+DaDdyPowEoA3UyYtrPPhmf5NWgN7yGvvYAMgQbpSkc1WAEBe l1xlBRsALCXgpb5t2gi0zxeF2/QBgJAJ3BEvNwHn5AsCGwCqBAsbgFcD2CSwrekAeAv5eGc1EABQ MmX9kNcA8It5oh7eNm0EsIfE9ooIABAseL0cYAOgdLSUjBcCGwAIaPBoAA35y81oDU0Ab6FkVaLv RUUAkCXSfPJF+VkPACwjIyvgOYLAtBFoO1K8IgIAVeGTuAaA9+aIMpHdlSQKM1sAb0JcxHN8uet4 NHB0jui6j0EHALXyGgCAeB5x0AwArJDXZDjugCwOnMMnn0KkEQAAyGwApfwxAQAspYilBbyLr8eT 4kDZWMnmkvRlhhoAIVSExBs8mj8D7UaTbfoAgNgAj+fxQMPRVPAONgC8i7Kdrr/bn4mSeIaA5slA y7FWcJIjUwF4W3jsOrEP75xcssHZk/uyPqjtqdz1er61Lb0iAgBBkV0qxdkK5DWWtgtJ5ZSF59eH pfb3bzV7vP1Ee/rZerB1diCwAWB1QpWW8C7RgBJpPJas4zXpIWakxfT4ulDUya+gDldMy43V1FJB +9HS+V0xAMQlNGECHo0Suw52K514xzcFHb+kFrvq+/fh2X0/vTL0otv3uum9oWfwga1jqevsgw0A AElAXm+26ppvtPL3xK7o+0FCf8X1fFV8Kda3+QZqes0KNgAQJODNvHk3q94RnrB5LBHYAECUgC/z Z8KaJ7Tr/Q/zAsD6MCpGAm+LC295ocKLI1uivl1EAGBTGCWx8RxvBtBmguUVEQBIhFLyBe/yZ57c KiaYmD3XA9I/HC08yREA3ovkAmAurtjh3Vkh5wGFJzlyJAAkdlniBa4uDvMezZNztnmXhfjDWj7k NQCIg3iHJ5fsiQyxANunJZmhxpkAwLureJMn8+XtFjSx4AHewQYACQakARD1G55Tz4dRAYB4AZDT Q+8c45YXdhHYAICaFMwKuLJUIpZMo0nsYyxmFxEAaCRNyBcQiGTmE+sqsq2wmR85AkALeSJe4ikC my9vn5x03fyO2A4uyyvjdww9s2aq9L279k7esMYTuu7T0p0AAMB18S3LUXaeH0rz3SRxbv35X8L9 0/2fQZeFykr18HAvH2jRuwVX5SS0bgCAH77zwxs8mS8v7VWzg/hwbdiONedBpq8d6jS9Zr52Pi8p f9w3j1g/ev6bxhhkANAysIqbeIIn8+LacX81y82led/Pa1baLr6wRmA7yREATk3HwPHemcvusv/9 x//y9ZO15ejTNRYp2AdbqgAACQnPEYC+uzai9fPe2AcbAIAXicX4rhUgW0MTMv5S28dF+2Cb4QBA fUIC7uufPHj95OWJmok/1Fqk77MC2zwXAKYxEXi+F8v8ooPIt210FJzkyKwAABAReJoELdN4dOAa vIMNAI9Po8Dciy2fmWzgRIHNqQAAeKJolOGB9tOt37E+VrABoAorfyDBCaqQqAIGf/m0cCwAkGxF TtxrmkgUtrOmqIe5R1jBBoDmqZR0AeH4FGnJCl3n24y6UdH3//79MRUArEk4ufAqMePq0hF5G7ET auP/95qCbfqYEgDERvBgvNOSfe+FojqP8IoIAAAgwV+LFfq9bEpgA4DUBQIavAANIzuBDQAATBBX ic/7C9R8C4jwNWPHNn0AABCQAArHTcnI8SNHANhNnFiiwJ15++ZsJXtFPL2VXccP1mSHgpMcGRUA gHcKSCrAUoGF1nUW9Q42AAAgr6qnFm+xDYld6zlFB80wKwCsSb6/60RRkFa4ayzzDcZai3zSA8vQ AgDCAyCjnhkDCOi98IoIABDiAEhTcYzABoB7pCW/v8edZVPfv9ODy9r8BMt0Xe59BW8z7CCwJQYA 2JJ2vjFUJAWeN/l4UkvFqLZTr3//us4KNgDsKrIBHvxMeX1/2/V9fjGV+K7v+a7ziggAAER2Voa9 jbe02WaE6+R13ioENgAAr+S3dmmN8q3ymnjex0P6nsAGAOCleEFkizB9i+1Mv+Y9X/YLRQIbADYH XIB/v0tOGvdGBYENAAA2yIU3rWKWrE8+xx5dl/sew1RiabGS6whsACBP8GpS/vk2332jnBSf2lrs K8E/zA4AUhj4Jkol+LPeXc/1P/9YM0XreyvYAEDG4PWCYP3nb7MHUBLp/zgaAOwtnX+/PBdRQXKa COMNPvSXv0xCAIC8/Mi/xyqagqQE3oFXRACASAH4NntEW8wHaum6T/4SZgIAKRfPlQJ0wFtbSzrv E++7ruAVEQAAgDfIpq4rE0/vWhiw1LqGD6MCwFbKYqW1ItzRf/v+PeucbxyjlN4pAhsAIH0DXiZ4 rrQmsdtPSfreKyIAcKGwDMAIxt2no9kVbDNWAJB6AT7+xPb/dujX73XyucQmXhEBAOkXr5YLuaU0 vv3kuJXrXQut68aEkxwBAMDLJdabJxkle6egxl5dZwUbABqGXbsx4I5+ywYmUG+fYLWHwAaAwxKV ZAUS+54j1/QYdSPms93pAADA0wUDPQCU/mah761gA8ChMsVqIXDHkfvEsWtdfh9f6ntHpQPAwcH3 eyAzS+BaQkv7tdqSQAt7/Kz6YVgAOD74AnfyW0Lzqb3edTbq22fEfAw5ADg2VYusuKZk4Jlvs07p u/ckdn2k/2wtAAAA3F9q5d/GpQmAkpHQdV3nR44AcFjYBWBsX6tdfhWyD3950zM7ALRCRAXvxZX6 NPcKiF6vn2r1/b9/Xdqo308ZFwDaBV9xFVf13q57k9SqWZV+9ohNW0K0WuMzHaMCgJQNlPjvs3zW NnW/9xTe1e/H+M2HQQEAQNmB4U9qr31THI61l82yK9gMCwCtRYrYivv67/teE3n6SLV6vY/fOMkR AACYFCakFJGJ2mmZbfoAoLEI8cUznikabEP5xmlTfn90IyWEo9IB4IJJDcD+QsnPHEWjfSzW91aw AeCEAGxNCPcVnE9pLfnJAnvY4/sd5odRAeDK6R0A2XheLGKndfiRIwAAKJZiBJepPpvlP/0zawGA M5KWCItr8fPI9wguR6yYVO2HFWwAAFA8NXxLS98iKruOJWqnG13JKTLMCgASOPCuHTV8x1RqC3Fq bq2vReJW+35uFxEAOFGuADCCzyUtoUWypbXS++30fd/bpg8ATklawPU89k1HJJW09C3SkoTeAwIb AE5K4dIa7ijGnuG3Rt+TevOK0zP7YAPAqWEYuI/P5t4+fZ4A1UZRbB1WsAHgtNRl9QgEp8kvKzzR sh+GB4DzxAiJDVxxdH4V0PN1UL6Ffe9VkjVR+5MvhlEBYJ/URWID1x2779kJ2z4i7UX4Jx/4rWMD wL6hmA1wJzFGFzxtMiEG1U+/cp9/8gOJKQFgn0BccxVwJa9lh7dNq1hhID0h+X7qR44AII0DxdLi Caudzi58Um9eEwIbAABUCMy7izKiksX2HSFZgc2gAHB+oAaOE1Ila5r39tp8+950SHrZG9ji1NQ3 Sjzkw8kAYO9U7jf6MOm7y/QByHlRyQj6YyoA2FOqfHeRJa5BXLMCe9zfFqUx2zvYAHB6ciKzcSWe 6o/2wlgXo8SnOi/62ssKNgDcQoQDxPVxNjAmsWWMdB2BDQAEC/B/YfBMj/22qlQ2v2mjvlxrTTXW 2ZXABgDyGpgIqtxBGncVXfbLEKWOGkUENgDsLFbSKcz6EHDESCQj2aVlVM/ZLfsjR4YHAOCdE8O4 NrifOjCVZZdWlPi/FWwA2D0Y5z6V4nAfj3162982Gh0bvw+26QOA08WK7wpxJZ4pqsrevyav0Sam f945zADgWpKl/ABe4ApS9F7v7pa+0kLzbLGe0THxpbIDHwEA+4ZjURfn+2r+R7l39VICe8t0ytio t9iHUQFgT1qcHmf9CPeeNgJvi/gfwwgA9g+5tdJl+qXssK4Yi8gtI/X0KfGS131x3PetvnAO1XKP jLWmvvu8eb+sSQtbDmV8d8AuK/PJx9FgbfR6l4RO+9BfztVarL0AAFom+fnOI30/3JWO2b+XAJYl xO+bfza+t2YPlNi1U3n3++/f1bm78par3adluH78X3W5cPqqxfzeYTow78XhvuXzyqY9sXvDdUg9 L2+n++gDwplljrarbfoA4JA1jxYrjXNZ8/vvQZrOBdP8r6GEOv6BZfod3G+pobbMpeK4jqGzAfu+ 677/F79rec9Qw+HzoYyw4Fuu+eanIem++9U7fOJhrA45Dxg+nbZtXF64d6Z9HZsS5aww741niZ2S tr11OTF/cifWTCz9yBEADgrL+6TF8FppXACuSazTteVfipnfuxT+dW0uqU+s3NCK9/SqkMSKrebP pyzTsktaNS9vXotpW8NlLsso/Qli2KrhFqzpqTsqBAKbdY6N5AQ2ANxWYueOiLjPulS5zGu73jZf +y8RGuvk7dpS2vdiKwveSx/YRYTAvpjAZlYAuKK8xrUmCHeazLSq613UQXl736l3KMH21ip6B5tR AYC8xlP6ly9SO6yy92Sk6/zIEQAOS1WkDUBE4v6+kt/H58NYAAAA76R0dxuUW6Xvi05yZFwA2Ioz BfA+mQG8d2xYwQYAcgRYNW1kA72IsFU/+UuYHgAA3FGYlRz8/vapb+70V76+xvc/2x0TAPAcQQI8 SV63vU5votRidhEBAAAPlGOWCHGWZ3kHGwAOFiZevMP9vfgp32//xuK7x2SuN01U1tjDCjYAHC5O 2AHPEKZa8ha5iFp7WcEGAAAEGUxCGvJhVgC4drqaXj/8a3jZpOtSL55c9aWU9bXauz1e46EL9Od4 SmXLi1r/Lzgq/XvgIwBgjxA9pK3vyyPjg3h/R6v/rhnk9PfTZal9Pz6OPfTfsVdUUn+f17T03twn 88Pjh38t70sfM7/XizfnvdAz7t1cDea1rKn10q7fJ8fuf5oioHF+NijxMtTwVzPIAQB7CKm5hA4J 0KnUnV75+8vvrtgTpp+PRXxIbIXF1/TpY4HymyJMWxMSyzFRPZ06TJ82lDO+JzTVGP66ThyHrNiq t+MWHtf312fhaUh80hKeeKXF1dRHUnc/Tw9QOF742c9ifuQIABdI9NOgPZWV06A+XXMbJNggx0IS IiQlltdPpfdy/Tq3ihySyUsZnRI56c+XUnM+Jbmm5ArV8ttfY1stfSBe0ni6Eeqv0D0/D4k98Wni 05psO8nIVumlh5BNOw4IAFdMePUrkSV31Jd8ZwvVr87Fyly/zrfG2sOX9nNxPJfKudJzdhqvYD/N S+ibVvKarcKjM2Oz9CVvM2k4hD0rLQEA6VCf8ba8btImJ+X/3vIZz+/96a8e3isWyzyb/qmNBrbp Cxrt94vZ/JeiflkLAFel5dvUa3YW2frk2P0txc5bhRPBWG4Fu+qsseunaarpTwAAIABJREFU5ez/ fmJ6KqdD51MN10wtshTghDYAPD1tEhr3yO6lOVl/5m3ARmt0cVf21cAzjdtSEHM/ALhqrC/JdOVR nHB7RpbXQ6W2+m7/yUa1AvvzXuO0dJfx7/u5HwBch/juGnuKLbng+l6BMm8t/z4AYz7vcqHxix17 uOdYaH+fxCkB4Hz5kPsBY/tYLfrjCfIaa6dmL3pF5DgXCp2qBQC4cgaoidQ2NrtyTy/3jtc/fPl4 m73gJMfj52bxJ3qPCQDungdIkivjjeH2FmWDNfw926zX+OJj26G9AIB7Zh/S5Lq5nwwfJiRlZxOi DvtgHzbcl5v5cWcAuIbcqhFbhNn1c20rvwBeL7CHQXX1HxYO9ROkAeAK1EZj0fu+Uyk9WGs5E5F1 E/aH/MhxLFl/X8xd3SUMbwC4kvBq/TNHcf6qAlu/rBGMKLXa11qfpzV4fuLiPTrH/BAAzoWEeEsf 6ul6e1Ap9Rrv7wmueNeOX9Y7v1srAOAuOcJPHY8Xi7ne1hsmn8eM+0/OqOQ1NwaANyTFmmwiVsui JqBslvTEu8715hvs3N1BhAQAOFtErInE+Szqu8ln9PSLpSJrVVut6z5tXPVsef2EznKsOgDcT3Tl 7hLZr9fTaOnhvCzM556G/daq73/C1JACAJyTyfKlkyggn982ifvc1/BfeW3uDQDIywhCArItAX6c h33u6oJPHRxW4wHgaVJNXL+aMiAbxzZLTT/vcojf9fh75tB5grtzTgC4QwYhPO6D3LpueugboKkP ldjtw1QmEwAgplqjI6+BVp7UdTdawX5b4BvaKyQAwN0jukh+tkrQA+vswm7rbGoF24wbAF4QSUti 6Zp4W/rlufVxufS6Vkn5Jr9djuSHvCLy9qD0az8XB4A9JdZaCSY6XyNX6qV1oyKvsthuDVawHxE4 AADnSZQvYrlMynYm6j/+9pnPt+5SXcsCAHDlOOrIaeA9Ejs93vs+c1T6t4jzpB1RyR4A8BR5jX1F j+nLvpISdRHhk/7YjswkNgCInu0EiB87ntXH1Mxau7Dcmnjyd12zCkExq3B1ALieTJG1rqwWZE4c ix85PjaYAACOlFelWwGSeuQ1TfF6gX2WS/oKTaAAAFIGJROWfFZkeZriWJsV/MhRlwvUAPCGlHhU VLWERFHg+fzlA8E5jmkwkNYAcHR03Tv3iN/AOyZ0BbuIHBvc+v4X4oQhgRoA2ia9rVe0KkH8bq0c 2JveuI49+v5yu4gMR3Ye2ZnDb78HYT9u9/jTazmaPUUA4DgBXpdRQPqx8Xv5u1qFvqHpWHn9e+o3 uC5D7Fd2h0LvdKX9e8Xxq/4kNgBsFQkiqakTWLChskyHnONNerS0biFPpxL7aIHN7QGgRXbpujYL FqVZQPQ+xtbsbPJ5hr0+bdz3rvK6zTOnrscRAeCeabPVSyLXy3hPxSmERygvnlpr0b7v+7+rmPWs 7mvzttz45RCOCAAA3jONeZ898lrv75j5/JVnRu1aOC7pJ7n93AUArpEUj4vGZc8iW4AHR5wrvYN9 RPA7OqDt3yYhGgBaxeM2EdXx3U/s1bfakPXqfS67D/bT3r8uOU71mcEFAHBcDiBJjsp/MiCVcdl4 c4159r7dd36oe3r7AOAJcqFdNLWGfZ3Myspbbdlqz7X3+F7BNn37u+Z3/+n9BOi1HGLveSD3B4Ar CGwS+yoyB/z0HM/7u0/33llsHjXzM8MEgKOzzZYnOY8XeCZ/T23YNQPWvgfRCNIAsFUW5yLpL4YP ZymIvVedLumbs3XJW6fpfd91nxLTP9UAz5L7wggApLJC27zQ/8fw32uzD3nzFi1wZZGN1nzONPqe v/+9rrtwZAC4a4QOZa2ptP6WUBfpyUAZ98oTEFZcWiNvk7+rd2t9w68fqPap4zi0AwDOy2uOGIMJ yNut9vc0w9/jjSvBFwCuF3dT+aPmZN6aCE/i4A4TR35aM8JP3aZvz/Xre7jBnhLbQACAdTF3Hj9/ WWWvmC1e7ytzsM+4YLOcvbrz3LN9sLrniruQDQDXlRJHfd8oahOFV52kWMEOTbpzh/N8GOpc9nFZ AwEA1kTG5TXHHbAOmfC+kxnM+eRNu49xrV8DAI6WXPlMcU4ukcFYlMS+jz1Kfo/xd4aT6qy5fVkE AK6RPEPvYIO8fq6lyt4oZqkaW3RdZgW763w1dlRAb2tnCQEA2sRPB4XdUeLIgjg7inzOeWz7wXbv 8PT9wkGIBQCiHjjO8xwnvxefuw/5J6yyDy+JtGuJcA0AayPy8dF0z5ONgZSG8g3KPvzlhjyznxHQ AQD7CFk2kFPBnvvHkb98Idd9O1iX5yzNQgBQl4Faf58oapsm3duefHKd933uOii8sSwIAUBt5qi/ 7shcI6/JfXcdM6gW2C1N225dwNZ2wgwA7BMRz5IUpEwrO7Jku1FBRaz1r5vuIvIt44huP9q1BAYA uFpCvU92BNr7Jc9cExP+7tu0I0Je34/fQr/f+3HEOgDcScqI2tsnIKyI8/2w7z93FGh712o+Wxuv l//+v/kcADwxMS4zzDHx3veXuKqm4plrrPG5YqWuEILjAfUnrq8vtQ0JAKiNicuYfkwstYeInHaG 4vkeNWN6195bP8c4c1sZ+n1x4xihna7/HrVoV6ZVdgCYZrWSvHaexBa1W+Q0UpFiOHuq13VF+2C3 c9Zr74G9bGmuvr/Pr/u+lzfRAOBOsVPUvpYyeIvFyOv2ivLvOAF51e6brlRfyd27bnt9BGsAAHA3 dXb7yctRu4K26cB91q2vO3duVTsiGwBqoup5P3XUR+t77rssxYbtRwSb1lvt827DvmXeZn4KANtk bvkpkOtzJhmzvefY0LTvGha52TZ91xaK31/jXtOpSWwAOEqikXnA2+PIX/6SK8m79ge3m20BANrH 2ha/ooEsdwX8mmuNN/4d9ahrBZq7hD3vYANAexmWiq3t3uIdSvGe697ZkO22+anJYHtv/NxLiLZ4 BeONO40aOgBwXuYokX8kIs6bcvLN1jYr2gf7SYY9Qmj+ntFm5xUzSwC4Sx6Ix30vjOzbZ15i2Mu6 7Fo/nr/eeNA72G3C1r0G0Pbatn7j3DABQEwcG3uv9jRTIuAYBdjt/15TiwNT7rqbxlX2DxfGAaA0 toZj5faDuocSxm9ni8ytMiFL7mNddl3jkV33uc7QAADgqpTKjHjG27K7NnCWZ7/xl2stVO2nTTHp rrvCOu7XQY53Eo4JAFdLj/vG5ZTEtkP22RMgUCjH8HmXK22dJNQO4BbTE6EHAK6QCeryhXh8lx57 +6Sk5HUHtqq3x4c56sqoL4djAsB9ssHWmE0OniGvZdr9tBHbrrFJ3/89xwX2C3nT1et7bpznhzQA kM8GIuUTJSK2jxh2ruXvDo57pLxu/9vureXYPRUAjhMThARgGrNdm9lFJCqv09fVONv2TQpbuLYf MwBAXkCLlHjXiDhGg7zNaocI7HsGq1KHKrvuGjYwRABIi7lYmDqN0RurMhdQsitddh/sFtvjnS/R 95G3637yeF4LBCkAxNqZm/Sh1pIlEyL2pg2u6b0H7IP9RDc79pV/4QMAjorz39WpLXFXzG6V+Yi/ K4yJvveK6Ro+ZU5+hYG2p3PVbv5fP+i372JCpgPAtii45gfva+KxeNsmM5f0GhF+jYnpu6Z+mwX2 usNV9htm1xSW5Xt0CrkAcHWZkHv9j9S4kpTRG8cJRtRFmm5f9/19xXPm+m3+RfQjnXP907bvRcLl AWB7ViiJxiLuMcKPnVn6qlFk11dE2syKtpVy1Mys5HBcW90AwB3EBK6AjHmVEUG9rLHqZ//B8fyX 47+u53fpAPAEMdHmG0NRm8TGm/nj3Eed23X2+WAOOwWAsliZ3yk7LZ+/nzoVcu/JEBvjuhT8yHHb 7PPqrv+2Lz6sqQB4M77sBmq03hHf0b9QYL/drVqXxUEB4AkSvHz3KOyZVU2XtvJ9ibfE0mw1Hf/5 3909/qCZI0+Aur4DCkYAgPtIPxwjF/VDez77m/VsSXeExOZ+APAEOVGW+SxVnJ270dLKNEyt1UqO P/o8f5Ad4ThlLrqlJUINANwrM5Et++ZuedFE5sp8nmv636+4rxMMAABXl22EybP6CSx9UYG9vevO 6ryy4HdkiDzfjQ0kAO+m9LB0XDtP+UXR1dQU5l58gx85bqvBtRxjbVvaTVNIbAC4R/56r9XKXrhk 3SPkM3m9ls/zB+pR0nXPcMvBAeCoGEy4XVnw6aUzRgxrNxfY27+EucLphU94Uis7kuoASLgWea8k 6ou4e+Zc1j1SF5DYjQX2FYTnk/be8NYYAJwdhdtIBdH8qqoBe0xm+HttdPhc39Gfs8n5Nvds4dwG CAAQi/fPpQQfP746H2ZtMUjLrHT2VEE4AoAjf5kj6ra3GZviIQIbz5kKmIMCQMuY7LiZMyZAbHSs xbFuCr67wD73xYYjfi9evtqx9SutrTU17weAI3Nc3/e9yFub51jsXl6OsB9/7lLRK8xG7j08DBAA OD7rWB+slXLWsPGE6cbuR6W3GAjr61AuK9fXs/QJW1evj1tpBwDpEwDWxoi+/zDEVol9B9kqYQBA eUxvGzMtb7TNqDIa7sAn7cTb3bhNCcccl/7sEOglEQDA/XMZGxxtURPENfw9Yz7bqoS6lYvf5utm 3ABAwGH/bK13cBc+aVe/xqxl69pr3d3lbf6K6zvM7Mw+AWCfaFiSYchC3HtMUBH1ccFBM7s72/af ibYQ8QYHAJTG3OMlOIBnsfsrIi0C1fH7Yn5rHXtmbZu2r7+TxwBwZA6oidu5FwXTGQWmKudblcpo H0N236bvGsOhthbfl1LmDvdd1/j9tXRlucVqSIsfKBo+AHBmwmUDAhrv4RYr2G32Iqmryffq6T1n zvKEZgA4JpLWZ5zaDINw3+Qs71xMCuM+9rrFUenH1yRsvDVr0W3Wnts4vyEE4N3s94NEG6Eek6Xk MfL6Lnzu0v3nngi57YnbX7NpUXPhHwDK4uAekkMEJvLeNu18N395p3+KWfs+/Ga14QMAEDP1yXtt m1ZGbL+Gj0Fx/YmBY3YBoFVELYm5e2Q7cXybbdjvPPvTIWuiweeYxxw1AK8l9Fs80dvXAPAUGSMW XyU/Qx/tba2/O1X4Lq+rcEMAANplVfuH0DVXUaIle8r1fXYF+zo/jHtr5/p5IwCckUT3Ktkq9po8 KItRWHez1ecuTWp3muPejtR2P1ShGADaxuj9ssB5e5TceTJT8gYwOxHgV7JGyW85PscMnvd0TtuW tgsqwhMAEBR3lSvYV6dREO357G/UdqsFrWaxQ332CaJXPNZcugCAa4gF8bi2P1hsT/uTz6cI7KeG xjYHwOw5KRHKAWAPcZuPiXu+QiIiX226Y0TQEft47ecY57/eENonzF31BREAwBlxnFgx5Xi7x7/R p2+3Td8+hvi9Ib5ezk6d82qu2u7noQCAbfFYNA7nYQLwyj3Ab2tV179/XfeXN/tb5m4hB2u7I0ht 9wAA7hVfSRW5DqYk//5lV7Bbbe5+j18JTw02vKc9rfnwl7uESeEcAK4jKsVk3E1OskGtPfq+QIO3 M2zrPUCOmFvPXx855ultJyOGBgCURtj994ESk8tz3Xfhi8XO7AXWX6fSPm2KOV40HjtLmf/vfeS1 H5AAwLVyVd/bGk0Ww9P5HOfarXfD3j88jWv8+1Xo/s9tK6+5OADURdhjxC+JLUe9Y0L5Vpt9DExu AADviYhHvhiZfsa743PZOr4cRiNc0WYlMeJzpPGfsUv0fYR915mGAEBd/N4eNctK8OoDCXiPEaEH 1liu6z7X68rSma9Q8pSJAABcJwsdcxov0SKPkdh31mp5m3zuPMP+ftn3pI7nxADwBlFHOpYKO5ai Tu5psc/RJnWY+LHTD3YAgKtK2zfvJiI/4dl8jh8CZqPHpJCzTqEEAMKvTFq/Nx+WWplieNeU8y76 Kv8G9uHvYCMValuHdT+hAYDrykeLIHjPlPJNNvtqrz9meqaLe3MNAOoTY6sTh0vKefNOT7YpvF9/ oS7K/B1v0vZD6lvifbtfkAGAZ0VjL+nJfHj3BPFjxnJmeNnrh4glbwgBwDsT49Yr2uYA8poKufqY wBoP/nuac/T9vVxlH3nN9QFgz2j9XaFORduyNey75ax2eeoaJ2qi1Pv1Rq1y+zveqO3fvJqWdh83 2OcrRIMAANanxdS9v/z1i7N3f0ER8LLOXvb6MDunBgCUROavuJ4L6r4Pvewhwst/z8Ekst4Wf+cM gG/19ir/DmvYe7XdIACAWHzMb66Vi83xz8eZh3wkr/F2Tt0Hez8xePXBu1/9hC0AaB0fSzfd6/vw araoXZ/9LRcd1xts/TiBvefAfeevsw0TAFgvo8M/XLRwcU0JjnYTT/ZuqbUucdDMHj/ze28oNEAA YFvWWR9H1+Wet8XtUivZteLIHjGF3GPK8jGQj67TXmvrghEA7JEX9oyub5M2ZbZ0zuPVekxv1PNp MxiuKgvf5BLcHwD2iaR7ZarvV83vit6lR/1YNKIt7uvHXXeJd7D3fW/4Gq7xrcWbT+0CgHsIhXmk 3u97x6FeFoPmV5DXuLMf9/1FTnLcN7R83+Q6832uY0KncAQA94qk71t0scx0vf7wQs4eXtz3Xenm Q/cfcoMLHS1Ff0/dt5UENgBsyzbn7CDypujtgPRnjAv2yl/zucbQP+IZw5d858zUyGsAQDh6v2UF MZer5DI8hU/O1Z/p7Mcc9PL77/1tKCQBwPbYf4bM/b3j/QaJXfZ2td8rHe+B1xsXjxfY15nVtnjC Ma+6jNfJ3xM2AeCJEvy45YvnL5QMWfH8bI068UzH1IzWSxw0s6zQ/mvL33eh9/zR4/wX6IIyADwh cYrkews5GBdP8fVP7qKjh8RxP6hc17Kr/RCA0wOAiPoMec3+Z/g8q9d7c6MfOb7BTKX7nE6/4OpH /D491lENCwBoJ/JCVxwTZ63v4v4TJEwixxW3ZjmvI7+vj0xbPWztN9Qrtmvk3lvxkdcAsGd2OWej vjdE9FI7ymxX7Bm9MrdYXu/95Qo5w6jHytSQEy2fX/ZeNXkNAG+Uhdvj+ZnHoYGH0xttLVZw0Mzb 1rDDYe96HczdAWCPzBL6DlNMPyqry2365QmW67pL7SJyb+cjrgFABgAZx79Zru+77qI/cjTIDAkA OD73TLOPXIRn+zvdsY8K67qCXUQYFQDwLjlBYp9veVxBKGK91f5KijI0hCoAeH5iPH6z1Tdk2hoZ N+zb1bqnhsPm0qW174lfied5F3F9tN36/sL7YBORKcsYGACwj6AYX3f8YWvkdfie34kTw9kT61TC cNfwjGmP5+uY3lUs9Pnv/7ou51HDuRrTczZqbDyUMC93fI4Hz9xdrV1zFxHdbwICAC0yyZpFiWE1 U3Q/K5fHd3P5beUb21Y3vpt5fBPgwUumK9nLFfXliRihT8f3ju8IlRe6It6e2BPTdtzuyVRHrR27 kle1z/lag8Dm6EBYLgE1maT+bIXzBPZz/Hur7UJrzaWTpXH/rev98D3pstoeQZcS0SHbbH3edT3z OlG/zq4V3bC2gXXyfN1qA4F9bvJ6m3ArbfWWsLC8d/jLfm8pXr/n2z63pLTn+Pg7J1P3yiZbWlzm zb/1zKlEa+vhV8jjrdZtz2zBuulByTRkvQSfTl2OGflpbw3lyv8OeunaRpfqiVq9wA59iVJWpdCX NucdS0tqh4Rb6ouoeEjPCb7hqvQ103l56Ou3uuA+TSWpsuZfOE6Dc/zrwfQz5/YMhYH4T27GX0BO axL+kjEUiGp/uDNtR9xi468+Q1/kxicHuZiQD5yxNZx1Y2Hc1lC9p3Yvi2El4ifeO1P/S6eIuI+0 EGTTUVH6hf0+U5rp38Zjej4ylha5b2Sv8+xlDE2/ZhEfPanIVOqReLbyiPlIbRyKyeO4wA6P/ZB+ jOuZ2Is/+XhYM36rD5oZXpD/DaNpap//K5XK5j8ssEq0XlyPBVlc1IWk4/jHF0tHmsuA+ZPHP9lI r1r8fnYxvSYleMPeM697/C244eqwOIh/CRyXvPMVgnGNlvYrEz1x6RL+OUo4NOR+dhMOUr//Lhd1 89DW9ylRP1gqlJjjfjVuVezL0NxPhULtScvovEwIlVYyyRh7f8zbf6N3GRlDK3JL7x/XOD4RmSfG mIeOvXCIEiWeHH47dm7PXC1iU7JptCmdjN2P0uw4tlw4hpcsmIW9PjWpSst3IvstLCe+Py+c5vpc pl/qgqln50Z2aIzEvTA0FQ0tGeXe9M9qtPWDYFn5tT8lMRC3yev4jzam66AlM9K6/mjf47kSpwMv 9mOQsmGx/Lw0XaRLDts99a/ULDx235YfbsUkYKj0eagre/8x9pOd+LrjfIK45Z3FZRtCtt7+06vl RDHtkaU+WHegd2wSMp3exftw2UOh9z1LxmzN+7HhO0I9E/6J2PoYcq8YP2176hvfqZ1i30bF7Z6O u/Ef4YVHl7z+Ni0yX+TLL1ylxnA4KnTdWnVSE9fa5YvOIHiD+5edOrTmTa9rHiVfKlDqhMS+KTz1 s5q2Twutq+ck6ZnCYo/e39a+q0q40rZX/1RnxcSqXRtiqXHdz9CeKGr2i5HvtS/2iEV3nfyu+Zls 3xPYEDQBAACaToA/DIF//3ydBwAA0AoCGwAAACCwAQAAAAIbAAAAILABAAAAlGPvCAAAAKAhVrAB AACAhvwxAQAAANCGrrOCDQAAALQV2d7BBgAAANphBfuKs57ue8wmAOAOMZsNAEwjwuea1XpzkN1e yt1s2HX7TCl+ZQ6l//5r+rTl36Y1mtfumcm0XR+UlRS6ak0d7tgbbWx9n5Z33V5j/Ny+WuevsXta 22ebxa/YW1uiQ8v25Mu6r7+f2ftnWq11jv++G/K3tirf27vEKybDVfO/p19LCX0eKytf7s9Q48/G V47bMr0yXs+u6/tljUJyYf7kWLvmpU3rN65TiR2mNSy5J1T691/zv5X2ze/K7/+OWxG2fstBMvRn PLwOtfj9V99PWxdraWjoLUsrreWaVqX8Mubl6XFaVrNcbw0lrevh2qD2LbvE3lt8LDzal+W39uVQ /Bo/4zfOy1pQ2ovLGPB7eplv5EtPefLw+Rprzq0xL6O8buF0m6pPTYSOlbfWe9KZb52nLfNgaY/E o1C+3nW9XnL18HlOi5S3Mz7ycvmxLheHFEZMGcx7fDmGt6mB1DhNK6zyfDcsg6Wz6fpIG+6fX/5P 5cS147My9cQ6axmI8/Iz1qC0yJx31vTOZSoc13gp9kJtCEvB4b7QdePWz0N0fJDM674MdUvRH6tD bJgtE3SqruEUM396SZ9NpXV64NenmfD05tfa0HOn5U+lcl6IxlsRCzeh6+MWSyeleIieT1amXh4e jSGvjtc3dG2sLjHBEUtuUz+MjexQok/Vde7LscldSfiPjdD0SJuPnHlfzEffMq2kx9m81PG/46Il 7cPjETu22tyu4anTXBgvI/bSNvEREkrc4RwQalss/sbFe6iXp3kj3muxmB7KXukcWCZr4iIptey1 zNtjXymJAVPvLp2mhPoxlwHKlg/ymmI+otIjf5qtpuNgXvO0tI37bWhUxfw0V1I44tetrpZF51TM i8W0mMoJqa7YdTFhG5P0ubi2HD9hhbPMGVumv13tOto87MS7NizB6xfZ86E250C58nNCMJ4owtOL WN3mqTcmk8PDNdXWMusur0z13vovSaYuGhdEsWfFvh8IiclSMZtuTyzg5MRcqXyIfxYLMyGRU9cj IQ/L13Y5rstGWmyKmvO18DgIx5p1VogJq1x6z08g0/27lKKp5YmxNM710tw34lelR0o8lYUmC/HR mhKz5SOkPGrlfSFs7dhafGk0Cfdxfiqfb1tomlmSu0qkZs7iuT6pmRqkxkl60h7TDbFFpzJVUaYY SmJCaDqZjsv5+BtXNzVjdH2Wzo2eVAQLTxDykbwsupRmjxqll4+Y8UXT1evXNV8xxhJIvKIpQ66X btO1li0l58JYrfysT/8h1zr2HaSjn7d/fefr+7kBtbaf7v4udqlF8lOTUlFwzVaHBGM6qq1fMghL vpRsC0fevey8JnnnanuX2DVd/ihrUbv21rYl7UFHjqc2cm/r4luZwM5rlXLBubWPty2MHWHvmkWp vZ/ZOrKkF8O2fb++QmA/Q5wBAABsnxzjrR5QLLHLXz0HAAAASOwGApvEBgAAAEp1s4NmAAAAgIYQ 2AAAAEABpT9P/WtRDAAAAICvfraCDQAAABSK56Kr7CICAAAAlJJTz1awAQAAgEZ8jyYisAEAAIAm fFe3CWwAAACgGdmj0r1/DQAAAIxJ6WcHzQAAAADN5PWXP0YCAAAA2ojrvs+uYJecuA4AAADgR/YV ERIbAAAA+Pfv37+uS/1C8feZd7ABAACAhmQFtn1EAAAAgLxq/r35YQUbAAAA2MxPXmePSrd+DQAA ANQIbSvYAAAAQEO63C4h1rABAACA8t31bNMHAAAANMQrIgAAAEABpW922KYPAAAAaIhXRAAAAIAC +j53lmOhwCaxAQAAgHK6vHz2kggAAADwJa+e/3Li2vo1AAAAUMJ3YbpIQFvDBgAAAMpOkPljKAAA AKCdALcPNgAAANCMriOwAQAAgAKaHZUOAAAAoJwigW0nEeAuc2YAAHB2Lv60KLLv90j+rUudl9a+ 1mvL21M6ra/TEYIu/oxjnr6llb9760oIPzFfj77fr0/KSh2eHru+tnal1581tUg/t318mtv3mHZv GQFXjvf38aQz7Te+axkPQ2Wua0vJXaEMbVnhqn5XmjX2euL1faPrigX2N73nmz3976kACX3WUhDl S5xfUbP9YL72KRulAljf77cN4iDLSoNVOKRuc+XY/WmLrZc3Q1uXV43/3XXDYae5NoY+/2+ny67m vq6b98U6oZ7zsvLSalJfSRxI+89URsb8IhxTwuk/1t5yO6wdz2VyxmWZAAAgAElEQVStr+2T8XPT Pp7221hcjl1VtgDRj1g71YpZO1WbcP+nbV7bo7UjJ19Suj17y52xjwxjJW/7nFXTOSL+hLoxWD/9 Hlu8fNGgPEak/Kxm2aSlNEx52HZfT0eXesWVzgz5SFWyyLMcedOYVda34WhYFyH6vnKbvqHgQVR8 //b997cKY8Hx/df43PZfGYOw+V0xyI/v8Ta//x6esTz2Znj68tnhFoyfFr9iXqNli6dXpyT7rz35 +Xro/rF9Y7WcWjxeSrpny1oSavf37l9dxmUth//UuvEaTy0+9oKS3psO2Wnfxb04VJtUz81LXtpt CBqhPhm3aj6+lp+O/z63eq7PYjYOtWR89bL/QiUtpxC5IBgfp2l/X9ZtaN84buRjQMwS8SenEtkw UZvHpLk3Lf0j7G1T35qXUSofYmXE2xH23HCvpEZwaJTF0mg4Xk17ehlRxraI9Wnqr+GYF89hKVuG 7DDvpfCIzpUXs9K0nHj8Wo7hWD2WGTk9TpexKCS8Yi0NZfi6aci4nmGfCI+9ZXTLLZGULcWVTfPG izJL7TO3zbJ+Q9SfW3Lsb6n6ztVMie9tmwJM7T5+/lDnoR/T8Tm0cBDTZnVZ4GfZ0LLZemusPKlx KlOX8iBUpbicyD1rLr+X4mKQd6EUlypv7MapGsVkQ7gtsbJylhm3MSfbwuKq3sJj24VD41RAp9w6 Z8O4SB6HnLKpUCzp1th+brXSY5fyrcz39LpxFxK/+ZFTKoDn4zpmydh0KTc1KevDqY+VbOgf7tf4 nfOYkiov7GW50RO/qtRf8z06v7M0KSyj93LZIxWdymJdqT+2HCPhsReLpuEFg5SFY/4bK3k+QQmN uOnCxNLSJXWY57Dafkov0aTjWUnOCef+VE/H1EJ++h4b03MfKFkuLCm5JFOlWhfWUWnbxCT4sqyS XBGrQz6GLesQzzixaVfMq3K1j1suFr3iC7vl6qI2HjU5Cn2rbDiPuvbHgkxNglwnu+qmJOtsUNuO GnHbth+u4Avn1jElEK9QyzJxe15vthj3V/a7kjLv4O8tezA0TWgRV8OTnpYRu11P5eVTaumn/L6a BbP242+dvdZbeY0N8hO5XKlpIZlb6qldGtrDg7eNkXz7zx953b2D7FOk2P16obXg54d404gHnhK7 IdqBwAYAAAAIbAAAAOBeOMkRAAAAILABAAAAAhsAAAB4OF1HYAMAAACNxPW/f33vR44AAABAQ6xg AwAAAAQ2AAAAQGADAAAABDZwHt9jfQEAAAjsA0VSTeldV3J12VV7tebekrLrWrdgXOLVbLOtrc+Z PGyzQjs7tLTo4HPX6yfTTlYAcAM9tHUXkW+YW5YyDn/jT7+bl9Q+I3bHtLTQdfMrwk///f1XwlD7 39XjsnOl5Os6t9pQ+nBVzLKtbLfunnStyqxdXrtlP8TunNYr7ZWhvy/Lj/d/qG71di6xzpon5MoN +VrcS/OeMPbYuf1zPjy2cu5p8ygyvzoWcfIjKRY35pErVoOynom3L1y/cMRZ+mXZeCyPTaGxVOp5 sai4prw1meJe0wM7eAHPXgD422cVIZTslteGg8w8KcRXKoZPxmucyzQ4T/59//1XKK3E5PW8zKkU /5X2+3tN+JyWN21vnSiI2WYpN+KJ/vv8WOnTteTlNUtrfq0dllHTnp0LilKLpWRY3PfmPReST2Nh +/OZmB/HJNcwdQvZaSlJl1YLtzgua3OTuVKPilv514av3dKjMSxNlxYZXxmeVs0/q5V680l0iaeF fXsZD6Y9E5KSc18f2zDk/8vpfriEcoEb9pl4nJm2MT6S5nWcCvr59SGvSi+gjMsZT+eIbABXZtU+ 2HO5NA+y4bQ0XdOaX7EUV3mhGU+NMaEWFuulaXt+XUz6j9PBXBYsRU+oxFxrx09OC+F076TkZ+gZ y56PrbWn7RkWUSUCOyRVU8+K+2WsnUvLjad56aeFxEDOw0K2qBN9uWnofJSFfS/su7FeXdZzmICE 5WO8b5crs2vaH4oeZaIwtMY7/2R+xbhdIXum4+Hy7rRda6JS+WdzCZzzpbyP1fpw6OlrpjvL+HqX 9a171RlA+Qjv+3//Vn2xXafhS++pEbp5UbhyvnHAe335dv6S3/FvGZb1wTQx1siBrSn5nPZe0492 m3NH19pzU5nl+nPZeE5NceoF15rSpnWYT+3X+fTadrzl3eKtYy++XHIneU1iAw+W2TUvMuwjR4Cn SQejBDhLtt9LXpPYwAOldfkKNrkAACCw20prMht4orz+jmf7YAMAcKq8BvC0qX6BwBYWAADPE7Ht d+4HgC9ZgS34AADuQO3mqNfJcl4QAZ4Wh7LvYBPYAIDnSOyz9h8p2VoWwFP4kNcAgGewdZtHAGjD HxMAAN7LuavXAJ451SewAQCvEcvhs0SPqBeRDbwpEn3On9kDAHAOx8neUD7t+76XZ4Enkt1FxNAH ANyBux00I78CLxbYAADcgZJdrZei1qsbANrHogKBbY4NALgDJflqfo0cB6B9JPIjRwDAK8T11daq u464B54aj/7uFY4AAFgjrwHgOLyDDQB4gLzuutw72FcT4SYFwFPpOkelAwAeIbFLkt55QvesI9oB HC+vbdMHAHhIQlNrAFfBKyIAgNuzfjHoqGWk8EEzeg54ZkTKCmzzawDA22X4HnUhr4En0nX//hXt gw0AwN1TXvhHkOeJXMtXuJ4fXNkr19Wt7K7vVa1a/508ewcbAPB4mRLOZX1fcvrjlSYJ+UlEzCbz z8b/LrfBT4j87ojdGZrQxCY526dL8ZZtl44lNa5rVajma2td4hN17f+uvq4TnDWWWmOz+nvbt6Bc ZP/lHkRgAwCuzG+Tvvp8daS43vKsXNvGn48z9/D3sGCaCr1xGfHnDSLne8333+Pn9P1U8JYfATQu cdq7YTXy+/u09SH9Erb+9LllNh3+NZ8+TEv5WeJ7ZboV8/5a2m9577jvpi2d163rvj0y/STWuvlU KvZZuFeH536fGev73LRg2vNTH4vZe+kFc6tOvTQ8AQ/588pRm7pxOVAAALiqzF4rcI9YStr2espY Fg3/HW/T+LP4dWPpMhfm+T3Fw0I4Zd355yFBXf7EkBXDV0wl1tDSsY1SEi30/KWFQgI7VeeYtXK9 Gr871CvTOi8l8PKzeE/GnzidyOX8seRJy1bWeEuZF02F969ObV4ksw82AOAF8jqVzUrubSHBl4K0 /s59Fr2GUkvFVXk9ykTdFoFdJwvXWjB/X70VW9ehlXfUlJMT/W2k8B7xomYReWhf6bjtar66AQDg rhI7vVJWLnKH9dAt8rr8aJx9hUZruQU99fap/A+7iAAAUCyP26xmrxfmZ7Ydd/FSnA+BDQC4Ocfu Kd1mL4yaVyNsNwAQ2AAAPIjYBmpbRXbt5ngA7hMx/gxqAADibH8Lev3d1q6Ba8WC0qs+5DUA4Ols zWexXX+3lEs840qikT+2xSsiAIBHCIS10nvv1enti1X5d8yXn4dk07Hvqu/f6nqvaGWBeSn9f6z1 1XlvHdNP4zpvfeLa+0P3/Wq1trfq7iq/um5rzezpUEI3AOD+AnvLQTP5XJg/+XC7JMnvgTwvcXzY yfJcw/EnqcNCQkeqzPeeLru3ZBu56Y7D6eNUpqck5mwb3685/6RYHeeHlUzrszycJtyf4TMg8/VI fTptadpG8aN36kZhuNdKjiAa227Zb7ldtsv3QK8/DGnu7+Vj9S9XGRIbAPBmgV6S2GPLVe3kdUyC xg/8Hovm3Ap3+rTF5bHX40NVwhL6d4D98NdhP5Rx3QfxsjzIfVjBnIvRoS7jf8cOFA/fEzr4J36a X6itJburp3XU/Fj5UL1LVNr8sPXUFCx3Hmbsv8sPSgp5W8khPLFvHab/Gz7uJXRGY9yOsV4JT27W 7X7vJEcAwIPl8XahW3PW21zktDygPX6OXPiTqYwtK6lcSJWdaper2fKJYRlVeoZevORSy/1EaLzd uW/+Q+2tOc4otvoe+sag7nTBqU22HZe09vuXtExuT873536WnrTWtJbABgC8Vl6Xy7aymtR+qb6n pFgvYWq/EK8Tka1FX14+7SHmjj1waPwKSkogHl+fp7Ldrt7BBgA8VmBveXu6NhdeR2K/l+cLP9zG F61gAwCeKa9r1p6PzYX7rKoCuAq26QMA3JSS9ekriljCGnh6bPpjBAAAjp8YkNnAc7GCDQB4NF6F BHB01PnkL2EmAAAAoISus4INALglw7EluVR31RVqK+fAcyX2Jz/8rWEDAK4mr3Py9Cusy0Rsvqy9 pggAnkl2Bfu6c38AwLvJHSBTmr/OkLrkNfBk/o6fswMAsF1ak6gALhuj/LoaAHA/2h5xfkYmNEEA nrsEYBcRAMAj5XW7VEleA6iLF5/SCwEAuFoS256/7pvl7lnzaa27bu9feoVLb/XMa/SBX8tdcfJv BRsA8HKxfleBcswUotY66avXqIpYDepfAeq6X28P9w6lLz1h+pf587ruCt+k1PTOWk8PWWZ9uekR N+6N2snStFfPHddF+2AT2QCA69D3JXmp7Kpri+P4nV0Xat9PPE5FYYk0S4uRpdRZXj0WrmNx8/uv 0B3zXgpdGX9234+fMi1h+r9xmy/lc7iev+eN67AU72XSci7+SoVg/KpfTdLtHVt3WYucbP0+IzRF mcvmdGvGpYWu/fbqsqSwJ+esOB4R094b+0iLycviXj9yBADcTWC3lLH50vbKhOtWc1N3f2XfIAjD df9JpXR9fuuz49KG/VvGAvN75fTZoRqERNWyLqE9zpctmdZmXIdlOeNPfn+N2WB+zVRIp2sebs2v dkuZHrtz3KJQ274lLK9KCe+UNUMTtXIPnl871G7pK3NfiHvztM3h3p57YdqHwn08b0m4V7/9VzNe u9zl5DUA4I4Cuzx/nbOPSF2yzu3qnRJZJfIi9kn4uVPpmqvZntOTpRAqfXLZPumD1A7L1zVtqxd/ 62pXX8uy8vJWXGuXuMQNPbHs+rPGLYENAHigwK7JXlcX2NtFM4Ajx23XZd7BNlQBANiD0rduyzOx nA1cY9z++5cR2H7cCAC4Y5Kry1+58khXAOX0fd9/8pcwFADgfimuncRunwllV+Cp0/svH6YCAEiY T5gmALhGTOm6v/xFfjYBALiT7KzPWnkhW7brRGvZLP8C94xRn/zQNrwBAE+W10fL3NLy5F/geuR/ etz3XhEBADxKXreWvPsct0w6A/eMP6Ub9f2VBDKBAADwXHn9zXSxss/KhPnjZQBcNQp92hUFAMDe ovPoss9baOr7fVbPAewfpz6lFwIAcH2JvT5jXW8xyfLWta1is8W3+W5pq/r+37+u7YGzAACcmeBq c9Zvhfr4bFj6LmfqRZHW6+t7vZTSrtxpf53Z8qH/1tSiZoe2eVtL6hou/1fntn2c9tDxJ3d78Xio fe2EoWCbPgAArkJeCK/ZWrbsjnM2rf22d/7s4d9dFxI4389jcma/d7vnJYf+PWwAPP102cbh02lL vjuc9f3Qzqn4zB8cFC43b6Hx34epT8gzQqJ43oaYd02v/f0rJFVD1o376/B5Xmgv65B6hSo/YktP X93ql9NSwjYIecvc/tMS1qzHZ0KVn1gAAK7EPivNpavJR7Yj9OzxXUtBFrtqLqfmz16K8dAVoTov JXGqjNRKbMwe8ynVWNYuSw1ZIr36H5qk5Kw810fz6cKy5JDNpnd9/zfeM/FemNYkdH9KIoa9KPzf ZfaO139ep+VkZ3597NrwRCn25Ngaeui/031XM167kpsJbADAPQT2uox1dC5s94ZqTgaU5fny8srE f135W6TMWPCFyyiTgumalFtxemWt9evbXdYL8XqsfQViq9+st8xSOod7LDwlCt0X7/VNEpvABgA8 Q1xvzVdpoXp0W7BVcrLAcdbZJkafyF+Z0QAAeLt8h/67qwX2tg7rz8kelU5eAwAIs9ZbssmuwGsF ds1bVQAAnMn3S+r6nBXb1+GI+gJ4Whz6juxPblZPXgMA7sDd9tgF8Fz+8uFKsAIA3IMtGevoBSUL WMBzJ/rZHzmS1wCAayQtLQJwj4n+J38JAABkKwCURqIPIwAAnsKey0Jty7aABTw1CvV9dgXbWgAA 4A3sc0IkgHfGkk/ZZQAAXJ07iWDZFXgyf2bsAIAniFHyGsBVJvvewQYAvF5ep5/Rdd+3KslrHCnR 2ODOZN/BFgYAAG+X+Fc8eO13Ylzq89w1ezz3iBKu1Jr6cqf9Eu6lrtsqsUta9r2inQX28bh2E5X8 iDlMYAMAcJ0EueWalIBuVY/jRN0gjdKl5dbm44L896+uK5HqNS2aH2IXk5i/Ns6vrROP0yvnLYzL zPi/SyY2pZYK1y7VLzXWT/89Jq/TU4NUa+enqcZ7tdRm9deHR0Dp1a1Ged87aAYAcHv6/vnZqutC cvknkn6fLAXQIGdDYjtcakyCh0R7SqQM4mYpc8I1LVcfQ8u+/xuyzfC3sR3CL/yEbTv2rN99y/an y5ta/2eJcS1yFl2WEm5fzEqxScL3m5lpC39r5+W9vByJg6eU9eNw3fTJ4f5KTQDSk7p0OdPa/q7O jZCoZ+ZvIrEBAOfK5zL5uedTWufC+hdOprI1VJ/Sacby/vFfUit+0yfNnxf+a7rONROmQVBv/8Zi Xs5SgKXF2vKK+V+HEudyM2z/+BOn14dk31R8L4XjeCIS7/dwe8LlpQV2ie+Pr5veFSoj1DOhesSn k2MLDE9I++XYcrVjlcAGAFxaWncHZaprCuwr5eA9vieoE957PvN+34L0/XiV9dh+q5m8bZ0Otat9 TLrXTP1Kxy2BDQC4tMA+Kksdmw+ft/UgICKNxq6zqwAAJHbZ09o8qSJJy8HADeW1XUQAAChOn7au BVAyNfaKCADgwpK37CdGe//E8YzXQ47IwSVv8AKoHbsFJzkadgCAsyjbA3t/ed26VeV1Xl+zvi89 LO456/K+YWCxy8SuY381DQBASwnQ7q3omh2htzwpvid1eTtDG51Nryxdm05tTJfbESL8jLIn5/du GG+4Ft5UL9aWdT1Vt1vF+rX/Ld8axO9dbgpYP7b20nxbd4pJ9Uy9Nbdt9thwFxESGwBwTXFdmqXK U+lRObHVumFsUpA+UiMkk6fXpScaueM65n+fTl/m/7V85rhVw0Z0892gp/s31+xjHZtaLXeTDj9l m4yM72Iestty0pSS2LEeiW1OF75nWpPY6Fnuzh2b2k0/K++X8F1L760Z3bE9tOOTxZIxsUpgk9gA gGuK61yemgvBnNA+LiPWr19vl+RzadHu5YCwOMs9Z+0BHqGnhEuMTSNqa7I81CUuvMJroyGJGTo+ Jiyv51OO3w7YoUlLTibOBWXuu5CwPZd/Xfb28u75v1LH48QE9tQK4d6btyo+iQo9YznlW+ep3bEb IAEA0FqCxtZQl4k9fzrfNQX2/VgjSsqsHy91/TNLpxthqZ2eCExPEAw/LzZRyE9T4jUplepxy8YO TF9jqxLLj7+lKJvs1q4qh0dfqIe2+WnBUemkNQDg2gI7faxyaV671n7bMMGoEf7XmQQdaeH6uh/Z YgIbAHBbiZ1+F7Uurx35yiSBDTx7gvURAgAA75Ll8h2APeV1wUmOpbtoAgBwfXnd9+X7Q++bgAE8 Nw45Kh0AICFaSgLQcAL9KbsMAIArprEtkvq3kk1eA2g7YXdUOgDggunpqKec87oISQ88O4b9kdcA gGulpnzukZ0AXBnvYAMAHiTN7yG9TRCA59J1Bdv0+RoLAHCGWK779Juv7pKz5Fbg2VjBBgBcTn6u F6B7Std2ZVvBBl4ssLvuLl+2AQCegrwD4M5kdxHxFRYA4IzkVC/C77YgZBoBPBnvYAMAbiavW91F FJtsYHvv/frv3H68mhd5BxsAcHtB1nV3WxCqrW25iElfMf+0XJbUfkdQdn3XzTdmHF5Pzd2fe5G1 pAZldSxv+xqZV3bP9Ko239iE7V7nJb+RtywrV8c17U5FgDU+vZ9E/xOoAQC4z9TiKyW+wjQsVZdi 43dHXOgP162R7IPEGkoYNk2cl/r761SShQTT76/j9izl3BbpvFUm/+q57Itpu8f1nv69pPxxz88n W/PShh4dXx3q2bT9UwJ22bLpk+P31srYoa1hAb20/1w0p6eyUw/LeV3NBLrwwQAAHEUqM8Xy0hHr 1y1zYv0K9lIkjwXNUnbOpcLw31NJNC55WWKo3ePrx6UuW5b7W7jmaXtN17zj8nJ+b0g2hfsiPhUJ S9rQVCV1//LauDeE+j1ebshm0ynWWI6WT1bC5YX8saT1aZuEpmyhSULcK5d1nU8zY301r+V4Elgz Yrvu37+sJiexAQBXFtg/wXgEZ0js8mfGz8AMye+xeMmJuPInpQRz/ozOdLnhMkNCt0Su58RVvCV1 snRNrWKToxpb5sR3XrrXtbu2tNDErOz+vFjPTQDik6HcGCKwAQAPlNdxuXMU7bJiWb3bPG+d+EEr uz3D/rFWTCdrtROn42w0X4+ufVpdpCGwAQC3kdfnC+yWkjf/HMIYuE90GuNHjgCAWyaw4zlS6pLV wDUjQFmUsk0fAOAS0rpko71zZaeTIQDkd34hsAEAF5HX2xLe/dZ7y3bNuGPLgHdL7O/YJbABAJeX m0eUcKcpBYCzRm7ZoVafZwUsAMBzRXg4Jx2ZqVrJ4pJySHDgvljBBgCczl3EpGUnACWR4mP+DAC4 uwgv+9KWUAdwzNi1gg0AuEFSmx7eXS69yWIAx2MfbADA5bnGgStlx1MDELE++UuYCQCwZyoqyTQp aVsue7cK5CNzYmrNHsB1o9W/fwWviJitAwCuTlmu6ro77Sx9t/fKgefL6/JrvYMNAHiIgE7dPxbW 60trJc6fIJ1L9wM+ehKxrV5H9cwe7b6D7Lx+HVIl1UzPvYMNAHipYK9NymfI67r3vkveVV9e8/tL /O4178CHnzP+W9wO809+98xLWGPFXFvmFp9fn7dFmbVKera0R8LXDU8Y2zP21Pp2tvLi4Um/62L9 PK7Tr00/zw0/o74VY6tO40RNOV3313ZoAwDQXmzGc9Ed14K7rl5iT5P81B4pETG+e/iv4fm/uvz+ siw5bPHfvi456RQWSTmJW9LLU9E42Gdq3fmd4ZK+bRmk27h28Zqm2t734zrl/DUshUt7ZPnpuLR5 HeeycekFQ83z4y7ky6EpynyKE7Ntrqenlp1+uqxtzNohGR26qsb2c5GeHeTkNQDgbIGdXndbn8fq 5HnLjNhiYjBf12072Qj9yDIk9cMWmq8vpq35lTzDSnr6B565MufTidQ3FmOrTaci05X9+HPC6/Qx +8Xrne69mACP3Tlt17KXwvekvztI2z18Rdorp5OQ8LNrvDreE7EJXuhfaesV1yXdcKEfAHC2wM5/ Ib/2/lJpukc+bCOHW8vqNbJ7bSnxVdu1ddhSu7A4L7fvnXZ9KfX4qWg+uoVhgV3WI9OrYpPBPVvT lc2YAADYQ2KWpbltq9Brvua+i8AGcEXsIgIAuDXb9wTJS90n7fkAYO+YVPAjRwAA9mPb6vVWAT7+ Ivw4yUtcA0/HCjYA4OYSPHd//gWQNudEtpD8AAhsAAB2Fs4l+zrvIdK77nc8DYkNoA6viAAALsx2 eV0mZkObte0piO+05wSAusWDrrOCDQCQEP+/DdlXSv9eGtlLApPWwLMjyl9eg7c8LBMAgFKJeWTu +Qnro2pAYgNPpuAVEeIaAHA8bbJPWSkyHYCWZF8Ryf/6GgCAc+S1DAXgkhFs/x1IAQBYJ4xb7CBy zSxmagA8eYHgk7+EmQAArdMPC/AC4LnYRQQAcDgl356mj38pl6nWioErTQLPm1we+eSCd7C5GADg qomwTGJfLZetrVG4tb+/hj6dTlRKJi2xq9aJk99RPaVPrqlnSR27bjgwqIVfbisnXpMaj99Wi+VO OfEaLT/basdfibFnhnqwtnWxO/Y5NCo2wrv7vr8GALgnbTNPmVS9UiZbK/ene3P/jqr5/bWbZfRp i4edvvPPHw7BmT/j37+uq6v9vBa/f48P9lke8jPc9ftX6H9DFpnXc/z83PFBZXaJHxGU/iT0lKV9 S3o93pZpr4Wvn9dy2dsx7yk7Hil9zeCtoaumvbZsY+iOuXdPfW3a7mUfzK/5lbRtSt51TnIEANxE Xm4Rpddi2ymO4/MpQnIrLw66bhC64R4Zi9zx+ndMZk6l71iOx3tjaEeqj+a1KF9bj8mxqUTPybW5 4Jyvv86l3VwaLkX83DrTe2OTpOmpJDkBG/7v2ERmKU+X/TYVoUv5Pf1LWuqG6lT2OtjYClMfjUnv ZW1THjPt56nYrh21VrABABcU2O1WsJ+yi0i6HSEZUVOb0Fp1aRvOsXC+xeFWxNp29LF6dT02F8HT 7wJCa/F1pR/R8tDUK7T2nGpFrN3rey9/Z+47hvBotU0fAOCCkvLZArtWXl93knBljXCMbDzmeTW2 Prrda3x/ew3P8L6mK9jkNQDghPTUtSvzapnsGfIaEMHi2EUEAHAQZwnFq2Wy+n0RANxl5H6v8iNH AMDDRTiJCqBNLMlP179X/OWLYk4AwHbK1pHbvz969zzW6p1VAEfEsC8f4hoAgGOpza/yMXAvvIMN AHiwVH2GNF2e/HjV7HytUzOH2tTVi/bhR2u94ndy6IeDAQCuIIXXCeL3ZKqhpXnxUSsn+z59T9+X lJi+Zn1PjctN1zF01e8Vm+nOy+G69v2ypeG2x+rxtWRZe9r7bqpW2+RrzF752qyXyrVeXvecoRfm PbymrUv8yBEAcIA0PEdeP/HViuk72fF31mNHcs97Yyz20gdlLy0eOiNvWDOen3e4PP9xefB5+hiY r3zNnRMYl5nDWX2hswhT3xIsjzUJf/Y7bzB2RHyqjtOD73OjaDi2JfTXUP9OT4Oc1yR0hPq0X8eW 3nYaacxXl6dnhjxy3Fvj9ob9JjZSvi2K3xuuU0lb/vMw+8+AoxsAACAASURBVGADAI6QhKW0O2Lm yjlsnThZSo7x6XhhobSWpbBYStCxeAkd5Z0/2jtXbui66XmApV4wPvg6dFT4OpuEfS12cHdo4hOe JIT7fNn65cHu8cnRvMy09aZiennl9Ajxn13n4nj5l7RF4raO1znU4lhP5Twyduh63R7+fV9wkiOB DQA4Rk7WZZw7HjGzVWCXytOjXpypFaitn9p2HfUujKVv+4lVichf+tkePnff3u06K9gAgFvK69KS r5rFniILjxPzwJ0E9oe8BgCcLSWHn6DVJ7L7puD3TJ6At/ExcAAA95WSFoIA3E5gk9gAgP1FcNk2 cGuQxQCcEPXu/SMRAMCV2Wv/kLpnXDGLEf7Ag+V17scJpDUAYH8huSXb3HGhiLwGno13sAEAIK8B NMRJjgCAC0jOvV4P8V0sgGMp2gdbaAIArBfOZcmo/DD1utLtgg3geHldsIsIAAB7J6O1+2ADwBWn z1mBLeQBANammVwO2Z5j0iVcdaVYbgWeHfusYAMAdkoxe8vb38sld5TYAJ6Mg2YAADuJ3/yPF7fl mLK79zrCpoV9ALxUYAMAsLcIfpeMvabkB0BgAwBuzveHjVukZskb3l13zR9QktgAgQ0AQGN5/fap BQACGwCAhvx+BLmn1LzyKnHrdn9F+3S9Pifkx5+O7zp/IjB97tWnI/V2ukaLrmPXJ044CwS2r7EA ADWytvTHh/sn1udmsJDlfn/7/W/cwuPXc36ifHxXTIT/GP97jQCd/iVWylCvcgk7reFWUVfun/OJ zbLFsX+Halsn2efTqtJapq5N1WB4Xr6eKT8dj9MWkSBV4/q7ttbIUekAgOaStuSMxe8atpclSiTD WCr/LNyNzmL+7dmylM/LK8Lr1uO/xCX278nLFeafWB8/Y/hbXmiOnzuWfmNBuKzX9Knzdfi4F/7k 4dKu4WvSdfh58a/V33+PW/p9zriO47Yuy021Yl7OYKlfa4b/GnvI8MTls77Xzu04rWnJeA6V23Xj kpd+nS4hZfmxj809obS209Gw9NiuWzNJLzwq3WZCAIBaiX1MZrlzDqs76H0+FRkL7LlcmYrptd8U hO+bS5CxnJ5LvmWdQ7KzpkZLsR+fPMxrV3IoUay9qacsRVl82piqxVIqzssv2fRybvv8NKtskhub zIWnO6n+KPGBeUnzyUK4f3OCOL51aKjs5XMJbADA5SU2gV0nsM+p4fXzf7s6bpmIlPfWuL6xuq9v U7zENt40rf1yAjd9fklby/siZOfwtyXLK+N1TIn/2kWD6dglsAEATeXOkXnlvjnsyHV+4NzJTbnA T5VZWsoev+4ojWwENgBgR+mYyy7HCez7rl/LwMB9x61t+gAAzZPPUbt35HcxsBMWgOMizv+vvO/s HwBwTXl9dF45ZrX8eFvJv8A9Y13BCrbhDQC4shy85xr1uh2EAVw91n3H9sfwBgDcVWKXHmpzRUt5 eQW4JyVj1zvYAIAD005eht9VNO8xeWAJ4J5x8NMiWAIAJJXSjJG+ribv3DlHeQsbeLLE/rQJAQAA bJWbg0gfr97GpPvz5TWAu/LHBACAIwVj+PjsUAnPlaGdPbyAR0fET8lFDAUA2JonvoIxJBtz94el ZpkAvatMJa+BO+NHjgCAgwRjaGu6vJAkNQFcK5rloxKBDQC4NLH17Wd/v+rbY+DOFBw0Y+0AAEAm tyWfW0ls4KrRLHd6bMFJjgAA7COxS7f2W3/n/SYcJDZw97Hb93YRAQAcIBW3vkn9e8a7vlP1DTJw xXFZIrEJbADAxeX1uhR3ZYFqbRp49sTYKyIAgFMk5RqR2fdPOEKcvAYeL7Nzr2kzEQBgm1gM55L9 ZeadV7C/h+/IwsD9Jsddl13BNssGADw7GV637vkXYWRp4JoR5ZMvzPAFANxT/F41g5WsTH/rnmrB 74WZtrbIl3iUMtjjOeky99jbhY56ylSwrg3ewQYA7JhywqcpkBzlEjv07zoR/H1rffrE9Dvxv//u R4Rr8RX56dqP7089d1qD+QRjWZO8HeqmCrG2LK9p4b9jm5T8rmBqwZ/l5/28ZsKQs+G0fvVt/34b UzPdeMImln/bAwAAgLi+r4w9r271u4B/ZfJSev7e2R63OPXm+/CG9094f+VajQifSs7508L3DrUf ahGT2NNr48J3vIXj8GLNIOim1hhbfXn/+L5xi8pkfOmkadyyuXgfypj+aymxx/879Ypp+b8WT+05 r1XNhG+4eig57mep+6f+txwR8XrlemQoNf8bkLlltv/+oe+7zo8cAQA7Cuxz16+vnMX2ssJYWpTf MRdhc30wLzUl11pPMZbXhZ6eLm0sCX9tCZU7F1rxVi7rsCx3rZVq6rHvOAk/NVyj6eQg119lPTee OIauCvlurr5LX07ft268Zp2bxAYAENj3EdhHWfZq9W9Zo+u17phxsn0ycNVeP76WN9+qHwBwN4F9 ZKJz1AxQMkr4Y2ub/pUZHgCAenl4rry2kzRgsncOfuQIAABJA6DhCP9jBADAPpy9SHPtPUTIbOC5 kc8+2AAAovdQCGvg6RDYAIBdBCIpDYDANs8GADxEXndd+ATJq+AFEeDZMfKTDwJCAACgXkCGE4+c Ql4Dz5fYtukDABQnDTYAgDwfwRQAcBRHLdlYKQdwYYENAEBLCX3ct6IkNgACGwDwaAheAG8h+w62 Y2YBADUy+hpZQ+4CcGGBDQAgmluI2q7reztT1VkUwD355IKlNQAAQBtK5HWrvEPCAriowCauAQDH H9vS/R8SO2ep63rMHiVcXZfU1K/URpY6bzo24wHo26HewQYAlMnVfL6oL2WtTL527lrTqvHxNMN3 AXscWrPtRZ5l/4XrWPaUX2nfa1OtXZY3vXdur99//dROzuZjZZTuo/lVsfanrJNqQ7wteUtOryrv 6anH5X04b6kaH1taNNTXP1tsHQ+DB68vqev+SsIAiQ0Ab5bWZa925K8pS1ctss7z5PVcwIUkxlTS /a7MC6GvzBukWk5Eja+dP7NUaP2uTkmlcZldlxehw7OmdfneO27Tsq7jeg7XTwV4bE19LlrTsnop 2Jf/HWr/XI7PazOtdWw8zL1kbtfwv6f1KJP+47un08GQjy19amr/cF+HnxuyZGpCFb5+c9RssyYB AHiqvG4naNf8WHJdwnuOwF7Ku6XoWMrdUPtj67u5qU1MosTl6rKcnAwPP3v6t+Ffw5Svvp/n96Wn cz95OLd9TG7HSoj9V/6umsnovC3ltQxdPZ9sxJ47tWisX2J1CUnv1NXp3sq1di6wx30ba1tuLT46 csu+UgAAENjrs8Xya/O6smrT29MEdl7AhkRB+L56aVon1NaVkxfYrWxfV+ZXzOeEX9snx3toLqjP 8vSpv+1fp/al1pZY9/pJ1xHYAIAGYrBOOuwtsO+RudpMXbZLSFzRN1JTJJzXJ+URzD7YAIDL0EI+ PE2C1IoqEuy540Df3ic2OSodAJAQd9corWarsqdtz0dUAXeLm33/yQ9rm/UDAM6XkqVC8y6CtHQX ZH4BXEU4l4/tj8ENADhCKrZ5Uu5Z98lZlq+Au0W68mm+V0QAADvLv75vU1o+uT1PXn+vI8aBu4zb bxQisAEAwSRRJouvdpDzPaRoTS2//UBiH9vv7L1/j93NxnU1/nAwAMDeYr0sOVXsMduFznf7fvIe efJlrQz4rY3nrh5/vrw6/ekR4upXUkmJx4q61j8RrunXcg9q1bo9LDuvX7m3hT8ra+/0qhr/GmOb PgDAJrF7jmDPnx137SlHvRwJHdZTumN4+J6hxNix4HF5M/xlekB37KzD4cjs8XmMW/3zW2Lfd933 G5fQuYZLIRg6BzN9vHr66vShJUv/jJ+pOS99/O+5z4T8Pu5VJadHDqcphuqRb3HsAKT5WY/1574O Z3cu/1VyRubc78IxI3Rc05pvj77X/5UOaAAArjUFKD3w+mkSu0yQxEXx1G5jCfGVFUuxGpb0Y8kT qkl4jXO5Ohg+djssfJfi9Cex5yJxbq+yfdEGKTa3wrKNKTn/+zZlaqPY8TE5CT6fzIxtHK7hUOb0 uekTCcfTlWW/xX1qes10ylXik/F6hUVuqPXjOox9Iv38sdxeCu4t47srf10bAPAW6VqWQtqWuCbX DOXeKVOFBcg6YR4vJ3U4/fSuaZlnbNA7r0+oBiHFEmtjSsrlrVB293ETq1StY14xFqz5Hl16QPiO +ep2eC1+Wlb8X2XtjPX7XJJv9dvUeCGwAQAXlNdlpW4R2PfKU1sE9hvYLkLPKVsPnOvV1+rbbGWI awAgsK8qsN9gaQD3w48cAQAHkFpdeuNSDnENPBn7YAMAqoWfbzfJawBxrGADAHaXfemS81uIPQ1v AgMENgAAlxTud5bYbAMQ2AAAIni3kt/5yglxDTyVj+EPACg/DbHrlgcybIW8BvAygQ0AeIPUK9vB 1o8byWsAebwiAgCv52zZXL5+/jy7E9rAE8e2FWwAwD9C722TGgB7QmADAFl9upRs/173HSR235vW AM+cPjsqHQDI7EKZtzYjyDTnTnEAHCuvsyvY5DUAkHjk457JWKYFnhdRvSICAJJBoRQksfcS2deX 9V23ZYPGcyYRd5q6HFlXU7r9o2rfE9gAQF7vlpTLJBkRfqyM+n7SdeP+GQvo0J3pPlreMe7575Py vjGtTflnOb8K39FKZrYoZ30ZtW3zjclR/OWcU0cAALblgq4joY/sq5C1vz2Yz+rxz7/3zsv57aE+ 3Pf7y68mIWkdr+3w79+TxlOCvv8+O73B4fjO5TN/f1/nk6Enh56Xu6dkk8bYfcPfppOYsbVSY85o vIDAHg8UAMCT2PunjRL6mf36E71TSR1e7Yz1T1w4joVd38efkXv2ICOnJaaelp4m1L/6Uu6lv5p1 Xd+nBOxUGM9l8nJ6EW77eFIxLWX67HEJ87LnNU5NbUyIG090S4xIYAMAeX1tEf+uXnmzPecLf+PV 9Onf89YY3xFfK/6J22U505X88MRkuuZfsmz5vSZ05Xxqse6IpvnJrbkVeKzhc+SABwBchfKkvH8O IK+PFerTT7+7ced6Ob1nd62PhEsrK2X5FvFwX2q1PdTqcU1C8nn697Gdpp99Jev/2rvTLVdZNAyg h6y6/1u2f/ilkzjxqoDT3mv1cKpSzsIjQZi+jvs1/Eb/9zEfbsPycfo9T+/fxXukfy/te4ulvNLl WUrBqdIVfQBCuHh9lbP2CWLD9tlhz+nvuDhsjV1qry1xzsdbNB2ap9uYx3/3Dqvvtt+5wPxpmX5/ 9r1f3/2/p0Pn+9NTjyRz7ee/kXa8T8OW7fFWLj0oTD8STJ/94f9b0z2GtQ+4uogAPLgSqFv6R1sk nYu1xywfsJfC6fKZmG7RHYbbT5D97tIw3eN4OrB///R7ndNbmn8lcPnqWu41HT2e+7Yl/tgRX8dc FxWR+ehH3BR5g1XhB/DECNfi9UY1TNmAPY7X26Lld7tqrl13VexI4zgYC5Jb152LmymbhI4Iq/G1 itMnjdkCNoAIJ2DfJWDXDHhlolzZwLp+m4yRwQkCtuIP4KkhrkTZL2BfPWifPsZov+WU16WADSC4 VSz5184AiJAN1w3W73cLXgo+gKdVAaYvB6j3UNx1f/mPidkA96wEjl6L+gW4p5dDACBeHxl+tZV7 AIGHBezYF4kAIDbXiNhqYbjio3HyFR6A0Fur1PeKo0cVeGLAfrm1AQQ1zlxZa8eGq/mL5XAARGuO jNnOIlynxNUHG0C8PmjNIuP6mO0YwBW8FH4AT4jXotn1w3VKziNc5G7NRWi3MsA9Ina0Ymi7XrVM 7TMKHBCxBWwAgaxOqW+cqrPHbT27LxDUnKNLyvbBdogAnlOV50r9ruu6ctW9Oqb+GV3z28h7V/vO 2d43u+b/PrLcs19vfReg3638/tnyeDLv38RHndl+PL7/cmqL614Zset06jMtr4C//HOxAhDgyvYG 4k9N8F5S16kZzhXL4t9Gf3/ycx6nlzH+6Zrz/nvNfP/8+2e59tmpbej//d6Wkl2RPts8XO/n358t /t72Ne3M02djaU++09jv/s/9zfT+fu/Zu0f/9HnPbdHUWez/u7+qpv5y6efj4zm39vFj4fh8LT2G LB2xzx2xt9RMyUQzAOJ1pkreVjPog93m/H4fweHD0PjoDs/K719P/+1vY1vXLQWh5TVOL3MYyb7/ NR2cxlu0FBTHsek7ZA5/HnnUHEfV76M2HfQi6/jE1N9PDX8yfsT9PgbLa3hv7dz5HZ+770g/ftwe P5T8/mT5WM797/Q1uXwUhsd9+uHwe5/ysXxr0BawAcTrxbJ+uhUvXzdE16yOaRG852NtJEzmw1qZ MzmMzcNIvhwx8/uUOzL58LtnL+N/nzv2Z+ldMHW+1m7ZOGAvR/0tW7X/mA+/u4iUainX/K/oA7h/ vF7Xfl0uYKtjrhrVS0bPNfGYs3bfjbVYX/forCtNuy7Q9wmAq4ai7e3IS3857AVbPtgDnPPhJubl YAHcz7rYujbkfl523F4FmTYFuGvJmpKADXBDXbd3QL149J0eFyDSrUC8Bu7pr0zxCsAV7S3nlwcW A3im17aCE4Dz2l9672n9jozLrAkHuKuUsn2wRWwAUXxNHFdvAPcOz5FP6IMNQLGoLl4DysLsVOkA 3Nf04HxrJn2er14A7lpuBjrBRQpCPeUArmPPHIrtwrGaBbhvGZttwVYEAtwvXM+X+dqfAfaWsi/x GuCJ1k6N3mLtANcsO1cGbC0ZAPerHkpMcS5eAyL2nD+FIMAdrAvHR5buahbg7l4KQYAnUbID7BGZ SMs42ACPKPABaFXamiod4PLFfby01n4NUDdemyod4FGW47USH6CMbBcRBS7AEyjtAXKi3wLqgw3w kGC8XDHoPAJQImJ3nYANAABFI7aADXBh5Tp26CICUCpi/zlIAM+O112ngwhAyXI3LX9MkQtwj3h9 9PTo6hTgMfE6MtGMrw0B7hqvAShdlnbdn3ANcPd4faatFvWB+wu0YCsMAa5tqRxXxgOUKU8/n0nR KR8BOI81LdhLZbge2ABlS+CUjCICcLliPRpUc59b24t7XxgXr4G7WCoP+7JOFxGAh1cU0U+ltLc+ 8F4PcAdLZVnXmckR4JZxOPbJ/hOx0NtXGXuC9nsJAPcP4AI2wMUidiSqlvzu8R2oPxEb4KnROVYO CtgAlyrcW0+O3lckfcu14w88W7Qc/Cu1IADqx+szVCu6egDK4uXy8iVeA4jXa2qB7TWDOgV4Rlmc 2vbkA6B+wI6X29vrgC1xX30CPKMk1kUE4EbRusa6y9QDahPgDmJzAphoBuBW8XpNkN0+l69+2ADz 9MEGEK83LW/NeNhqE+BJtGADsJrADCBgAwi9P3TyAKhVFptoBkC83rzMbdOmA9ybgA0gkBeI7G2W BHCJEna5FUOhCHCkGmNfR5de6oVJNQnwtFL5VapoB+COwX0P0Rq4m1y5ltK/fyl5yRHghOG3L8Jr tl/nlm16GYBxyRnrXhcYB1srNkBL7+I7Wvquf9EwH67XLvH78158BO4csSOfCrzkqKAEaF18d12+ ED9r6RzZdoArinQQCQZsAO4W4MtHZO3WgIj9LjtTm154AJQLwPtK6b1TpAMooZdpwQa4MPEa4Hyl bjZg60kHcJ94fdxSAZ7jL1fMdl1kQBIA9umbM1IqNYn50loAqOmVK8CFa4BW8ToagJXMAMeW1stl 9Cu/CAU5wPUK+JJ/B8AaXnIEuFxg3tbwEV2LGA6wr/w1VTrADQt3AGqINEF0XTJgE8AVCuwSpXGr 9QA8u8R+lVoQANuK6nZlbCw4i9cA+1JxtouIghbgSZT6AHt5yRHgQGs6beyPvvm1idcA+3nJEeDk 4br/bIt4DcB+mXGwAahZBNsigDuW7QI2wAHWvtoo+gJcJV7/+5cdpk+hDlA+Xh8VrufWrKwHKFN+ pxQI2ApegCMDdpkSWFkP0K4MD3QRUeQCHCOllFq8mpiSkh6gHKOIADR2ztE8RGyAEmV4oIuIAhfg yIBdqhTWRQSgVXmaHabPqKkAx8VrWwZwRbqIAJw0wJZrUY6tWQs2gIANcNt43WJoPvEaoA4TzQA0 CNdrW69LdtcwRghAufI8X+YK2AAnKI6PJoIDRMvLyKeyAdtLLwAtiuPfuFs28BovCqAlLdgAlZ29 oUJDCkCpErNvsnjtXxAA5crQI9qTlfMA0TJ6uZTuy9O/yIIcTIAWsTVX3nbd+jJZeAZoHsP1zAM4 T8yeK3W/l7KuZDZIH0DbUj2lPwUuwDnCdXQZ759Eymjt1wCty/Wu+8t/RMwGaBOs15S3Jctm5TxA vLzMl/Gv5Sqi67R/AJyziC/zOWNgA5Qugf/2LwKAj5KNEvPLinYT0UQC0N6fQwBQWuwrxPHftA/7 GlEAypet+mADHB7GtxXguTJa6zXAMczkCFBQH2r7N1jqx+v8ujSRANQo53cG7C1fdAIQCdf74/XS 55XfAEfE60DAVjgDlC14W5W7emADHCPURUQRDJCPsmXmbGwX9pXtAGvFSk6jiAA0ibPRItr3hgBX D+ECNkCBwvRMrdciOkDNEj9fzga6iCiqAUoXzsfFbwD2yWXjrtOCDVC9sF0Xn7c0a2gKATgPARug YbwWkwHuX+JnA7avKgHuGIeV7gC1aMEGaBSvzxRpxWuAbaVnZBBUE80ANInX+SUqbwHuwSgiAE3i tfZrgDuIlKB/ZRYDIF4rQwH49y/Tgp1SSqoGgHG8Ll02tvyuULkOULes9pIjQMVCNhJmjwjXXSdo A6wvQ2Ml9mu50Nf/GuCoMNwiaANQvvQ0igjAg8Lup+FExAbYVmbny8+/8xT7AIIzAOeWa3xOSR9s gGKF6vp4fcx3hF0n+gPUrAleZyz8Aa4erwG4o3wDRdf9+5cizdwAonXpIvio2K5UB6hdK7wUxABL hWjdWRuVsgD3ow82QCZiX3XpALTWN5sI2ADFi9by4To6uUG57QNgm6575QtiLSzAE4vHc5V94jXA FUrj/vcvBwqgZqjdt+zPhAaRqQ2O3CMAdUP/+5T+8ovQ4gEQjcNnX6oxsAHqe+1J6ADUjNellphS ifZvAGJlaeAlR+0dwNOsb164QjmpLAcoUZbm64g/xTHA+cL1dAG+dSyR/q+U6AAtArhh+gB2ROut sTUyh+70clPSfQ/gvHVFX3a/alQ3AE+xPl5HBgCsUfZqvwZoxTB9ACc0H7HbtbMDsK30FrABNqvX YaNsIBavAUoG6BwBG2BjaO1ja51XHPPrFa8BzhrBBWyAwhG4/rLXrF28BmhZO6QkYAOP9nnhMPLq IQACdORThukDHhyvaxWt+wrvktN7ab8GaFuzhMbBNo8jcO94vSZm7y8PtZMD3L92ecU+BnC3AnD9 y4KtwnWp7Wq/hwCklJI+2MBDC8Atn9/T4NB1kb/XOQTg+gJ9sBXSwP2s7/62p290+bbr9yd9xwhw tvol20XEF4zAHYu+/j9rwmnXXaW5od7o3ADE6CICPDJeb4ut+0Jvu3gNgIAN0Cxenzm2rt++lL6/ aaw3dTsA8XL6VacyArhHvP4NsLW8u3VsXdP336WkHRvgKH35a6IZQLg+fO1lt068BqgXoJdL7P51 eF1EAPH6JFF1T8xu09IOQKSsNZMjwAlis5IW4D7lvhZs4AHEVwBKROfY57IBW7UEiOUAEK0XUvKS I3Br2/o1t4/WuuMB3KdWeS1XMbk3JQE4W1gH4NgIrosIwFeJd1SZp6wFuI9XLoEDXFXXtZ8UfUtJ aoA9gHvRBxu4abjeHqzLxd3IVgjXANcR6z5tmD5AvL71VgBQNmLnfmccbOCG4XpbsC0fhyNt09qv Ae5UA/WluoAN3KxwqxmHAVDP5GsTARt4eLz2iiEAa2qN/Gde5SsrgOvE65ohe2l7+vWJ9gD3q4kC MzmaXQy4b7CuGXHzXyJqwgC4Z62UDdjiNXDPeF23dDNAH8Bza52X4h/gLKEfgGuX7312NtEM8MAo m2886HvR9f+9ZfkiNsBza6WUfwkH4EnhuuuG8XhLWbi8bUpXgPvWPYGXHAGeE6+nl7m+HTu3bV4f B7hzzfOXW4hKALhPvD4H5SrAvQX7CaoOgDvF6/kyLfLV377tU54C3Lv2SekV+5gDCtzB0vQuXVem VTy3HK8/AtydqdKBy9kz8vXUnI1d915mZMnzn4lul4gNcE3RRue/cosCOF+0Tun/gyal+pE30sFE vAa4csSOjIStBRu4TLB+F2prH/tTmmq37pfYPu5qtAC4fQyPzUcDcHS8fpdGayPxnhca1y6zzCuS AJy9Tlr2pyoA7lOkDUuwWu3TxrEGYN4rF6+P+AIVYE+w/pRgc11DjvHpDw7ANWukWCn+ii3MAQWu FK/bx+quyxW72rwBri5akr9yFZsqAbhavI4VgttbxlNK6TdOx5alTAV4hkAL9rm+YgU4NrrXDP0A 3KHuMEwfcGLbImm91uvPX3+vI9p+7dVIgGfUSkmfQeCcbQRbXwlcLrfKvlOydhuVqQB3qKFy/nKL UB0AxxReV3i92ivgAPxKKTRVOsBVQmu+SeC4qco1VwA8pY4SsIFbOHt8Fa8B7lHbRCK2lxyBE9k6 tVU8vurUAcC+iJ3/rRZs4OaFHQC003XZgK3aAloWSXWjtdZrAFrUZbqIAAJ8dRorAJ5Tk6T0p0oA FIriNQDlapO/3CJUDEDtYmrr0HnXKJ+UogBPq9285AhcpD3gerFVtAa4l2iDkD7YwIVi9bbo2nXH zUrrxUqAe0XsyKe0YAO3K9jOFG+1YgM8jxZsoLmtPa73hNX8OktHYdEaQMAGaBavt87YWDfkisQA FKl92rfqAM8N1i1i8rb19usoGfuVnQBPrc+0YANnbwdI7fpSp7SvI4p4DUBKAjZw+ni9J67edQhA AI6QnyUmpcAoIioaYG9RtL0kqfta4/w6+pFOt06AxUmc3AAAIABJREFUA8BdGaYPOFnMPmdRue8R oPyDAQDXrc/6WuW1dzEAdaLm3t7Qkb9+f2b42b7k21P+tRonBYDzBfBXzeoNUNCsj9itS56p9e3b BiUnwF3FSvjFHoYqCaDEk/z6oqtEt401w/OV234lJ8DTa7aUf4Unpa5TXQD1o3XZeBpff9mIrbwE uHPdFhs6NvCSo+oCEK8BIFovGEUEuFW8XrPu3Pq27Ifv/ADubqkHSF8HmGgGKBar94y9UebVxmNb nMtPtw7AFWnBBgrF6z3h8ohW3xrr1HoNcHeRSci0YANForVYKlwD3D9c5+J1YBzsUpUncN9w3XX9 f2+fDP2YYLpmGhoAiObi8EyOIjZQ4/G7dLguNXZIrcAOwP2llJloRtUB1AjY9UqU8iWaMhKAdbVC SsbBBhpG6zNs0boyLSXf4QGwTraLiHgNlI3XR5YqWzql5P9COQnAqoANUDJeA8B1xZpU/kosBHha sN7aceJeZYoSEoCp+vIVr1AB9pUNVw2k09stXgOo/2bqjfzHVCJAqUfuOuVJdLv2rf2zlpS2j/sN wP3rQ1OlA9X1YbTGN2JtovVnGe9gLV4DiNfz9cVf7SoJeEZxEilJSpcp7TuxKRUB1IV5RhEBFgqS d1FSIsoKpwA8o/YUsIHFZ/Su+8RssRqAJ4vWaa9cFbuvagWuHLH3heOUtkzrAgBXj+F/+SoWeG7E 3veUX3esjZYvOAJAvOYJjCKicgKFx9pofZ7t7IO+kgyAdjWpmRyBxvH6HXf7dW0tZdbMJakkA6Bl HeklR6Ca+WD7PT6JrmgA3KFuE7CBiafyEmNdz8XppQH/1q53zcgm4jsA5aJ1Pl6nlJKADaJ1kRGD lmY4/Px0bh11YrBRTAAoXWsu11j/1YaRak0VBU+I2fvj9Z51xMqZz+uKyi4AzlhbphSaaEYVBQqM udJhqd3692n/iK4auocAcETd8+cwwHOLgDUjcWx5BP+eDzKyNbHALDYDcFZ9XSZgw4OfsM81BXrJ aWl88wZAjfgcqzkFbHhYrI73YC4RX9et7fO5qTW8x83Wgg3AcRF7uVbr61mjiMAjY3bLeH3Etgvh ABxHCzY8LFhvf6Hx0wc6F5y/P7FlffPt18cFewCI1kfZqdK1A8FzCoRywbWP2KXCdeslAMC2dBwc B1tVBcL12rKgXheU/JKVWQAcXavqIgIKgsLx+rx7AQAtaqNsFxEHEp6r/xqsXdv1Zxnby56Sg/0B wBZGEQEWH7DfA+1FonO9Vub4ksVrAGrXjTl/uUpNZQXXUirkRiZBv2axBwB16YMNBKJq2+j6uza9 rwE4Uw2Zr5d0EYGbR+OjlrHHp+iKdU3pt1n7NQAt66h5WrDhYTd9nXB9dCuzcA3AOaRkHGwQrgvc 7WfoxKGsAuAc9W1KfyosuMONvvdudbcDQCnZUURUvHDWWP25N/fcpfvu8HO8gKiUAqBdnRNowzbx MFw/ah8VT88yvodSCoAz1bxecoTHhuu7xFLxGoBz1bwCNjwqVAMANevglIyDDZdzhvba7j8eOQBg XCtlA7YvX+Fc8fHIPtfnCrSmlgHgnDWPLiJwoaAdeXO5dsQ+V3uxiA1A69o476Xyguvc0MfN1Ljv 78u3NadU6mEDAErTgg2nD9ZdVyKeplSq9XnNkn7H6i4biTUAACBgAxvi9ff/XimSTq1LqzMA1xar ybIf0kYEx4brEqG0zH38nj0ytj39dg/XXC5gK5sAOK52XqYFG05225aMpOVDaLxriLZqAJ4ZrwVs ON1Ne9423jWhuf+kVmYAnhevBWy42C17XLwuswV7W7ZFdgCOr9dydVk2YJcZvwBoE6/7+7XGfbt2 K5UcADy13jaTI9z6GVu8BoDWNaIWbLjAjXqlWFtzG5RGAFyBPthwWKQuPfXKFeLnucZEAYAttVGu Nns5THBUxOy6qwxlZ8g9AIjXiFqw4cJP0GfrxJXflu2t9tqvAThDvI7UYl5yhEa3ZN9eXbot+Frx WqkCwBPoIgLVn3VrTCLTsttGdGr0M4R3ADieUUTgotrcmaVjvN7cAFy9/s3XZaFZ1URs2BIlS48S 0v6OXLP10a3SAxuAK9fukU8FXnJUscHWG7D0IHxtv1Gq09q8brJ05Q8AV9LX1n+RjwFbgmn5Ma7P 23at6wcAzwjQod4fuQ8J2FArmK6N1+fch23bFl+HMgiAq9X0xsGGQjda2XbczyjX537RWPwFgGHd mB2mzxe/EA3arVuvP2Nr/65533acpYe06A7AZSO2LiLQKo6WDpdd9+kL9v6Lz/ZsvXdbdd5YXo+S B4Cr1v3ZFmyVHDR83k0prb3nfl+o3Bv3Y63wZcoFpQsAt63RtWBDjafX+pEzMMx9qrFXwzbzGsdR uQPAVRNASqZKh0230xXidd0jUSoCTy1HvAbg2onBKCIQvFn6Hs81ou26pdaL1kcMnfc736VoDcAd UkOq8TUz3DNil7d+dsa121Fn2UoFACSCebqIwOwN9P3K3/GR8nd7ahQTYjMAlGCqdFi8+stG2t8l xqc/r93jusXcjQDwlPygDzbMdNJ4xiQqa7dEuAaAHAGbx4frqf+fUr02460jXddbl/laAaBcjdl1 pkrn8aYmdyl53X+WvqX1t92055HjpP0agGfH61hdmNrN2wbnfA6tM/Rev+R355N1I4WUDcfza9bz GgC25oclgS4iqlXufXPUG4Dvc/ccF68BgJbh2kuOUEWJh9JyvcDfE+SI8ADQJgMI2DzqqbPmy4u/ 0XpLp5BzPX+XfmQAgDsE6KU69N0xNBCwzx0UIBYn+xuiTbyeazOuF4BrhmP3PwBEa8y+Bv+LfQyu G6zLR9a5++T9MLo9kra839zfAFA6d/Q1bHaYPq1XXPsSb9NqvTdYH3OMjCEEADX85UKKkW+5SqD+ vVLbtM3uG+MaALhe4ljOBV3XdcbB5maXe+uODyXujs9o2fW2cOssle5+AIgG7HcOMYoID7jYzx6v 6+7FcLnx9QjXALCl1g20ZalkucjFnGoH7e/W8ZL3xTlfNXTnA8C2WlsLNpe6pJdCX42YOh7X+jP9 +Z0J1wCwnYDNZZ8YW7T7TvWOFj4BgCUvh4DrBe36U8Yc+eBgmwDgyrV2SvpgI4YefPWfMcy66wFg W72dUraLiGqWIy/e+rMwfq7z304g+yc7F68B4I4iAwLrg82pY3b9kUGmo2WriCleA8D9vK5X/XOX 8Dz/m8/v2lyB7/bydrF6y37V3brWjxYAcNXsslyLd51xsDlZwG7bYv3+kqftNf7p/rJtRsWaR8jd DgDbMsxPfWqqdNpflN9D37XuBPIJ8sdc19v2drytNadVBwD21OKBYfpUuZwvcJaIkVfpADXddcV9 CQBnzCwppeQlR6pehvMx8Lh4e63exm22UlwHgHICAfsJE0NTN2gPW4zb9rN+r63v9XxsvF635622 0R0OAPE6M1+ba8GmQWw7trX6u5f3kbF6TW/z/O1b8ph6iAaAddlmuVY1VTq7w1kf9d7//fu/5+jp nFLfj9mwkwBAzXgdmsnxk8QdVKauie+24WGkbjdNzPfMi98dQrbdGKWPVI2XKsseV/c3AJSsg3UR oeLl1a7F+DciRr/AGUbgmlu2bczrczyLAwDR+jw40YyKmMgF1n486+mAHI3L7899WrxrBu11va/L L9V9DQDtavRUp+LnuZdU+4D92b7fcUK27s8nuO+75sfdaEreZSXOhnsaANZnoVyj4oaXHM/06hr1 I/S5Xlb8vK44HxejrddLv+26/jN79rn/+8/xK3uexGsAOKeUQjM5/gaGWPVeJ1bQOmZ/zvdZxgL5 job74m/dQfDOf/2L1wCwrfbMZ4hVLdjfw7G9Y9fUIG2/qxW1jw/Kc9Hyff7eP9vyQt4xgXBPPKy/ d7XXsNSOL14DQLtEMp0DCr6Y9nlh7HvF459QP95Nn4vv6Dc9KvT3c1n7lxaH2/K7/hLX0Po92rbW LUdw7Zq2nh33IgDUzhPFQtR4DOKlmEf9kz41KkbggkhnmRqm7ANa6zi6dn2t4rV7EQBqJ4qUirZg r4lvc4OiCeTx0zs/TN3njJy500erELh339dvzXnjtXsLAOqmipUvOZao9KNjUoxfqxv/+8knr+um +uD2x2gqal/jaO3tV3ydJ9u9kXfbkdrfcxsAxOvIZ/7OsqlzXRPmd+QzyvDv/9bf3pLrmWrHz8fr qXkIpx9dzhutv7/xqNmZqEz7deys/74GXCte/26Xwg4AjkgvSw4O2MttrMOffQey364Pv8FmaQrs EjFuXcT+7czxjpKxJfSfnG6X7rrvk3y18clTGl6k54vWc4809dcHAFw1gp8gYEc2cm6wuamuEMt/ szYCTcfhNdF4vk3zd9nj8DYei3q87ut0AZkbEaTOdw41vmOo9f3I3ke9+usAANYmjHTuaLY8psVv x4Kpzw0nvY61mC4t6Ts8jz8/9Urh97adZYyOI57lxo8eteL1MTG41RCAAjYAHBuz87Vuunvcmw/h wz7AywdsepSOWoHuPqE63h3mvPE6H1Jrjxqyb80CNgC0yxopPSBgrw/icz/puwnEu6M87fhNfzvQ 6tXTmvG6fPt1y2EIxWsAaJs1Uno5UO/DNdVPevivYVyc+qunPZYs/bRtvD7uNjsyXp9nXQAgXv+X f7S/sie8lZ/OvP5lXy6obllfrWP0GXHm+9wI2ADQPmcI2OyOm8PhEe8YsKf37ogXGwNPzUI1ABya N3QRYXck/O992XTURf7uqONh8RyPOQDw9Lr2b/tixZmnXELjaXLOF+qOuBqPGzsEADh1flr/etbv JN3cLU7n5rqsNaX5+nDb+kFv33UvXgPAPeSTwIqAPQ4In763822bnDlGT53b8bQ55720U7N3CObm DRWvAUC83hyw4xOEGx363NF6fGlcMfy1vb72tF2L1gDwsHgdbQFcFxKGnUj02T4qTE8H6XKjfhzT XaT1lTR1JMs+mAIAdwnYKQVfclwfEt4Re+4vRe7SEXDYZeJ9/KcGbSsV+tqfv/FcmsfcSq5cAGAh r8RyeMmANB1VhrP/PTXCzAXI72Py/arp+2W/9pOKDPtqt9iCq10V2q8B4G7hOVL//7XdqEhr6u9P 5nsN3zGCTwWy330dfuL972O6afSPA1PjytTZnn3t161bv8VrAHielAIvOR4ZEr7bRL+3c10Hkxqx anvAX/7LVkG1zdPbMetd3p72g/oBAHcSyc6v5Q+cZwKRd5/i6W0atnp/2nU/E6XM/e38fkfmMFx3 hIbx+rNNc1t3xnb6o7Zp2xgekStGsAYAStT0/3XkbdsHu1bo+h2l+LtP8rDXd//zYXv4dAeUcRyO tC1/D1U4nril3Age7Y/xmoBb7kXK0kPkTZ1ZURsAWJOLMhngqC/7y+7mcKKUpXkIf7sKDF/QG780 OB6Kbm1I/t2ic8yEWPYyqhmwS4fbFu3vojUACNjCwr+p4exyB3bNX8QfAe4Qr0teOeUnd6kXsae+ MwEAnhaxBWyqRtB9V0/59uu6Idu9AgBSUuYlR1w4R25FrXhda//EawDg37/gTI5HBy3B5arhesuZ 27sFkXhdei/N7AgATxGp9//yYaVlwJ2aq/B3+u8r9V9+erx+ytm62murAEDdtBRowW4THKaGw5uL ZwJNnRBcox1264ug9dakvRkAqCml1/6Mvj1MT/WyHU4L8vuZ60Wj363v/7W0/8dt5dHxuj8eWwcF XBPOyz2afU8TpDgBgPuLJZVDRhEZT3v+3TkkPgX6lQe8e+/nsVtfO+Cv2bvt2/Juf18/0GK7vQMA BOxKQWJ6HsX6L7Ydc/inJqcZR+wj96BuwF63T3vHDFnXxUTEBgBq5adKfbC/50sczmH4u1H37A87 3KupvZw+Dq0i21mG4tvbI/pzvFqHXeEaAJjOCMWH6euj9VXnLSwdq8/1Ql3rAQ8j67vqA5Z4DQDP lMsuKQW7iKx9We3TP/pZYafEHtfbl/W93Gufm1Jt1+3PkogNAML1fEJ4RT6W0trRHd6fbzXE3xna QctsQ/09adkZ5fx948VrAKB02njFPhaLfuOge98Rhz9DypWO9zWP2fJrl63j9bAzURt715iSQfkA 4JliCSDUB/sTxOb61D5p4o7pfT3/EYg+JJVdZ40+2CWmozHZDABQz8aXHJ8aT8b7Xf5IlGodPe85 Gg/WeLbYP39mBHMAeLJcgul/f5OWvP92puoX9+1iYYn9KL2d2/Z8OCvnGR48tm6HbiEAQCxFvO6y uy1f2Xti1Dr6QezoYy5eAwCxzJDSbVqw7xMw9+/L+c7p9uus1pTy0e0RrAGAeIbok8PfHXa0Vgg6 tq/wGY5mqX3fvpyWwz2K1wBALpksZ8P+Xa+XA1UrGh6xrZ/BA8vs8XvMjfsFTdEZAKiVDW/RPlum U8V7Ke//f9yRWb8/Zbd1bv1HHZE6YTg/0WnrqeUBgDtEbH2wDw2OJfemxQTgRxyn+lPHt14vAHDv gH1oC3bZVuLtgegO8brMfuTW3PZItXxx9ftaFK0BgH2JqPlLjn18eX/5XqoFfWub75XD1KcDQ/1o /f5Uq4jd9rx8r028BgD2xesGAft3Cpiu64PhJ8a8A/cxUeya44R89w2+1xgnbfu+f9Z27FglAMBd wnWfLv5ab8g7Yk/F8HaH5nt914vXv7Fwf8g8U7w+bp3iNQCwP6c1GKZvHKTnYkyroeDKRdNrx9B3 F52yT217z83+QQa3Hg3xGgAolcL+6qz885X7eLCzI6JMyy4A+zq9tNvGc0XKd3cNQRcAuHoML/iS 4filuxbjOS8PK7e3h/f2rXlH+nXrbjNI3pHDAIrVAMCV5UfBLtSCPexu0C4uRdZUNxrObcm2R5f+ kaBm5BRlAQAqJ9Q98bN0WNuyLfltqBew30svO/Php9X9e7kl92Lbeav3PYDQDwBcRWQkkdUt2EfN rDf/V9NbVLt7yGck76VjVWbtpca5PuerneI1AHCfeP3v38oW7JZz623dqvrtrOs6cGzrVf55KfMs Q/GVPq5iNQBwz4i9oQX7Dk8V7cLh1lb5kntzxigrXgMA91TsJcej43GbWB3pFFIyXp8lwGq7BgBY k4uCXUTO2TmkzTPINffpvBFbwAYA7hyxT9NF5Izx+rrh+uyXpYgNANzZn0MwFa2vHALLb3mp0VC0 XgMAT/A6Qyw6V2tvmWnEj4qS542wKYnXAICA3SiynSV4DaP1vuDffq/qRNiuKzGzpHANADxFtotI i2B0dAt23wVi3HK9dd/7pbXeq7NGWNEaAHiSrvs7w0YcGf363tbl43C7vaodYLfOAvl5bAEAeJK/ Y8PbEfH6d37E9x5eMQiefZuFawDgiV5PDUgpte/Ece3j5RgAAOwO2PcdzXntnIznC6NnHZPjvV0C OQAgYM/E67oRWxvytlB9XHyNrNmAfADAkx04ikibcP3e/pYv3NXcsyOj9fd+Df/V77dgDQDcW6ST cfYjVwzY79cYv/+3lRp7dZ74+t6775FFhGoA4EmW015Kh06VXvslw2P6AtfbqzME2fE2iNcAgHD9 61VqQWcj+LU4xo4yACBeDz8Tam+tGaPKxvczBL5yeyS+AgBcL2S/jt7IEq2gKfVLEUgBAKibXfOf +SuzmKvsbpvt2N6GbXpxAICrR/ADh+nrdV3f+rw+lG77q1ZRf92WpfQZI0S8BgA4o2i+i4zkl860 wW23qtXeiNYAAHeJ2KcZRWQqXPb9qsctu/cYvUKcBgC4Wn4LzWodbuquHgfnJlK55vyAsW8Gfidu AQDgyhmvf58u0ILdKvzNreea4fM9zU1+640mDQBwh3j9/n1oJkcBsOQDg2MKAHDdfBfop5D7iCBY 4lmnP4r9/xqIDwDg2tluZ8AWBsueDEcTAODeAfvlEAEAQKl4rYsIAACUjNfpJV4DAEA0Xufz8Uu8 BgCANSF7R8AGAADeYs3PRhEBAICsz4DLOfpgAwBAVjReB7qIiNgAABAP4rqIAABAQKT9OqXQS46x pnAAAHi2vmHaMH0AABCOz3mG6QMAgIIRO9MHWxs2AAC85TpPB/tgAwAAkXcTuy4bsL3gCAAAa5Jx ig43AgAAQnY+Of8J1wAAUI4+2AAAUEzXmckRAABC0Tn2OTM5AgBAQNGJZkRsAACIxfBX/iMOEwAA xOL1v39/sY8BAAARf8I1AACU0XWhFmwAACAiJeNgAwBA2ZC9PEKILiIAAPCRH1/vJV4DAEA5L/Ea AABKCYyDDQAAvDuH5BuhF/tga8MGAIBhyF72VyKlAwAAfXY2VToAABTTdS/xGgAAYiLp2DB9AABQ MGIvBuxIJ24AAOATwFMuRGvFBgCAXiQ7GwcbAAAK+sslcAAAoFDABgAAetH3EzN9sLVhAwDAmoD9 yi/IWCIAAJBSrPHZONgAAFCQqdIBACBo90yOfecQERsAAKJdp1+5xTiUAAAQT8eZgK31GgAA1iRj MzkCAEDBiJ3yzdxasQEAoNg42AAAQFwgYHvREQAACgZsAAAg6m/51/pfAwDAGlqwAQAgoNAwfdH5 agAAgEDA7kO2wwQAALE2bF1EAACgYMTOTpXuNUcAAIhH8L8yOR0AAO5vufN0Sv/+dZ0uIgAAUEAf r7PjYAMAAL3l9uv3b7VgAwBAMF7n31BMScAGAIAVliN2tg+2MbABAOAdrLsun5BTPkIbRQQAAP79 izU/m8kRAAAKyk40owUbAAA+6XhXwBavAQBgXQQ3iggAABSTGUVE72sAAFiXjw3TBwAAxeK1mRwB AKAoARsAAARsAAAQsAEA4MJiA1gHJprxoiMAAERpwQYAAAEbAABai/TsSOkvvxCTpQMAQFS2BVu8 BgCAeDLWRQQAAIpF7K575T/iQAIAQDiE5wK0LiIAAPBtOUHrIgIAAEWklFKgBVsbNgAA9Jazc5+b tWADAEAoWMfeTlxswdZ2DQAAvzE7Rws2AACELDU/f36nDzYAAIQUasEWrwEAIJqMU3qJ1wAAUEp2 JkfzOAIAwFuk+dlLjgAAEBRpfn6VWAgAABAM2AAAwL9/sabn7EuO/YK0YgMAIF7n+2Cn9O/fX2Rh xhIBAIBYCNdFBAAAQtE530kkpVDA1n4NAMDTRTNxSimSwgEAgH//Im3YuogAAEA4Wuean7MzOQIA AMOYvSTFRvNzKAEAIBKwtWADAEARKYXGwdZ6DQAAEX3r9p8DAQAA0fic9yq1IAAAEK8DAVsXEQAA iMpONCNeAwDAv38Fu4gAAACxpueUsjM56oENAABrIrgWbAAAWBGg5/WN04GA3XXasQEAICY7DrZw DQAAEf0AIiaaAQCArEizc7iLSHSBAACAlxzhoGdcHGkA7lnjvNYtdGrRZV6CrF1N1ntV873kz/Lr HZGty/WiquDXXwXzWxXf3qmlLP91vWPRdXNLn9/XNaVY1y0dtd97fvn4nus6OG5ddda+fpntz9X0 fXOVq6bWkS23958l/S6z5tH9XlPZ9ZRbWu0r7HfZR13Nrda7bi1/axfcdb/Dk5S8DNbMG9l174FS +i1I6ftnv5/4bOXvJz7r7H8+/u1wCdP/+q1oP7+Z36Pxlv4ub+64Ti9vuN25peQ+/72X4+O65txE PzU8nsPzu3SWpv46t0XLf5Ff3tJ+9P8/pa7LX9HTR3jq6ug/Fbue6hUb89fTe+vmtuR32z//WnfX j89Nfz2sWcp3JM//1e9ct8O9yB277/2cLnmm9q3r+v9Er86pMnnuXhoudd21vnx/fh/X7zX9/v91 1+3ymd1aMn1Kkvc6lsvEpfMR3Z7hnk/fJUt/Py4Dps/emvJwbr+mt+SzD3PX9XJJMn39rakrppbw nQPe5/L352tLmUgJOHV9L61neBcslZKfJru12710HdeblzvavDJ1RU1fZWtKhanPb0+TuTWvOS7Z qdK3hLzfyut3+e/CbT5QfoqyT3UzjrZr1jDew+mfzm3TuChZ2sPp3/wWjUt7NLc3SzfueK3DPZze 0rlqb/jAMtze/H5EjuvSHv4+pkyfs3GlPndk5q6hSISZDgpT2zdc6txacp9bPqq5c7bvzCxt3/xd 9B1Ppq/56QeIuSpnOsbOlR5zxffU343Lu+E1Nt66T5U9dS99X1tT6xjfecMrfm7Lpq+I8VU1VTlM ncOloxCp7iMNAEulyPI1Gw0T39uSu8PmrpLp5o1hZJra1siRmAtb0w0Kw/2Zv2um6rr5hp6tzQPz dc7SGZ8vlabvqVhTz7g8m08Jy0c18lAwX8Pk9mz+iEzfkVPJJpdylqPedGmQz0PjT35v91RJOF96 5+rruYwzn3zmm96Ws2S0PJk+EsuP2avT8raAPW55WxdjI3Ehv7zIGiLtUvktGrd6TJ3i5SgwvvSn b+voA06J7w6W1z63F2sKmmG1try2dfs1d1NGo+lU5PitXpZ/Gj2qU38zLLKmotn81R691eOf23NN TQfsyCPU/HGbeyRc+rvYlbi8ztx2bbuT5mNaLrbMXUdzFffUY07+EWs6uJW4VnLV6fT2rms3WlOL 5Bpn4rVRriSb2sP4scs9pkVqrKmHrbk6Z+7RM143x0L41LcZ8+XCuvJrPibPXYORkLz+cXJ73Rvb nt9aI5+S1h7DbfV3vqxZG1Dz5V80jcwntVw9kL9Kirdgl7Y9JpcM1vujRuRYttzXGudpewA5y/bv 3dJSd8yWB6uSx3hdqCqzJdsLqmcqd60tPbjtr/jq7OmatWx7tGpzJY5jwraqOhd+Is0P2x9ActfQ 3iNerw6ZW+vR2Wf5O5Lte1UnYJc5S+WO+RUyR0qbWrBR4QMAHBNeBWwAAHjYQ4BxsAEAoCABGwAA BGwAADib/qVRARsAAAoSsAEAoIh++BABGwAAitBFBAAACsdrARsAAIoSsAEAYLd3+/VXwE7p88On HYQW63qv7WlHGfcLxx7D48+cawd4Rmn+/fMmtyAiAAAEfElEQVTX3C++I2EkfKf/q1fEjpcRX2qJ B4g1S5j+bEpzexE7yvm1bV9K/3fL5zB3lteuP7+870/Vqb7nz9S2v99/D6w/hlN375YzsbyX3yVC fjunfxs7WrnlD3/z2frf3yz9a+/ZnPr857h/b9G2a6DUFTld5sRKki2lydKW/56N8uVwiVIistfr tj1+HMfX9fK1tnYrlv9++d/tHpKWz++wFKr/YDcuRcZlzfLRXa5Rax7JWClcMkVNlxs17vY953D/ kt6l/PKn/4aXRT+4yL9/72FGPpfz5zffP39/qutihdLvUuaW9v2vue37/OT7899b8f73+29+t+Cz pPn1ff7+fVDHR2G8ReOldl1KKXXd3Brmjs3c8j9Hfe5yGf7s88m5MxA5M5GbYepozy1levt/t+W7 EPs918PjPb8Hv8ubXno+JMydvalo+Ltv7yvo/a/58zCu1sbHc3yU56rC379eunbn7t/cw8L3Nfi7 Tbn1j/fxc26Xr7Z1Jc3wfH9fOVP31nCb82sbn8/fMmDpPp2/bof6Mz99DQ63cnjV/P58fo2/+z9/ 5Uzd1cOz/n2tD//mt/wab2ekjBr+9dJWT2/D8DOx+mauFF46IuvKp/GSP1u+VEetO2ZT2z53HffH anzEI2dtrhTL3VP5Gq2vU5eP+zAPzNVtufI9cpcO9+23TIwcnTWhc2mrpx5nv+/8pbIxd9WN6/Xp LZm+06eOUfzq2f/gNlX3Dn8+VVZNbe+4VBkm0H//0lQx/rvK4SKnq5zxQZ4KWN8bNh1zftc3vMWn YvRacwdsOZIvrXF4zKaPzHyEHj6qzG3VsHiZrnbzx2Zu78bVz3h949vz+zYcXwHT2z6/59Fj/rsX S5F1GLemY//01TodU5aKh9zVO7+c4RaOq4b8VTH9kPl7LsaR9/vKXd7qubMZux+nKvepu3pq3+fu jdy2TJ/BWJidqkhycXl+ibnH+OUt+d2i33stf21Nn+lxAJgqweeWN32lx47r719Mnftx8M3dF+NQ /32kolfI/O/ztcXcUZg/PuO6YRxZpkvPYX0zvM6XKv35mm6udFtuFPk9Z58jvlwTTB3pYSkVuS/m S8W5M5+/a+Z/N19PxP713q65En2u0WLpaEw3Yi1/erkMmruX5s7/cm0/39Q2vormrpm5tDifG5bP 5XR9OF9iT21NvvadCNj3t756zLdizX9u+il/6RGl/v6sCSjxIzT9rLo2zuQeoyLHeKkqLfWYlr8u IudlWAWsuyojR2gp2rfuGTtfdS9fM3OP+uWu36UrcU0lXOp4lLgGY0ufr+jjD1Jbjvr8GVxqBV63 zKUGof2lfZmrLndVz92/0485Sw/55e6A+rXTvvs4/6363vJjOh6WOWJbtiv3EDnfIBhptsiVf/Fz vP0IxbZx/iFuufQqVaI3rk6XG/bLNPtzvTMfuSauf3VsPwrnWP6as3XO5V11G652FI6/Ep2n8169 R2zT/vrnWdf82vtdqQkAF3+QBAAAAAAAAAAAAAAAAAAAAAAAAAAALu5/Yy8BCrT+hNoAAAAASUVO RK5CYII= "
       preserveAspectRatio="none"
       height="43.573994"
       width="46.410919" />
  </g>
</svg>
