<?xml version="1.0" encoding="UTF-8" standalone="no"?>
<!-- Created with Inkscape (http://www.inkscape.org/) -->

<svg
   xmlns:dc="http://purl.org/dc/elements/1.1/"
   xmlns:cc="http://creativecommons.org/ns#"
   xmlns:rdf="http://www.w3.org/1999/02/22-rdf-syntax-ns#"
   xmlns:svg="http://www.w3.org/2000/svg"
   xmlns="http://www.w3.org/2000/svg"
   xmlns:sodipodi="http://sodipodi.sourceforge.net/DTD/sodipodi-0.dtd"
   xmlns:inkscape="http://www.inkscape.org/namespaces/inkscape"
   width="45.94413mm"
   height="14.95231mm"
   viewBox="0 0 45.94413 14.95231"
   version="1.1"
   id="svg64969"
   inkscape:version="0.91 r13725"
   sodipodi:docname="poesie-03.svg">
  <defs
     id="defs64963">
    <inkscape:path-effect
       effect="spiro"
       id="path-effect64873"
       is_visible="true" />
    <inkscape:path-effect
       is_visible="true"
       id="path-effect62078-6"
       effect="spiro" />
    <clipPath
       clipPathUnits="userSpaceOnUse"
       id="clipPath1755-1">
      <rect
         style="fill:#ffffff;fill-opacity:1;fill-rule:evenodd;stroke:#000000;stroke-width:1.875;stroke-linecap:round;stroke-linejoin:round;stroke-miterlimit:4;stroke-dasharray:none;stroke-opacity:1"
         id="rect1757-9"
         width="160.91911"
         height="73.499458"
         x="-66.708733"
         y="91.882065" />
    </clipPath>
    <inkscape:path-effect
       effect="spiro"
       id="path-effect63116"
       is_visible="true" />
    <inkscape:path-effect
       is_visible="true"
       id="path-effect62919-0-9"
       effect="spiro" />
    <inkscape:path-effect
       effect="spiro"
       id="path-effect62735"
       is_visible="true" />
    <inkscape:path-effect
       is_visible="true"
       id="path-effect62739"
       effect="spiro" />
    <inkscape:path-effect
       effect="spiro"
       id="path-effect62743"
       is_visible="true" />
    <inkscape:path-effect
       is_visible="true"
       id="path-effect62747"
       effect="spiro" />
    <inkscape:path-effect
       effect="spiro"
       id="path-effect62751"
       is_visible="true" />
    <inkscape:path-effect
       is_visible="true"
       id="path-effect62755"
       effect="spiro" />
    <inkscape:path-effect
       is_visible="true"
       id="path-effect62759"
       effect="spiro" />
    <inkscape:path-effect
       effect="spiro"
       id="path-effect62763"
       is_visible="true" />
    <inkscape:path-effect
       is_visible="true"
       id="path-effect62767"
       effect="spiro" />
    <inkscape:path-effect
       effect="spiro"
       id="path-effect62771"
       is_visible="true" />
    <clipPath
       clipPathUnits="userSpaceOnUse"
       id="clipPath1755-1-8">
      <rect
         style="fill:#ffffff;fill-opacity:1;fill-rule:evenodd;stroke:#000000;stroke-width:1.875;stroke-linecap:round;stroke-linejoin:round;stroke-miterlimit:4;stroke-dasharray:none;stroke-opacity:1"
         id="rect1757-9-5"
         width="160.91911"
         height="73.499458"
         x="-66.708733"
         y="91.882065" />
    </clipPath>
  </defs>
  <sodipodi:namedview
     id="base"
     pagecolor="#ffffff"
     bordercolor="#666666"
     borderopacity="1.0"
     inkscape:pageopacity="0.0"
     inkscape:pageshadow="2"
     inkscape:zoom="1.0459491"
     inkscape:cx="-90.901845"
     inkscape:cy="14.285714"
     inkscape:document-units="mm"
     inkscape:current-layer="layer3"
     showgrid="false"
     fit-margin-top="0"
     fit-margin-left="0"
     fit-margin-right="0"
     fit-margin-bottom="0"
     inkscape:window-width="1920"
     inkscape:window-height="1031"
     inkscape:window-x="0"
     inkscape:window-y="27"
     inkscape:window-maximized="1" />
  <metadata
     id="metadata64966">
    <rdf:RDF>
      <cc:Work
         rdf:about="">
        <dc:format>image/svg+xml</dc:format>
        <dc:type
           rdf:resource="http://purl.org/dc/dcmitype/StillImage" />
        <dc:title />
      </cc:Work>
    </rdf:RDF>
  </metadata>
  <g
     inkscape:label="Layer 1"
     inkscape:groupmode="layer"
     id="layer1"
     transform="translate(-17.093411,-79.369084)">
    <rect
       y="79.633667"
       x="17.357994"
       height="14.423143"
       width="45.414963"
       id="rect63052"
       style="fill:#ffffff;fill-opacity:1;fill-rule:evenodd;stroke:#000000;stroke-width:0.52916658;stroke-linecap:round;stroke-linejoin:round;stroke-miterlimit:4;stroke-dasharray:none;stroke-opacity:1" />
    <g
       id="g63042"
       transform="matrix(0.28222223,0,0,0.28222223,49.952678,-413.55901)">
      <path
         sodipodi:nodetypes="csc"
         inkscape:original-d="m -37.556355,1773.952 c -1.66904,1.1514 4.92252,1.0251 2.21812,1.8313 -2.7044,0.8062 4.02673,1.4176 1.89754,0.9581"
         inkscape:path-effect="#path-effect62735"
         inkscape:connector-curvature="0"
         id="path62733"
         d="m -37.556355,1773.952 c 0.657152,0.7018 1.404618,1.3189 2.21812,1.8313 0.600441,0.3782 1.236724,0.6995 1.89754,0.9581"
         style="opacity:1;fill:none;fill-opacity:1;fill-rule:nonzero;stroke:#000000;stroke-width:3.75;stroke-linecap:round;stroke-linejoin:round;stroke-miterlimit:4;stroke-dasharray:none;stroke-dashoffset:0;stroke-opacity:1" />
      <path
         style="opacity:1;fill:none;fill-opacity:1;fill-rule:nonzero;stroke:#000000;stroke-width:3.75;stroke-linecap:round;stroke-linejoin:round;stroke-miterlimit:4;stroke-dasharray:none;stroke-dashoffset:0;stroke-opacity:1"
         d="m -34.802645,1773.6211 c -1.632194,-0.7731 -3.303067,-1.4644 -5.00428,-2.0707 -4.007029,-1.428 -8.18744,-2.3825 -12.42444,-2.761 -4.763783,-0.4255 -9.562845,-0.1232 -14.32261,0.3451 -5.339839,0.5254 -10.687333,1.2606 -16.04823,1.0354 -2.906081,-0.1221 -5.800199,-0.5273 -8.62807,-1.208"
         id="path62737"
         inkscape:connector-curvature="0"
         inkscape:path-effect="#path-effect62739"
         inkscape:original-d="m -34.802645,1773.6211 c -1.66715,-0.6912 -3.33525,-1.3814 -5.00428,-2.0707 -1.66904,-0.6893 -8.28202,-1.8416 -12.42444,-2.761 -4.14241,-0.9194 -9.54747,0.2291 -14.32261,0.3451 -4.77514,0.116 -10.69788,0.6893 -16.04823,1.0354 -5.35035,0.346 -5.75111,-0.8062 -8.62807,-1.208" />
      <path
         inkscape:original-d="m -34.802645,1773.6211 c -1.66715,-0.6912 -3.33525,-1.3814 -5.00428,-2.0707 -1.66904,-0.6893 -8.28202,-1.8416 -12.42444,-2.761 -4.14241,-0.9194 -9.54747,0.2291 -14.32261,0.3451 -4.77514,0.116 -10.69788,0.6893 -16.04823,1.0354 -5.35035,0.346 -5.75111,-0.8062 -8.62807,-1.208"
         inkscape:path-effect="#path-effect62743"
         inkscape:connector-curvature="0"
         id="path62741"
         d="m -34.802645,1773.6211 c -1.632194,-0.7731 -3.303067,-1.4644 -5.00428,-2.0707 -4.007029,-1.428 -8.18744,-2.3825 -12.42444,-2.761 -4.763783,-0.4255 -9.562845,-0.1232 -14.32261,0.3451 -5.339839,0.5254 -10.687333,1.2606 -16.04823,1.0354 -2.906081,-0.1221 -5.800199,-0.5273 -8.62807,-1.208"
         style="opacity:1;fill:none;fill-opacity:1;fill-rule:nonzero;stroke:#ffffff;stroke-width:1.25;stroke-linecap:round;stroke-linejoin:round;stroke-miterlimit:4;stroke-dasharray:none;stroke-dashoffset:0;stroke-opacity:1" />
      <path
         style="opacity:1;fill:none;fill-opacity:1;fill-rule:nonzero;stroke:#000000;stroke-width:3.75;stroke-linecap:round;stroke-linejoin:round;stroke-miterlimit:4;stroke-dasharray:none;stroke-dashoffset:0;stroke-opacity:1"
         d="m -23.068455,1775.5193 c 2.287835,0.787 4.589106,1.5349 6.90247,2.2433 3.7406,1.1455 7.5139686,2.1881 11.2165002,3.4512 3.6849614,1.2571 7.2986796,2.7323 11.043938,3.7964 2.9335956,0.8335 5.9397108,1.4116 8.9732098,1.7256"
         id="path62745"
         inkscape:connector-curvature="0"
         inkscape:path-effect="#path-effect62747"
         inkscape:original-d="m -23.068455,1775.5193 c 2.18672,0.6893 4.60258,1.4946 6.90247,2.2433 2.29988,0.7487 7.4786102,2.2999 11.2165002,3.4512 3.737898,1.1514 7.363568,2.53 11.043938,3.7964 3.68038,1.2664 5.9830798,1.1494 8.9732098,1.7256" />
      <path
         inkscape:original-d="m -23.068455,1775.5193 c 2.18672,0.6893 4.60258,1.4946 6.90247,2.2433 2.29988,0.7487 7.4786102,2.2999 11.2165002,3.4512 3.737898,1.1514 7.363568,2.53 11.043938,3.7964 3.68038,1.2664 5.9830798,1.1494 8.9732098,1.7256"
         inkscape:path-effect="#path-effect62751"
         inkscape:connector-curvature="0"
         id="path62749"
         d="m -23.068455,1775.5193 c 2.287835,0.787 4.589106,1.5349 6.90247,2.2433 3.7406,1.1455 7.5139686,2.1881 11.2165002,3.4512 3.6849614,1.2571 7.2986796,2.7323 11.043938,3.7964 2.9335956,0.8335 5.9397108,1.4116 8.9732098,1.7256"
         style="opacity:1;fill:none;fill-opacity:1;fill-rule:nonzero;stroke:#ffffff;stroke-width:1.25;stroke-linecap:round;stroke-linejoin:round;stroke-miterlimit:4;stroke-dasharray:none;stroke-dashoffset:0;stroke-opacity:1" />
      <path
         sodipodi:nodetypes="csc"
         style="opacity:1;fill:none;fill-opacity:1;fill-rule:nonzero;stroke:#ffffff;stroke-width:1.25;stroke-linecap:round;stroke-linejoin:round;stroke-miterlimit:4;stroke-dasharray:none;stroke-dashoffset:0;stroke-opacity:1"
         d="m -38.043555,1774.1469 c 0.663532,0.6394 1.41141,1.1911 2.21813,1.6364 0.751873,0.415 1.554721,0.7376 2.38473,0.9581"
         id="path62753"
         inkscape:connector-curvature="0"
         inkscape:path-effect="#path-effect62755"
         inkscape:original-d="m -38.043555,1774.1469 c -81.958755,-9.2309 4.92253,0.8302 2.21813,1.6364 -2.7044,0.8062 4.51392,1.4176 2.38473,0.9581" />
      <path
         style="opacity:1;fill:none;fill-opacity:1;fill-rule:nonzero;stroke:#000000;stroke-width:3.75;stroke-linecap:round;stroke-linejoin:round;stroke-miterlimit:4;stroke-dasharray:none;stroke-dashoffset:0;stroke-opacity:1"
         d="m -24.621505,1775.1742 c -1.039786,-0.1445 -2.075664,-0.3172 -3.10612,-0.5177 -1.550773,-0.3018 -3.091482,-0.667 -4.65916,-0.8628 -2.177881,-0.272 -4.396667,-0.213 -6.55734,0.1726 -1.086245,0.1938 -2.182453,0.4709 -3.27866,0.3451 -0.782221,-0.09 -1.539496,-0.3884 -2.172444,-0.8567 -0.632949,-0.4683 -1.140016,-1.1051 -1.454657,-1.8269"
         id="path62757"
         inkscape:connector-curvature="0"
         inkscape:path-effect="#path-effect62759"
         inkscape:original-d="m -24.621505,1775.1742 c -0.9194,-0.1735 -2.0698,-0.3461 -3.10612,-0.5177 -1.0363,-0.1716 -3.10516,-0.5762 -4.65916,-0.8628 -1.55399,-0.2867 -3.16269,-9e-4 -6.55734,0.1726 -3.39464,0.1735 -1.72467,0.6317 -3.27866,0.3451 -1.55399,-0.2867 -1.785501,-0.4413 -3.627101,-2.6836"
         sodipodi:nodetypes="cccscc" />
      <path
         sodipodi:nodetypes="cccscc"
         inkscape:original-d="m -24.621505,1775.1742 c -0.9194,-0.1735 -2.0698,-0.3461 -3.10612,-0.5177 -1.0363,-0.1716 -3.10516,-0.5762 -4.65916,-0.8628 -1.55399,-0.2867 -3.16269,-9e-4 -6.55734,0.1726 -3.39464,0.1735 -1.72467,0.6317 -3.27866,0.3451 -1.55399,-0.2867 -1.71267,-0.2956 -3.55427,-2.5379"
         inkscape:path-effect="#path-effect62763"
         inkscape:connector-curvature="0"
         id="path62761"
         d="m -24.621505,1775.1742 c -1.039785,-0.1445 -2.075662,-0.3172 -3.10612,-0.5177 -1.550775,-0.3017 -3.091489,-0.6669 -4.65916,-0.8628 -2.177882,-0.2721 -4.396713,-0.2133 -6.55734,0.1726 -1.086234,0.194 -2.182489,0.4714 -3.27866,0.3451 -0.754834,-0.087 -1.486425,-0.3685 -2.104793,-0.8101 -0.618367,-0.4415 -1.122182,-1.0421 -1.449477,-1.7278"
         style="opacity:1;fill:none;fill-opacity:1;fill-rule:nonzero;stroke:#ffffff;stroke-width:1.25;stroke-linecap:round;stroke-linejoin:round;stroke-miterlimit:4;stroke-dasharray:none;stroke-dashoffset:0;stroke-opacity:1" />
      <path
         style="opacity:1;fill:none;fill-opacity:1;fill-rule:nonzero;stroke:#000000;stroke-width:3.75;stroke-linecap:round;stroke-linejoin:round;stroke-miterlimit:4;stroke-dasharray:none;stroke-dashoffset:0;stroke-opacity:1"
         d="m -15.303185,1768.7894 c -0.653746,0.9387 -1.40709,1.8079 -2.2433,2.5884 -1.485347,1.3864 -3.21845,2.4821 -5.00428,3.4512 -2.509535,1.3619 -5.256807,2.5131 -8.1104,2.4159 -0.944355,-0.032 -1.883897,-0.2024 -2.77953,-0.5035"
         id="path62765"
         inkscape:connector-curvature="0"
         inkscape:path-effect="#path-effect62767"
         inkscape:original-d="m -15.303185,1768.7894 c -0.74682,0.8619 -1.49459,1.7247 -2.2433,2.5884 -0.7487,0.8638 -3.33525,2.2999 -5.00428,3.4512 -1.66904,1.1514 -5.406,1.6097 -8.1104,2.4159 -2.7044,0.8062 -0.65034,-0.044 -2.77953,-0.5035"
         sodipodi:nodetypes="cccsc" />
      <path
         inkscape:original-d="m -15.303185,1768.7894 c -0.74682,0.8619 -1.49459,1.7247 -2.2433,2.5884 -0.7487,0.8638 -3.33525,2.2999 -5.00428,3.4512 -1.66904,1.1514 -5.406,1.6097 -8.1104,2.4159 -2.7044,0.8062 -2.50168,-0.7261 -4.63087,-1.1856"
         inkscape:path-effect="#path-effect62771"
         inkscape:connector-curvature="0"
         id="path62769"
         d="m -15.303185,1768.7894 c -0.654587,0.938 -1.407835,1.8071 -2.2433,2.5884 -1.484203,1.3879 -3.214959,2.4882 -5.00428,3.4512 -2.511994,1.352 -5.258177,2.4693 -8.1104,2.4159 -1.607504,-0.03 -3.20668,-0.4395 -4.63087,-1.1856"
         style="opacity:1;fill:none;fill-opacity:1;fill-rule:nonzero;stroke:#ffffff;stroke-width:1.25;stroke-linecap:round;stroke-linejoin:round;stroke-miterlimit:4;stroke-dasharray:none;stroke-dashoffset:0;stroke-opacity:1"
         sodipodi:nodetypes="cccsc" />
    </g>
    <path
       style="display:inline;opacity:1;fill:none;fill-opacity:1;fill-rule:nonzero;stroke:#000000;stroke-width:0.35277778;stroke-linecap:round;stroke-linejoin:round;stroke-miterlimit:4;stroke-dasharray:none;stroke-dashoffset:0;stroke-opacity:1"
       d="m 36.205083,86.112917 c 0.215841,0.06659 0.433888,0.126018 0.653663,0.178167 0.277519,0.06585 0.558309,0.120234 0.829796,0.207687 0.216256,0.06966 0.4258,0.16014 0.624795,0.269777"
       id="path62917-3"
       inkscape:connector-curvature="0"
       inkscape:path-effect="#path-effect62919-0-9"
       inkscape:original-d="m 36.205083,86.112917 c 0.210659,-0.03206 0.438059,0.208647 0.653663,0.178167 0.21561,-0.03051 0.5535,0.138289 0.829796,0.207687 0.276304,0.06934 0.416845,0.179635 0.624795,0.269777"
       sodipodi:nodetypes="cccc" />
    <path
       style="opacity:1;fill:none;fill-opacity:1;fill-rule:nonzero;stroke:#ffffff;stroke-width:0.35277778;stroke-linecap:round;stroke-linejoin:round;stroke-miterlimit:4;stroke-dasharray:none;stroke-dashoffset:0;stroke-opacity:1"
       d="m 38.425706,86.305139 c -0.178679,-0.04592 -0.356833,-0.09388 -0.534416,-0.143877 -0.430439,-0.121177 -0.857985,-0.2544 -1.294937,-0.349448 -0.405703,-0.08825 -0.818622,-0.143301 -1.233275,-0.164422"
       id="path63114"
       inkscape:connector-curvature="0"
       inkscape:path-effect="#path-effect63116"
       inkscape:original-d="m 38.425706,86.305139 c -0.116211,-0.05509 -0.410825,-0.08247 -0.534416,-0.143877 -0.123591,-0.06138 -0.808217,-0.246916 -1.294937,-0.349448 -0.486723,-0.102503 -0.821919,-0.109869 -1.233275,-0.164422"
       sodipodi:nodetypes="cccc" />
    <path
       inkscape:original-d="m 23.709196,85.559028 c -0.291307,-0.09463 -0.582867,-0.189512 -0.874683,-0.284706 -0.291817,-0.09516 -0.581592,-0.21638 -0.872738,-0.325007"
       inkscape:path-effect="#path-effect62078-6"
       inkscape:connector-curvature="0"
       id="path62076-9"
       d="M 23.709196,85.559028 C 23.415705,85.470197 23.12406,85.375267 22.834513,85.274322 22.541365,85.172121 22.250366,85.063754 21.961775,84.949315"
       style="opacity:1;fill:none;fill-opacity:1;fill-rule:nonzero;stroke:#000000;stroke-width:0.52916664;stroke-linecap:round;stroke-linejoin:round;stroke-miterlimit:4;stroke-dasharray:none;stroke-dashoffset:0;stroke-opacity:1" />
    <path
       style="opacity:1;fill:none;fill-opacity:1;fill-rule:nonzero;stroke:#000000;stroke-width:0.52916664;stroke-linecap:round;stroke-linejoin:round;stroke-miterlimit:4;stroke-dasharray:none;stroke-dashoffset:0;stroke-opacity:1"
       d="m 56.678182,90.771954 c -0.306497,0.0093 -0.613189,0.01225 -0.919808,0.0088 -0.310434,-0.0035 -0.620795,-0.01352 -0.930807,-0.03008"
       id="path64871"
       inkscape:connector-curvature="0"
       inkscape:path-effect="#path-effect64873"
       inkscape:original-d="m 56.678182,90.771954 c -0.306274,0.0031 -0.612873,0.0059 -0.919808,0.0088 -0.306932,0.0028 -0.620223,-0.01976 -0.930807,-0.03008" />
  </g>
  <g
     inkscape:groupmode="layer"
     id="layer3"
     inkscape:label="vecto">
    <g
       transform="matrix(0.28222222,0,0,0.28222222,-21.472996,-32.35725)"
       clip-path="url(#clipPath1755-1-8)"
       style="font-style:normal;font-weight:normal;line-height:0.01%;font-family:sans-serif;letter-spacing:0px;word-spacing:0px;fill:#000000;fill-opacity:1;stroke:#000000;stroke-width:0.375;stroke-linecap:round;stroke-linejoin:round;stroke-miterlimit:4;stroke-dasharray:none;stroke-opacity:1"
       id="flowRoot63124">
      <path
         d="m 86.527344,160.59766 1.464843,0 0,0.35156 -3.75,0 0,-0.35156 1.464844,0 0,-0.9961 0,-0.23437 0,-7.61719 -1.464844,0.29297 0,-0.35156 1.992188,-0.76172 0.292969,0 0,8.4375 0,0.23437 0,0.9961 z"
         style="font-style:normal;font-variant:normal;font-weight:normal;font-stretch:normal;font-size:15px;line-height:100%;font-family:'Ume Mincho Balsa';-inkscape-font-specification:'Ume Mincho Balsa, Normal';text-align:start;writing-mode:lr-tb;text-anchor:start;fill:#000000;stroke:#000000;stroke-width:0.375;stroke-linecap:round;stroke-linejoin:round;stroke-miterlimit:4;stroke-dasharray:none;stroke-opacity:1"
         id="path5617" />
    </g>
  </g>
</svg>
