<?xml version="1.0" encoding="UTF-8" standalone="no"?>
<!-- Created with Inkscape (http://www.inkscape.org/) -->

<svg
   xmlns:dc="http://purl.org/dc/elements/1.1/"
   xmlns:cc="http://creativecommons.org/ns#"
   xmlns:rdf="http://www.w3.org/1999/02/22-rdf-syntax-ns#"
   xmlns:svg="http://www.w3.org/2000/svg"
   xmlns="http://www.w3.org/2000/svg"
   xmlns:sodipodi="http://sodipodi.sourceforge.net/DTD/sodipodi-0.dtd"
   xmlns:inkscape="http://www.inkscape.org/namespaces/inkscape"
   width="47.279842mm"
   height="30.685131mm"
   viewBox="0 0 167.527 108.72685"
   id="svg7187"
   version="1.1"
   inkscape:version="0.91 r13725"
   sodipodi:docname="xx-time-02-blanc.svg">
  <defs
     id="defs7189">
    <inkscape:path-effect
       is_visible="true"
       id="path-effect5049"
       effect="spiro" />
    <inkscape:path-effect
       effect="spiro"
       id="path-effect4287"
       is_visible="true" />
    <inkscape:path-effect
       is_visible="true"
       id="path-effect10770-5"
       effect="spiro" />
    <inkscape:path-effect
       effect="spiro"
       id="path-effect32883"
       is_visible="true" />
    <inkscape:path-effect
       effect="spiro"
       id="path-effect32893"
       is_visible="true" />
    <inkscape:path-effect
       effect="spiro"
       id="path-effect32885"
       is_visible="true" />
    <inkscape:path-effect
       effect="spiro"
       id="path-effect32895"
       is_visible="true" />
    <inkscape:path-effect
       effect="spiro"
       id="path-effect32889"
       is_visible="true" />
    <inkscape:path-effect
       effect="spiro"
       id="path-effect32887"
       is_visible="true" />
    <inkscape:path-effect
       effect="spiro"
       id="path-effect32891"
       is_visible="true" />
    <inkscape:path-effect
       is_visible="true"
       id="path-effect6227"
       effect="spiro" />
    <inkscape:path-effect
       is_visible="true"
       id="path-effect4719"
       effect="spiro" />
    <inkscape:path-effect
       is_visible="true"
       id="path-effect4715"
       effect="spiro" />
    <inkscape:path-effect
       is_visible="true"
       id="path-effect4707"
       effect="spiro" />
    <inkscape:path-effect
       is_visible="true"
       id="path-effect4711"
       effect="spiro" />
    <inkscape:path-effect
       is_visible="true"
       id="path-effect4713"
       effect="spiro" />
    <inkscape:path-effect
       effect="spiro"
       id="path-effect6479"
       is_visible="true" />
    <inkscape:path-effect
       effect="spiro"
       id="path-effect6507"
       is_visible="true" />
    <inkscape:path-effect
       effect="spiro"
       id="path-effect6473"
       is_visible="true" />
    <inkscape:path-effect
       effect="spiro"
       id="path-effect6471"
       is_visible="true" />
    <inkscape:path-effect
       effect="spiro"
       id="path-effect6469"
       is_visible="true" />
    <inkscape:path-effect
       effect="spiro"
       id="path-effect6477"
       is_visible="true" />
    <inkscape:path-effect
       effect="spiro"
       id="path-effect6475"
       is_visible="true" />
    <inkscape:path-effect
       effect="spiro"
       id="path-effect6401"
       is_visible="true" />
    <inkscape:path-effect
       is_visible="true"
       id="path-effect6390"
       effect="spiro" />
    <inkscape:path-effect
       is_visible="true"
       id="path-effect6393"
       effect="spiro" />
    <inkscape:path-effect
       effect="spiro"
       id="path-effect4543"
       is_visible="true" />
    <inkscape:path-effect
       effect="spiro"
       id="path-effect6249"
       is_visible="true" />
    <inkscape:path-effect
       effect="spiro"
       id="path-effect6665"
       is_visible="true" />
    <inkscape:path-effect
       effect="spiro"
       id="path-effect6667"
       is_visible="true" />
    <inkscape:path-effect
       effect="spiro"
       id="path-effect6657"
       is_visible="true" />
    <inkscape:path-effect
       effect="spiro"
       id="path-effect6659"
       is_visible="true" />
    <inkscape:path-effect
       effect="spiro"
       id="path-effect6533"
       is_visible="true" />
    <inkscape:path-effect
       is_visible="true"
       id="path-effect6525"
       effect="spiro" />
    <inkscape:path-effect
       effect="spiro"
       id="path-effect6515"
       is_visible="true" />
    <inkscape:path-effect
       is_visible="true"
       id="path-effect7139"
       effect="spiro" />
    <inkscape:path-effect
       is_visible="true"
       id="path-effect7153"
       effect="spiro" />
    <inkscape:path-effect
       is_visible="true"
       id="path-effect7145"
       effect="spiro" />
    <inkscape:path-effect
       is_visible="true"
       id="path-effect7137"
       effect="spiro" />
    <inkscape:path-effect
       is_visible="true"
       id="path-effect7141"
       effect="spiro" />
    <inkscape:path-effect
       is_visible="true"
       id="path-effect7109"
       effect="spiro" />
    <inkscape:path-effect
       is_visible="true"
       id="path-effect7107"
       effect="spiro" />
    <inkscape:path-effect
       is_visible="true"
       id="path-effect7105"
       effect="spiro" />
    <inkscape:path-effect
       is_visible="true"
       id="path-effect7101"
       effect="spiro" />
    <inkscape:path-effect
       is_visible="true"
       id="path-effect7103"
       effect="spiro" />
    <inkscape:path-effect
       effect="spiro"
       id="path-effect7190-5"
       is_visible="true" />
    <inkscape:path-effect
       effect="spiro"
       id="path-effect7192-8"
       is_visible="true" />
    <inkscape:path-effect
       effect="spiro"
       id="path-effect7162-3"
       is_visible="true" />
    <inkscape:path-effect
       effect="spiro"
       id="path-effect7160-5"
       is_visible="true" />
    <inkscape:path-effect
       effect="spiro"
       id="path-effect7158-7"
       is_visible="true" />
    <inkscape:path-effect
       effect="spiro"
       id="path-effect7184-9"
       is_visible="true" />
    <inkscape:path-effect
       effect="spiro"
       id="path-effect7186-1"
       is_visible="true" />
    <inkscape:path-effect
       effect="spiro"
       id="path-effect7188-3"
       is_visible="true" />
    <inkscape:path-effect
       effect="spiro"
       id="path-effect7182-4"
       is_visible="true" />
    <inkscape:path-effect
       effect="spiro"
       id="path-effect7180-7"
       is_visible="true" />
    <inkscape:path-effect
       effect="spiro"
       id="path-effect7148"
       is_visible="true" />
    <inkscape:path-effect
       effect="spiro"
       id="path-effect7150"
       is_visible="true" />
    <inkscape:path-effect
       effect="spiro"
       id="path-effect7156-4"
       is_visible="true" />
    <inkscape:path-effect
       effect="spiro"
       id="path-effect7152-4"
       is_visible="true" />
    <inkscape:path-effect
       effect="spiro"
       id="path-effect7164-6"
       is_visible="true" />
    <inkscape:path-effect
       effect="spiro"
       id="path-effect7178-8"
       is_visible="true" />
    <inkscape:path-effect
       effect="spiro"
       id="path-effect7174-5"
       is_visible="true" />
    <inkscape:path-effect
       effect="spiro"
       id="path-effect7172-9"
       is_visible="true" />
    <inkscape:path-effect
       effect="spiro"
       id="path-effect7170-8"
       is_visible="true" />
    <inkscape:path-effect
       effect="spiro"
       id="path-effect7168-5"
       is_visible="true" />
    <inkscape:path-effect
       effect="spiro"
       id="path-effect7176-2"
       is_visible="true" />
    <inkscape:path-effect
       effect="spiro"
       id="path-effect7166-3"
       is_visible="true" />
    <inkscape:path-effect
       effect="spiro"
       id="path-effect7144-1"
       is_visible="true" />
    <inkscape:path-effect
       effect="spiro"
       id="path-effect7146-1"
       is_visible="true" />
    <inkscape:path-effect
       effect="spiro"
       id="path-effect7140-9"
       is_visible="true" />
    <inkscape:path-effect
       effect="spiro"
       id="path-effect7142-1"
       is_visible="true" />
    <inkscape:path-effect
       effect="spiro"
       id="path-effect7154-3"
       is_visible="true" />
    <inkscape:path-effect
       effect="spiro"
       id="path-effect7210-6"
       is_visible="true" />
    <inkscape:path-effect
       effect="spiro"
       id="path-effect7208-9"
       is_visible="true" />
    <inkscape:path-effect
       is_visible="true"
       id="path-effect22237"
       effect="spiro" />
    <clipPath
       id="clipPath3121-5-3-0-3-4-9-1-0"
       clipPathUnits="userSpaceOnUse">
      <path
         id="path3123-6-5-6-6-0-2-3-1"
         d="m 0,0 5457.96,0 0,5857 L 0,5857 Z"
         inkscape:connector-curvature="0" />
    </clipPath>
    <inkscape:path-effect
       effect="spiro"
       id="path-effect32885-1"
       is_visible="true" />
  </defs>
  <sodipodi:namedview
     id="base"
     pagecolor="#ffffff"
     bordercolor="#666666"
     borderopacity="1.0"
     inkscape:pageopacity="0.0"
     inkscape:pageshadow="2"
     inkscape:zoom="3.959798"
     inkscape:cx="109.42273"
     inkscape:cy="26.000768"
     inkscape:document-units="px"
     inkscape:current-layer="layer1"
     showgrid="false"
     fit-margin-top="0.3"
     fit-margin-left="0.3"
     fit-margin-right="0.3"
     fit-margin-bottom="0.3"
     inkscape:showpageshadow="false"
     borderlayer="true"
     inkscape:window-width="1920"
     inkscape:window-height="1031"
     inkscape:window-x="0"
     inkscape:window-y="27"
     inkscape:window-maximized="1" />
  <metadata
     id="metadata7192">
    <rdf:RDF>
      <cc:Work
         rdf:about="">
        <dc:format>image/svg+xml</dc:format>
        <dc:type
           rdf:resource="http://purl.org/dc/dcmitype/StillImage" />
        <dc:title></dc:title>
      </cc:Work>
    </rdf:RDF>
  </metadata>
  <g
     inkscape:label="Layer 1"
     inkscape:groupmode="layer"
     id="layer1"
     transform="translate(270.83162,-485.78326)">
    <path
       inkscape:connector-curvature="0"
       id="path10740-3"
       d="m -252.07455,498.49806 c 0,0 1.32517,13.8747 1.79099,21.00076 0.46583,7.12606 2.05128,25.29762 2.20648,31.3548 0.15532,6.05718 1.86332,28.68247 1.5528,32.06734 -0.31051,3.38497 -0.31051,6.2354 -0.31051,6.2354 0,0 4.34777,-1.42521 10.86949,0 6.52172,1.42521 15.06208,5.1663 30.27947,2.31587 15.21728,-2.85042 20.3415,-6.41329 24.68935,-6.41329 4.34783,0 9.9378,-0.89088 9.9378,-0.89088 0,0 -0.31054,-9.62027 -2.17386,-18.34965 -1.86355,-8.7295 -3.57144,-27.61359 -3.41611,-35.27422 0.15532,-7.66062 0.15532,-18.51118 -0.31065,-21.18339 -0.46586,-2.67242 -1.39746,-6.59173 -0.9316,-8.01694 0.46574,-1.42522 0.46574,-3.02854 0.46574,-3.02854 z"
       style="display:inline;fill:#ffd5d5;fill-rule:evenodd;stroke:none;stroke-width:1.87500024;stroke-linecap:round;stroke-linejoin:round;stroke-miterlimit:4;stroke-dasharray:none;stroke-opacity:1"
       sodipodi:nodetypes="cscscsssccscccc" />
    <path
       inkscape:connector-curvature="0"
       id="path10740"
       d="m -252.07455,498.49806 c 0,0 1.32517,13.8747 1.79099,21.00076 0.46583,7.12606 2.05128,25.29762 2.20648,31.3548 0.15532,6.05718 1.86332,28.68247 1.5528,32.06734 -0.31051,3.38497 -0.31051,6.2354 -0.31051,6.2354 0,0 4.34777,-1.42521 10.86949,0 6.52172,1.42521 15.06208,5.1663 30.27947,2.31587 15.21728,-2.85042 20.3415,-6.41329 24.68935,-6.41329 4.34783,0 9.9378,-0.89088 9.9378,-0.89088 0,0 -0.31054,-9.62027 -2.17386,-18.34965 -1.86355,-8.7295 -3.57144,-27.61359 -3.41611,-35.27422 0.15532,-7.66062 0.15532,-18.51118 -0.31065,-21.18339 -0.46586,-2.67242 -1.39746,-6.59173 -0.9316,-8.01694 0.46574,-1.42522 0.46574,-3.02854 0.46574,-3.02854 z"
       style="display:inline;fill:#ffffff;fill-rule:evenodd;stroke:none;stroke-width:1.87500024;stroke-linecap:round;stroke-linejoin:round;stroke-miterlimit:4;stroke-dasharray:none;stroke-opacity:1"
       sodipodi:nodetypes="cscscsssccscccc" />
    <path
       style="display:inline;fill:#ffffff;fill-opacity:1;fill-rule:evenodd;stroke:none;stroke-width:1.87500024;stroke-linecap:round;stroke-linejoin:round;stroke-miterlimit:4;stroke-dasharray:none;stroke-opacity:1"
       d="m -252.23935,497.16023 c 0,0 4.38683,14.52871 5.16095,21.61574 0.7741,7.08715 2.06444,25.15934 2.32236,31.18336 0.25809,6.02402 3.09647,28.52568 2.58046,31.89193 -0.51602,3.36648 -0.51602,6.20134 -0.51602,6.20134 0,0 7.22519,-1.41743 18.06307,0 10.83788,1.41743 25.03035,5.1381 50.31877,2.30324 25.28826,-2.83486 33.80378,-6.37821 41.02911,-6.37821 7.22533,0 16.51476,-0.88603 16.51476,-0.88603 0,0 -0.51605,-9.56771 -3.61249,-18.24926 -3.09689,-8.68179 -5.93514,-27.46268 -5.67694,-35.08135 0.25808,-7.61876 0.25808,-19.8439 -0.51628,-22.50155 -0.77414,-2.65776 -2.3223,-6.55564 -1.54817,-7.97307 0.77403,-1.41742 0.77403,-3.01195 0.77403,-3.01195 z"
       id="path10752"
       inkscape:connector-curvature="0"
       sodipodi:nodetypes="cscscsssccccccc" />
    <path
       inkscape:connector-curvature="0"
       id="path10756"
       d="m -243.31111,489.1 0,17.6071 2.67679,0 -0.17845,-17.6071 z"
       style="display:inline;fill:#ffffff;fill-opacity:1;fill-rule:evenodd;stroke:none;stroke-width:1.87500024;stroke-linecap:round;stroke-linejoin:round;stroke-miterlimit:4;stroke-dasharray:none;stroke-opacity:1"
       sodipodi:nodetypes="ccccc" />
    <path
       style="display:inline;fill:#ffffff;fill-opacity:1;fill-rule:evenodd;stroke:none;stroke-width:1.87500024;stroke-linecap:round;stroke-linejoin:round;stroke-miterlimit:4;stroke-dasharray:none;stroke-opacity:1"
       d="m -138.35756,487.78375 0,17.60721 2.67671,0 -0.17833,-17.60721 z"
       id="path10760"
       inkscape:connector-curvature="0"
       sodipodi:nodetypes="ccccc" />
  </g>
</svg>
