<?xml version="1.0" encoding="UTF-8" standalone="no"?>
<!-- Created with Inkscape (http://www.inkscape.org/) -->

<svg
   xmlns:dc="http://purl.org/dc/elements/1.1/"
   xmlns:cc="http://creativecommons.org/ns#"
   xmlns:rdf="http://www.w3.org/1999/02/22-rdf-syntax-ns#"
   xmlns:svg="http://www.w3.org/2000/svg"
   xmlns="http://www.w3.org/2000/svg"
   xmlns:sodipodi="http://sodipodi.sourceforge.net/DTD/sodipodi-0.dtd"
   xmlns:inkscape="http://www.inkscape.org/namespaces/inkscape"
   width="47.279842mm"
   height="30.685131mm"
   viewBox="0 0 167.527 108.72685"
   id="svg7187"
   version="1.1"
   inkscape:version="0.91 r13725"
   sodipodi:docname="xx-time-02.svg">
  <defs
     id="defs7189">
    <inkscape:path-effect
       is_visible="true"
       id="path-effect5049"
       effect="spiro" />
    <inkscape:path-effect
       effect="spiro"
       id="path-effect4287"
       is_visible="true" />
    <inkscape:path-effect
       is_visible="true"
       id="path-effect10770-5"
       effect="spiro" />
    <inkscape:path-effect
       effect="spiro"
       id="path-effect32883"
       is_visible="true" />
    <inkscape:path-effect
       effect="spiro"
       id="path-effect32893"
       is_visible="true" />
    <inkscape:path-effect
       effect="spiro"
       id="path-effect32885"
       is_visible="true" />
    <inkscape:path-effect
       effect="spiro"
       id="path-effect32895"
       is_visible="true" />
    <inkscape:path-effect
       effect="spiro"
       id="path-effect32889"
       is_visible="true" />
    <inkscape:path-effect
       effect="spiro"
       id="path-effect32887"
       is_visible="true" />
    <inkscape:path-effect
       effect="spiro"
       id="path-effect32891"
       is_visible="true" />
    <inkscape:path-effect
       is_visible="true"
       id="path-effect6227"
       effect="spiro" />
    <inkscape:path-effect
       is_visible="true"
       id="path-effect4719"
       effect="spiro" />
    <inkscape:path-effect
       is_visible="true"
       id="path-effect4715"
       effect="spiro" />
    <inkscape:path-effect
       is_visible="true"
       id="path-effect4707"
       effect="spiro" />
    <inkscape:path-effect
       is_visible="true"
       id="path-effect4711"
       effect="spiro" />
    <inkscape:path-effect
       is_visible="true"
       id="path-effect4713"
       effect="spiro" />
    <inkscape:path-effect
       effect="spiro"
       id="path-effect6479"
       is_visible="true" />
    <inkscape:path-effect
       effect="spiro"
       id="path-effect6507"
       is_visible="true" />
    <inkscape:path-effect
       effect="spiro"
       id="path-effect6473"
       is_visible="true" />
    <inkscape:path-effect
       effect="spiro"
       id="path-effect6471"
       is_visible="true" />
    <inkscape:path-effect
       effect="spiro"
       id="path-effect6469"
       is_visible="true" />
    <inkscape:path-effect
       effect="spiro"
       id="path-effect6477"
       is_visible="true" />
    <inkscape:path-effect
       effect="spiro"
       id="path-effect6475"
       is_visible="true" />
    <inkscape:path-effect
       effect="spiro"
       id="path-effect6401"
       is_visible="true" />
    <inkscape:path-effect
       is_visible="true"
       id="path-effect6390"
       effect="spiro" />
    <inkscape:path-effect
       is_visible="true"
       id="path-effect6393"
       effect="spiro" />
    <inkscape:path-effect
       effect="spiro"
       id="path-effect4543"
       is_visible="true" />
    <inkscape:path-effect
       effect="spiro"
       id="path-effect6249"
       is_visible="true" />
    <inkscape:path-effect
       effect="spiro"
       id="path-effect6665"
       is_visible="true" />
    <inkscape:path-effect
       effect="spiro"
       id="path-effect6667"
       is_visible="true" />
    <inkscape:path-effect
       effect="spiro"
       id="path-effect6657"
       is_visible="true" />
    <inkscape:path-effect
       effect="spiro"
       id="path-effect6659"
       is_visible="true" />
    <inkscape:path-effect
       effect="spiro"
       id="path-effect6533"
       is_visible="true" />
    <inkscape:path-effect
       is_visible="true"
       id="path-effect6525"
       effect="spiro" />
    <inkscape:path-effect
       effect="spiro"
       id="path-effect6515"
       is_visible="true" />
    <inkscape:path-effect
       is_visible="true"
       id="path-effect7139"
       effect="spiro" />
    <inkscape:path-effect
       is_visible="true"
       id="path-effect7153"
       effect="spiro" />
    <inkscape:path-effect
       is_visible="true"
       id="path-effect7145"
       effect="spiro" />
    <inkscape:path-effect
       is_visible="true"
       id="path-effect7137"
       effect="spiro" />
    <inkscape:path-effect
       is_visible="true"
       id="path-effect7141"
       effect="spiro" />
    <inkscape:path-effect
       is_visible="true"
       id="path-effect7109"
       effect="spiro" />
    <inkscape:path-effect
       is_visible="true"
       id="path-effect7107"
       effect="spiro" />
    <inkscape:path-effect
       is_visible="true"
       id="path-effect7105"
       effect="spiro" />
    <inkscape:path-effect
       is_visible="true"
       id="path-effect7101"
       effect="spiro" />
    <inkscape:path-effect
       is_visible="true"
       id="path-effect7103"
       effect="spiro" />
    <inkscape:path-effect
       effect="spiro"
       id="path-effect7190-5"
       is_visible="true" />
    <inkscape:path-effect
       effect="spiro"
       id="path-effect7192-8"
       is_visible="true" />
    <inkscape:path-effect
       effect="spiro"
       id="path-effect7162-3"
       is_visible="true" />
    <inkscape:path-effect
       effect="spiro"
       id="path-effect7160-5"
       is_visible="true" />
    <inkscape:path-effect
       effect="spiro"
       id="path-effect7158-7"
       is_visible="true" />
    <inkscape:path-effect
       effect="spiro"
       id="path-effect7184-9"
       is_visible="true" />
    <inkscape:path-effect
       effect="spiro"
       id="path-effect7186-1"
       is_visible="true" />
    <inkscape:path-effect
       effect="spiro"
       id="path-effect7188-3"
       is_visible="true" />
    <inkscape:path-effect
       effect="spiro"
       id="path-effect7182-4"
       is_visible="true" />
    <inkscape:path-effect
       effect="spiro"
       id="path-effect7180-7"
       is_visible="true" />
    <inkscape:path-effect
       effect="spiro"
       id="path-effect7148"
       is_visible="true" />
    <inkscape:path-effect
       effect="spiro"
       id="path-effect7150"
       is_visible="true" />
    <inkscape:path-effect
       effect="spiro"
       id="path-effect7156-4"
       is_visible="true" />
    <inkscape:path-effect
       effect="spiro"
       id="path-effect7152-4"
       is_visible="true" />
    <inkscape:path-effect
       effect="spiro"
       id="path-effect7164-6"
       is_visible="true" />
    <inkscape:path-effect
       effect="spiro"
       id="path-effect7178-8"
       is_visible="true" />
    <inkscape:path-effect
       effect="spiro"
       id="path-effect7174-5"
       is_visible="true" />
    <inkscape:path-effect
       effect="spiro"
       id="path-effect7172-9"
       is_visible="true" />
    <inkscape:path-effect
       effect="spiro"
       id="path-effect7170-8"
       is_visible="true" />
    <inkscape:path-effect
       effect="spiro"
       id="path-effect7168-5"
       is_visible="true" />
    <inkscape:path-effect
       effect="spiro"
       id="path-effect7176-2"
       is_visible="true" />
    <inkscape:path-effect
       effect="spiro"
       id="path-effect7166-3"
       is_visible="true" />
    <inkscape:path-effect
       effect="spiro"
       id="path-effect7144-1"
       is_visible="true" />
    <inkscape:path-effect
       effect="spiro"
       id="path-effect7146-1"
       is_visible="true" />
    <inkscape:path-effect
       effect="spiro"
       id="path-effect7140-9"
       is_visible="true" />
    <inkscape:path-effect
       effect="spiro"
       id="path-effect7142-1"
       is_visible="true" />
    <inkscape:path-effect
       effect="spiro"
       id="path-effect7154-3"
       is_visible="true" />
    <inkscape:path-effect
       effect="spiro"
       id="path-effect7210-6"
       is_visible="true" />
    <inkscape:path-effect
       effect="spiro"
       id="path-effect7208-9"
       is_visible="true" />
    <inkscape:path-effect
       is_visible="true"
       id="path-effect22237"
       effect="spiro" />
    <clipPath
       id="clipPath3121-5-3-0-3-4-9-1-0"
       clipPathUnits="userSpaceOnUse">
      <path
         id="path3123-6-5-6-6-0-2-3-1"
         d="m 0,0 5457.96,0 0,5857 L 0,5857 Z"
         inkscape:connector-curvature="0" />
    </clipPath>
    <inkscape:path-effect
       effect="spiro"
       id="path-effect32885-1"
       is_visible="true" />
  </defs>
  <sodipodi:namedview
     id="base"
     pagecolor="#ffffff"
     bordercolor="#666666"
     borderopacity="1.0"
     inkscape:pageopacity="0.0"
     inkscape:pageshadow="2"
     inkscape:zoom="0.7"
     inkscape:cx="216.27183"
     inkscape:cy="-155.82669"
     inkscape:document-units="px"
     inkscape:current-layer="layer1"
     showgrid="false"
     fit-margin-top="0.3"
     fit-margin-left="0.3"
     fit-margin-right="0.3"
     fit-margin-bottom="0.3"
     inkscape:showpageshadow="false"
     borderlayer="true"
     inkscape:window-width="1920"
     inkscape:window-height="1031"
     inkscape:window-x="0"
     inkscape:window-y="27"
     inkscape:window-maximized="1" />
  <metadata
     id="metadata7192">
    <rdf:RDF>
      <cc:Work
         rdf:about="">
        <dc:format>image/svg+xml</dc:format>
        <dc:type
           rdf:resource="http://purl.org/dc/dcmitype/StillImage" />
        <dc:title></dc:title>
      </cc:Work>
    </rdf:RDF>
  </metadata>
  <g
     inkscape:label="Layer 1"
     inkscape:groupmode="layer"
     id="layer1"
     transform="translate(270.83162,-485.78326)">
    <path
       inkscape:connector-curvature="0"
       id="path10740-3"
       d="m -252.07455,498.49806 c 0,0 1.32517,13.8747 1.79099,21.00076 0.46583,7.12606 2.05128,25.29762 2.20648,31.3548 0.15532,6.05718 1.86332,28.68247 1.5528,32.06734 -0.31051,3.38497 -0.31051,6.2354 -0.31051,6.2354 0,0 4.34777,-1.42521 10.86949,0 6.52172,1.42521 15.06208,5.1663 30.27947,2.31587 15.21728,-2.85042 20.3415,-6.41329 24.68935,-6.41329 4.34783,0 9.9378,-0.89088 9.9378,-0.89088 0,0 -0.31054,-9.62027 -2.17386,-18.34965 -1.86355,-8.7295 -3.57144,-27.61359 -3.41611,-35.27422 0.15532,-7.66062 0.15532,-18.51118 -0.31065,-21.18339 -0.46586,-2.67242 -1.39746,-6.59173 -0.9316,-8.01694 0.46574,-1.42522 0.46574,-3.02854 0.46574,-3.02854 z"
       style="display:inline;fill:#ffd5d5;fill-rule:evenodd;stroke:none;stroke-width:1.87500024;stroke-linecap:round;stroke-linejoin:round;stroke-miterlimit:4;stroke-dasharray:none;stroke-opacity:1"
       sodipodi:nodetypes="cscscsssccscccc" />
    <path
       sodipodi:nodetypes="cc"
       inkscape:connector-curvature="0"
       id="path10698"
       d="m -268.81778,501.45838 c 59.61671,0.5682 163.49934,-1.11652 163.49934,-1.11652"
       style="display:inline;fill:none;fill-rule:evenodd;stroke:#000000;stroke-width:1.87500024;stroke-linecap:round;stroke-linejoin:round;stroke-miterlimit:4;stroke-dasharray:none;stroke-opacity:1" />
    <path
       inkscape:connector-curvature="0"
       id="path10740"
       d="m -252.07455,498.49806 c 0,0 1.32517,13.8747 1.79099,21.00076 0.46583,7.12606 2.05128,25.29762 2.20648,31.3548 0.15532,6.05718 1.86332,28.68247 1.5528,32.06734 -0.31051,3.38497 -0.31051,6.2354 -0.31051,6.2354 0,0 4.34777,-1.42521 10.86949,0 6.52172,1.42521 15.06208,5.1663 30.27947,2.31587 15.21728,-2.85042 20.3415,-6.41329 24.68935,-6.41329 4.34783,0 9.9378,-0.89088 9.9378,-0.89088 0,0 -0.31054,-9.62027 -2.17386,-18.34965 -1.86355,-8.7295 -3.57144,-27.61359 -3.41611,-35.27422 0.15532,-7.66062 0.15532,-18.51118 -0.31065,-21.18339 -0.46586,-2.67242 -1.39746,-6.59173 -0.9316,-8.01694 0.46574,-1.42522 0.46574,-3.02854 0.46574,-3.02854 z"
       style="display:inline;fill:#ffffff;fill-rule:evenodd;stroke:#000000;stroke-width:1.87500024;stroke-linecap:round;stroke-linejoin:round;stroke-miterlimit:4;stroke-dasharray:none;stroke-opacity:1"
       sodipodi:nodetypes="cscscsssccscccc" />
    <path
       style="display:inline;fill:#ffffff;fill-opacity:1;fill-rule:evenodd;stroke:#000000;stroke-width:1.87500024;stroke-linecap:round;stroke-linejoin:round;stroke-miterlimit:4;stroke-dasharray:none;stroke-opacity:1"
       d="m -252.23935,497.16023 c 0,0 4.38683,14.52871 5.16095,21.61574 0.7741,7.08715 2.06444,25.15934 2.32236,31.18336 0.25809,6.02402 3.09647,28.52568 2.58046,31.89193 -0.51602,3.36648 -0.51602,6.20134 -0.51602,6.20134 0,0 7.22519,-1.41743 18.06307,0 10.83788,1.41743 25.03035,5.1381 50.31877,2.30324 25.28826,-2.83486 33.80378,-6.37821 41.02911,-6.37821 7.22533,0 16.51476,-0.88603 16.51476,-0.88603 0,0 -0.51605,-9.56771 -3.61249,-18.24926 -3.09689,-8.68179 -5.93514,-27.46268 -5.67694,-35.08135 0.25808,-7.61876 0.25808,-19.8439 -0.51628,-22.50155 -0.77414,-2.65776 -2.3223,-6.55564 -1.54817,-7.97307 0.77403,-1.41742 0.77403,-3.01195 0.77403,-3.01195 z"
       id="path10752"
       inkscape:connector-curvature="0"
       sodipodi:nodetypes="cscscsssccccccc" />
    <path
       style="display:inline;fill:#ff6600;fill-opacity:1;fill-rule:evenodd;stroke:#000000;stroke-width:1.87500024;stroke-linecap:round;stroke-linejoin:round;stroke-miterlimit:4;stroke-dasharray:none;stroke-opacity:1"
       d="m -243.31111,489.1 0,17.6071 2.67679,0 -0.17845,-17.6071 z"
       id="path10744"
       inkscape:connector-curvature="0"
       sodipodi:nodetypes="ccccc" />
    <path
       style="display:inline;fill:none;fill-rule:evenodd;stroke:#000000;stroke-width:1.87500024;stroke-linecap:round;stroke-linejoin:round;stroke-miterlimit:4;stroke-dasharray:none;stroke-opacity:1"
       d="m -244.4907,501.3839 4.96648,-0.58746 -1.13323,2.48338"
       id="path10746"
       inkscape:connector-curvature="0"
       sodipodi:nodetypes="ccc" />
    <path
       inkscape:connector-curvature="0"
       id="path10748"
       d="m -138.35756,487.78375 0,17.60721 2.67671,0 -0.17833,-17.60721 z"
       style="display:inline;fill:#ff6600;fill-opacity:1;fill-rule:evenodd;stroke:#000000;stroke-width:1.87500024;stroke-linecap:round;stroke-linejoin:round;stroke-miterlimit:4;stroke-dasharray:none;stroke-opacity:1"
       sodipodi:nodetypes="ccccc" />
    <path
       inkscape:connector-curvature="0"
       id="path10750"
       d="m -139.21856,500.06765 4.45228,-0.91604 -0.79861,3.16818"
       style="display:inline;fill:none;fill-rule:evenodd;stroke:#000000;stroke-width:1.87500024;stroke-linecap:round;stroke-linejoin:round;stroke-miterlimit:4;stroke-dasharray:none;stroke-opacity:1"
       sodipodi:nodetypes="ccc" />
    <path
       inkscape:connector-curvature="0"
       id="path10756"
       d="m -243.31111,489.1 0,17.6071 2.67679,0 -0.17845,-17.6071 z"
       style="display:inline;fill:#ffffff;fill-opacity:1;fill-rule:evenodd;stroke:#000000;stroke-width:1.87500024;stroke-linecap:round;stroke-linejoin:round;stroke-miterlimit:4;stroke-dasharray:none;stroke-opacity:1"
       sodipodi:nodetypes="ccccc" />
    <path
       sodipodi:nodetypes="ccc"
       inkscape:connector-curvature="0"
       id="path10758"
       d="m -244.4907,501.3839 4.96648,-0.58746 -1.13323,2.48338"
       style="display:inline;fill:none;fill-rule:evenodd;stroke:#000000;stroke-width:1.87500024;stroke-linecap:round;stroke-linejoin:round;stroke-miterlimit:4;stroke-dasharray:none;stroke-opacity:1" />
    <path
       style="display:inline;fill:#ffffff;fill-opacity:1;fill-rule:evenodd;stroke:#000000;stroke-width:1.87500024;stroke-linecap:round;stroke-linejoin:round;stroke-miterlimit:4;stroke-dasharray:none;stroke-opacity:1"
       d="m -138.35756,487.78375 0,17.60721 2.67671,0 -0.17833,-17.60721 z"
       id="path10760"
       inkscape:connector-curvature="0"
       sodipodi:nodetypes="ccccc" />
    <path
       sodipodi:nodetypes="ccc"
       style="display:inline;fill:none;fill-rule:evenodd;stroke:#000000;stroke-width:1.87500024;stroke-linecap:round;stroke-linejoin:round;stroke-miterlimit:4;stroke-dasharray:none;stroke-opacity:1"
       d="m -139.21856,500.06765 4.45228,-0.91604 -0.79861,3.16818"
       id="path10762"
       inkscape:connector-curvature="0" />
    <g
       transform="matrix(0.9997087,-0.02413532,0.02413532,0.9997087,-257.59565,502.65569)"
       style="font-style:normal;font-variant:normal;font-weight:normal;font-stretch:normal;line-height:0.01%;font-family:'Ume P Gothic Vertical';-inkscape-font-specification:'Ume P Gothic Vertical, Normal';text-align:center;letter-spacing:0px;word-spacing:0px;writing-mode:lr-tb;text-anchor:middle;display:inline;fill:#000000;fill-opacity:1;stroke:none;stroke-width:1.25;stroke-linecap:butt;stroke-linejoin:miter;stroke-miterlimit:4;stroke-dasharray:none;stroke-opacity:1"
       id="flowRoot4963">
      <path
         d="m 42.441207,10.974611 q 0,1.054687 0.556641,1.728515 0.556641,0.673829 1.435547,0.673829 0.878906,0 1.435547,-0.585938 0.556641,-0.585937 0.615234,-1.816406 l 0,-6.85547 -1.054687,0 0,-0.3515625 2.578125,0 0,0.3515625 -0.996094,0 0,6.85547 q 0,1.289062 -0.703125,2.080078 -0.703125,0.791016 -1.875,0.791016 -1.289063,0 -2.050782,-0.820313 -0.761718,-0.820312 -0.761718,-2.050781 l 0,-6.85547 -0.820313,0 0,-0.3515625 2.519532,0 0,0.3515625 -0.878907,0 0,6.85547 z"
         style="font-style:normal;font-variant:normal;font-weight:normal;font-stretch:normal;font-size:15.00000191px;line-height:100%;font-family:'Ume Mincho Balsa';-inkscape-font-specification:'Ume Mincho Balsa, Normal';text-align:center;letter-spacing:-0.60000008px;word-spacing:-0.69374996px;writing-mode:lr-tb;text-anchor:middle;stroke-width:1.25;stroke-miterlimit:4;stroke-dasharray:none"
         id="path5488"
         inkscape:connector-curvature="0" />
      <path
         d="m 53.794334,13.435548 0.878906,0 0,0.351563 -2.578125,0 0,-0.351563 0.878906,0 0,-4.0429688 q 0,-0.8789064 -0.410156,-1.2011721 -0.410156,-0.3222656 -0.878906,-0.3222656 -0.996094,0 -2.109376,1.4062502 l 0,4.1601563 0.878907,0 0,0.351563 -2.578126,0 0,-0.351563 0.878907,0 0,-5.3320315 -0.761719,0 0,-0.3515625 1.171875,-0.5273439 0.410156,0 0,1.5820315 q 0.9375,-1.5820315 2.109376,-1.5820315 l 0.234375,0 q 0.703125,0 1.289062,0.5566407 0.585938,0.5566407 0.585938,1.6113284 l 0,4.0429688 z"
         style="font-style:normal;font-variant:normal;font-weight:normal;font-stretch:normal;font-size:15.00000191px;line-height:100%;font-family:'Ume Mincho Balsa';-inkscape-font-specification:'Ume Mincho Balsa, Normal';text-align:center;letter-spacing:-0.60000008px;word-spacing:-0.69374996px;writing-mode:lr-tb;text-anchor:middle;stroke-width:1.25;stroke-miterlimit:4;stroke-dasharray:none"
         id="path5490"
         inkscape:connector-curvature="0" />
      <path
         d="m 58.057616,7.2246101 q 0.761719,0 1.435547,0.4101563 0.673828,0.4101563 0.996094,0.9960939 0.322265,0.5859376 0.322265,1.2304689 l 0,0.4101568 -4.566651,0 q -0.0037,0.08789 -0.0037,0.175781 0,1.289062 0.585938,1.992188 0.585937,0.703125 1.40625,0.703125 0.878906,0 1.464844,-0.322266 0.585938,-0.322266 1.054688,-1.083985 l 0.351562,0.175782 q -0.351562,0.878906 -1.083984,1.40625 -0.732422,0.527344 -1.78711,0.527344 -1.230469,0 -2.080078,-0.9375 -0.84961,-0.937501 -0.84961,-2.460938 0,-1.5234379 0.791016,-2.3730474 0.791016,-0.8496095 1.962891,-0.8496095 z m 1.816406,2.6367191 Q 59.815429,8.9238291 59.258788,8.3085947 58.702147,7.6933602 58.057616,7.6933602 q -0.585938,0 -1.201172,0.6738282 -0.479737,0.5236817 -0.585938,1.4941408 l 3.603516,0 z"
         style="font-style:normal;font-variant:normal;font-weight:normal;font-stretch:normal;font-size:15.00000191px;line-height:100%;font-family:'Ume Mincho Balsa';-inkscape-font-specification:'Ume Mincho Balsa, Normal';text-align:center;letter-spacing:-0.60000008px;word-spacing:-0.69374996px;writing-mode:lr-tb;text-anchor:middle;stroke-width:1.25;stroke-miterlimit:4;stroke-dasharray:none"
         id="path5492"
         inkscape:connector-curvature="0" />
      <path
         d="m 71.04668,13.435548 0.878906,0 0,0.351563 -2.578125,0 0,-0.351563 0.878906,0 0,-5.8593753 -1.699219,0 0,-0.3515626 1.699219,0 0,-1.3476564 q 0,-0.9375001 0.585938,-1.5234377 0.585938,-0.5859375 1.347656,-0.5859375 l 0.46875,0 q 0.937501,0 1.464844,0.5273438 0.527344,0.5273438 0.351563,1.0253907 Q 74.269337,5.81836 73.741993,5.6718756 73.214649,5.5253912 73.566212,4.8222661 73.331837,4.1777348 72.394336,4.1777348 q -0.644531,0 -0.996093,0.5566407 -0.351563,0.5566406 -0.351563,1.1425782 l 0,1.3476564 2.871094,0 0,0.3515626 -2.871094,0 0,5.8593753 z"
         style="font-style:normal;font-variant:normal;font-weight:normal;font-stretch:normal;font-size:15.00000191px;line-height:100%;font-family:'Ume Mincho Balsa';-inkscape-font-specification:'Ume Mincho Balsa, Normal';text-align:center;letter-spacing:-0.60000008px;word-spacing:-0.69374996px;writing-mode:lr-tb;text-anchor:middle;stroke-width:1.25;stroke-miterlimit:4;stroke-dasharray:none"
         id="path5494"
         inkscape:connector-curvature="0" />
      <path
         d="m 78.298244,7.2246101 q 0.703125,0 1.347656,0.498047 0.644532,0.4980469 0.644532,1.435547 l 0,3.8085939 q 0,0.292969 0.292969,0.292969 0.351562,0 0.585937,-0.9375 l 0.351563,0.117188 q -0.234375,1.40625 -1.230469,1.40625 -0.351563,0 -0.585938,-0.234375 -0.234375,-0.234375 -0.234375,-0.527344 -0.820312,0.761719 -1.992188,0.761719 l -0.703125,0 q -0.820312,0 -1.289062,-0.46875 -0.46875,-0.46875 -0.46875,-0.996094 0,-1.171875 0.761718,-1.728516 0.761719,-0.556641 1.582032,-0.7910158 0.820313,-0.234375 2.109375,-0.3515625 l 0,-0.3515626 q 0,-0.7617188 -0.439453,-1.0839845 -0.439453,-0.3222656 -1.142578,-0.3222656 -0.527344,0 -1.025391,0.2636719 -0.498047,0.2636719 -0.498047,0.7910157 0,0.3515625 -0.205078,0.4980469 -0.205078,0.1464844 -0.498047,0.1464844 -0.351563,0 -0.351563,-0.3515625 0,-0.8789064 0.84961,-1.3769533 0.849609,-0.498047 1.435547,-0.498047 l 0.703125,0 z m 1.171875,2.7539066 q -1.289062,0.1757813 -1.962891,0.4394533 -0.673828,0.263672 -1.113281,0.732422 -0.439453,0.46875 -0.439453,1.054688 0,0.585937 0.351562,0.849609 0.351563,0.263672 1.171875,0.263672 1.054688,0 1.992188,-0.761719 l 0,-2.5781253 z"
         style="font-style:normal;font-variant:normal;font-weight:normal;font-stretch:normal;font-size:15.00000191px;line-height:100%;font-family:'Ume Mincho Balsa';-inkscape-font-specification:'Ume Mincho Balsa, Normal';text-align:center;letter-spacing:-0.60000008px;word-spacing:-0.69374996px;writing-mode:lr-tb;text-anchor:middle;stroke-width:1.25;stroke-miterlimit:4;stroke-dasharray:none"
         id="path5496"
         inkscape:connector-curvature="0" />
      <path
         d="m 82.795902,13.845705 -0.351563,0 0,-9.6679702 -0.761719,0 0,-0.3515626 1.171875,-0.5273438 0.410157,0 0,4.7460943 q 0.996093,-0.8203126 1.933594,-0.8203126 1.289062,0 2.050781,0.9082033 0.761719,0.9082032 0.761719,2.3730476 0,1.582031 -0.84961,2.460937 -0.849609,0.878907 -2.255859,0.878907 -0.9375,0 -1.640625,-0.585938 l -0.46875,0.585938 z m 2.109375,-0.527344 q 0.820312,0 1.523437,-0.703125 0.703126,-0.703125 0.703126,-2.109375 0,-1.4062506 -0.585938,-2.050782 -0.585938,-0.6445313 -1.347656,-0.6445313 -0.996094,0 -1.933594,0.7031251 l 0,4.3359382 q 0.585937,0.46875 1.640625,0.46875 z"
         style="font-style:normal;font-variant:normal;font-weight:normal;font-stretch:normal;font-size:15.00000191px;line-height:100%;font-family:'Ume Mincho Balsa';-inkscape-font-specification:'Ume Mincho Balsa, Normal';text-align:center;letter-spacing:-0.60000008px;word-spacing:-0.69374996px;writing-mode:lr-tb;text-anchor:middle;stroke-width:1.25;stroke-miterlimit:4;stroke-dasharray:none"
         id="path5498"
         inkscape:connector-curvature="0" />
      <path
         d="m 92.391212,13.435548 1.464844,0 0,0.351563 -3.691407,0 0,-0.351563 1.40625,0 0,-9.2578132 -1.640625,0 0,-0.3515626 2.050782,-0.5273438 0.410156,0 0,10.1367196 z"
         style="font-style:normal;font-variant:normal;font-weight:normal;font-stretch:normal;font-size:15.00000191px;line-height:100%;font-family:'Ume Mincho Balsa';-inkscape-font-specification:'Ume Mincho Balsa, Normal';text-align:center;letter-spacing:-0.60000008px;word-spacing:-0.69374996px;writing-mode:lr-tb;text-anchor:middle;stroke-width:1.25;stroke-miterlimit:4;stroke-dasharray:none"
         id="path5500"
         inkscape:connector-curvature="0" />
      <path
         d="m 98.76387,7.2246101 q 0.761719,0 1.43555,0.4101563 0.67383,0.4101563 0.99609,0.9960939 0.32227,0.5859376 0.32227,1.2304689 l 0,0.4101568 -4.566655,0 q -0.0037,0.08789 -0.0037,0.175781 0,1.289062 0.585938,1.992188 0.585937,0.703125 1.40625,0.703125 0.878906,0 1.464837,-0.322266 0.58594,-0.322266 1.05469,-1.083985 l 0.35157,0.175782 q -0.35157,0.878906 -1.08399,1.40625 -0.732419,0.527344 -1.787107,0.527344 -1.230469,0 -2.080078,-0.9375 -0.84961,-0.937501 -0.84961,-2.460938 0,-1.5234379 0.791016,-2.3730474 0.791016,-0.8496095 1.962891,-0.8496095 z m 1.81641,2.6367191 Q 100.52168,8.9238291 99.965042,8.3085947 99.408401,7.6933602 98.76387,7.6933602 q -0.585938,0 -1.201172,0.6738282 -0.479737,0.5236817 -0.585938,1.4941408 l 3.60352,0 z"
         style="font-style:normal;font-variant:normal;font-weight:normal;font-stretch:normal;font-size:15.00000191px;line-height:100%;font-family:'Ume Mincho Balsa';-inkscape-font-specification:'Ume Mincho Balsa, Normal';text-align:center;letter-spacing:-0.60000008px;word-spacing:-0.69374996px;writing-mode:lr-tb;text-anchor:middle;stroke-width:1.25;stroke-miterlimit:4;stroke-dasharray:none"
         id="path5502"
         inkscape:connector-curvature="0" />
      <path
         d="m 35.311519,30.603519 0.878906,0 0,0.351563 -2.578125,0 0,-0.351563 0.878906,0 0,-7.500001 -0.761719,0 0,-0.410156 1.289063,-0.46875 0.292969,0 0,0.761719 q 0.820312,-0.761719 1.816406,-0.761719 l 0.410157,0 q 1.054687,0 1.845703,0.820313 0.791016,0.820312 0.791016,2.402344 0,1.523437 -0.791016,2.460938 -0.791016,0.9375 -2.25586,0.9375 -1.054687,0 -1.816406,-0.703125 l 0,2.460937 z m 1.816406,-2.285156 q 0.9375,0 1.523438,-0.791016 0.585938,-0.791016 0.585938,-2.080078 0,-1.40625 -0.644532,-2.080079 -0.644531,-0.673828 -1.464844,-0.673828 -0.9375,0 -1.816406,0.761719 l 0,4.277344 q 0.878906,0.585938 1.816406,0.585938 z"
         style="font-style:normal;font-variant:normal;font-weight:normal;font-stretch:normal;font-size:15.00000191px;line-height:100%;font-family:'Ume Mincho Balsa';-inkscape-font-specification:'Ume Mincho Balsa, Normal';text-align:center;letter-spacing:-0.60000008px;word-spacing:-0.69374996px;writing-mode:lr-tb;text-anchor:middle;stroke-width:1.25;stroke-miterlimit:4;stroke-dasharray:none"
         id="path5504"
         inkscape:connector-curvature="0" />
      <path
         d="m 46.547458,28.43555 0.878906,0 0,0.351563 -2.578125,0 0,-0.351563 0.878906,0 0,-4.042969 q 0,-0.878906 -0.410156,-1.201172 -0.410156,-0.322266 -0.878906,-0.322266 -0.996094,0 -2.109376,1.406251 l 0,4.160156 0.878907,0 0,0.351563 -2.578126,0 0,-0.351563 0.878907,0 0,-9.257813 -0.761719,0 0,-0.351563 1.171875,-0.527344 0.410156,0 0,5.507814 q 0.937501,-1.582032 2.109376,-1.582032 l 0.234375,0 q 0.703125,0 1.289062,0.556641 0.585938,0.55664 0.585938,1.611328 l 0,4.042969 z"
         style="font-style:normal;font-variant:normal;font-weight:normal;font-stretch:normal;font-size:15.00000191px;line-height:100%;font-family:'Ume Mincho Balsa';-inkscape-font-specification:'Ume Mincho Balsa, Normal';text-align:center;letter-spacing:-0.60000008px;word-spacing:-0.69374996px;writing-mode:lr-tb;text-anchor:middle;stroke-width:1.25;stroke-miterlimit:4;stroke-dasharray:none"
         id="path5506"
         inkscape:connector-curvature="0" />
      <path
         d="m 47.412302,22.224612 2.578125,0 0,0.351563 -0.878906,0 2.01416,4.398194 1.794434,-4.398194 -0.878906,0 0,-0.351563 2.226563,0 0,0.351563 -0.761719,0 -3.046876,7.265626 q -0.234375,0.46875 -0.585937,0.791015 -0.351563,0.322266 -0.878907,0.322266 -0.46875,0 -0.732422,-0.263672 -0.263671,-0.263672 -0.263671,-0.615234 0.05859,-0.351563 0.175781,-0.468751 0.117187,-0.117187 0.46875,-0.117187 0.351562,0.05859 0.410156,0.351563 0.05859,0.292968 -0.234375,0.46875 0.175781,0.117187 0.410156,0.117187 0.234376,0 0.439454,-0.205078 0.205078,-0.205078 0.380859,-0.615235 l 0.655518,-1.604004 -2.471924,-5.427246 -0.820313,0 0,-0.351563 z"
         style="font-style:normal;font-variant:normal;font-weight:normal;font-stretch:normal;font-size:15.00000191px;line-height:100%;font-family:'Ume Mincho Balsa';-inkscape-font-specification:'Ume Mincho Balsa, Normal';text-align:center;letter-spacing:-0.60000008px;word-spacing:-0.69374996px;writing-mode:lr-tb;text-anchor:middle;stroke-width:1.25;stroke-miterlimit:4;stroke-dasharray:none"
         id="path5508"
         inkscape:connector-curvature="0" />
      <path
         d="m 59.87871,22.224612 0.351562,0 0,2.34375 -0.351562,0 q -0.410157,-0.878906 -0.996094,-1.40625 -0.585938,-0.527344 -1.230469,-0.527344 -0.585938,0 -0.908203,0.351563 -0.322266,0.351562 -0.322266,0.878906 0,0.527344 0.380859,0.791016 0.38086,0.263672 1.31836,0.498047 1.171875,0.292969 1.757813,0.732422 0.585937,0.439453 0.585937,1.259766 0,0.820312 -0.644531,1.259765 -0.644532,0.439454 -1.816407,0.439454 -0.585937,0 -1.113281,-0.205079 -0.527344,-0.205078 -0.9375,-0.55664 l -0.410157,0.761719 -0.351562,0 0,-2.578126 0.351562,0 q 0.410157,1.054688 1.025391,1.611329 0.615235,0.55664 1.435547,0.55664 0.761719,0 1.142579,-0.410156 0.380859,-0.410156 0.380859,-0.878906 0,-0.527344 -0.410156,-0.791016 -0.410157,-0.263672 -1.406251,-0.498047 -1.230468,-0.234375 -1.757812,-0.732422 -0.527344,-0.498047 -0.527344,-1.259766 0,-0.703125 0.615234,-1.171875 0.615235,-0.46875 1.611329,-0.46875 0.46875,0 0.908203,0.175781 0.439453,0.175782 0.908203,0.585938 l 0.410157,-0.761719 z"
         style="font-style:normal;font-variant:normal;font-weight:normal;font-stretch:normal;font-size:15.00000191px;line-height:100%;font-family:'Ume Mincho Balsa';-inkscape-font-specification:'Ume Mincho Balsa, Normal';text-align:center;letter-spacing:-0.60000008px;word-spacing:-0.69374996px;writing-mode:lr-tb;text-anchor:middle;stroke-width:1.25;stroke-miterlimit:4;stroke-dasharray:none"
         id="path5510"
         inkscape:connector-curvature="0" />
      <path
         d="m 63.849023,19.294924 q 0,-0.351562 0.234375,-0.585937 0.234375,-0.234375 0.585938,-0.234375 0.351562,0 0.585937,0.234375 0.234375,0.234375 0.234375,0.585937 0,0.292969 -0.234375,0.527344 -0.234375,0.234375 -0.585937,0.234375 -0.351563,0 -0.585938,-0.234375 -0.234375,-0.234375 -0.234375,-0.527344 z m 1.289063,9.140626 1.464844,0 0,0.351563 -3.750001,0 0,-0.351563 1.464844,0 0,-5.332032 -1.464844,0 0,-0.410156 1.933594,-0.46875 0.351563,0 0,6.210938 z"
         style="font-style:normal;font-variant:normal;font-weight:normal;font-stretch:normal;font-size:15.00000191px;line-height:100%;font-family:'Ume Mincho Balsa';-inkscape-font-specification:'Ume Mincho Balsa, Normal';text-align:center;letter-spacing:-0.60000008px;word-spacing:-0.69374996px;writing-mode:lr-tb;text-anchor:middle;stroke-width:1.25;stroke-miterlimit:4;stroke-dasharray:none"
         id="path5512"
         inkscape:connector-curvature="0" />
      <path
         d="m 74.147461,30.603519 0.878906,0 0,0.351563 -2.578125,0 0,-0.351563 0.878906,0 0,-2.519531 q -0.9375,0.761719 -1.757813,0.761719 -1.347656,0 -2.109375,-0.908204 -0.761719,-0.908203 -0.761719,-2.314453 0,-1.582031 0.732422,-2.490235 0.732422,-0.908203 1.728516,-0.908203 l 0.234375,0 q 1.054688,0 1.933594,0.996094 l 0.410156,-0.996094 0.410157,0 0,8.378907 z m -2.578126,-2.285156 q 0.820313,0 1.757813,-0.703125 l 0,-3.867188 q -0.878906,-1.054688 -1.933594,-1.054688 -0.761719,0 -1.259766,0.761719 -0.498047,0.761719 -0.498047,2.167969 0,1.230469 0.556641,1.962891 0.556641,0.732422 1.376953,0.732422 z"
         style="font-style:normal;font-variant:normal;font-weight:normal;font-stretch:normal;font-size:15.00000191px;line-height:100%;font-family:'Ume Mincho Balsa';-inkscape-font-specification:'Ume Mincho Balsa, Normal';text-align:center;letter-spacing:-0.60000008px;word-spacing:-0.69374996px;writing-mode:lr-tb;text-anchor:middle;stroke-width:1.25;stroke-miterlimit:4;stroke-dasharray:none"
         id="path5514"
         inkscape:connector-curvature="0" />
      <path
         d="m 76.711524,26.912113 q 0,0.644531 0.292969,0.9375 0.292969,0.292969 0.820313,0.292969 1.230469,0 2.402344,-1.171876 l 0,-3.925781 -0.9375,0 0,-0.351563 1.347656,-0.46875 0.410156,0 0,5.742188 0.761719,0 0,0.351563 -1.171875,0.46875 -0.410156,0 0,-1.289063 q -1.230469,1.347657 -2.402344,1.347657 -0.996094,0 -1.464844,-0.556641 -0.46875,-0.556641 -0.46875,-1.376953 l 0,-3.867188 -0.878907,0 0,-0.351563 1.289063,-0.46875 0.410156,0 0,4.687501 z"
         style="font-style:normal;font-variant:normal;font-weight:normal;font-stretch:normal;font-size:15.00000191px;line-height:100%;font-family:'Ume Mincho Balsa';-inkscape-font-specification:'Ume Mincho Balsa, Normal';text-align:center;letter-spacing:-0.60000008px;word-spacing:-0.69374996px;writing-mode:lr-tb;text-anchor:middle;stroke-width:1.25;stroke-miterlimit:4;stroke-dasharray:none"
         id="path5516"
         inkscape:connector-curvature="0" />
      <path
         d="m 85.310745,22.224612 q 0.761719,0 1.435547,0.410156 0.673828,0.410157 0.996094,0.996094 0.322265,0.585938 0.322265,1.230469 l 0,0.410156 -4.566651,0 q -0.0037,0.08789 -0.0037,0.175782 0,1.289062 0.585938,1.992187 0.585937,0.703126 1.40625,0.703126 0.878906,0 1.464844,-0.322266 0.585937,-0.322266 1.054688,-1.083985 l 0.351562,0.175782 q -0.351562,0.878906 -1.083984,1.40625 -0.732422,0.527344 -1.78711,0.527344 -1.230469,0 -2.080078,-0.9375 -0.84961,-0.937501 -0.84961,-2.460938 0,-1.523438 0.791016,-2.373047 0.791016,-0.84961 1.962891,-0.84961 z m 1.816406,2.636719 q -0.05859,-0.9375 -0.615234,-1.552734 -0.556641,-0.615235 -1.201172,-0.615235 -0.585938,0 -1.201172,0.673828 -0.479737,0.523682 -0.585938,1.494141 l 3.603516,0 z"
         style="font-style:normal;font-variant:normal;font-weight:normal;font-stretch:normal;font-size:15.00000191px;line-height:100%;font-family:'Ume Mincho Balsa';-inkscape-font-specification:'Ume Mincho Balsa, Normal';text-align:center;letter-spacing:-0.60000008px;word-spacing:-0.69374996px;writing-mode:lr-tb;text-anchor:middle;stroke-width:1.25;stroke-miterlimit:4;stroke-dasharray:none"
         id="path5518"
         inkscape:connector-curvature="0" />
      <path
         d="m 89.574027,27.9668 q 0,-0.46875 0.263672,-0.673828 0.263672,-0.205078 0.615234,-0.205078 0.351563,0 0.644532,0.234375 0.292969,0.234375 0.292969,0.761719 0,1.230469 -1.464844,2.34375 L 89.574027,30.134769 Q 90.159965,29.607425 90.39434,28.845707 89.92559,28.728519 89.749808,28.552738 89.574027,28.376957 89.574027,27.9668 Z"
         style="font-style:normal;font-variant:normal;font-weight:normal;font-stretch:normal;font-size:15.00000191px;line-height:100%;font-family:'Ume Mincho Balsa';-inkscape-font-specification:'Ume Mincho Balsa, Normal';text-align:center;letter-spacing:-0.60000008px;word-spacing:-0.69374996px;writing-mode:lr-tb;text-anchor:middle;stroke-width:1.25;stroke-miterlimit:4;stroke-dasharray:none"
         id="path5520"
         inkscape:connector-curvature="0" />
      <path
         d="m 99.638088,28.43555 1.464842,0 0,0.351563 -3.691405,0 0,-0.351563 1.40625,0 0,-9.257813 -1.640625,0 0,-0.351563 2.050781,-0.527344 0.410157,0 0,10.13672 z"
         style="font-style:normal;font-variant:normal;font-weight:normal;font-stretch:normal;font-size:15.00000191px;line-height:100%;font-family:'Ume Mincho Balsa';-inkscape-font-specification:'Ume Mincho Balsa, Normal';text-align:center;letter-spacing:-0.60000008px;word-spacing:-0.69374996px;writing-mode:lr-tb;text-anchor:middle;stroke-width:1.25;stroke-miterlimit:4;stroke-dasharray:none"
         id="path5522"
         inkscape:connector-curvature="0" />
      <path
         d="m 106.24512,22.224612 q 0.70313,0 1.34766,0.498047 0.64453,0.498047 0.64453,1.435547 l 0,3.808594 q 0,0.292969 0.29297,0.292969 0.35156,0 0.58593,-0.9375 l 0.35157,0.117187 q -0.23438,1.406251 -1.23047,1.406251 -0.35156,0 -0.58594,-0.234375 -0.23437,-0.234375 -0.23437,-0.527344 -0.82032,0.761719 -1.99219,0.761719 l -0.70313,0 q -0.82031,0 -1.28906,-0.46875 -0.46875,-0.46875 -0.46875,-0.996094 0,-1.171875 0.76172,-1.728516 0.76172,-0.556641 1.58203,-0.791016 0.82031,-0.234375 2.10938,-0.351562 l 0,-0.351563 q 0,-0.761719 -0.43946,-1.083984 -0.43945,-0.322266 -1.14258,-0.322266 -0.52734,0 -1.02539,0.263672 -0.49804,0.263672 -0.49804,0.791016 0,0.351562 -0.20508,0.498046 -0.20508,0.146485 -0.49805,0.146485 -0.35156,0 -0.35156,-0.351563 0,-0.878906 0.84961,-1.376953 0.84961,-0.498047 1.43555,-0.498047 l 0.70312,0 z m 1.17188,2.753907 q -1.28907,0.175781 -1.9629,0.439453 -0.67382,0.263672 -1.11328,0.732422 -0.43945,0.46875 -0.43945,1.054687 0,0.585938 0.35156,0.84961 0.35157,0.263672 1.17188,0.263672 1.05469,0 1.99219,-0.761719 l 0,-2.578125 z"
         style="font-style:normal;font-variant:normal;font-weight:normal;font-stretch:normal;font-size:15.00000191px;line-height:100%;font-family:'Ume Mincho Balsa';-inkscape-font-specification:'Ume Mincho Balsa, Normal';text-align:center;letter-spacing:-0.60000008px;word-spacing:-0.69374996px;writing-mode:lr-tb;text-anchor:middle;stroke-width:1.25;stroke-miterlimit:4;stroke-dasharray:none"
         id="path5524"
         inkscape:connector-curvature="0" />
      <path
         d="m 16.767766,37.224614 2.578126,0 0,0.410156 -0.820313,0 1.757813,4.628907 1.757813,-4.628907 -0.996094,0 0,-0.410156 2.460938,0 0,0.410156 -0.937501,0 -2.34375,6.152345 -0.351562,0 -2.343751,-6.152345 -0.761719,0 0,-0.410156 z"
         style="font-style:normal;font-variant:normal;font-weight:normal;font-stretch:normal;font-size:15.00000191px;line-height:100%;font-family:'Ume Mincho Balsa';-inkscape-font-specification:'Ume Mincho Balsa, Normal';text-align:center;letter-spacing:-0.60000008px;word-spacing:-0.69374996px;writing-mode:lr-tb;text-anchor:middle;stroke-width:1.25;stroke-miterlimit:4;stroke-dasharray:none"
         id="path5526"
         inkscape:connector-curvature="0" />
      <path
         d="m 23.902143,40.505864 q 0,-1.464844 0.878906,-2.373047 0.878906,-0.908203 2.226563,-0.908203 1.347656,0 2.255859,0.908203 0.908204,0.908203 0.908204,2.373047 0,1.406251 -0.878907,2.373048 -0.878906,0.966797 -2.285156,0.966797 -1.40625,0 -2.25586,-0.966797 -0.849609,-0.966797 -0.849609,-2.373048 z m 0.996093,0 q 0,1.230469 0.498047,2.080079 0.498047,0.849609 1.611329,0.849609 1.054687,0 1.611328,-0.849609 0.556641,-0.84961 0.556641,-2.080079 0,-1.171875 -0.556641,-2.021484 -0.556641,-0.84961 -1.611328,-0.84961 -1.113282,0 -1.611329,0.84961 -0.498047,0.849609 -0.498047,2.021484 z"
         style="font-style:normal;font-variant:normal;font-weight:normal;font-stretch:normal;font-size:15.00000191px;line-height:100%;font-family:'Ume Mincho Balsa';-inkscape-font-specification:'Ume Mincho Balsa, Normal';text-align:center;letter-spacing:-0.60000008px;word-spacing:-0.69374996px;writing-mode:lr-tb;text-anchor:middle;stroke-width:1.25;stroke-miterlimit:4;stroke-dasharray:none"
         id="path5528"
         inkscape:connector-curvature="0" />
      <path
         d="m 34.434957,43.435552 1.464843,0 0,0.351563 -3.691406,0 0,-0.351563 1.40625,0 0,-9.257813 -1.640625,0 0,-0.351563 2.050781,-0.527344 0.410157,0 0,10.13672 z"
         style="font-style:normal;font-variant:normal;font-weight:normal;font-stretch:normal;font-size:15.00000191px;line-height:100%;font-family:'Ume Mincho Balsa';-inkscape-font-specification:'Ume Mincho Balsa, Normal';text-align:center;letter-spacing:-0.60000008px;word-spacing:-0.69374996px;writing-mode:lr-tb;text-anchor:middle;stroke-width:1.25;stroke-miterlimit:4;stroke-dasharray:none"
         id="path5530"
         inkscape:connector-curvature="0" />
      <path
         d="m 37.702144,40.505864 q 0,-1.464844 0.878907,-2.373047 0.878906,-0.908203 2.226562,-0.908203 1.347657,0 2.25586,0.908203 0.908203,0.908203 0.908203,2.373047 0,1.406251 -0.878906,2.373048 -0.878907,0.966797 -2.285157,0.966797 -1.40625,0 -2.255859,-0.966797 -0.84961,-0.966797 -0.84961,-2.373048 z m 0.996094,0 q 0,1.230469 0.498047,2.080079 0.498047,0.849609 1.611328,0.849609 1.054688,0 1.611329,-0.849609 0.55664,-0.84961 0.55664,-2.080079 0,-1.171875 -0.55664,-2.021484 -0.556641,-0.84961 -1.611329,-0.84961 -1.113281,0 -1.611328,0.84961 -0.498047,0.849609 -0.498047,2.021484 z"
         style="font-style:normal;font-variant:normal;font-weight:normal;font-stretch:normal;font-size:15.00000191px;line-height:100%;font-family:'Ume Mincho Balsa';-inkscape-font-specification:'Ume Mincho Balsa, Normal';text-align:center;letter-spacing:-0.60000008px;word-spacing:-0.69374996px;writing-mode:lr-tb;text-anchor:middle;stroke-width:1.25;stroke-miterlimit:4;stroke-dasharray:none"
         id="path5532"
         inkscape:connector-curvature="0" />
      <path
         d="m 50.344334,43.435552 0.878906,0 0,0.351563 -2.578125,0 0,-0.351563 0.878906,0 0,-4.042969 q 0,-0.878906 -0.410156,-1.201172 -0.410156,-0.322266 -0.878906,-0.322266 -0.996094,0 -2.109376,1.40625 l 0,4.160157 0.878907,0 0,0.351563 -2.578126,0 0,-0.351563 0.878907,0 0,-5.332032 -0.761719,0 0,-0.351562 1.171875,-0.527344 0.410156,0 0,1.582031 q 0.9375,-1.582031 2.109376,-1.582031 l 0.234375,0 q 0.703125,0 1.289062,0.556641 0.585938,0.55664 0.585938,1.611328 l 0,4.042969 z"
         style="font-style:normal;font-variant:normal;font-weight:normal;font-stretch:normal;font-size:15.00000191px;line-height:100%;font-family:'Ume Mincho Balsa';-inkscape-font-specification:'Ume Mincho Balsa, Normal';text-align:center;letter-spacing:-0.60000008px;word-spacing:-0.69374996px;writing-mode:lr-tb;text-anchor:middle;stroke-width:1.25;stroke-miterlimit:4;stroke-dasharray:none"
         id="path5534"
         inkscape:connector-curvature="0" />
      <path
         d="m 54.490427,41.560552 q 0,0.878906 0.322266,1.230469 0.322265,0.351562 0.849609,0.351562 1.230469,0 1.992188,-1.933594 l 0.351562,0.175782 q -0.644531,2.460938 -2.34375,2.460938 -0.996094,0 -1.494141,-0.556641 -0.498047,-0.556641 -0.498047,-1.728516 l 0,-3.984375 -1.699219,0 0,-0.351563 0.878907,0 q 0.9375,0 1.289062,-2.519532 l 0.351563,0 0,2.519532 2.871094,0 0,0.351563 -2.871094,0 0,3.984375 z"
         style="font-style:normal;font-variant:normal;font-weight:normal;font-stretch:normal;font-size:15.00000191px;line-height:100%;font-family:'Ume Mincho Balsa';-inkscape-font-specification:'Ume Mincho Balsa, Normal';text-align:center;letter-spacing:-0.60000008px;word-spacing:-0.69374996px;writing-mode:lr-tb;text-anchor:middle;stroke-width:1.25;stroke-miterlimit:4;stroke-dasharray:none"
         id="path5536"
         inkscape:connector-curvature="0" />
      <path
         d="m 61.56621,31.482426 1.875,0 0,0.410156 -3.457032,2.109375 -0.292969,-0.292968 1.875001,-2.226563 z m -0.05859,5.742188 q 0.761719,0 1.435547,0.410156 0.673828,0.410157 0.996094,0.996094 0.322266,0.585938 0.322266,1.230469 l 0,0.410156 -4.566651,0 q -0.0037,0.08789 -0.0037,0.175782 0,1.289062 0.585938,1.992187 0.585938,0.703125 1.40625,0.703125 0.878907,0 1.464844,-0.322265 0.585938,-0.322266 1.054688,-1.083985 l 0.351562,0.175782 q -0.351562,0.878906 -1.083984,1.40625 -0.732422,0.527344 -1.78711,0.527344 -1.230469,0 -2.080078,-0.937501 -0.84961,-0.9375 -0.84961,-2.460937 0,-1.523438 0.791016,-2.373048 0.791016,-0.849609 1.962891,-0.849609 z m 1.816406,2.636719 q -0.05859,-0.9375 -0.615234,-1.552735 -0.556641,-0.615234 -1.201172,-0.615234 -0.585938,0 -1.201172,0.673828 -0.479736,0.523682 -0.585938,1.494141 l 3.603516,0 z"
         style="font-style:normal;font-variant:normal;font-weight:normal;font-stretch:normal;font-size:15.00000191px;line-height:100%;font-family:'Ume Mincho Balsa';-inkscape-font-specification:'Ume Mincho Balsa, Normal';text-align:center;letter-spacing:-0.60000008px;word-spacing:-0.69374996px;writing-mode:lr-tb;text-anchor:middle;stroke-width:1.25;stroke-miterlimit:4;stroke-dasharray:none"
         id="path5538"
         inkscape:connector-curvature="0" />
      <path
         d="m 73.852148,34.294926 q 0,-0.351562 0.234375,-0.585937 0.234375,-0.234376 0.585937,-0.234376 0.351563,0 0.585938,0.234376 0.234375,0.234375 0.234375,0.585937 0,0.292969 -0.234375,0.527344 -0.234375,0.234375 -0.585938,0.234375 -0.351562,0 -0.585937,-0.234375 -0.234375,-0.234375 -0.234375,-0.527344 z m 1.289063,9.140626 1.464843,0 0,0.351563 -3.75,0 0,-0.351563 1.464844,0 0,-5.332032 -1.464844,0 0,-0.410156 1.933594,-0.46875 0.351563,0 0,6.210938 z"
         style="font-style:normal;font-variant:normal;font-weight:normal;font-stretch:normal;font-size:15.00000191px;line-height:100%;font-family:'Ume Mincho Balsa';-inkscape-font-specification:'Ume Mincho Balsa, Normal';text-align:center;letter-spacing:-0.60000008px;word-spacing:-0.69374996px;writing-mode:lr-tb;text-anchor:middle;stroke-width:1.25;stroke-miterlimit:4;stroke-dasharray:none"
         id="path5540"
         inkscape:connector-curvature="0" />
      <path
         d="m 84.150587,43.435552 0.878907,0 0,0.351563 -2.578126,0 0,-0.351563 0.878907,0 0,-4.042969 q 0,-0.878906 -0.410157,-1.201172 -0.410156,-0.322266 -0.878906,-0.322266 -0.996094,0 -2.109375,1.40625 l 0,4.160157 0.878906,0 0,0.351563 -2.578125,0 0,-0.351563 0.878906,0 0,-5.332032 -0.761719,0 0,-0.351562 1.171876,-0.527344 0.410156,0 0,1.582031 q 0.9375,-1.582031 2.109375,-1.582031 l 0.234375,0 q 0.703125,0 1.289063,0.556641 0.585937,0.55664 0.585937,1.611328 l 0,4.042969 z"
         style="font-style:normal;font-variant:normal;font-weight:normal;font-stretch:normal;font-size:15.00000191px;line-height:100%;font-family:'Ume Mincho Balsa';-inkscape-font-specification:'Ume Mincho Balsa, Normal';text-align:center;letter-spacing:-0.60000008px;word-spacing:-0.69374996px;writing-mode:lr-tb;text-anchor:middle;stroke-width:1.25;stroke-miterlimit:4;stroke-dasharray:none"
         id="path5542"
         inkscape:connector-curvature="0" />
      <path
         d="m 88.589651,37.224614 q 0.996094,0 1.78711,0.615234 0.791015,0.615235 0.791015,1.31836 0,0.292969 -0.175781,0.527344 -0.175781,0.234375 -0.527344,0.234375 -0.292968,0 -0.46875,-0.146485 -0.175781,-0.146484 -0.175781,-0.380859 0,-0.527344 0.46875,-0.644531 -0.234375,-0.410157 -0.673828,-0.732422 -0.439453,-0.322266 -1.025391,-0.322266 -0.996094,0 -1.582031,0.791016 -0.585938,0.791015 -0.585938,2.138672 0,1.171875 0.644531,1.845703 0.644532,0.673828 1.523438,0.673828 0.820313,0 1.435547,-0.380859 0.615235,-0.380859 1.083985,-1.025391 l 0.292968,0.175782 q -0.351562,0.878906 -1.142578,1.40625 -0.791016,0.527344 -1.669922,0.527344 -1.40625,0 -2.25586,-0.908204 -0.849609,-0.908203 -0.849609,-2.314453 0,-1.640625 0.9375,-2.519532 0.9375,-0.878906 2.167969,-0.878906 z"
         style="font-style:normal;font-variant:normal;font-weight:normal;font-stretch:normal;font-size:15.00000191px;line-height:100%;font-family:'Ume Mincho Balsa';-inkscape-font-specification:'Ume Mincho Balsa, Normal';text-align:center;letter-spacing:-0.60000008px;word-spacing:-0.69374996px;writing-mode:lr-tb;text-anchor:middle;stroke-width:1.25;stroke-miterlimit:4;stroke-dasharray:none"
         id="path5544"
         inkscape:connector-curvature="0" />
      <path
         d="m 95.548246,37.224614 q 0.703125,0 1.347657,0.498047 0.644531,0.498047 0.644531,1.435547 l 0,3.808594 q 0,0.292969 0.292969,0.292969 0.351562,0 0.585937,-0.9375 l 0.351563,0.117187 q -0.234375,1.406251 -1.230469,1.406251 -0.351562,0 -0.585937,-0.234375 -0.234376,-0.234376 -0.234376,-0.527344 -0.820312,0.761719 -1.992187,0.761719 l -0.703125,0 q -0.820313,0 -1.289063,-0.468751 -0.46875,-0.46875 -0.46875,-0.996093 0,-1.171876 0.761719,-1.728516 0.761719,-0.556641 1.582031,-0.791016 0.820313,-0.234375 2.109375,-0.351563 l 0,-0.351562 q 0,-0.761719 -0.439453,-1.083985 -0.439453,-0.322265 -1.142578,-0.322265 -0.527344,0 -1.025391,0.263672 -0.498047,0.263672 -0.498047,0.791015 0,0.351563 -0.205078,0.498047 -0.205078,0.146485 -0.498047,0.146485 -0.351562,0 -0.351562,-0.351563 0,-0.878906 0.849609,-1.376953 0.84961,-0.498047 1.435547,-0.498047 l 0.703125,0 z m 1.171875,2.753907 q -1.289062,0.175781 -1.96289,0.439453 -0.673829,0.263672 -1.113282,0.732422 -0.439453,0.46875 -0.439453,1.054687 0,0.585938 0.351563,0.84961 0.351562,0.263672 1.171875,0.263672 1.054687,0 1.992187,-0.761719 l 0,-2.578125 z"
         style="font-style:normal;font-variant:normal;font-weight:normal;font-stretch:normal;font-size:15.00000191px;line-height:100%;font-family:'Ume Mincho Balsa';-inkscape-font-specification:'Ume Mincho Balsa, Normal';text-align:center;letter-spacing:-0.60000008px;word-spacing:-0.69374996px;writing-mode:lr-tb;text-anchor:middle;stroke-width:1.25;stroke-miterlimit:4;stroke-dasharray:none"
         id="path5546"
         inkscape:connector-curvature="0" />
      <path
         d="m 103.44434,37.63477 q -0.8789,0 -2.05078,2.109376 l 0,3.691406 0.87891,0 0,0.351563 -2.578129,0 0,-0.351563 0.878909,0 0,-5.390625 -0.878909,0 0,-0.351563 1.289059,-0.46875 0.41016,0 0,1.875 q 0.99609,-1.875 2.05078,-1.875 l 0.64453,0 q 0.35157,0 0.76172,0.292969 0.41016,0.292969 0.41016,0.9375 0,0.234375 -0.11719,0.439453 -0.11719,0.205078 -0.52734,0.205078 -0.41016,0 -0.52735,-0.380859 -0.11718,-0.38086 0.29297,-0.732422 -0.35156,-0.351563 -0.9375,-0.351563 z"
         style="font-style:normal;font-variant:normal;font-weight:normal;font-stretch:normal;font-size:15.00000191px;line-height:100%;font-family:'Ume Mincho Balsa';-inkscape-font-specification:'Ume Mincho Balsa, Normal';text-align:center;letter-spacing:-0.60000008px;word-spacing:-0.69374996px;writing-mode:lr-tb;text-anchor:middle;stroke-width:1.25;stroke-miterlimit:4;stroke-dasharray:none"
         id="path5548"
         inkscape:connector-curvature="0" />
      <path
         d="m 111.75059,43.435552 0.87891,0 0,0.351563 -2.57813,0 0,-0.351563 0.87891,0 0,-4.042969 q 0,-0.878906 -0.41016,-1.201172 -0.41015,-0.322266 -0.8789,-0.322266 -0.9961,0 -2.10938,1.40625 l 0,4.160157 0.87891,0 0,0.351563 -2.57813,0 0,-0.351563 0.87891,0 0,-5.332032 -0.76172,0 0,-0.351562 1.17188,-0.527344 0.41015,0 0,1.582031 q 0.9375,-1.582031 2.10938,-1.582031 l 0.23437,0 q 0.70313,0 1.28907,0.556641 0.58593,0.55664 0.58593,1.611328 l 0,4.042969 z"
         style="font-style:normal;font-variant:normal;font-weight:normal;font-stretch:normal;font-size:15.00000191px;line-height:100%;font-family:'Ume Mincho Balsa';-inkscape-font-specification:'Ume Mincho Balsa, Normal';text-align:center;letter-spacing:-0.60000008px;word-spacing:-0.69374996px;writing-mode:lr-tb;text-anchor:middle;stroke-width:1.25;stroke-miterlimit:4;stroke-dasharray:none"
         id="path5550"
         inkscape:connector-curvature="0" />
      <path
         d="m 116.07247,31.482426 1.875,0 0,0.410156 -3.45703,2.109375 -0.29297,-0.292968 1.875,-2.226563 z m -0.0586,5.742188 q 0.76171,0 1.43554,0.410156 0.67383,0.410157 0.9961,0.996094 0.32226,0.585938 0.32226,1.230469 l 0,0.410156 -4.56665,0 q -0.004,0.08789 -0.004,0.175782 0,1.289062 0.58594,1.992187 0.58593,0.703125 1.40625,0.703125 0.8789,0 1.46484,-0.322265 0.58594,-0.322266 1.05469,-1.083985 l 0.35156,0.175782 q -0.35156,0.878906 -1.08398,1.40625 -0.73243,0.527344 -1.78711,0.527344 -1.23047,0 -2.08008,-0.937501 -0.84961,-0.9375 -0.84961,-2.460937 0,-1.523438 0.79102,-2.373048 0.79101,-0.849609 1.96289,-0.849609 z m 1.8164,2.636719 q -0.0586,-0.9375 -0.61523,-1.552735 -0.55664,-0.615234 -1.20117,-0.615234 -0.58594,0 -1.20118,0.673828 -0.47973,0.523682 -0.58593,1.494141 l 3.60351,0 z"
         style="font-style:normal;font-variant:normal;font-weight:normal;font-stretch:normal;font-size:15.00000191px;line-height:100%;font-family:'Ume Mincho Balsa';-inkscape-font-specification:'Ume Mincho Balsa, Normal';text-align:center;letter-spacing:-0.60000008px;word-spacing:-0.69374996px;writing-mode:lr-tb;text-anchor:middle;stroke-width:1.25;stroke-miterlimit:4;stroke-dasharray:none"
         id="path5552"
         inkscape:connector-curvature="0" />
      <path
         d="m 122.91388,37.224614 q 0.76172,0 1.43554,0.410156 0.67383,0.410157 0.9961,0.996094 0.32226,0.585938 0.32226,1.230469 l 0,0.410156 -4.56665,0 q -0.004,0.08789 -0.004,0.175782 0,1.289062 0.58594,1.992187 0.58594,0.703125 1.40625,0.703125 0.87891,0 1.46484,-0.322265 0.58594,-0.322266 1.05469,-1.083985 l 0.35156,0.175782 q -0.35156,0.878906 -1.08398,1.40625 -0.73242,0.527344 -1.78711,0.527344 -1.23047,0 -2.08008,-0.937501 -0.84961,-0.9375 -0.84961,-2.460937 0,-1.523438 0.79102,-2.373048 0.79101,-0.849609 1.96289,-0.849609 z m 1.8164,2.636719 q -0.0586,-0.9375 -0.61523,-1.552735 -0.55664,-0.615234 -1.20117,-0.615234 -0.58594,0 -1.20117,0.673828 -0.47974,0.523682 -0.58594,1.494141 l 3.60351,0 z"
         style="font-style:normal;font-variant:normal;font-weight:normal;font-stretch:normal;font-size:15.00000191px;line-height:100%;font-family:'Ume Mincho Balsa';-inkscape-font-specification:'Ume Mincho Balsa, Normal';text-align:center;letter-spacing:-0.60000008px;word-spacing:-0.69374996px;writing-mode:lr-tb;text-anchor:middle;stroke-width:1.25;stroke-miterlimit:4;stroke-dasharray:none"
         id="path5554"
         inkscape:connector-curvature="0" />
      <path
         d="m 42.565426,49.119149 -0.761719,0 0,-0.351563 1.113282,-0.46875 0.46875,0 0,9.66797 0.761718,0 0,0.351563 -1.171875,0.46875 -0.410156,0 0,-0.937501 q -0.878906,0.996094 -1.816407,0.996094 -1.347656,0 -2.080078,-0.820312 -0.732422,-0.820313 -0.732422,-2.460938 0,-1.523438 0.761719,-2.431641 0.761719,-0.908203 1.992188,-0.908203 1.113281,0 1.875,0.9375 l 0,-4.042969 z m -1.875,3.632813 q -0.9375,0.05859 -1.376954,0.761718 -0.439453,0.703126 -0.439453,2.050782 0,1.289063 0.556641,2.021485 0.556641,0.732422 1.318359,0.732422 0.937501,0 1.816407,-1.054688 l 0,-3.574219 q -0.9375,-0.9375 -1.875,-0.9375 z"
         style="font-style:normal;font-variant:normal;font-weight:normal;font-stretch:normal;font-size:15.00000191px;line-height:100%;font-family:'Ume Mincho Balsa';-inkscape-font-specification:'Ume Mincho Balsa, Normal';text-align:center;letter-spacing:-0.60000008px;word-spacing:-0.69374996px;writing-mode:lr-tb;text-anchor:middle;stroke-width:1.25;stroke-miterlimit:4;stroke-dasharray:none"
         id="path5556"
         inkscape:connector-curvature="0" />
      <path
         d="m 45.920505,48.064461 q 0,-0.46875 0.263672,-0.673828 0.263672,-0.205078 0.615234,-0.205078 0.351563,0 0.644531,0.234375 0.292969,0.234375 0.292969,0.761719 0,1.230468 -1.464844,2.34375 L 45.920505,50.23243 q 0.585937,-0.527344 0.820312,-1.289063 -0.46875,-0.117187 -0.644531,-0.292968 -0.175781,-0.175782 -0.175781,-0.585938 z"
         style="font-style:normal;font-variant:normal;font-weight:normal;font-stretch:normal;font-size:15.00000191px;line-height:100%;font-family:'Ume Mincho Balsa';-inkscape-font-specification:'Ume Mincho Balsa, Normal';text-align:center;letter-spacing:-0.60000008px;word-spacing:-0.69374996px;writing-mode:lr-tb;text-anchor:middle;stroke-width:1.25;stroke-miterlimit:4;stroke-dasharray:none"
         id="path5558"
         inkscape:connector-curvature="0" />
      <path
         d="m 52.908396,56.912118 q 0,0.644532 0.292969,0.9375 0.292969,0.292969 0.820313,0.292969 1.230469,0 2.402344,-1.171875 l 0,-3.925782 -0.9375,0 0,-0.351562 1.347656,-0.46875 0.410156,0 0,5.742188 0.761719,0 0,0.351563 -1.171875,0.46875 -0.410156,0 0,-1.289063 q -1.230469,1.347656 -2.402344,1.347656 -0.996094,0 -1.464844,-0.55664 -0.46875,-0.556641 -0.46875,-1.376954 l 0,-3.867188 -0.878907,0 0,-0.351562 1.289063,-0.46875 0.410156,0 0,4.6875 z"
         style="font-style:normal;font-variant:normal;font-weight:normal;font-stretch:normal;font-size:15.00000191px;line-height:100%;font-family:'Ume Mincho Balsa';-inkscape-font-specification:'Ume Mincho Balsa, Normal';text-align:center;letter-spacing:-0.60000008px;word-spacing:-0.69374996px;writing-mode:lr-tb;text-anchor:middle;stroke-width:1.25;stroke-miterlimit:4;stroke-dasharray:none"
         id="path5560"
         inkscape:connector-curvature="0" />
      <path
         d="m 64.144335,58.435556 0.878906,0 0,0.351563 -2.578125,0 0,-0.351563 0.878906,0 0,-4.042969 q 0,-0.878907 -0.410156,-1.201172 -0.410156,-0.322266 -0.878906,-0.322266 -0.996094,0 -2.109376,1.40625 l 0,4.160157 0.878907,0 0,0.351563 -2.578126,0 0,-0.351563 0.878907,0 0,-5.332032 -0.761719,0 0,-0.351562 1.171875,-0.527344 0.410156,0 0,1.582031 q 0.937501,-1.582031 2.109376,-1.582031 l 0.234375,0 q 0.703125,0 1.289062,0.55664 0.585938,0.556641 0.585938,1.611329 l 0,4.042969 z"
         style="font-style:normal;font-variant:normal;font-weight:normal;font-stretch:normal;font-size:15.00000191px;line-height:100%;font-family:'Ume Mincho Balsa';-inkscape-font-specification:'Ume Mincho Balsa, Normal';text-align:center;letter-spacing:-0.60000008px;word-spacing:-0.69374996px;writing-mode:lr-tb;text-anchor:middle;stroke-width:1.25;stroke-miterlimit:4;stroke-dasharray:none"
         id="path5562"
         inkscape:connector-curvature="0" />
      <path
         d="m 68.407617,52.224618 q 0.761719,0 1.435547,0.410156 0.673829,0.410156 0.996094,0.996094 0.322266,0.585938 0.322266,1.230469 l 0,0.410156 -4.566651,0 q -0.0037,0.08789 -0.0037,0.175781 0,1.289063 0.585938,1.992188 0.585937,0.703125 1.40625,0.703125 0.878906,0 1.464844,-0.322265 0.585937,-0.322266 1.054687,-1.083985 l 0.351563,0.175781 q -0.351563,0.878907 -1.083985,1.406251 -0.732422,0.527343 -1.787109,0.527343 -1.230469,0 -2.080079,-0.9375 -0.849609,-0.9375 -0.849609,-2.460938 0,-1.523437 0.791016,-2.373047 0.791015,-0.849609 1.96289,-0.849609 z m 1.816407,2.636719 q -0.05859,-0.9375 -0.615235,-1.552735 -0.55664,-0.615234 -1.201172,-0.615234 -0.585937,0 -1.201172,0.673828 -0.479736,0.523682 -0.585937,1.494141 l 3.603516,0 z"
         style="font-style:normal;font-variant:normal;font-weight:normal;font-stretch:normal;font-size:15.00000191px;line-height:100%;font-family:'Ume Mincho Balsa';-inkscape-font-specification:'Ume Mincho Balsa, Normal';text-align:center;letter-spacing:-0.60000008px;word-spacing:-0.69374996px;writing-mode:lr-tb;text-anchor:middle;stroke-width:1.25;stroke-miterlimit:4;stroke-dasharray:none"
         id="path5564"
         inkscape:connector-curvature="0" />
      <path
         d="m 83.506058,53.806649 q 0,-0.46875 -0.205078,-0.703125 -0.205078,-0.234375 -0.439453,-0.234375 -0.527344,0 -0.878907,0.585938 l 0,5.332032 -0.820312,0 0,-4.98047 q 0,-0.527344 -0.117188,-0.732422 -0.117187,-0.205078 -0.351562,-0.205078 -0.527344,0 -1.054688,0.585938 l 0,4.980469 0.878906,0 0,0.351563 -2.578125,0 0,-0.351563 0.878906,0 0,-5.449219 -0.644531,0 0,-0.351563 1.113281,-0.410156 0.351563,0 0,0.878906 q 0.410156,-0.878906 1.054688,-0.878906 l 0.234375,0 q 0.46875,0 0.703125,0.351562 0.234375,0.351563 0.292968,0.585938 0.410157,-0.9375 0.937501,-0.9375 l 0.234375,0 q 0.46875,0 0.849609,0.410156 0.380859,0.410156 0.380859,1.171875 l 0,4.628907 0.878907,0 0,0.351563 -2.578125,0 0,-0.351563 0.878906,0 0,-4.628907 z"
         style="font-style:normal;font-variant:normal;font-weight:normal;font-stretch:normal;font-size:15.00000191px;line-height:100%;font-family:'Ume Mincho Balsa';-inkscape-font-specification:'Ume Mincho Balsa, Normal';text-align:center;letter-spacing:-0.60000008px;word-spacing:-0.69374996px;writing-mode:lr-tb;text-anchor:middle;stroke-width:1.25;stroke-miterlimit:4;stroke-dasharray:none"
         id="path5566"
         inkscape:connector-curvature="0" />
      <path
         d="m 87.652149,49.29493 q 0,-0.351563 0.234375,-0.585938 0.234375,-0.234375 0.585938,-0.234375 0.351562,0 0.585937,0.234375 0.234375,0.234375 0.234375,0.585938 0,0.292969 -0.234375,0.527344 -0.234375,0.234375 -0.585937,0.234375 -0.351563,0 -0.585938,-0.234375 -0.234375,-0.234375 -0.234375,-0.527344 z m 1.289063,9.140626 1.464844,0 0,0.351563 -3.750001,0 0,-0.351563 1.464844,0 0,-5.332032 -1.464844,0 0,-0.410156 1.933594,-0.46875 0.351563,0 0,6.210938 z"
         style="font-style:normal;font-variant:normal;font-weight:normal;font-stretch:normal;font-size:15.00000191px;line-height:100%;font-family:'Ume Mincho Balsa';-inkscape-font-specification:'Ume Mincho Balsa, Normal';text-align:center;letter-spacing:-0.60000008px;word-spacing:-0.69374996px;writing-mode:lr-tb;text-anchor:middle;stroke-width:1.25;stroke-miterlimit:4;stroke-dasharray:none"
         id="path5568"
         inkscape:connector-curvature="0" />
      <path
         d="m 97.950588,58.435556 0.878907,0 0,0.351563 -2.578126,0 0,-0.351563 0.878907,0 0,-4.042969 q 0,-0.878907 -0.410156,-1.201172 -0.410157,-0.322266 -0.878907,-0.322266 -0.996094,0 -2.109375,1.40625 l 0,4.160157 0.878906,0 0,0.351563 -2.578125,0 0,-0.351563 0.878906,0 0,-5.332032 -0.761719,0 0,-0.351562 1.171876,-0.527344 0.410156,0 0,1.582031 q 0.9375,-1.582031 2.109375,-1.582031 l 0.234375,0 q 0.703125,0 1.289063,0.55664 0.585937,0.556641 0.585937,1.611329 l 0,4.042969 z"
         style="font-style:normal;font-variant:normal;font-weight:normal;font-stretch:normal;font-size:15.00000191px;line-height:100%;font-family:'Ume Mincho Balsa';-inkscape-font-specification:'Ume Mincho Balsa, Normal';text-align:center;letter-spacing:-0.60000008px;word-spacing:-0.69374996px;writing-mode:lr-tb;text-anchor:middle;stroke-width:1.25;stroke-miterlimit:4;stroke-dasharray:none"
         id="path5570"
         inkscape:connector-curvature="0" />
      <path
         d="m 101.45215,49.29493 q 0,-0.351563 0.23438,-0.585938 0.23437,-0.234375 0.58593,-0.234375 0.35157,0 0.58594,0.234375 0.23438,0.234375 0.23438,0.585938 0,0.292969 -0.23438,0.527344 -0.23437,0.234375 -0.58594,0.234375 -0.35156,0 -0.58593,-0.234375 -0.23438,-0.234375 -0.23438,-0.527344 z m 1.28906,9.140626 1.46485,0 0,0.351563 -3.75,0 0,-0.351563 1.46484,0 0,-5.332032 -1.46484,0 0,-0.410156 1.93359,-0.46875 0.35156,0 0,6.210938 z"
         style="font-style:normal;font-variant:normal;font-weight:normal;font-stretch:normal;font-size:15.00000191px;line-height:100%;font-family:'Ume Mincho Balsa';-inkscape-font-specification:'Ume Mincho Balsa, Normal';text-align:center;letter-spacing:-0.60000008px;word-spacing:-0.69374996px;writing-mode:lr-tb;text-anchor:middle;stroke-width:1.25;stroke-miterlimit:4;stroke-dasharray:none"
         id="path5572"
         inkscape:connector-curvature="0" />
      <path
         d="m 38.241207,67.634774 q -0.878907,0 -2.050782,2.109375 l 0,3.691407 0.878907,0 0,0.351563 -2.578126,0 0,-0.351563 0.878907,0 0,-5.390626 -0.878907,0 0,-0.351562 1.289063,-0.46875 0.410156,0 0,1.875 q 0.996094,-1.875 2.050782,-1.875 l 0.644531,0 q 0.351563,0 0.761719,0.292969 0.410156,0.292968 0.410156,0.9375 0,0.234375 -0.117187,0.439453 -0.117188,0.205078 -0.527344,0.205078 -0.410156,0 -0.527344,-0.380859 -0.117187,-0.38086 0.292969,-0.732422 -0.351563,-0.351563 -0.9375,-0.351563 z"
         style="font-style:normal;font-variant:normal;font-weight:normal;font-stretch:normal;font-size:15.00000191px;line-height:100%;font-family:'Ume Mincho Balsa';-inkscape-font-specification:'Ume Mincho Balsa, Normal';text-align:center;letter-spacing:-0.60000008px;word-spacing:-0.69374996px;writing-mode:lr-tb;text-anchor:middle;stroke-width:1.25;stroke-miterlimit:4;stroke-dasharray:none"
         id="path5574"
         inkscape:connector-curvature="0" />
      <path
         d="m 43.969333,61.48243 1.875,0 0,0.410156 -3.457032,2.109375 -0.292969,-0.292969 1.875001,-2.226562 z m -0.05859,5.742188 q 0.761719,0 1.435547,0.410156 0.673828,0.410156 0.996094,0.996094 0.322265,0.585938 0.322265,1.230469 l 0,0.410156 -4.56665,0 q -0.0037,0.08789 -0.0037,0.175781 0,1.289063 0.585938,1.992188 0.585938,0.703125 1.40625,0.703125 0.878907,0 1.464844,-0.322265 0.585938,-0.322266 1.054688,-1.083985 l 0.351562,0.175781 q -0.351562,0.878907 -1.083984,1.406251 -0.732422,0.527343 -1.78711,0.527343 -1.230469,0 -2.080078,-0.9375 -0.84961,-0.9375 -0.84961,-2.460938 0,-1.523437 0.791016,-2.373047 0.791016,-0.849609 1.962891,-0.849609 z m 1.816406,2.636719 q -0.05859,-0.9375 -0.615234,-1.552735 -0.556641,-0.615234 -1.201172,-0.615234 -0.585938,0 -1.201172,0.673828 -0.479737,0.523682 -0.585938,1.494141 l 3.603516,0 z"
         style="font-style:normal;font-variant:normal;font-weight:normal;font-stretch:normal;font-size:15.00000191px;line-height:100%;font-family:'Ume Mincho Balsa';-inkscape-font-specification:'Ume Mincho Balsa, Normal';text-align:center;letter-spacing:-0.60000008px;word-spacing:-0.69374996px;writing-mode:lr-tb;text-anchor:middle;stroke-width:1.25;stroke-miterlimit:4;stroke-dasharray:none"
         id="path5576"
         inkscape:connector-curvature="0" />
      <path
         d="m 47.470896,67.224618 2.578125,0 0,0.410156 -0.820313,0 1.757813,4.628907 1.757813,-4.628907 -0.996094,0 0,-0.410156 2.460938,0 0,0.410156 -0.9375,0 -2.343751,6.152345 -0.351562,0 -2.34375,-6.152345 -0.761719,0 0,-0.410156 z"
         style="font-style:normal;font-variant:normal;font-weight:normal;font-stretch:normal;font-size:15.00000191px;line-height:100%;font-family:'Ume Mincho Balsa';-inkscape-font-specification:'Ume Mincho Balsa, Normal';text-align:center;letter-spacing:-0.60000008px;word-spacing:-0.69374996px;writing-mode:lr-tb;text-anchor:middle;stroke-width:1.25;stroke-miterlimit:4;stroke-dasharray:none"
         id="path5578"
         inkscape:connector-curvature="0" />
      <path
         d="m 54.605271,70.505868 q 0,-1.464844 0.878907,-2.373047 0.878906,-0.908203 2.226562,-0.908203 1.347657,0 2.25586,0.908203 0.908203,0.908203 0.908203,2.373047 0,1.40625 -0.878906,2.373047 -0.878906,0.966797 -2.285157,0.966797 -1.40625,0 -2.255859,-0.966797 -0.84961,-0.966797 -0.84961,-2.373047 z m 0.996094,0 q 0,1.230469 0.498047,2.080079 0.498047,0.849609 1.611328,0.849609 1.054688,0 1.611329,-0.849609 0.556641,-0.84961 0.556641,-2.080079 0,-1.171875 -0.556641,-2.021484 -0.556641,-0.84961 -1.611329,-0.84961 -1.113281,0 -1.611328,0.84961 -0.498047,0.849609 -0.498047,2.021484 z"
         style="font-style:normal;font-variant:normal;font-weight:normal;font-stretch:normal;font-size:15.00000191px;line-height:100%;font-family:'Ume Mincho Balsa';-inkscape-font-specification:'Ume Mincho Balsa, Normal';text-align:center;letter-spacing:-0.60000008px;word-spacing:-0.69374996px;writing-mode:lr-tb;text-anchor:middle;stroke-width:1.25;stroke-miterlimit:4;stroke-dasharray:none"
         id="path5580"
         inkscape:connector-curvature="0" />
      <path
         d="m 65.138086,73.435556 1.464844,0 0,0.351563 -3.691407,0 0,-0.351563 1.40625,0 0,-9.257814 -1.640625,0 0,-0.351562 2.050782,-0.527344 0.410156,0 0,10.13672 z"
         style="font-style:normal;font-variant:normal;font-weight:normal;font-stretch:normal;font-size:15.00000191px;line-height:100%;font-family:'Ume Mincho Balsa';-inkscape-font-specification:'Ume Mincho Balsa, Normal';text-align:center;letter-spacing:-0.60000008px;word-spacing:-0.69374996px;writing-mode:lr-tb;text-anchor:middle;stroke-width:1.25;stroke-miterlimit:4;stroke-dasharray:none"
         id="path5582"
         inkscape:connector-curvature="0" />
      <path
         d="m 69.811523,71.912118 q 0,0.644532 0.292968,0.9375 0.292969,0.292969 0.820313,0.292969 1.230469,0 2.402344,-1.171875 l 0,-3.925782 -0.9375,0 0,-0.351562 1.347656,-0.46875 0.410157,0 0,5.742188 0.761719,0 0,0.351563 -1.171876,0.46875 -0.410156,0 0,-1.289063 q -1.230469,1.347656 -2.402344,1.347656 -0.996094,0 -1.464844,-0.55664 -0.46875,-0.556641 -0.46875,-1.376954 l 0,-3.867188 -0.878906,0 0,-0.351562 1.289062,-0.46875 0.410157,0 0,4.6875 z"
         style="font-style:normal;font-variant:normal;font-weight:normal;font-stretch:normal;font-size:15.00000191px;line-height:100%;font-family:'Ume Mincho Balsa';-inkscape-font-specification:'Ume Mincho Balsa, Normal';text-align:center;letter-spacing:-0.60000008px;word-spacing:-0.69374996px;writing-mode:lr-tb;text-anchor:middle;stroke-width:1.25;stroke-miterlimit:4;stroke-dasharray:none"
         id="path5584"
         inkscape:connector-curvature="0" />
      <path
         d="m 78.293556,71.560556 q 0,0.878906 0.322265,1.230469 0.322266,0.351562 0.84961,0.351562 1.230469,0 1.992188,-1.933594 l 0.351562,0.175782 q -0.644531,2.460937 -2.34375,2.460937 -0.996094,0 -1.494141,-0.55664 -0.498047,-0.556641 -0.498047,-1.728516 l 0,-3.984376 -1.699219,0 0,-0.351562 0.878906,0 q 0.937501,0 1.289063,-2.519532 l 0.351563,0 0,2.519532 2.871094,0 0,0.351562 -2.871094,0 0,3.984376 z"
         style="font-style:normal;font-variant:normal;font-weight:normal;font-stretch:normal;font-size:15.00000191px;line-height:100%;font-family:'Ume Mincho Balsa';-inkscape-font-specification:'Ume Mincho Balsa, Normal';text-align:center;letter-spacing:-0.60000008px;word-spacing:-0.69374996px;writing-mode:lr-tb;text-anchor:middle;stroke-width:1.25;stroke-miterlimit:4;stroke-dasharray:none"
         id="path5586"
         inkscape:connector-curvature="0" />
      <path
         d="m 84.549026,64.29493 q 0,-0.351563 0.234375,-0.585938 0.234375,-0.234375 0.585937,-0.234375 0.351563,0 0.585938,0.234375 0.234375,0.234375 0.234375,0.585938 0,0.292969 -0.234375,0.527344 -0.234375,0.234375 -0.585938,0.234375 -0.351562,0 -0.585937,-0.234375 -0.234375,-0.234375 -0.234375,-0.527344 z m 1.289063,9.140626 1.464843,0 0,0.351563 -3.75,0 0,-0.351563 1.464844,0 0,-5.332032 -1.464844,0 0,-0.410156 1.933594,-0.46875 0.351563,0 0,6.210938 z"
         style="font-style:normal;font-variant:normal;font-weight:normal;font-stretch:normal;font-size:15.00000191px;line-height:100%;font-family:'Ume Mincho Balsa';-inkscape-font-specification:'Ume Mincho Balsa, Normal';text-align:center;letter-spacing:-0.60000008px;word-spacing:-0.69374996px;writing-mode:lr-tb;text-anchor:middle;stroke-width:1.25;stroke-miterlimit:4;stroke-dasharray:none"
         id="path5588"
         inkscape:connector-curvature="0" />
      <path
         d="m 89.105277,70.505868 q 0,-1.464844 0.878906,-2.373047 0.878907,-0.908203 2.226563,-0.908203 1.347657,0 2.25586,0.908203 0.908203,0.908203 0.908203,2.373047 0,1.40625 -0.878906,2.373047 -0.878907,0.966797 -2.285157,0.966797 -1.40625,0 -2.255859,-0.966797 -0.84961,-0.966797 -0.84961,-2.373047 z m 0.996094,0 q 0,1.230469 0.498047,2.080079 0.498047,0.849609 1.611328,0.849609 1.054688,0 1.611329,-0.849609 0.55664,-0.84961 0.55664,-2.080079 0,-1.171875 -0.55664,-2.021484 -0.556641,-0.84961 -1.611329,-0.84961 -1.113281,0 -1.611328,0.84961 -0.498047,0.849609 -0.498047,2.021484 z"
         style="font-style:normal;font-variant:normal;font-weight:normal;font-stretch:normal;font-size:15.00000191px;line-height:100%;font-family:'Ume Mincho Balsa';-inkscape-font-specification:'Ume Mincho Balsa, Normal';text-align:center;letter-spacing:-0.60000008px;word-spacing:-0.69374996px;writing-mode:lr-tb;text-anchor:middle;stroke-width:1.25;stroke-miterlimit:4;stroke-dasharray:none"
         id="path5590"
         inkscape:connector-curvature="0" />
      <path
         d="m 101.74746,73.435556 0.87891,0 0,0.351563 -2.57813,0 0,-0.351563 0.87891,0 0,-4.042969 q 0,-0.878907 -0.41016,-1.201172 -0.41015,-0.322266 -0.878902,-0.322266 -0.996094,0 -2.109376,1.40625 l 0,4.160157 0.878907,0 0,0.351563 -2.578125,0 0,-0.351563 0.878906,0 0,-5.332032 -0.761719,0 0,-0.351562 1.171875,-0.527344 0.410156,0 0,1.582031 q 0.937501,-1.582031 2.109376,-1.582031 l 0.234375,0 q 0.703127,0 1.289067,0.55664 0.58593,0.556641 0.58593,1.611329 l 0,4.042969 z"
         style="font-style:normal;font-variant:normal;font-weight:normal;font-stretch:normal;font-size:15.00000191px;line-height:100%;font-family:'Ume Mincho Balsa';-inkscape-font-specification:'Ume Mincho Balsa, Normal';text-align:center;letter-spacing:-0.60000008px;word-spacing:-0.69374996px;writing-mode:lr-tb;text-anchor:middle;stroke-width:1.25;stroke-miterlimit:4;stroke-dasharray:none"
         id="path5592"
         inkscape:connector-curvature="0" />
      <path
         d="m 103.25684,73.0254 q 0,-0.410157 0.29297,-0.732422 0.29297,-0.322266 0.76172,-0.322266 0.41015,0 0.70312,0.322266 0.29297,0.322265 0.29297,0.732422 0,0.410156 -0.29297,0.703125 -0.29297,0.292969 -0.70312,0.292969 -0.46875,0 -0.76172,-0.292969 -0.29297,-0.292969 -0.29297,-0.703125 z"
         style="font-style:normal;font-variant:normal;font-weight:normal;font-stretch:normal;font-size:15.00000191px;line-height:100%;font-family:'Ume Mincho Balsa';-inkscape-font-specification:'Ume Mincho Balsa, Normal';text-align:center;letter-spacing:-0.60000008px;word-spacing:-0.69374996px;writing-mode:lr-tb;text-anchor:middle;stroke-width:1.25;stroke-miterlimit:4;stroke-dasharray:none"
         id="path5594"
         inkscape:connector-curvature="0" />
    </g>
  </g>
</svg>
