<?xml version="1.0" encoding="UTF-8" standalone="no"?>
<!-- Created with Inkscape (http://www.inkscape.org/) -->

<svg
   xmlns:dc="http://purl.org/dc/elements/1.1/"
   xmlns:cc="http://creativecommons.org/ns#"
   xmlns:rdf="http://www.w3.org/1999/02/22-rdf-syntax-ns#"
   xmlns:svg="http://www.w3.org/2000/svg"
   xmlns="http://www.w3.org/2000/svg"
   xmlns:sodipodi="http://sodipodi.sourceforge.net/DTD/sodipodi-0.dtd"
   xmlns:inkscape="http://www.inkscape.org/namespaces/inkscape"
   width="44.634636mm"
   height="36.24155mm"
   viewBox="0 0 158.15423 128.41494"
   id="svg7322"
   version="1.1"
   inkscape:version="0.91 r13725"
   sodipodi:docname="coeur-00-blanc.svg">
  <defs
     id="defs7324">
    <inkscape:path-effect
       is_visible="true"
       id="path-effect2799"
       effect="spiro" />
  </defs>
  <sodipodi:namedview
     id="base"
     pagecolor="#ffffff"
     bordercolor="#666666"
     borderopacity="1.0"
     inkscape:pageopacity="0.0"
     inkscape:pageshadow="2"
     inkscape:zoom="3.8263804"
     inkscape:cx="-3.0943734"
     inkscape:cy="43.93827"
     inkscape:document-units="px"
     inkscape:current-layer="layer1"
     showgrid="false"
     borderlayer="true"
     inkscape:showpageshadow="false"
     fit-margin-top="0"
     fit-margin-left="0"
     fit-margin-right="0"
     fit-margin-bottom="0"
     inkscape:window-width="1920"
     inkscape:window-height="1031"
     inkscape:window-x="0"
     inkscape:window-y="27"
     inkscape:window-maximized="1" />
  <metadata
     id="metadata7327">
    <rdf:RDF>
      <cc:Work
         rdf:about="">
        <dc:format>image/svg+xml</dc:format>
        <dc:type
           rdf:resource="http://purl.org/dc/dcmitype/StillImage" />
        <dc:title></dc:title>
      </cc:Work>
    </rdf:RDF>
  </metadata>
  <g
     inkscape:label="Layer 1"
     inkscape:groupmode="layer"
     id="layer1"
     transform="translate(-31.30514,-44.700037)">
    <path
       sodipodi:nodetypes="csssssscsssc"
       inkscape:original-d="m 132.03577,70.160744 c 19.89139,-7.5723 40.28619,18.6126 49.68029,15.0343 23.91241,-9.1092 -11.4291,29.826596 -14.3707,32.802296 -2.9413,2.9759 -7.923,10.2592 -12.6337,14.9245 -4.7104,4.665 19.8626,-11.444 15.0209,-5.2567 -4.8417,6.1872 -28.6662,19.092 -32.0005,26.634 -3.3346,7.5419 -15.06943,-11.68625 -24.09623,-1.62315 -9.0265,10.0631 2.25924,18.95875 2.25924,18.95875 0,0 -21.473297,16.0977 -36.769197,-4.1034 -15.2958,-20.2009 -42.6639,-62.904 -42.651,-81.626296 0.028,-37.4447 39.8129,-30.3161 43.3319,-32.5005 3.5195,-2.1845 52.228997,16.7562 52.228997,16.7562 z"
       inkscape:path-effect="#path-effect2799"
       inkscape:connector-curvature="0"
       id="path2797"
       d="m 132.03577,70.160744 c 7.86166,-6.56624 19.0927,-8.854535 28.89671,-5.887634 9.80402,2.966902 17.88179,11.098448 20.78358,20.921934 1.85398,6.276328 1.64184,13.196386 -0.88829,19.231946 -2.53013,6.03556 -7.41948,11.10652 -13.48241,13.57035 -1.86974,0.75982 -3.82839,1.274 -5.74231,1.91444 -1.91391,0.64044 -3.81013,1.42212 -5.41489,2.64604 -1.60476,1.22392 -2.90687,2.93754 -3.30552,4.916 -0.19932,0.98923 -0.16689,2.0302 0.13929,2.99175 0.30617,0.96154 0.89099,1.83957 1.68973,2.45627 1.12551,0.869 2.61951,1.17682 4.03392,1.03058 1.41441,-0.14625 2.75757,-0.71482 3.97611,-1.44769 2.43708,-1.46575 4.45272,-3.59716 7.01087,-4.83959 3.38523,-1.64413 7.52934,-1.51997 10.90175,0.15029 3.37241,1.67026 5.94412,4.80645 7.11475,8.38311 1.17064,3.57666 0.97275,7.54887 -0.35639,11.0697 -1.32914,3.52084 -3.75421,6.58845 -6.75038,8.8657 -2.99617,2.27725 -6.54751,3.77925 -10.23027,4.55395 -3.68277,0.77469 -7.4962,0.83514 -11.23344,0.39253 -7.4745,-0.88522 -14.56251,-3.73791 -21.44652,-6.78128 -3.88627,-1.7181 -7.80004,-3.5241 -11.99458,-4.20289 -2.09727,-0.3394 -4.2539,-0.38877 -6.3417,0.005 -2.0878,0.39352 -4.1065,1.24089 -5.75995,2.575 -1.47711,1.19183 -2.64531,2.76328 -3.36099,4.52115 -0.71568,1.75788 -0.97731,3.69841 -0.75273,5.58305 0.22459,1.88465 0.93491,3.70936 2.04364,5.24982 1.10873,1.54047 2.6135,2.79338 4.32932,3.60473 -12.35594,1.43051 -25.032599,0.0158 -36.769197,-4.1034 -16.244485,-5.70135 -30.790486,-16.86066 -39.201843,-31.8819 -4.205678,-7.51062 -6.854549,-15.91233 -7.516753,-24.49479 -0.662204,-8.58247 0.679936,-17.336267 4.067596,-25.249606 3.709789,-8.665809 9.850096,-16.246436 17.433341,-21.845828 7.583245,-5.599391 16.581265,-9.224 25.898559,-10.654672 18.733515,-2.876534 38.665427,3.518056 52.228997,16.7562 z"
       style="display:inline;fill:#ffffff;fill-rule:evenodd;stroke:none;stroke-width:1.87625003;stroke-linecap:round;stroke-linejoin:round;stroke-miterlimit:4;stroke-dasharray:none;stroke-opacity:1" />
  </g>
</svg>
