<?xml version="1.0" encoding="UTF-8" standalone="no"?>
<!-- Created with Inkscape (http://www.inkscape.org/) -->

<svg
   xmlns:dc="http://purl.org/dc/elements/1.1/"
   xmlns:cc="http://creativecommons.org/ns#"
   xmlns:rdf="http://www.w3.org/1999/02/22-rdf-syntax-ns#"
   xmlns:svg="http://www.w3.org/2000/svg"
   xmlns="http://www.w3.org/2000/svg"
   xmlns:sodipodi="http://sodipodi.sourceforge.net/DTD/sodipodi-0.dtd"
   xmlns:inkscape="http://www.inkscape.org/namespaces/inkscape"
   width="51.849018mm"
   height="22.225506mm"
   viewBox="0 0 51.849018 22.225506"
   version="1.1"
   id="svg50019"
   inkscape:version="0.91 r13725"
   sodipodi:docname="coeur-03.svg">
  <defs
     id="defs50013">
    <clipPath
       clipPathUnits="userSpaceOnUse"
       id="clipPath1755-8">
      <rect
         style="fill:#ffffff;fill-opacity:1;fill-rule:evenodd;stroke:#000000;stroke-width:1.875;stroke-linecap:round;stroke-linejoin:round;stroke-miterlimit:4;stroke-dasharray:none;stroke-opacity:1"
         id="rect1757-46"
         width="160.91911"
         height="73.499458"
         x="-66.708733"
         y="91.882065" />
    </clipPath>
    <inkscape:path-effect
       effect="spiro"
       id="path-effect5677"
       is_visible="true" />
    <inkscape:path-effect
       effect="spiro"
       id="path-effect5673"
       is_visible="true" />
    <inkscape:path-effect
       effect="spiro"
       id="path-effect5669"
       is_visible="true" />
    <inkscape:path-effect
       effect="spiro"
       id="path-effect5665"
       is_visible="true" />
    <inkscape:path-effect
       effect="spiro"
       id="path-effect5661"
       is_visible="true" />
    <inkscape:path-effect
       effect="spiro"
       id="path-effect5657"
       is_visible="true" />
    <inkscape:path-effect
       effect="spiro"
       id="path-effect5653"
       is_visible="true" />
    <inkscape:path-effect
       effect="spiro"
       id="path-effect5649"
       is_visible="true" />
    <inkscape:path-effect
       effect="spiro"
       id="path-effect5645"
       is_visible="true" />
    <inkscape:path-effect
       effect="spiro"
       id="path-effect5641"
       is_visible="true" />
    <inkscape:path-effect
       effect="spiro"
       id="path-effect5637"
       is_visible="true" />
    <inkscape:path-effect
       effect="spiro"
       id="path-effect5633"
       is_visible="true" />
    <inkscape:path-effect
       effect="spiro"
       id="path-effect5629"
       is_visible="true" />
    <inkscape:path-effect
       effect="spiro"
       id="path-effect5625"
       is_visible="true" />
    <inkscape:path-effect
       effect="spiro"
       id="path-effect5621"
       is_visible="true" />
    <inkscape:path-effect
       effect="spiro"
       id="path-effect5617"
       is_visible="true" />
    <inkscape:path-effect
       effect="spiro"
       id="path-effect5613"
       is_visible="true" />
    <inkscape:path-effect
       effect="spiro"
       id="path-effect5609"
       is_visible="true" />
    <inkscape:path-effect
       effect="spiro"
       id="path-effect5605"
       is_visible="true" />
    <inkscape:path-effect
       effect="spiro"
       id="path-effect5601"
       is_visible="true" />
    <inkscape:path-effect
       effect="spiro"
       id="path-effect5597"
       is_visible="true" />
    <inkscape:path-effect
       effect="spiro"
       id="path-effect5593"
       is_visible="true" />
    <inkscape:path-effect
       effect="spiro"
       id="path-effect5589"
       is_visible="true" />
    <inkscape:path-effect
       effect="spiro"
       id="path-effect5585"
       is_visible="true" />
    <inkscape:path-effect
       effect="spiro"
       id="path-effect5580"
       is_visible="true" />
    <inkscape:path-effect
       effect="spiro"
       id="path-effect5576"
       is_visible="true" />
    <inkscape:path-effect
       effect="spiro"
       id="path-effect5503"
       is_visible="true" />
    <inkscape:path-effect
       effect="spiro"
       id="path-effect5499"
       is_visible="true" />
    <inkscape:path-effect
       effect="spiro"
       id="path-effect5495"
       is_visible="true" />
    <inkscape:path-effect
       effect="spiro"
       id="path-effect10312"
       is_visible="true" />
    <inkscape:path-effect
       effect="spiro"
       id="path-effect5491"
       is_visible="true" />
    <inkscape:path-effect
       effect="spiro"
       id="path-effect5483"
       is_visible="true" />
    <inkscape:path-effect
       effect="spiro"
       id="path-effect5479"
       is_visible="true" />
    <clipPath
       clipPathUnits="userSpaceOnUse"
       id="clipPath1755-8-7">
      <rect
         style="fill:#ffffff;fill-opacity:1;fill-rule:evenodd;stroke:#000000;stroke-width:1.875;stroke-linecap:round;stroke-linejoin:round;stroke-miterlimit:4;stroke-dasharray:none;stroke-opacity:1"
         id="rect1757-46-2"
         width="160.91911"
         height="73.499458"
         x="-66.708733"
         y="91.882065" />
    </clipPath>
  </defs>
  <sodipodi:namedview
     id="base"
     pagecolor="#ffffff"
     bordercolor="#666666"
     borderopacity="1.0"
     inkscape:pageopacity="0.0"
     inkscape:pageshadow="2"
     inkscape:zoom="2.4691256"
     inkscape:cx="-139.61824"
     inkscape:cy="4.9485442"
     inkscape:document-units="mm"
     inkscape:current-layer="layer1"
     showgrid="false"
     fit-margin-top="0"
     fit-margin-left="0"
     fit-margin-right="0"
     fit-margin-bottom="0"
     inkscape:window-width="1920"
     inkscape:window-height="1031"
     inkscape:window-x="0"
     inkscape:window-y="27"
     inkscape:window-maximized="1" />
  <metadata
     id="metadata50016">
    <rdf:RDF>
      <cc:Work
         rdf:about="">
        <dc:format>image/svg+xml</dc:format>
        <dc:type
           rdf:resource="http://purl.org/dc/dcmitype/StillImage" />
        <dc:title />
      </cc:Work>
    </rdf:RDF>
  </metadata>
  <g
     inkscape:label="Layer 1"
     inkscape:groupmode="layer"
     id="layer1"
     transform="translate(293.53165,-230.70273)">
    <path
       d="m -293.26707,230.96731 h 45.68083 v 21.69634 h -45.68083 z"
       style="fill:#ffffff;stroke:#000000;stroke-width:0.52916664;stroke-linecap:round;stroke-linejoin:round;stroke-miterlimit:4;stroke-dasharray:none;stroke-opacity:1"
       id="path10141"
       inkscape:connector-curvature="0" />
    <path
       style="fill:none;stroke:#000000;stroke-width:0.52916664;stroke-linecap:round;stroke-linejoin:round;stroke-miterlimit:4;stroke-dasharray:none;stroke-opacity:1"
       d="m -251.55138,242.93054 c -1.31913,1.9606 -3.03609,3.6523 -5.01602,4.94224 -2.42616,1.58066 -5.23703,2.55006 -8.11417,2.87684 -3.67042,0.41688 -7.37675,-0.19535 -10.99098,-0.95894 -2.60948,-0.55131 -5.20201,-1.1826 -7.8191,-1.69658 -1.46004,-0.28674 -2.97172,-0.53643 -4.4259,-0.22132 -0.1933,0.0419 -0.3873,0.0939 -0.58503,0.089 -0.0989,-0.002 -0.19807,-0.0194 -0.28922,-0.0578 -0.0911,-0.0384 -0.17406,-0.0987 -0.23223,-0.17872 -0.0783,-0.1077 -0.10796,-0.24672 -0.0938,-0.37914 0.0142,-0.13241 0.0699,-0.25827 0.14737,-0.36661 0.15491,-0.21667 0.3885,-0.36078 0.61031,-0.50824 1.13413,-0.75397 2.10051,-1.72848 3.09812,-2.65557 2.38582,-2.21716 5.02925,-4.21727 8.0404,-5.45863 3.42708,-1.41283 7.23068,-1.78953 10.9172,-1.40149 4.76792,0.50187 9.39602,2.27596 13.27771,5.08974"
       id="path5477"
       inkscape:connector-curvature="0"
       inkscape:path-effect="#path-effect5479"
       inkscape:original-d="m -251.55138,242.93054 c -36.36631,4.94241 -2.31146,3.98348 -5.01602,4.94224 -2.70457,0.9588 -4.45065,3.19668 -8.11417,2.87684 -3.6635,-0.31979 -8.38477,-0.39322 -10.99098,-0.95894 -2.60621,-0.56568 -6.34393,-1.62266 -7.8191,-1.69658 -1.47515,-0.0739 -2.95044,-0.14766 -4.4259,-0.22132 -1.47546,-0.0736 -0.7375,-0.0985 -1.10648,-0.14749 -0.36898,-0.049 0.44275,-0.83616 0.6639,-1.25399 0.22115,-0.41789 2.06556,-1.77055 3.09812,-2.65557 1.03257,-0.88502 5.36042,-3.63923 8.0404,-5.45863 2.67998,-1.81938 7.27829,-0.93447 10.9172,-1.40149 3.63895,-0.46708 8.85196,3.39302 13.27771,5.08974" />
    <path
       style="fill:none;stroke:#000000;stroke-width:0.52916664;stroke-linecap:round;stroke-linejoin:round;stroke-miterlimit:4;stroke-dasharray:none;stroke-opacity:1"
       d="m -284.89317,244.33211 c 0.31906,0.79752 0.66353,1.58487 1.03271,2.36045 0.22451,0.47165 0.45815,0.93894 0.70076,1.40154"
       id="path5481"
       inkscape:connector-curvature="0"
       inkscape:path-effect="#path-effect5483"
       inkscape:original-d="m -284.89317,244.33211 c 0.34437,0.78664 0.68862,1.57347 1.03271,2.36045 0.34408,0.78698 0.46733,0.93421 0.70076,1.40154" />
    <path
       inkscape:connector-curvature="0"
       id="path5485"
       d="m -277.55356,238.50467 c -0.88606,1.78748 -1.09985,3.89856 -0.59012,5.82744 0.42367,1.60308 1.3377,3.07145 2.58176,4.16772 1.64271,1.44746 3.86278,2.22546 6.04876,2.10227 1.62893,-0.0918 3.22586,-0.67378 4.53706,-1.64465 1.3112,-0.97087 2.33271,-2.32605 2.91318,-3.85081 0.83727,-2.19922 0.72794,-4.741 -0.29506,-6.86017 l -0.30926,-0.61883 -1.5214,-0.37807 -2.36971,-0.33189 -1.89944,-0.14757 -2.36971,0.083 -1.92709,0.249 -1.41078,0.30424 -1.14334,0.2582 -1.49374,0.52556 z"
       style="fill:none;stroke:#000000;stroke-width:0.52916664;stroke-linecap:round;stroke-linejoin:round;stroke-miterlimit:4;stroke-dasharray:none;stroke-opacity:1" />
    <path
       style="fill:#000000;stroke:#000000;stroke-width:0.52916664;stroke-linecap:round;stroke-linejoin:round;stroke-miterlimit:4;stroke-dasharray:none;stroke-opacity:1"
       d="m -272.6482,239.53735 c -0.63093,0.67336 -0.93131,1.6233 -0.88516,2.54491 0.0372,0.74342 0.2924,1.47736 0.74013,2.07201 0.44773,0.59465 1.08834,1.04537 1.80475,1.24743 0.8626,0.24329 1.82183,0.11505 2.59437,-0.33931 0.77255,-0.45435 1.34944,-1.22711 1.57335,-2.09494 0.20483,-0.79389 0.11592,-1.65887 -0.23956,-2.3977 -0.35547,-0.73882 -0.9736,-1.34662 -1.7152,-1.69627 -0.63332,-0.29859 -1.35636,-0.40997 -2.04748,-0.29767 -0.69112,0.1123 -1.34646,0.4506 -1.8252,0.96154 z"
       id="path5489"
       inkscape:connector-curvature="0"
       inkscape:path-effect="#path-effect5491"
       inkscape:original-d="m -272.6482,239.53735 c -1.29102,0.22143 -0.58995,1.69647 -0.88516,2.54491 -0.2952,0.84845 1.69675,2.21279 2.54488,3.31944 0.84817,1.1066 2.77865,-1.62297 4.16772,-2.43425 1.3891,-0.81127 -1.30302,-2.72948 -1.95476,-4.09397 -0.65173,-1.36449 -2.58162,0.44247 -3.87268,0.66387 z" />
    <path
       style="fill:none;stroke:#000000;stroke-width:0.52916664;stroke-linecap:round;stroke-linejoin:round;stroke-miterlimit:4;stroke-dasharray:none;stroke-opacity:1"
       d="m -293.22863,244.84843 c 1.88646,-2.12915 4.01989,-4.03931 6.34379,-5.67989 6.81488,-4.81104 15.42971,-7.21793 23.67858,-5.97498 5.13298,0.77344 10.04988,2.93584 14.08913,6.19624"
       id="path5493"
       inkscape:connector-curvature="0"
       inkscape:path-effect="#path-effect5495;#path-effect10312"
       inkscape:original-d="m -293.22863,244.84843 c 2.11475,-1.89342 3.93206,-4.18338 6.34379,-5.67989 6.88244,-3.80751 16.43589,-7.12114 23.67858,-5.97498 5.05689,0.86577 9.39289,4.13069 14.08913,6.19624"
       sodipodi:nodetypes="cccc" />
    <path
       style="fill:none;stroke:#000000;stroke-width:0.52916664;stroke-linecap:round;stroke-linejoin:round;stroke-miterlimit:4;stroke-dasharray:none;stroke-opacity:1"
       d="m -259.86838,238.89194 c 0.64076,0.27135 1.26868,0.57299 1.88098,0.90359 1.67092,0.90218 3.22474,2.02093 4.61032,3.31941"
       id="path5497-6"
       inkscape:connector-curvature="0"
       inkscape:path-effect="#path-effect5499"
       inkscape:original-d="m -259.86838,238.89194 c 0.62715,0.30101 1.25413,0.60223 1.88098,0.90359 0.62687,0.30138 3.07371,2.21282 4.61032,3.31941" />
    <path
       style="fill:none;stroke:#000000;stroke-width:0.52916664;stroke-linecap:round;stroke-linejoin:round;stroke-miterlimit:4;stroke-dasharray:none;stroke-opacity:1"
       d="m -253.17422,243.48378 c -1.19249,1.72909 -2.7318,3.21795 -4.49966,4.35217 -1.52374,0.9776 -3.21585,1.69204 -4.97914,2.10228"
       id="path5501"
       inkscape:connector-curvature="0"
       inkscape:path-effect="#path-effect5503"
       inkscape:original-d="m -253.17422,243.48378 c -1.49975,1.45056 -2.99962,2.90127 -4.49966,4.35217 -1.50004,1.45085 -3.31927,1.40135 -4.97914,2.10228" />
    <path
       style="fill:none;stroke:#000000;stroke-width:0.52916664;stroke-linecap:round;stroke-linejoin:round;stroke-miterlimit:4;stroke-dasharray:none;stroke-opacity:1"
       d="m -253.0267,242.04535 c 1.04834,0.43963 2.17046,0.70271 3.30496,0.77487 2.83747,0.18047 5.73213,-0.88804 7.77181,-2.86882"
       id="path5574"
       inkscape:connector-curvature="0"
       inkscape:path-effect="#path-effect5576"
       inkscape:original-d="m -253.0267,242.04535 c 1.08441,0.24079 2.20348,0.51646 3.30496,0.77487 1.10152,0.2584 5.18138,-1.91271 7.77181,-2.86882" />
    <path
       style="fill:none;stroke:#000000;stroke-width:0.52916664;stroke-linecap:round;stroke-linejoin:round;stroke-miterlimit:4;stroke-dasharray:none;stroke-opacity:1"
       d="m -253.58155,240.57734 c 0.92178,0.13567 1.87351,0.0638 2.76448,-0.20865 1.67461,-0.51216 3.11159,-1.75495 3.85982,-3.33823"
       id="path5578"
       inkscape:connector-curvature="0"
       inkscape:path-effect="#path-effect5580"
       inkscape:original-d="m -253.58155,240.57734 c 0.92166,-0.0697 1.84314,-0.13922 2.76448,-0.20865 0.92134,-0.0694 2.57336,-2.22563 3.85982,-3.33823" />
    <path
       style="fill:none;stroke:#000000;stroke-width:0.52916664;stroke-linecap:round;stroke-linejoin:round;stroke-miterlimit:4;stroke-dasharray:none;stroke-opacity:1"
       d="m -255.87658,239.53413 c 0.80915,-0.21205 1.58586,-0.54744 2.29503,-0.99102 1.59367,-0.99681 2.83033,-2.55202 3.44255,-4.32926"
       id="path5583"
       inkscape:connector-curvature="0"
       inkscape:path-effect="#path-effect5585"
       inkscape:original-d="m -255.87658,239.53413 c 0.76516,-0.33045 1.53018,-0.66082 2.29503,-0.99102 0.76488,-0.3302 2.29517,-2.88634 3.44255,-4.32926" />
    <path
       style="fill:none;stroke:#000000;stroke-width:0.52916664;stroke-linecap:round;stroke-linejoin:round;stroke-miterlimit:4;stroke-dasharray:none;stroke-opacity:1"
       d="m -258.22376,238.85607 c 1.39016,-0.30521 2.60962,-1.30477 3.18174,-2.60799 0.39277,-0.89469 0.4858,-1.91794 0.2608,-2.86879"
       id="path5587"
       inkscape:connector-curvature="0"
       inkscape:path-effect="#path-effect5589"
       inkscape:original-d="m -258.22376,238.85607 c 1.06073,-0.86947 2.12132,-1.73883 3.18174,-2.60799 1.06045,-0.86919 0.17402,-1.91265 0.2608,-2.86879" />
    <path
       style="fill:none;stroke:#000000;stroke-width:0.52916664;stroke-linecap:round;stroke-linejoin:round;stroke-miterlimit:4;stroke-dasharray:none;stroke-opacity:1"
       d="m -260.41446,237.29126 c 0.7636,-0.52721 1.36944,-1.27992 1.72128,-2.13854 0.3899,-0.9515 0.46421,-2.02927 0.20861,-3.02528"
       id="path5591"
       inkscape:connector-curvature="0"
       inkscape:path-effect="#path-effect5593"
       inkscape:original-d="m -260.41446,237.29126 c 0.5739,-0.71301 1.14766,-1.42582 1.72128,-2.13854 0.57358,-0.7127 0.13922,-2.01699 0.20861,-3.02528" />
    <path
       style="fill:none;stroke:#000000;stroke-width:0.52916664;stroke-linecap:round;stroke-linejoin:round;stroke-miterlimit:4;stroke-dasharray:none;stroke-opacity:1"
       d="m -262.97029,236.82184 c 0.88027,-0.75302 1.51141,-1.79253 1.77343,-2.92092 0.14251,-0.61369 0.17797,-1.25209 0.10431,-1.87779"
       id="path5595"
       inkscape:connector-curvature="0"
       inkscape:path-effect="#path-effect5597"
       inkscape:original-d="m -262.97029,236.82184 c 0.59129,-0.97381 1.18243,-1.94742 1.77343,-2.92092 0.591,-0.97355 0.0697,-1.25202 0.10431,-1.87779" />
    <path
       style="fill:none;stroke:#000000;stroke-width:0.52916664;stroke-linecap:round;stroke-linejoin:round;stroke-miterlimit:4;stroke-dasharray:none;stroke-opacity:1"
       d="m -265.10886,236.40454 1.61697,-1.66912 c 0.35976,-0.37136 0.71229,-0.77303 0.87175,-1.26487 0.15947,-0.49184 0.11448,-1.05037 -0.14153,-1.49958"
       id="path5599"
       inkscape:connector-curvature="0"
       inkscape:path-effect="#path-effect5601"
       inkscape:original-d="m -265.10886,236.40454 c 0.53913,-0.55651 1.07812,-1.11288 1.61697,-1.66912 0.53885,-0.5562 0.48697,-1.8431 0.73022,-2.76445" />
    <path
       style="fill:none;stroke:#000000;stroke-width:0.52916664;stroke-linecap:round;stroke-linejoin:round;stroke-miterlimit:4;stroke-dasharray:none;stroke-opacity:1"
       d="m -267.97762,236.24808 c 0.8753,-0.55396 1.58934,-1.35954 2.03423,-2.295 0.29513,-0.62057 0.47304,-1.29665 0.52158,-1.98211"
       id="path5603"
       inkscape:connector-curvature="0"
       inkscape:path-effect="#path-effect5605"
       inkscape:original-d="m -267.97762,236.24808 c 0.67821,-0.76516 1.35628,-1.53018 2.03423,-2.295 0.67793,-0.76488 0.34787,-1.32157 0.52158,-1.98211" />
    <path
       style="fill:none;stroke:#000000;stroke-width:0.52916664;stroke-linecap:round;stroke-linejoin:round;stroke-miterlimit:4;stroke-dasharray:none;stroke-opacity:1"
       d="m -253.0267,242.04535 c 2.10978,0.16647 4.26521,-0.29533 6.1216,-1.31155 1.16641,-0.63851 2.21494,-1.49154 3.07743,-2.50362"
       id="path5607"
       inkscape:connector-curvature="0"
       inkscape:path-effect="#path-effect5609"
       inkscape:original-d="m -253.0267,242.04535 c 2.04069,-0.43731 4.08122,-0.8745 6.1216,-1.31155 2.04038,-0.43699 2.05178,-1.66923 3.07743,-2.50362" />
    <path
       style="fill:none;stroke:#000000;stroke-width:0.52916664;stroke-linecap:round;stroke-linejoin:round;stroke-miterlimit:4;stroke-dasharray:none;stroke-opacity:1"
       d="m -254.52042,240.10792 c 1.80968,-0.30611 3.50182,-1.26499 4.69438,-2.66014 0.43356,-0.50721 0.80258,-1.06953 1.09536,-1.66912"
       id="path5611"
       inkscape:connector-curvature="0"
       inkscape:path-effect="#path-effect5613"
       inkscape:original-d="m -254.52042,240.10792 c 1.56496,-0.88688 3.12974,-1.7736 4.69438,-2.66014 1.56464,-0.8866 0.73039,-1.11292 1.09536,-1.66912" />
    <path
       style="fill:none;stroke:#000000;stroke-width:0.52916664;stroke-linecap:round;stroke-linejoin:round;stroke-miterlimit:4;stroke-dasharray:none;stroke-opacity:1"
       d="m -253.3729,245.53251 c 1.35471,-0.44751 2.80887,-0.59113 4.22495,-0.41729 1.1248,0.13809 2.22488,0.47522 3.2339,0.99108"
       id="path5615"
       inkscape:connector-curvature="0"
       inkscape:path-effect="#path-effect5617"
       inkscape:original-d="m -253.3729,245.53251 c 1.40846,-0.13925 2.81677,-0.2783 4.22495,-0.41729 1.40815,-0.13894 2.15607,0.66054 3.2339,0.99108" />
    <path
       style="fill:none;stroke:#000000;stroke-width:0.52916664;stroke-linecap:round;stroke-linejoin:round;stroke-miterlimit:4;stroke-dasharray:none;stroke-opacity:1"
       d="m -254.31177,246.62785 c 1.05458,-0.22025 2.18606,-0.0505 3.12959,0.46947 0.7083,0.39035 1.30931,0.97315 1.72125,1.66912"
       id="path5619"
       inkscape:connector-curvature="0"
       inkscape:path-effect="#path-effect5621"
       inkscape:original-d="m -254.31177,246.62785 c 1.04335,0.15637 2.08653,0.31284 3.12959,0.46947 1.04304,0.15664 1.14766,1.11261 1.72125,1.66912" />
    <path
       style="fill:none;stroke:#000000;stroke-width:0.52916664;stroke-linecap:round;stroke-linejoin:round;stroke-miterlimit:4;stroke-dasharray:none;stroke-opacity:1"
       d="m -256.03304,248.29696 c 0.8598,0.18015 1.73176,0.30222 2.60798,0.36511 0.47639,0.0342 0.95706,0.0513 1.42223,0.15966 0.46517,0.10831 0.92156,0.31708 1.23792,0.6749 0.17155,0.19403 0.29756,0.42807 0.36511,0.6781"
       id="path5623"
       inkscape:connector-curvature="0"
       inkscape:path-effect="#path-effect5625"
       inkscape:original-d="m -256.03304,248.29696 c 0.86947,0.13897 1.7388,0.24328 2.60798,0.36511 0.86919,0.1219 1.77357,0.55624 2.66015,0.83456 0.88657,0.27836 0.24355,0.45193 0.36511,0.6781" />
    <path
       style="fill:none;stroke:#000000;stroke-width:0.52916664;stroke-linecap:round;stroke-linejoin:round;stroke-miterlimit:4;stroke-dasharray:none;stroke-opacity:1"
       d="m -258.53672,249.34017 c 0.87101,0.24979 1.71299,0.60062 2.50368,1.04318 0.93445,0.52303 1.79699,1.17435 2.55583,1.92995"
       id="path5627"
       inkscape:connector-curvature="0"
       inkscape:path-effect="#path-effect5629"
       inkscape:original-d="m -258.53672,249.34017 c 0.8347,0.34761 1.66926,0.69534 2.50368,1.04318 0.83439,0.34789 1.70403,1.28648 2.55583,1.92995" />
    <path
       style="fill:none;stroke:#000000;stroke-width:0.52916664;stroke-linecap:round;stroke-linejoin:round;stroke-miterlimit:4;stroke-dasharray:none;stroke-opacity:1"
       d="m -260.98821,250.33119 c 0.62618,0.16907 1.22641,0.43388 1.77342,0.78241 0.45934,0.29267 0.88114,0.64418 1.25183,1.04323"
       id="path5631"
       inkscape:connector-curvature="0"
       inkscape:path-effect="#path-effect5633"
       inkscape:original-d="m -260.98821,250.33119 c 0.59128,0.26066 1.18242,0.52147 1.77342,0.78241 0.59101,0.26094 0.8347,0.69534 1.25183,1.04323" />
    <path
       style="fill:none;stroke:#000000;stroke-width:0.52916664;stroke-linecap:round;stroke-linejoin:round;stroke-miterlimit:4;stroke-dasharray:none;stroke-opacity:1"
       d="m -263.3354,251.00929 1.77343,1.51262"
       id="path5635"
       inkscape:connector-curvature="0"
       inkscape:path-effect="#path-effect5637"
       inkscape:original-d="m -263.3354,251.00929 c 0.59128,0.50408 1.18243,1.00827 1.77343,1.51262" />
    <path
       style="fill:none;stroke:#000000;stroke-width:0.52916664;stroke-linecap:round;stroke-linejoin:round;stroke-miterlimit:4;stroke-dasharray:none;stroke-opacity:1"
       d="m -269.54243,236.4567 c -0.71241,-0.4512 -1.37784,-0.97653 -1.98207,-1.56476 -0.92074,-0.89637 -1.69851,-1.9393 -2.29503,-3.07746"
       id="path5639"
       inkscape:connector-curvature="0"
       inkscape:path-effect="#path-effect5641"
       inkscape:original-d="m -269.54243,236.4567 c -0.66054,-0.52175 -1.32122,-1.04329 -1.98207,-1.56476 -0.66082,-0.52146 -1.52987,-2.05178 -2.29503,-3.07746" />
    <path
       style="fill:none;stroke:#000000;stroke-width:0.52916664;stroke-linecap:round;stroke-linejoin:round;stroke-miterlimit:4;stroke-dasharray:none;stroke-opacity:1"
       d="m -268.73863,236.25482 c -0.58131,-0.60458 -1.07924,-1.28922 -1.47532,-2.02852 -0.37959,-0.70852 -0.66561,-1.46709 -0.8483,-2.24985"
       id="path5643"
       inkscape:connector-curvature="0"
       inkscape:path-effect="#path-effect5645"
       inkscape:original-d="m -268.73863,236.25482 c -0.49163,-0.67631 -0.9834,-1.35252 -1.47532,-2.02852 -0.49191,-0.67607 -0.56537,-1.50004 -0.8483,-2.24985" />
    <path
       style="fill:none;stroke:#000000;stroke-width:0.52916664;stroke-linecap:round;stroke-linejoin:round;stroke-miterlimit:4;stroke-dasharray:none;stroke-opacity:1"
       d="m -266.34126,236.36548 c 0.58091,-0.5075 1.08087,-1.10747 1.47528,-1.77038 0.49632,-0.83419 0.82441,-1.768 0.95894,-2.72931"
       id="path5647"
       inkscape:connector-curvature="0"
       inkscape:path-effect="#path-effect5649"
       inkscape:original-d="m -266.34126,236.36548 c 0.49191,-0.59029 0.98365,-1.18042 1.47528,-1.77038 0.49164,-0.58995 0.63946,-1.81965 0.95894,-2.72931" />
    <path
       style="fill:none;stroke:#000000;stroke-width:0.52916664;stroke-linecap:round;stroke-linejoin:round;stroke-miterlimit:4;stroke-dasharray:none;stroke-opacity:1"
       d="m -261.69408,236.80804 c 0.79111,-0.60224 1.39176,-1.45097 1.69661,-2.39734 0.22894,-0.71072 0.29255,-1.47412 0.1844,-2.21293"
       id="path5651"
       inkscape:connector-curvature="0"
       inkscape:path-effect="#path-effect5653"
       inkscape:original-d="m -261.69408,236.80804 c 0.56569,-0.79926 1.1312,-1.5984 1.69661,-2.39734 0.56537,-0.799 0.12307,-1.47546 0.1844,-2.21293" />
    <path
       style="fill:none;stroke:#000000;stroke-width:0.52916664;stroke-linecap:round;stroke-linejoin:round;stroke-miterlimit:4;stroke-dasharray:none;stroke-opacity:1"
       d="m -259.37049,237.87763 c 0.53456,-0.0126 1.06616,-0.1392 1.54906,-0.36881 0.76225,-0.36244 1.39767,-0.9854 1.77513,-1.74033 0.37746,-0.75492 0.49457,-1.63704 0.32717,-2.4643"
       id="path5655"
       inkscape:connector-curvature="0"
       inkscape:path-effect="#path-effect5657"
       inkscape:original-d="m -259.37049,237.87763 c 0.51652,-0.12308 1.03288,-0.24601 1.54906,-0.36881 0.51622,-0.12276 1.40169,-2.80323 2.1023,-4.20463" />
    <path
       style="fill:none;stroke:#000000;stroke-width:0.52916664;stroke-linecap:round;stroke-linejoin:round;stroke-miterlimit:4;stroke-dasharray:none;stroke-opacity:1"
       d="m -273.12766,235.99662 c -0.59755,-0.38184 -1.11569,-0.88733 -1.51218,-1.47526 -0.22494,-0.33355 -0.411,-0.69328 -0.55324,-1.0696"
       id="path5659"
       inkscape:connector-curvature="0"
       inkscape:path-effect="#path-effect5661"
       inkscape:original-d="m -273.12766,235.99662 c -0.50391,-0.49191 -1.00796,-0.98366 -1.51218,-1.47526 -0.50422,-0.49166 -0.36867,-0.71323 -0.55324,-1.0696" />
    <path
       style="fill:none;stroke:#000000;stroke-width:0.52916664;stroke-linecap:round;stroke-linejoin:round;stroke-miterlimit:4;stroke-dasharray:none;stroke-opacity:1"
       d="m -273.86531,236.9187 -2.13919,-1.14334"
       id="path5663"
       inkscape:connector-curvature="0"
       inkscape:path-effect="#path-effect5665"
       inkscape:original-d="m -273.86531,236.9187 c -0.7375,-0.35668 -1.42598,-0.7624 -2.13919,-1.14334" />
    <path
       style="fill:none;stroke:#000000;stroke-width:0.52916664;stroke-linecap:round;stroke-linejoin:round;stroke-miterlimit:4;stroke-dasharray:none;stroke-opacity:1"
       d="m -275.45126,237.17687 c -0.76483,-0.34388 -1.49505,-0.76469 -2.17607,-1.254 -0.42599,-0.30607 -0.83275,-0.63889 -1.21711,-0.99584"
       id="path5667"
       inkscape:connector-curvature="0"
       inkscape:path-effect="#path-effect5669"
       inkscape:original-d="m -275.45126,237.17687 c -0.72519,-0.41811 -1.45056,-0.83611 -2.17607,-1.254 -0.72551,-0.41785 -0.81125,-0.66404 -1.21711,-0.99584" />
    <path
       style="fill:none;stroke:#000000;stroke-width:0.52916664;stroke-linecap:round;stroke-linejoin:round;stroke-miterlimit:4;stroke-dasharray:none;stroke-opacity:1"
       d="m -277.33227,237.73014 -1.73346,-1.06959"
       id="path5671"
       inkscape:connector-curvature="0"
       inkscape:path-effect="#path-effect5673"
       inkscape:original-d="m -277.33227,237.73014 c -0.57768,-0.3567 -1.1555,-0.71323 -1.73346,-1.06959" />
    <path
       style="fill:none;stroke:#000000;stroke-width:0.52916664;stroke-linecap:round;stroke-linejoin:round;stroke-miterlimit:4;stroke-dasharray:none;stroke-opacity:1"
       d="m -278.66004,238.65216 c -0.43381,0.0169 -0.87158,-0.0805 -1.25728,-0.27979 -0.38571,-0.19927 -0.71846,-0.49995 -0.95568,-0.86355 -0.0542,-0.083 -0.10347,-0.1693 -0.14752,-0.25815"
       id="path5675"
       inkscape:connector-curvature="0"
       inkscape:path-effect="#path-effect5677"
       inkscape:original-d="m -278.66004,238.65216 c -0.74978,-0.38125 -1.47515,-0.76234 -2.21296,-1.14334 -0.73778,-0.38097 -0.0982,-0.17227 -0.14752,-0.25815" />
    <g
       transform="matrix(0.28222222,0,0,0.28222222,-314.76625,190.17338)"
       clip-path="url(#clipPath1755-8-7)"
       style="font-style:normal;font-weight:normal;line-height:0.01%;font-family:sans-serif;letter-spacing:0px;word-spacing:0px;fill:#000000;fill-opacity:1;stroke:#000000;stroke-width:0.37500003;stroke-linecap:round;stroke-linejoin:round;stroke-miterlimit:4;stroke-dasharray:none;stroke-opacity:1"
       id="flowRoot49578">
      <path
         d="m 85.824219,150.92969 q 1.40625,0 2.285156,0.70312 0.878906,0.70313 0.878906,2.16797 0,1.23047 -1.992187,2.98828 -2.929688,2.57813 -2.929688,3.28125 l 4.101563,0 0.761718,-1.75781 0.351563,0 -0.351563,2.63672 -5.859375,0 0,-0.52735 q 0,-1.17187 3.164063,-3.98437 1.757812,-1.52344 1.757812,-2.63672 0,-1.28906 -0.644531,-1.875 -0.644531,-0.58594 -1.523437,-0.58594 -0.644532,0 -1.142578,0.41016 -0.498047,0.41016 -0.673829,0.99609 0.527344,0.46875 0.322266,0.84961 -0.205078,0.38086 -0.615234,0.38086 -0.234375,-0.0586 -0.410157,-0.20508 -0.175781,-0.14648 -0.234375,-0.43945 0,-0.9375 0.732422,-1.66992 0.732422,-0.73242 2.021485,-0.73242 z"
         style="font-style:normal;font-variant:normal;font-weight:normal;font-stretch:normal;font-size:15px;line-height:100%;font-family:'Ume Mincho Balsa';-inkscape-font-specification:'Ume Mincho Balsa, Normal';text-align:start;writing-mode:lr-tb;text-anchor:start;fill:#000000;stroke:#000000;stroke-width:0.37500003;stroke-linecap:round;stroke-linejoin:round;stroke-miterlimit:4;stroke-dasharray:none;stroke-opacity:1"
         id="path5381"
         inkscape:connector-curvature="0" />
    </g>
  </g>
</svg>
