<?xml version="1.0" encoding="UTF-8" standalone="no"?>
<!-- Created with Inkscape (http://www.inkscape.org/) -->

<svg
   xmlns:dc="http://purl.org/dc/elements/1.1/"
   xmlns:cc="http://creativecommons.org/ns#"
   xmlns:rdf="http://www.w3.org/1999/02/22-rdf-syntax-ns#"
   xmlns:svg="http://www.w3.org/2000/svg"
   xmlns="http://www.w3.org/2000/svg"
   xmlns:sodipodi="http://sodipodi.sourceforge.net/DTD/sodipodi-0.dtd"
   xmlns:inkscape="http://www.inkscape.org/namespaces/inkscape"
   width="45.650761mm"
   height="41.855461mm"
   viewBox="0 0 45.65076 41.855462"
   version="1.1"
   id="svg35081"
   inkscape:version="0.91 r13725"
   sodipodi:docname="looking-01.svg">
  <defs
     id="defs35075">
    <inkscape:path-effect
       effect="spiro"
       id="path-effect8851"
       is_visible="true" />
    <inkscape:path-effect
       effect="spiro"
       id="path-effect8847"
       is_visible="true" />
    <inkscape:path-effect
       is_visible="true"
       id="path-effect8843"
       effect="spiro" />
    <inkscape:path-effect
       effect="spiro"
       id="path-effect8839"
       is_visible="true" />
    <inkscape:path-effect
       is_visible="true"
       id="path-effect2425-3"
       effect="spiro" />
    <inkscape:path-effect
       is_visible="true"
       id="path-effect15512"
       effect="spiro" />
    <inkscape:path-effect
       effect="spiro"
       id="path-effect15556"
       is_visible="true" />
    <inkscape:path-effect
       is_visible="true"
       id="path-effect15508"
       effect="spiro" />
    <inkscape:path-effect
       effect="spiro"
       id="path-effect15568"
       is_visible="true" />
    <inkscape:path-effect
       effect="spiro"
       id="path-effect15492"
       is_visible="true" />
    <inkscape:path-effect
       effect="spiro"
       id="path-effect15496"
       is_visible="true" />
    <inkscape:path-effect
       effect="spiro"
       id="path-effect15504"
       is_visible="true" />
    <inkscape:path-effect
       is_visible="true"
       id="path-effect15516-3"
       effect="spiro" />
    <inkscape:path-effect
       effect="spiro"
       id="path-effect15540"
       is_visible="true" />
    <inkscape:path-effect
       is_visible="true"
       id="path-effect15520"
       effect="spiro" />
    <inkscape:path-effect
       effect="spiro"
       id="path-effect15528"
       is_visible="true" />
    <inkscape:path-effect
       is_visible="true"
       id="path-effect15524"
       effect="spiro" />
    <inkscape:path-effect
       effect="spiro"
       id="path-effect15564"
       is_visible="true" />
    <marker
       inkscape:isstock="true"
       style="overflow:visible"
       id="Arrow1Sstart"
       refX="0"
       refY="0"
       orient="auto"
       inkscape:stockid="Arrow1Sstart">
      <path
         inkscape:connector-curvature="0"
         transform="matrix(0.2,0,0,0.2,1.2,0)"
         style="fill:#000000;fill-opacity:1;fill-rule:evenodd;stroke:#000000;stroke-width:1pt;stroke-opacity:1"
         d="M 0,0 5,-5 -12.5,0 5,5 Z"
         id="path2441" />
    </marker>
    <marker
       inkscape:stockid="Arrow1Send"
       orient="auto"
       refY="0"
       refX="0"
       id="marker8100"
       style="overflow:visible"
       inkscape:isstock="true">
      <path
         inkscape:connector-curvature="0"
         id="path8098"
         d="M 0,0 5,-5 -12.5,0 5,5 Z"
         style="fill:#000000;fill-opacity:1;fill-rule:evenodd;stroke:#000000;stroke-width:1pt;stroke-opacity:1"
         transform="matrix(-0.2,0,0,-0.2,-1.2,0)" />
    </marker>
    <clipPath
       id="clipPath1755-0"
       clipPathUnits="userSpaceOnUse">
      <rect
         y="91.882065"
         x="-66.708733"
         height="73.499458"
         width="160.91911"
         id="rect1757-45"
         style="fill:#ffffff;fill-opacity:1;fill-rule:evenodd;stroke:#000000;stroke-width:1.875;stroke-linecap:round;stroke-linejoin:round;stroke-miterlimit:4;stroke-dasharray:none;stroke-opacity:1" />
    </clipPath>
    <clipPath
       id="clipPath15011"
       clipPathUnits="userSpaceOnUse">
      <rect
         style="color:#000000;clip-rule:nonzero;display:inline;overflow:visible;visibility:visible;opacity:1;isolation:auto;mix-blend-mode:normal;color-interpolation:sRGB;color-interpolation-filters:linearRGB;solid-color:#000000;solid-opacity:1;fill:none;fill-opacity:1;fill-rule:nonzero;stroke:#000000;stroke-width:1.79815376;stroke-linecap:round;stroke-linejoin:round;stroke-miterlimit:4;stroke-dasharray:none;stroke-dashoffset:0;stroke-opacity:1;color-rendering:auto;image-rendering:auto;shape-rendering:auto;text-rendering:auto;enable-background:accumulate"
         id="rect15013"
         width="161.30896"
         height="149.19472"
         x="22.150734"
         y="1441.2406" />
    </clipPath>
    <clipPath
       id="clipPath4228"
       clipPathUnits="userSpaceOnUse">
      <rect
         y="91.882065"
         x="-66.708733"
         height="73.499458"
         width="160.91911"
         id="rect4230"
         style="fill:#ffffff;fill-opacity:1;fill-rule:evenodd;stroke:#000000;stroke-width:1.875;stroke-linecap:round;stroke-linejoin:round;stroke-miterlimit:4;stroke-dasharray:none;stroke-opacity:1" />
    </clipPath>
    <inkscape:path-effect
       effect="spiro"
       id="path-effect14235"
       is_visible="true" />
    <inkscape:path-effect
       effect="spiro"
       id="path-effect14239"
       is_visible="true" />
    <inkscape:path-effect
       effect="spiro"
       id="path-effect14243"
       is_visible="true" />
    <inkscape:path-effect
       effect="spiro"
       id="path-effect14247"
       is_visible="true" />
    <inkscape:path-effect
       effect="spiro"
       id="path-effect14251"
       is_visible="true" />
    <inkscape:path-effect
       effect="spiro"
       id="path-effect14255"
       is_visible="true" />
    <inkscape:path-effect
       effect="spiro"
       id="path-effect14259"
       is_visible="true" />
    <inkscape:path-effect
       effect="spiro"
       id="path-effect14263"
       is_visible="true" />
    <inkscape:path-effect
       is_visible="true"
       id="path-effect14267"
       effect="spiro" />
    <inkscape:path-effect
       is_visible="true"
       id="path-effect14928"
       effect="spiro" />
    <inkscape:path-effect
       is_visible="true"
       id="path-effect14934"
       effect="spiro" />
    <marker
       inkscape:isstock="true"
       style="overflow:visible"
       id="Arrow1Sstart-3"
       refX="0"
       refY="0"
       orient="auto"
       inkscape:stockid="Arrow1Sstart">
      <path
         inkscape:connector-curvature="0"
         transform="matrix(0.2,0,0,0.2,1.2,0)"
         style="fill:#000000;fill-opacity:1;fill-rule:evenodd;stroke:#000000;stroke-width:1pt;stroke-opacity:1"
         d="M 0,0 5,-5 -12.5,0 5,5 Z"
         id="path2441-6" />
    </marker>
    <marker
       inkscape:stockid="Arrow1Send"
       orient="auto"
       refY="0"
       refX="0"
       id="marker8100-7"
       style="overflow:visible"
       inkscape:isstock="true">
      <path
         inkscape:connector-curvature="0"
         id="path8098-5"
         d="M 0,0 5,-5 -12.5,0 5,5 Z"
         style="fill:#000000;fill-opacity:1;fill-rule:evenodd;stroke:#000000;stroke-width:1pt;stroke-opacity:1"
         transform="matrix(-0.2,0,0,-0.2,-1.2,0)" />
    </marker>
    <clipPath
       id="clipPath1755-0-3"
       clipPathUnits="userSpaceOnUse">
      <rect
         y="91.882065"
         x="-66.708733"
         height="73.499458"
         width="160.91911"
         id="rect1757-45-5"
         style="fill:#ffffff;fill-opacity:1;fill-rule:evenodd;stroke:#000000;stroke-width:1.875;stroke-linecap:round;stroke-linejoin:round;stroke-miterlimit:4;stroke-dasharray:none;stroke-opacity:1" />
    </clipPath>
    <clipPath
       id="clipPath15011-6"
       clipPathUnits="userSpaceOnUse">
      <rect
         style="color:#000000;clip-rule:nonzero;display:inline;overflow:visible;visibility:visible;opacity:1;isolation:auto;mix-blend-mode:normal;color-interpolation:sRGB;color-interpolation-filters:linearRGB;solid-color:#000000;solid-opacity:1;fill:none;fill-opacity:1;fill-rule:nonzero;stroke:#000000;stroke-width:1.79815376;stroke-linecap:round;stroke-linejoin:round;stroke-miterlimit:4;stroke-dasharray:none;stroke-dashoffset:0;stroke-opacity:1;color-rendering:auto;image-rendering:auto;shape-rendering:auto;text-rendering:auto;enable-background:accumulate"
         id="rect15013-2"
         width="161.30896"
         height="149.19472"
         x="22.150734"
         y="1441.2406" />
    </clipPath>
    <clipPath
       id="clipPath4228-9"
       clipPathUnits="userSpaceOnUse">
      <rect
         y="91.882065"
         x="-66.708733"
         height="73.499458"
         width="160.91911"
         id="rect4230-1"
         style="fill:#ffffff;fill-opacity:1;fill-rule:evenodd;stroke:#000000;stroke-width:1.875;stroke-linecap:round;stroke-linejoin:round;stroke-miterlimit:4;stroke-dasharray:none;stroke-opacity:1" />
    </clipPath>
    <inkscape:path-effect
       effect="spiro"
       id="path-effect14235-2"
       is_visible="true" />
    <inkscape:path-effect
       effect="spiro"
       id="path-effect14239-7"
       is_visible="true" />
    <inkscape:path-effect
       effect="spiro"
       id="path-effect14243-0"
       is_visible="true" />
    <inkscape:path-effect
       effect="spiro"
       id="path-effect14247-9"
       is_visible="true" />
    <inkscape:path-effect
       effect="spiro"
       id="path-effect14251-3"
       is_visible="true" />
    <inkscape:path-effect
       effect="spiro"
       id="path-effect14255-6"
       is_visible="true" />
    <inkscape:path-effect
       effect="spiro"
       id="path-effect14259-0"
       is_visible="true" />
    <inkscape:path-effect
       effect="spiro"
       id="path-effect14263-6"
       is_visible="true" />
    <inkscape:path-effect
       is_visible="true"
       id="path-effect14267-2"
       effect="spiro" />
    <inkscape:path-effect
       is_visible="true"
       id="path-effect14928-6"
       effect="spiro" />
    <inkscape:path-effect
       is_visible="true"
       id="path-effect14934-1"
       effect="spiro" />
  </defs>
  <sodipodi:namedview
     id="base"
     pagecolor="#ffffff"
     bordercolor="#666666"
     borderopacity="1.0"
     inkscape:pageopacity="0.0"
     inkscape:pageshadow="2"
     inkscape:zoom="4.4501315"
     inkscape:cx="81.309121"
     inkscape:cy="77.870746"
     inkscape:document-units="mm"
     inkscape:current-layer="layer1"
     showgrid="false"
     fit-margin-top="0"
     fit-margin-left="0"
     fit-margin-right="0"
     fit-margin-bottom="0"
     inkscape:window-width="1366"
     inkscape:window-height="669"
     inkscape:window-x="0"
     inkscape:window-y="28"
     inkscape:window-maximized="1" />
  <metadata
     id="metadata35078">
    <rdf:RDF>
      <cc:Work
         rdf:about="">
        <dc:format>image/svg+xml</dc:format>
        <dc:type
           rdf:resource="http://purl.org/dc/dcmitype/StillImage" />
        <dc:title></dc:title>
      </cc:Work>
    </rdf:RDF>
  </metadata>
  <g
     inkscape:label="Layer 1"
     inkscape:groupmode="layer"
     id="layer1"
     transform="translate(464.59411,41.861176)">
    <g
       id="g5139">
      <path
         sodipodi:nodetypes="sscccsccs"
         inkscape:connector-curvature="0"
         d="m -443.26029,-13.940524 c -5.71211,0.680724 -11.57628,0.623137 -17.12891,-0.880164 -0.72435,-0.196107 -1.44214,-0.416413 -2.15178,-0.660428 l -1.58608,-22.564919 c 0.88796,0.139215 1.77722,0.270155 2.66762,0.392796 6.71792,0.925308 13.5207,1.377479 20.28768,0.936244 7.46933,-0.487031 14.86649,-2.067182 21.88289,-4.674529 l -3.42061,21.619817 c -6.48642,3.008973 -13.45069,4.985048 -20.55081,5.831183 z"
         inkscape:original-d="m -443.26029,-13.940524 c -6.06868,-0.653316 -16.35599,-0.649221 -17.12891,-0.880164 -0.77293,-0.230942 -1.24426,-0.359423 -2.15178,-0.660428 -0.55697,-4.457095 -1.24527,-18.241924 -1.58608,-22.564919 0.94471,0.172211 1.80636,0.282362 2.66762,0.392796 0.86126,0.110405 13.5255,0.623909 20.28768,0.936244 6.76216,0.312364 16.37277,-3.822453 21.88289,-4.674529 -1.60321,4.920525 -1.75906,16.770919 -3.42061,21.619817 -4.95097,1.856018 -14.48213,6.484499 -20.55081,5.831183 z"
         inkscape:path-effect="#path-effect8851"
         style="opacity:1;fill:#ffffff;fill-opacity:1;fill-rule:evenodd;stroke:none;stroke-width:0.52916664;stroke-linecap:round;stroke-linejoin:round;stroke-miterlimit:4;stroke-dasharray:none;stroke-dashoffset:0;stroke-opacity:1"
         id="path8849" />
    </g>
    <path
       style="opacity:0.95;fill:none;fill-opacity:1;fill-rule:evenodd;stroke:#000000;stroke-width:1.411111;stroke-linecap:round;stroke-linejoin:round;stroke-miterlimit:4;stroke-dasharray:none;stroke-dashoffset:0;stroke-opacity:1"
       d="m -435.77631,-5.8846877 c 1.3683,0.031688 2.73875,-0.030084 4.09865,-0.184743 1.01221,-0.1151161 2.05893,-0.2975672 2.889,-0.888153 0.44829,-0.3189536 0.81106,-0.7423659 1.14957,-1.176076 0.72866,-0.9335673 1.36809,-1.9367423 1.90675,-2.9914143"
       id="path15562"
       inkscape:connector-curvature="0"
       inkscape:path-effect="#path-effect15564"
       inkscape:original-d="m -435.77631,-5.8846877 c 0.47757,-0.07369 3.62158,-0.111562 4.09865,-0.184743 0.47704,-0.07315 2.04476,-0.521236 2.889,-0.888153 0.84421,-0.366889 0.83778,-0.77247 1.14957,-1.176076 0.31183,-0.403606 1.48478,-1.816749 1.90675,-2.9914143"
       sodipodi:nodetypes="ccccc" />
    <path
       transform="matrix(0.47565739,-0.87963063,0.85006331,0.52668052,0,0)"
       style="opacity:0.95;fill:#ffffff;fill-opacity:1;fill-rule:evenodd;stroke:#000000;stroke-width:0.52962732;stroke-linecap:round;stroke-linejoin:round;stroke-miterlimit:4;stroke-dasharray:none;stroke-dashoffset:0;stroke-opacity:1"
       id="path15536"
       sodipodi:type="arc"
       sodipodi:cx="-213.99011"
       sodipodi:cy="-380.37302"
       sodipodi:rx="1.5915675"
       sodipodi:ry="0.67978412"
       sodipodi:start="2.129389"
       sodipodi:end="2.1045006"
       sodipodi:open="true"
       d="m -214.83363,-379.79656 a 1.5915675,0.67978412 0 0 1 -0.51136,-0.93314 1.5915675,0.67978412 0 0 1 2.18154,-0.22421 1.5915675,0.67978412 0 0 1 0.5385,0.93035 1.5915675,0.67978412 0 0 1 -2.17483,0.23579" />
    <path
       inkscape:original-d="m -463.94147,-37.985499 c 0.86199,0.109869 1.72364,0.22002 2.5849,0.330454 0.86126,0.110405 13.5255,0.623909 20.28768,0.936244 6.76216,0.312364 16.20582,-3.713643 21.68858,-4.612916"
       inkscape:path-effect="#path-effect15524"
       inkscape:connector-curvature="0"
       id="path15522"
       d="m -463.94147,-37.985499 c 0.86099,0.115076 1.72265,0.22523 2.5849,0.330454 6.72928,0.821198 13.52065,1.342244 20.28768,0.936244 7.40558,-0.44431 14.74319,-2.004938 21.68858,-4.612916"
       style="opacity:0.95;fill:none;fill-opacity:1;fill-rule:evenodd;stroke:#000000;stroke-width:0.52916658;stroke-linecap:round;stroke-linejoin:round;stroke-miterlimit:4;stroke-dasharray:none;stroke-dashoffset:0;stroke-opacity:1"
       sodipodi:nodetypes="ccsc" />
    <path
       sodipodi:nodetypes="ccsc"
       style="opacity:0.95;fill:none;fill-opacity:1;fill-rule:evenodd;stroke:#000000;stroke-width:0.52916658;stroke-linecap:round;stroke-linejoin:round;stroke-miterlimit:4;stroke-dasharray:none;stroke-dashoffset:0;stroke-opacity:1"
       d="m -462.53502,-15.480655 c 0.74336,0.228359 1.49334,0.435156 2.24869,0.620042 5.96329,1.459636 12.2119,1.534555 18.29672,0.718238 6.63333,-0.889904 13.12428,-2.832942 19.15554,-5.734133"
       id="path15526"
       inkscape:connector-curvature="0"
       inkscape:path-effect="#path-effect15528"
       inkscape:original-d="m -462.53502,-15.480655 c 0.7736,0.229842 1.47576,0.3891 2.24869,0.620042 0.77292,0.230943 12.22804,0.06492 18.29672,0.718238 6.06868,0.653316 14.23505,-3.853206 19.15554,-5.734133" />
    <path
       d="m -424.74633,-11.32448 a 0.82454503,0.35129178 0 0 1 -0.26492,-0.482222 0.82454503,0.35129178 0 0 1 1.13019,-0.115864 0.82454503,0.35129178 0 0 1 0.27898,0.480779 0.82454503,0.35129178 0 0 1 -1.12671,0.121848"
       sodipodi:open="true"
       sodipodi:end="2.1045006"
       sodipodi:start="2.129389"
       sodipodi:ry="0.35129178"
       sodipodi:rx="0.82454503"
       sodipodi:cy="-11.622376"
       sodipodi:cx="-424.30933"
       sodipodi:type="arc"
       id="path15530"
       style="opacity:0.95;fill:#ffffff;fill-opacity:1;fill-rule:evenodd;stroke:#000000;stroke-width:0.52916664;stroke-linecap:round;stroke-linejoin:round;stroke-miterlimit:4;stroke-dasharray:none;stroke-dashoffset:0;stroke-opacity:1" />
    <path
       d="m -424.51356,-11.990921 a 0.91877878,0.42155018 0 0 1 -0.29519,-0.578666 0.91877878,0.42155018 0 0 1 1.25935,-0.139037 0.91877878,0.42155018 0 0 1 0.31087,0.576935 0.91877878,0.42155018 0 0 1 -1.25549,0.146217"
       sodipodi:open="true"
       sodipodi:end="2.1045006"
       sodipodi:start="2.129389"
       sodipodi:ry="0.42155018"
       sodipodi:rx="0.91877878"
       sodipodi:cy="-12.348396"
       sodipodi:cx="-424.02661"
       sodipodi:type="arc"
       id="path15532"
       style="opacity:0.95;fill:#ffffff;fill-opacity:1;fill-rule:evenodd;stroke:#000000;stroke-width:0.52916664;stroke-linecap:round;stroke-linejoin:round;stroke-miterlimit:4;stroke-dasharray:none;stroke-dashoffset:0;stroke-opacity:1" />
    <path
       d="m -424.16446,-12.841106 a 1.0601294,0.46838906 0 0 1 -0.34061,-0.642961 1.0601294,0.46838906 0 0 1 1.4531,-0.154486 1.0601294,0.46838906 0 0 1 0.35869,0.641039 1.0601294,0.46838906 0 0 1 -1.44864,0.162463"
       sodipodi:open="true"
       sodipodi:end="2.1045006"
       sodipodi:start="2.129389"
       sodipodi:ry="0.46838906"
       sodipodi:rx="1.0601294"
       sodipodi:cy="-13.2383"
       sodipodi:cx="-423.6026"
       sodipodi:type="arc"
       id="path15534"
       style="opacity:0.95;fill:#ffffff;fill-opacity:1;fill-rule:evenodd;stroke:#000000;stroke-width:0.52916664;stroke-linecap:round;stroke-linejoin:round;stroke-miterlimit:4;stroke-dasharray:none;stroke-dashoffset:0;stroke-opacity:1" />
    <path
       sodipodi:nodetypes="cc"
       inkscape:original-d="m -423.6743,-12.829939 c 1.63107,-4.873808 2.8352,-23.889602 4.46577,-28.76293"
       inkscape:path-effect="#path-effect15520"
       inkscape:connector-curvature="0"
       id="path15518"
       d="m -423.6743,-12.829939 4.46577,-28.76293"
       style="opacity:0.95;fill:none;fill-opacity:1;fill-rule:evenodd;stroke:#000000;stroke-width:0.52916664;stroke-linecap:round;stroke-linejoin:round;stroke-miterlimit:4;stroke-dasharray:none;stroke-dashoffset:0;stroke-opacity:1" />
    <path
       style="opacity:0.95;fill:none;fill-opacity:1;fill-rule:evenodd;stroke:#000000;stroke-width:0.52916664;stroke-linecap:round;stroke-linejoin:round;stroke-miterlimit:4;stroke-dasharray:none;stroke-dashoffset:0;stroke-opacity:1"
       d="m -424.62631,-9.2973187 0.51802,-1.7857043"
       id="path15538"
       inkscape:connector-curvature="0"
       inkscape:path-effect="#path-effect15540"
       inkscape:original-d="m -424.62631,-9.2973187 0.51802,-1.7857043"
       sodipodi:nodetypes="cc" />
    <path
       sodipodi:nodetypes="ccccc"
       inkscape:original-d="m -435.77631,-5.8846877 c 0.47757,-0.07369 3.62158,-0.111562 4.09865,-0.184743 0.47704,-0.07315 2.04476,-0.521236 2.889,-0.888153 0.84421,-0.366889 0.83778,-0.77247 1.14957,-1.176076 0.31183,-0.403606 1.48478,-1.816749 1.90675,-2.9914143"
       inkscape:path-effect="#path-effect15516-3"
       inkscape:connector-curvature="0"
       id="path15514"
       d="m -435.77631,-5.8846877 c 1.3683,0.031688 2.73875,-0.030084 4.09865,-0.184743 1.01221,-0.1151161 2.05893,-0.2975672 2.889,-0.888153 0.44829,-0.3189536 0.81106,-0.7423659 1.14957,-1.176076 0.72866,-0.9335673 1.36809,-1.9367423 1.90675,-2.9914143"
       style="opacity:0.95;fill:none;fill-opacity:1;fill-rule:evenodd;stroke:#ffffff;stroke-width:0.35277775;stroke-linecap:round;stroke-linejoin:round;stroke-miterlimit:4;stroke-dasharray:none;stroke-dashoffset:0;stroke-opacity:1" />
    <g
       style="stroke-width:0.99140996"
       transform="matrix(0.28713401,0,0,0.2822222,-517.44135,-291.69689)"
       id="g15645">
      <path
         sodipodi:nodetypes="cssccsccscsccsccsscccsscc"
         inkscape:original-d="m 267.6369,998.7746 c 1.36466,0.25875 6.8774,2.7276 10.31655,4.0921 3.43915,1.3644 4.09603,4.132 6.14449,6.1986 2.04845,2.0666 2.20665,2.0163 3.31045,3.0249 1.10376,1.0086 3.01705,-0.9439 4.52602,-1.4153 1.50899,-0.4715 3.11749,-0.073 4.67667,-0.1092 1.55917,-0.036 1.61226,1.9348 2.41884,2.9027 0.80656,0.968 -1.12096,2.4888 -1.68098,3.7336 -0.56005,1.2449 -1.84355,2.2468 -2.76486,3.3707 -0.92134,1.124 -2.77231,2.1195 -3.54503,3.2638 -0.77273,1.1444 -1.01948,0.7528 -2.9351,1.4191 -1.91561,0.6663 -7.36078,1.8836 -10.2474,2.4524 -2.88662,0.569 -4.96251,0.2481 -7.44334,0.3727 -2.48083,0.1247 -4.77431,-2.083 -7.16102,-3.124 -2.38672,-1.0409 -3.9905,-2.2612 -5.98527,-3.3914 -1.99482,-1.13 -4.96661,-2.3236 -7.44947,-3.4849 -2.48285,-1.1613 -4.71471,-0.9321 -7.07163,-1.3977 -2.35691,-0.4655 -4.92456,-0.5323 -7.38638,-0.7979 -2.46176,-0.2662 -2.41546,-3.1882 -3.62275,-4.7818 -1.20728,-1.5936 0.0769,0.5103 0.10284,-1.4858 0.026,-1.9958 -1.71148,0.3009 -0.24679,-1.4264 1.4647,-1.7274 2.36004,-7.3548 4.59894,-8.1547 2.23892,-0.79987 11.05789,-2.55598 13.22169,-2.58053 2.16379,-0.0245 4.28587,0.22991 6.42926,0.34541 5.55694,0.66242 6.62639,-0.0127 11.79427,0.97362 z"
         inkscape:path-effect="#path-effect15492"
         inkscape:connector-curvature="0"
         id="path15490"
         d="m 267.6369,998.7746 c 3.64168,0.773 7.23429,2.0043 10.31655,4.0921 2.4228,1.6411 4.48728,3.7868 6.14449,6.1986 0.43514,0.6333 0.84597,1.289 1.37146,1.8496 0.52548,0.5605 1.18484,1.0282 1.93899,1.1753 0.79,0.1541 1.60903,-0.056 2.34913,-0.3719 0.74011,-0.3164 1.43177,-0.739 2.17689,-1.0434 1.48024,-0.6046 3.19524,-0.7109 4.67667,-0.1092 0.61405,0.2494 1.18531,0.6196 1.62356,1.1168 0.43824,0.4973 0.73813,1.1256 0.79528,1.7859 0.0604,0.6977 -0.14917,1.3974 -0.47609,2.0167 -0.32692,0.6193 -0.76775,1.1698 -1.20489,1.7169 -0.9072,1.1354 -1.81081,2.2744 -2.76486,3.3707 -1.05801,1.2158 -2.19103,2.3896 -3.54503,3.2638 -0.91472,0.5906 -1.91629,1.035 -2.9351,1.4191 -3.29187,1.241 -6.77838,1.8672 -10.2474,2.4524 -2.46251,0.4154 -4.98522,0.8134 -7.44334,0.3727 -2.57728,-0.462 -4.89551,-1.8112 -7.16102,-3.124 -1.98413,-1.1497 -3.97441,-2.2891 -5.98527,-3.3914 -2.40693,-1.3194 -4.85448,-2.5904 -7.44947,-3.4849 -2.27914,-0.7856 -4.66401,-1.2751 -7.07163,-1.3977 -2.48716,-0.1267 -5.07212,0.122 -7.38638,-0.7979 -0.99011,-0.3936 -1.90656,-1.0037 -2.57614,-1.8324 -0.66957,-0.8288 -1.07932,-1.8844 -1.04661,-2.9494 0.0152,-0.4966 0.12407,-0.9894 0.10284,-1.4858 -0.0206,-0.4826 -0.16333,-0.9506 -0.24679,-1.4264 -0.28678,-1.6349 0.14649,-3.3504 1.01825,-4.7628 0.87176,-1.4125 2.15748,-2.5378 3.58069,-3.3919 3.90257,-2.34209 8.67102,-2.66337 13.22169,-2.58053 2.14627,0.0391 4.29116,0.1543 6.42926,0.34541 3.95148,-0.1757 7.92509,0.15232 11.79427,0.97362 z"
         style="opacity:0.95;fill:#ffffff;fill-opacity:1;fill-rule:evenodd;stroke:#000000;stroke-width:1.85889351;stroke-linecap:round;stroke-linejoin:round;stroke-miterlimit:4;stroke-dasharray:none;stroke-dashoffset:0;stroke-opacity:1" />
      <path
         sodipodi:nodetypes="csccsssc"
         inkscape:original-d="m 289.49105,1011.84 c -0.91741,0.053 -3.42345,1.3875 -4.41458,1.4305 -0.99113,0.043 -3.20767,0.1671 -4.73791,0.5292 -1.53021,0.3619 -3.58345,-0.6343 -5.69925,-0.6743 -2.11585,-0.04 -5.17358,-1.4235 -7.75993,-2.1348 -2.58635,-0.7112 -3.86229,-2.1009 -5.79299,-3.1507 -1.9307,-1.05 -3.29851,-1.8094 -4.94729,-2.7136 -1.64884,-0.9042 -2.63431,-0.647 -3.95102,-0.97"
         inkscape:path-effect="#path-effect15496"
         inkscape:connector-curvature="0"
         id="path15494"
         d="m 289.49105,1011.84 c -1.42202,0.6146 -2.90233,1.0943 -4.41458,1.4305 -1.55454,0.3456 -3.14545,0.5396 -4.73791,0.5292 -1.91562,-0.013 -3.81668,-0.3198 -5.69925,-0.6743 -2.64144,-0.4975 -5.28137,-1.0949 -7.75993,-2.1348 -2.02918,-0.8514 -3.92438,-1.9885 -5.79299,-3.1507 -1.59945,-0.9948 -3.19722,-2.0171 -4.94729,-2.7136 -1.26401,-0.503 -2.59776,-0.8305 -3.95102,-0.97"
         style="opacity:0.95;fill:none;fill-opacity:1;fill-rule:evenodd;stroke:#000000;stroke-width:1.85889351;stroke-linecap:round;stroke-linejoin:round;stroke-miterlimit:4;stroke-dasharray:none;stroke-dashoffset:0;stroke-opacity:1" />
      <path
         inkscape:original-d="m 291.77287,1019.1163 c -0.40368,0.4084 -0.80715,0.8175 -1.21032,1.2269 -0.40317,0.4092 -2.3965,1.8139 -3.59435,2.7213 -1.19786,0.9075 -2.25145,1.7623 -3.37679,2.6442 -1.12533,0.8816 -2.75615,0.9789 -4.13385,1.4689 -1.37771,0.49 -1.99011,0.4412 -2.98478,0.6623"
         inkscape:path-effect="#path-effect15504"
         inkscape:connector-curvature="0"
         id="path15502"
         d="m 291.77287,1019.1163 c -0.37511,0.4357 -0.77979,0.8459 -1.21032,1.2269 -1.12578,0.9963 -2.41823,1.785 -3.59435,2.7213 -1.11988,0.8916 -2.14106,1.9217 -3.37679,2.6442 -1.26719,0.7409 -2.70647,1.1265 -4.13385,1.4689 -0.99107,0.2377 -1.98618,0.4585 -2.98478,0.6623"
         style="opacity:0.95;fill:none;fill-opacity:1;fill-rule:evenodd;stroke:#000000;stroke-width:1.85889351;stroke-linecap:round;stroke-linejoin:round;stroke-miterlimit:4;stroke-dasharray:none;stroke-dashoffset:0;stroke-opacity:1" />
    </g>
    <path
       style="opacity:0.95;fill:none;fill-opacity:1;fill-rule:evenodd;stroke:#000000;stroke-width:1.411111;stroke-linecap:round;stroke-linejoin:round;stroke-miterlimit:4;stroke-dasharray:none;stroke-dashoffset:0;stroke-opacity:1"
       d="m -450.90122,-6.5558445 c -2.87783,1.4608978 -6.18328,2.0664581 -9.39211,1.7206396 -0.48149,-0.051891 -0.96597,-0.1260268 -1.41522,-0.3068524 -0.44925,-0.1808256 -0.86493,-0.4778599 -1.112,-0.8943696 -0.25082,-0.4228246 -0.31007,-0.9367013 -0.26448,-1.4262028 0.0456,-0.4895015 0.1888,-0.9637412 0.31958,-1.4376472 0.16585,-0.6010052 0.31282,-1.2072221 0.44061,-1.8174551"
       id="path15566"
       inkscape:connector-curvature="0"
       inkscape:path-effect="#path-effect15568"
       inkscape:original-d="m -450.90122,-6.5558445 c -0.84421,-0.183839 -8.54737,1.9039426 -9.39211,1.7206396 -0.84472,-0.183332 -2.12305,-0.907739 -2.52722,-1.201222 -0.40414,-0.293455 0.037,-1.909516 0.0551,-2.86385 0.0181,-0.954363 0.29399,-1.2118901 0.44061,-1.8174551"
       sodipodi:nodetypes="cccsc" />
    <path
       sodipodi:nodetypes="cccsc"
       inkscape:original-d="m -451.04344,-6.5186946 c -0.84421,-0.183839 -8.40515,1.8667927 -9.24989,1.6834897 -0.84472,-0.183332 -2.12305,-0.907739 -2.52722,-1.201222 -0.40414,-0.293455 0.037,-1.909516 0.0551,-2.86385 0.0181,-0.954363 0.29399,-1.2118901 0.44061,-1.8174551"
       inkscape:path-effect="#path-effect15508"
       inkscape:connector-curvature="0"
       id="path15506"
       d="m -451.04344,-6.5186946 c -2.83726,1.4302231 -6.09066,2.0223461 -9.24989,1.6834897 -0.48154,-0.051649 -0.96606,-0.1257559 -1.41532,-0.3066298 -0.44926,-0.180874 -0.86488,-0.4780254 -1.1119,-0.8945922 -0.25075,-0.4228565 -0.30998,-0.9367129 -0.26441,-1.4262085 0.0456,-0.4894955 0.18875,-0.9637371 0.31951,-1.4376415 0.16583,-0.6010117 0.3128,-1.2072281 0.44061,-1.8174551"
       style="opacity:0.95;fill:none;fill-opacity:1;fill-rule:evenodd;stroke:#ffffff;stroke-width:0.35277775;stroke-linecap:round;stroke-linejoin:round;stroke-miterlimit:4;stroke-dasharray:none;stroke-dashoffset:0;stroke-opacity:1" />
    <path
       inkscape:connector-curvature="0"
       id="path15544"
       d="m -462.42959,-10.901063 a 0.84989694,0.34081297 6.2796724 0 1 -0.52244,-0.482204 0.84989694,0.34081297 6.2796724 0 1 1.06829,-0.11588 0.84989694,0.34081297 6.2796724 0 1 0.53574,0.480764 0.84989694,0.34081297 6.2796724 0 1 -1.06163,0.121864"
       style="opacity:0.95;fill:#ffffff;fill-opacity:1;fill-rule:evenodd;stroke:#000000;stroke-width:0.52916664;stroke-linecap:round;stroke-linejoin:round;stroke-miterlimit:4;stroke-dasharray:none;stroke-dashoffset:0;stroke-opacity:1" />
    <path
       inkscape:connector-curvature="0"
       id="path15546"
       d="m -462.55275,-11.567502 a 0.9524633,0.4066417 7.4124941 0 1 -0.60423,-0.578668 0.9524633,0.4066417 7.4124941 0 1 1.1851,-0.139023 0.9524633,0.4066417 7.4124941 0 1 0.61897,0.576919 0.9524633,0.4066417 7.4124941 0 1 -1.1774,0.146219"
       style="opacity:0.95;fill:#ffffff;fill-opacity:1;fill-rule:evenodd;stroke:#000000;stroke-width:0.52916664;stroke-linecap:round;stroke-linejoin:round;stroke-miterlimit:4;stroke-dasharray:none;stroke-dashoffset:0;stroke-opacity:1" />
    <path
       sodipodi:nodetypes="ccccc"
       inkscape:connector-curvature="0"
       id="path15548"
       d="m -462.65768,-12.417724 c -0.56724,-0.136483 -0.8728,-0.423729 -0.68399,-0.642959 0.18878,-0.219258 0.80103,-0.288262 1.37058,-0.154488 0.56956,0.133773 0.91827,0.384584 0.7366,0.605507 -0.18166,0.220896 -0.82561,0.329015 -1.39742,0.198008"
       style="opacity:0.95;fill:#ffffff;fill-opacity:1;fill-rule:evenodd;stroke:#000000;stroke-width:0.52916664;stroke-linecap:round;stroke-linejoin:round;stroke-miterlimit:4;stroke-dasharray:none;stroke-dashoffset:0;stroke-opacity:1" />
    <path
       sodipodi:nodetypes="cc"
       style="opacity:0.95;fill:none;fill-opacity:1;fill-rule:evenodd;stroke:#000000;stroke-width:0.52916664;stroke-linecap:round;stroke-linejoin:round;stroke-miterlimit:4;stroke-dasharray:none;stroke-dashoffset:0;stroke-opacity:1"
       d="m -462.21893,-10.851815 0.13213,2.2055941"
       id="path15554"
       inkscape:connector-curvature="0"
       inkscape:path-effect="#path-effect15556"
       inkscape:original-d="m -462.21893,-10.851815 0.13213,2.2055941" />
    <path
       sodipodi:nodetypes="cc"
       inkscape:original-d="m -464.32925,-40.185372 c 0.42353,4.385338 1.4824,23.873178 1.90545,28.259109"
       inkscape:path-effect="#path-effect15512"
       inkscape:connector-curvature="0"
       id="path15510"
       d="m -464.32925,-40.185372 1.90545,28.259109"
       style="opacity:0.95;fill:none;fill-opacity:1;fill-rule:evenodd;stroke:#000000;stroke-width:0.52916664;stroke-linecap:round;stroke-linejoin:round;stroke-miterlimit:4;stroke-dasharray:none;stroke-dashoffset:0;stroke-opacity:1" />
    <path
       sodipodi:nodetypes="ccccccsc"
       inkscape:original-d="m -431.83667,-2.8588302 c 0,0 0.043,0.276801 0.0645,0.415147 0.0215,0.138289 0.21415,0.7099029 0.34115,0.9337879 0.12697,0.223803 0.0664,0.482346 0.0799,0.85437205 0.0141,0.37211 -0.19352,0.335534 -0.45788,0.385122 -0.26439,0.04947 -0.31414,-0.89405405 -0.31764,-1.39604205 -0.003,-0.5020449 0.13436,-0.7695069 0.2157,-0.9813719 0.0812,-0.211836 0.0745,-0.211015 0.0745,-0.211015 z"
       inkscape:path-effect="#path-effect2425-3"
       inkscape:connector-curvature="0"
       id="path2423-7"
       d="m -431.83667,-2.8588302 0.0645,0.415147 c 0.0256,0.1648084 0.0602,0.3291142 0.12321,0.4835471 0.063,0.1544329 0.1493,0.2982363 0.21794,0.4502408 0.0603,0.1336169 0.10552,0.2749551 0.12284,0.4205377 0.0173,0.14558255 0.006,0.29569506 -0.0429,0.43383435 -0.0355,0.0999548 -0.0916,0.19391402 -0.17041,0.26491478 -0.0788,0.0710008 -0.18141,0.11778708 -0.28747,0.12020722 -0.0703,0.001604 -0.14058,-0.0161511 -0.20291,-0.0486334 -0.0623,-0.0324823 -0.11676,-0.0794557 -0.16011,-0.13479151 -0.0867,-0.11067164 -0.12766,-0.25236005 -0.13391,-0.39280728 -0.0125,-0.28089446 0.10465,-0.54872526 0.17929,-0.81980986 0.089,-0.3230597 0.11878,-0.6606121 0.2157,-0.9813719 0.0216,-0.07143 0.0464,-0.1418679 0.0745,-0.211015 l -2.3e-4,0 z"
       style="fill:none;stroke:#000000;stroke-width:0.52916664;stroke-linecap:round;stroke-linejoin:round;stroke-miterlimit:4;stroke-dasharray:none;stroke-opacity:1" />
    <g
       id="g4925">
      <g
         transform="translate(-0.48122395,0)"
         id="g4904">
        <g
           id="g4846"
           transform="translate(-6.8162727,0.89687804)">
          <path
             d="m -451.54044,-35.853619 -0.23151,0 0,-0.09922 0.69453,0 0,0.09922 -0.23151,0 0,2.629296 0.24805,0 0,0.09922 -0.72761,0 0,-0.09922 0.24805,0 0,-2.629296 z"
             style="font-style:normal;font-variant:normal;font-weight:normal;font-stretch:normal;font-size:15px;line-height:104.99999523%;font-family:'Ume Mincho Balsa';-inkscape-font-specification:'Ume Mincho Balsa, Normal';text-align:center;letter-spacing:-0.5px;word-spacing:0px;writing-mode:lr-tb;text-anchor:middle;fill:#000000;fill-opacity:1;stroke:none;stroke-width:1px;stroke-linecap:butt;stroke-linejoin:miter;stroke-opacity:1"
             id="path4195"
             inkscape:connector-curvature="0" />
          <path
             d="m -448.70499,-33.224323 0.24805,0 0,0.09922 -0.72761,0 0,-0.09922 0.24805,0 0,-1.141015 q 0,-0.248047 -0.11576,-0.338997 -0.11575,-0.09095 -0.24804,-0.09095 -0.28112,0 -0.59532,0.396875 l 0,1.174088 0.24805,0 0,0.09922 -0.7276,0 0,-0.09922 0.24804,0 0,-1.504817 -0.21497,0 0,-0.09922 0.33073,-0.148828 0.11575,0 0,0.446484 q 0.26459,-0.446484 0.59532,-0.446484 l 0.0661,0 q 0.19844,0 0.3638,0.157096 0.16537,0.157097 0.16537,0.454753 l 0,1.141015 z"
             style="font-style:normal;font-variant:normal;font-weight:normal;font-stretch:normal;font-size:15px;line-height:104.99999523%;font-family:'Ume Mincho Balsa';-inkscape-font-specification:'Ume Mincho Balsa, Normal';text-align:center;letter-spacing:-0.5px;word-spacing:0px;writing-mode:lr-tb;text-anchor:middle;fill:#000000;fill-opacity:1;stroke:none;stroke-width:1px;stroke-linecap:butt;stroke-linejoin:miter;stroke-opacity:1"
             id="path4197"
             inkscape:connector-curvature="0" />
          <path
             d="m -448.41615,-34.977187 0.7276,0 0,0.115755 -0.23151,0 0.49609,1.30638 0.4961,-1.30638 -0.28112,0 0,-0.115755 0.69453,0 0,0.115755 -0.26459,0 -0.66145,1.736328 -0.0992,0 -0.66146,-1.736328 -0.21497,0 0,-0.115755 z"
             style="font-style:normal;font-variant:normal;font-weight:normal;font-stretch:normal;font-size:15px;line-height:104.99999523%;font-family:'Ume Mincho Balsa';-inkscape-font-specification:'Ume Mincho Balsa, Normal';text-align:center;letter-spacing:-0.5px;word-spacing:0px;writing-mode:lr-tb;text-anchor:middle;fill:#000000;fill-opacity:1;stroke:none;stroke-width:1px;stroke-linecap:butt;stroke-linejoin:miter;stroke-opacity:1"
             id="path4199"
             inkscape:connector-curvature="0" />
          <path
             d="m -445.49802,-34.977187 q 0.21497,0 0.40514,0.115755 0.19017,0.115755 0.28112,0.28112 0.091,0.165364 0.091,0.347266 l 0,0.115755 -1.28881,0 q -10e-4,0.0248 -10e-4,0.04961 0,0.363802 0.16537,0.56224 0.16536,0.198437 0.39687,0.198437 0.24805,0 0.41341,-0.09095 0.16537,-0.09095 0.29766,-0.305925 l 0.0992,0.04961 q -0.0992,0.248046 -0.30593,0.396875 -0.2067,0.148828 -0.50436,0.148828 -0.34726,0 -0.58704,-0.264584 -0.23978,-0.264583 -0.23978,-0.694531 0,-0.429948 0.22324,-0.669727 0.22324,-0.239778 0.55397,-0.239778 z m 0.51263,0.744141 q -0.0165,-0.264584 -0.17363,-0.438217 -0.1571,-0.173632 -0.339,-0.173632 -0.16536,0 -0.339,0.190169 -0.13539,0.147795 -0.16536,0.42168 l 1.01699,0 z"
             style="font-style:normal;font-variant:normal;font-weight:normal;font-stretch:normal;font-size:15px;line-height:104.99999523%;font-family:'Ume Mincho Balsa';-inkscape-font-specification:'Ume Mincho Balsa, Normal';text-align:center;letter-spacing:-0.5px;word-spacing:0px;writing-mode:lr-tb;text-anchor:middle;fill:#000000;fill-opacity:1;stroke:none;stroke-width:1px;stroke-linecap:butt;stroke-linejoin:miter;stroke-opacity:1"
             id="path4201"
             inkscape:connector-curvature="0" />
          <path
             d="m -442.77833,-33.224323 0.24805,0 0,0.09922 -0.7276,0 0,-0.09922 0.24804,0 0,-1.141015 q 0,-0.248047 -0.11575,-0.338997 -0.11575,-0.09095 -0.24805,-0.09095 -0.28112,0 -0.59531,0.396875 l 0,1.174088 0.24805,0 0,0.09922 -0.72761,0 0,-0.09922 0.24805,0 0,-1.504817 -0.21497,0 0,-0.09922 0.33073,-0.148828 0.11575,0 0,0.446484 q 0.26458,-0.446484 0.59531,-0.446484 l 0.0662,0 q 0.19844,0 0.3638,0.157096 0.16536,0.157097 0.16536,0.454753 l 0,1.141015 z"
             style="font-style:normal;font-variant:normal;font-weight:normal;font-stretch:normal;font-size:15px;line-height:104.99999523%;font-family:'Ume Mincho Balsa';-inkscape-font-specification:'Ume Mincho Balsa, Normal';text-align:center;letter-spacing:-0.5px;word-spacing:0px;writing-mode:lr-tb;text-anchor:middle;fill:#000000;fill-opacity:1;stroke:none;stroke-width:1px;stroke-linecap:butt;stroke-linejoin:miter;stroke-opacity:1"
             id="path4203"
             inkscape:connector-curvature="0" />
          <path
             d="m -441.57998,-33.753489 q 0,0.248047 0.0909,0.347265 0.091,0.09922 0.23978,0.09922 0.34726,0 0.56224,-0.545703 l 0.0992,0.04961 q -0.1819,0.694532 -0.66145,0.694532 -0.28112,0 -0.42168,-0.157097 -0.14056,-0.157096 -0.14056,-0.487825 l 0,-1.124479 -0.47956,0 0,-0.09922 0.24805,0 q 0.26458,0 0.3638,-0.711068 l 0.0992,0 0,0.711068 0.81028,0 0,0.09922 -0.81028,0 0,1.124479 z"
             style="font-style:normal;font-variant:normal;font-weight:normal;font-stretch:normal;font-size:15px;line-height:104.99999523%;font-family:'Ume Mincho Balsa';-inkscape-font-specification:'Ume Mincho Balsa, Normal';text-align:center;letter-spacing:-0.5px;word-spacing:0px;writing-mode:lr-tb;text-anchor:middle;fill:#000000;fill-opacity:1;stroke:none;stroke-width:1px;stroke-linecap:butt;stroke-linejoin:miter;stroke-opacity:1"
             id="path4205"
             inkscape:connector-curvature="0" />
          <path
             d="m -440.44779,-34.051145 q 0,-0.413412 0.24805,-0.669727 0.24805,-0.256315 0.62838,-0.256315 0.38034,0 0.63666,0.256315 0.25632,0.256315 0.25632,0.669727 0,0.396875 -0.24805,0.669726 -0.24805,0.272852 -0.64493,0.272852 -0.39687,0 -0.63665,-0.272852 -0.23978,-0.272851 -0.23978,-0.669726 z m 0.28112,0 q 0,0.347265 0.14056,0.587044 0.14056,0.239778 0.45475,0.239778 0.29766,0 0.45476,-0.239778 0.15709,-0.239779 0.15709,-0.587044 0,-0.33073 -0.15709,-0.570508 -0.1571,-0.239779 -0.45476,-0.239779 -0.31419,0 -0.45475,0.239779 -0.14056,0.239778 -0.14056,0.570508 z"
             style="font-style:normal;font-variant:normal;font-weight:normal;font-stretch:normal;font-size:15px;line-height:104.99999523%;font-family:'Ume Mincho Balsa';-inkscape-font-specification:'Ume Mincho Balsa, Normal';text-align:center;letter-spacing:-0.5px;word-spacing:0px;writing-mode:lr-tb;text-anchor:middle;fill:#000000;fill-opacity:1;stroke:none;stroke-width:1px;stroke-linecap:butt;stroke-linejoin:miter;stroke-opacity:1"
             id="path4207"
             inkscape:connector-curvature="0" />
          <path
             d="m -436.85166,-33.224323 0.24805,0 0,0.09922 -0.72761,0 0,-0.09922 0.24805,0 0,-1.141015 q 0,-0.248047 -0.11576,-0.338997 -0.11575,-0.09095 -0.24804,-0.09095 -0.28112,0 -0.59531,0.396875 l 0,1.174088 0.24804,0 0,0.09922 -0.7276,0 0,-0.09922 0.24805,0 0,-1.504817 -0.21498,0 0,-0.09922 0.33073,-0.148828 0.11576,0 0,0.446484 q 0.26458,-0.446484 0.59531,-0.446484 l 0.0661,0 q 0.19844,0 0.36381,0.157096 0.16536,0.157097 0.16536,0.454753 l 0,1.141015 z"
             style="font-style:normal;font-variant:normal;font-weight:normal;font-stretch:normal;font-size:15px;line-height:104.99999523%;font-family:'Ume Mincho Balsa';-inkscape-font-specification:'Ume Mincho Balsa, Normal';text-align:center;letter-spacing:-0.5px;word-spacing:0px;writing-mode:lr-tb;text-anchor:middle;fill:#000000;fill-opacity:1;stroke:none;stroke-width:1px;stroke-linecap:butt;stroke-linejoin:miter;stroke-opacity:1"
             id="path4209"
             inkscape:connector-curvature="0" />
          <path
             d="m -435.0084,-34.977187 0.0992,0 0,0.661458 -0.0992,0 q -0.11575,-0.248047 -0.28111,-0.396875 -0.16537,-0.148828 -0.34727,-0.148828 -0.16537,0 -0.25631,0.09922 -0.091,0.09922 -0.091,0.248047 0,0.148828 0.10749,0.223242 0.10749,0.07441 0.37207,0.14056 0.33073,0.08268 0.49609,0.206705 0.16537,0.124024 0.16537,0.355534 0,0.231511 -0.1819,0.355534 -0.1819,0.124024 -0.51263,0.124024 -0.16537,0 -0.31419,-0.05788 -0.14883,-0.05788 -0.26459,-0.157096 l -0.11575,0.214974 -0.0992,0 0,-0.727604 0.0992,0 q 0.11575,0.297656 0.28938,0.454752 0.17364,0.157096 0.40515,0.157096 0.21497,0 0.32246,-0.115755 0.10749,-0.115755 0.10749,-0.248047 0,-0.148828 -0.11576,-0.223242 -0.11575,-0.07441 -0.39687,-0.14056 -0.34727,-0.06615 -0.4961,-0.206705 -0.14882,-0.14056 -0.14882,-0.355534 0,-0.198438 0.17363,-0.330729 0.17363,-0.132292 0.45475,-0.132292 0.13229,0 0.25631,0.04961 0.12403,0.04961 0.25632,0.165365 l 0.11575,-0.214974 z"
             style="font-style:normal;font-variant:normal;font-weight:normal;font-stretch:normal;font-size:15px;line-height:104.99999523%;font-family:'Ume Mincho Balsa';-inkscape-font-specification:'Ume Mincho Balsa, Normal';text-align:center;letter-spacing:-0.5px;word-spacing:0px;writing-mode:lr-tb;text-anchor:middle;fill:#000000;fill-opacity:1;stroke:none;stroke-width:1px;stroke-linecap:butt;stroke-linejoin:miter;stroke-opacity:1"
             id="path4211"
             inkscape:connector-curvature="0" />
        </g>
        <g
           id="g4857"
           transform="translate(11.810386,-3.618678)">
          <path
             d="m -450.43691,-30.532187 q 0.21497,0 0.40514,0.115755 0.19017,0.115755 0.28112,0.28112 0.091,0.165364 0.091,0.347266 l 0,0.115755 -1.28881,0 q -10e-4,0.0248 -10e-4,0.04961 0,0.363802 0.16536,0.56224 0.16536,0.198437 0.39687,0.198437 0.24805,0 0.41342,-0.09095 0.16536,-0.09095 0.29765,-0.305925 l 0.0992,0.04961 q -0.0992,0.248046 -0.30593,0.396875 -0.2067,0.148828 -0.50436,0.148828 -0.34726,0 -0.58704,-0.264584 -0.23978,-0.264583 -0.23978,-0.694531 0,-0.429948 0.22324,-0.669727 0.22325,-0.239778 0.55397,-0.239778 z m 0.51263,0.744141 q -0.0165,-0.264584 -0.17363,-0.438217 -0.1571,-0.173632 -0.339,-0.173632 -0.16536,0 -0.339,0.190169 -0.13539,0.147795 -0.16536,0.42168 l 1.01699,0 z"
             style="font-style:normal;font-variant:normal;font-weight:normal;font-stretch:normal;font-size:15px;line-height:104.99999523%;font-family:'Ume Mincho Balsa';-inkscape-font-specification:'Ume Mincho Balsa, Normal';text-align:center;letter-spacing:-0.5px;word-spacing:0px;writing-mode:lr-tb;text-anchor:middle;fill:#000000;fill-opacity:1;stroke:none;stroke-width:1px;stroke-linecap:butt;stroke-linejoin:miter;stroke-opacity:1"
             id="path4213"
             inkscape:connector-curvature="0" />
          <path
             d="m -447.71721,-28.779323 0.24804,0 0,0.09922 -0.7276,0 0,-0.09922 0.24805,0 0,-1.141015 q 0,-0.248047 -0.11576,-0.338997 -0.11575,-0.09095 -0.24805,-0.09095 -0.28112,0 -0.59531,0.396875 l 0,1.174088 0.24805,0 0,0.09922 -0.72761,0 0,-0.09922 0.24805,0 0,-1.504817 -0.21497,0 0,-0.09922 0.33073,-0.148828 0.11575,0 0,0.446484 q 0.26458,-0.446484 0.59531,-0.446484 l 0.0661,0 q 0.19844,0 0.3638,0.157096 0.16537,0.157097 0.16537,0.454753 l 0,1.141015 z"
             style="font-style:normal;font-variant:normal;font-weight:normal;font-stretch:normal;font-size:15px;line-height:104.99999523%;font-family:'Ume Mincho Balsa';-inkscape-font-specification:'Ume Mincho Balsa, Normal';text-align:center;letter-spacing:-0.5px;word-spacing:0px;writing-mode:lr-tb;text-anchor:middle;fill:#000000;fill-opacity:1;stroke:none;stroke-width:1px;stroke-linecap:butt;stroke-linejoin:miter;stroke-opacity:1"
             id="path4215"
             inkscape:connector-curvature="0" />
          <path
             d="m -445.87395,-30.532187 0.0992,0 0,0.661458 -0.0992,0 q -0.11575,-0.248047 -0.28112,-0.396875 -0.16536,-0.148828 -0.34726,-0.148828 -0.16537,0 -0.25632,0.09922 -0.091,0.09922 -0.091,0.248047 0,0.148828 0.10749,0.223242 0.10748,0.07441 0.37207,0.14056 0.33072,0.08268 0.49609,0.206705 0.16537,0.124024 0.16537,0.355534 0,0.231511 -0.18191,0.355534 -0.1819,0.124024 -0.51263,0.124024 -0.16536,0 -0.31419,-0.05788 -0.14883,-0.05788 -0.26458,-0.157096 l -0.11576,0.214974 -0.0992,0 0,-0.727604 0.0992,0 q 0.11576,0.297656 0.28939,0.454752 0.17363,0.157096 0.40514,0.157096 0.21498,0 0.32246,-0.115755 0.10749,-0.115755 0.10749,-0.248047 0,-0.148828 -0.11575,-0.223242 -0.11576,-0.07441 -0.39688,-0.14056 -0.34727,-0.06615 -0.49609,-0.206705 -0.14883,-0.14056 -0.14883,-0.355534 0,-0.198438 0.17363,-0.330729 0.17364,-0.132292 0.45476,-0.132292 0.13229,0 0.25631,0.04961 0.12402,0.04961 0.25632,0.165365 l 0.11575,-0.214974 z"
             style="font-style:normal;font-variant:normal;font-weight:normal;font-stretch:normal;font-size:15px;line-height:104.99999523%;font-family:'Ume Mincho Balsa';-inkscape-font-specification:'Ume Mincho Balsa, Normal';text-align:center;letter-spacing:-0.5px;word-spacing:0px;writing-mode:lr-tb;text-anchor:middle;fill:#000000;fill-opacity:1;stroke:none;stroke-width:1px;stroke-linecap:butt;stroke-linejoin:miter;stroke-opacity:1"
             id="path4217"
             inkscape:connector-curvature="0" />
          <path
             d="m -444.51024,-30.532187 q 0.21497,0 0.40514,0.115755 0.19017,0.115755 0.28112,0.28112 0.091,0.165364 0.091,0.347266 l 0,0.115755 -1.28881,0 q -10e-4,0.0248 -10e-4,0.04961 0,0.363802 0.16536,0.56224 0.16537,0.198437 0.39688,0.198437 0.24805,0 0.41341,-0.09095 0.16537,-0.09095 0.29766,-0.305925 l 0.0992,0.04961 q -0.0992,0.248046 -0.30593,0.396875 -0.2067,0.148828 -0.50436,0.148828 -0.34726,0 -0.58704,-0.264584 -0.23978,-0.264583 -0.23978,-0.694531 0,-0.429948 0.22324,-0.669727 0.22324,-0.239778 0.55397,-0.239778 z m 0.51263,0.744141 q -0.0165,-0.264584 -0.17364,-0.438217 -0.15709,-0.173632 -0.33899,-0.173632 -0.16537,0 -0.339,0.190169 -0.13539,0.147795 -0.16537,0.42168 l 1.017,0 z"
             style="font-style:normal;font-variant:normal;font-weight:normal;font-stretch:normal;font-size:15px;line-height:104.99999523%;font-family:'Ume Mincho Balsa';-inkscape-font-specification:'Ume Mincho Balsa, Normal';text-align:center;letter-spacing:-0.5px;word-spacing:0px;writing-mode:lr-tb;text-anchor:middle;fill:#000000;fill-opacity:1;stroke:none;stroke-width:1px;stroke-linecap:butt;stroke-linejoin:miter;stroke-opacity:1"
             id="path4219"
             inkscape:connector-curvature="0" />
          <path
             d="m -441.97245,-30.085703 q 0,-0.132291 -0.0579,-0.198437 -0.0579,-0.06615 -0.12402,-0.06615 -0.14883,0 -0.24805,0.165365 l 0,1.504817 -0.23151,0 0,-1.405599 q 0,-0.148828 -0.0331,-0.206706 -0.0331,-0.05788 -0.0992,-0.05788 -0.14883,0 -0.29766,0.165365 l 0,1.405598 0.24805,0 0,0.09922 -0.7276,0 0,-0.09922 0.24804,0 0,-1.53789 -0.1819,0 0,-0.09922 0.3142,-0.115755 0.0992,0 0,0.248047 q 0.11576,-0.248047 0.29766,-0.248047 l 0.0662,0 q 0.13229,0 0.19843,0.09922 0.0661,0.09922 0.0827,0.165364 0.11575,-0.264583 0.26458,-0.264583 l 0.0662,0 q 0.13229,0 0.23977,0.115755 0.10749,0.115755 0.10749,0.330729 l 0,1.30638 0.24805,0 0,0.09922 -0.72761,0 0,-0.09922 0.24805,0 0,-1.30638 z"
             style="font-style:normal;font-variant:normal;font-weight:normal;font-stretch:normal;font-size:15px;line-height:104.99999523%;font-family:'Ume Mincho Balsa';-inkscape-font-specification:'Ume Mincho Balsa, Normal';text-align:center;letter-spacing:-0.5px;word-spacing:0px;writing-mode:lr-tb;text-anchor:middle;fill:#000000;fill-opacity:1;stroke:none;stroke-width:1px;stroke-linecap:butt;stroke-linejoin:miter;stroke-opacity:1"
             id="path4221"
             inkscape:connector-curvature="0" />
          <path
             d="m -441.17098,-28.663567 -0.0992,0 0,-2.728516 -0.21497,0 0,-0.09922 0.33073,-0.148828 0.11575,0 0,1.339453 q 0.28112,-0.23151 0.5457,-0.23151 0.36381,0 0.57878,0.256315 0.21497,0.256315 0.21497,0.669727 0,0.446484 -0.23977,0.694531 -0.23978,0.248047 -0.63666,0.248047 -0.26458,0 -0.46302,-0.165365 l -0.13229,0.165365 z m 0.59531,-0.148828 q 0.23151,0 0.42995,-0.198438 0.19844,-0.198437 0.19844,-0.595312 0,-0.396875 -0.16537,-0.578776 -0.16536,-0.181902 -0.38034,-0.181902 -0.28112,0 -0.5457,0.198438 l 0,1.223698 q 0.16536,0.132292 0.46302,0.132292 z"
             style="font-style:normal;font-variant:normal;font-weight:normal;font-stretch:normal;font-size:15px;line-height:104.99999523%;font-family:'Ume Mincho Balsa';-inkscape-font-specification:'Ume Mincho Balsa, Normal';text-align:center;letter-spacing:-0.5px;word-spacing:0px;writing-mode:lr-tb;text-anchor:middle;fill:#000000;fill-opacity:1;stroke:none;stroke-width:1px;stroke-linecap:butt;stroke-linejoin:miter;stroke-opacity:1"
             id="path4223"
             inkscape:connector-curvature="0" />
          <path
             d="m -438.43475,-28.779323 0.41341,0 0,0.09922 -1.0418,0 0,-0.09922 0.39688,0 0,-2.61276 -0.46302,0 0,-0.09922 0.57878,-0.148828 0.11575,0 0,2.860807 z"
             style="font-style:normal;font-variant:normal;font-weight:normal;font-stretch:normal;font-size:15px;line-height:104.99999523%;font-family:'Ume Mincho Balsa';-inkscape-font-specification:'Ume Mincho Balsa, Normal';text-align:center;letter-spacing:-0.5px;word-spacing:0px;writing-mode:lr-tb;text-anchor:middle;fill:#000000;fill-opacity:1;stroke:none;stroke-width:1px;stroke-linecap:butt;stroke-linejoin:miter;stroke-opacity:1"
             id="path4225"
             inkscape:connector-curvature="0" />
          <path
             d="m -436.60802,-30.532187 q 0.21497,0 0.40514,0.115755 0.19017,0.115755 0.28112,0.28112 0.091,0.165364 0.091,0.347266 l 0,0.115755 -1.28881,0 q -10e-4,0.0248 -10e-4,0.04961 0,0.363802 0.16537,0.56224 0.16536,0.198437 0.39687,0.198437 0.24805,0 0.41341,-0.09095 0.16537,-0.09095 0.29766,-0.305925 l 0.0992,0.04961 q -0.0992,0.248046 -0.30593,0.396875 -0.2067,0.148828 -0.50436,0.148828 -0.34726,0 -0.58704,-0.264584 -0.23978,-0.264583 -0.23978,-0.694531 0,-0.429948 0.22324,-0.669727 0.22324,-0.239778 0.55397,-0.239778 z m 0.51263,0.744141 q -0.0165,-0.264584 -0.17364,-0.438217 -0.15709,-0.173632 -0.33899,-0.173632 -0.16536,0 -0.339,0.190169 -0.13539,0.147795 -0.16536,0.42168 l 1.01699,0 z"
             style="font-style:normal;font-variant:normal;font-weight:normal;font-stretch:normal;font-size:15px;line-height:104.99999523%;font-family:'Ume Mincho Balsa';-inkscape-font-specification:'Ume Mincho Balsa, Normal';text-align:center;letter-spacing:-0.5px;word-spacing:0px;writing-mode:lr-tb;text-anchor:middle;fill:#000000;fill-opacity:1;stroke:none;stroke-width:1px;stroke-linecap:butt;stroke-linejoin:miter;stroke-opacity:1"
             id="path4227"
             inkscape:connector-curvature="0" />
        </g>
      </g>
      <g
         transform="translate(1.7038777,-3.5875122)"
         id="g4867">
        <path
           inkscape:connector-curvature="0"
           id="path4229"
           style="font-style:normal;font-variant:normal;font-weight:normal;font-stretch:normal;font-size:15px;line-height:104.99999523%;font-family:'Ume Mincho Balsa';-inkscape-font-specification:'Ume Mincho Balsa, Normal';text-align:center;letter-spacing:-0.5px;word-spacing:0px;writing-mode:lr-tb;text-anchor:middle;fill:#000000;fill-opacity:1;stroke:none;stroke-width:1px;stroke-linecap:butt;stroke-linejoin:miter;stroke-opacity:1"
           d="m -452.90415,-26.963619 -0.21497,0 0,-0.09922 0.31419,-0.132292 0.13229,0 0,2.728516 0.21498,0 0,0.09922 -0.33073,0.132291 -0.11576,0 0,-0.264583 q -0.24805,0.28112 -0.51263,0.28112 -0.38034,0 -0.58704,-0.231511 -0.20671,-0.23151 -0.20671,-0.694531 0,-0.429948 0.21498,-0.686263 0.21497,-0.256315 0.56224,-0.256315 0.31419,0 0.52916,0.264583 l 0,-1.141015 z m -0.52916,1.02526 q -0.26459,0.01653 -0.38861,0.214974 -0.12403,0.198437 -0.12403,0.578776 0,0.363802 0.1571,0.570508 0.1571,0.206706 0.37207,0.206706 0.26458,0 0.51263,-0.297657 l 0,-1.008724 q -0.26458,-0.264583 -0.52916,-0.264583 z" />
        <path
           inkscape:connector-curvature="0"
           id="path4231"
           style="font-style:normal;font-variant:normal;font-weight:normal;font-stretch:normal;font-size:15px;line-height:104.99999523%;font-family:'Ume Mincho Balsa';-inkscape-font-specification:'Ume Mincho Balsa, Normal';text-align:center;letter-spacing:-0.5px;word-spacing:0px;writing-mode:lr-tb;text-anchor:middle;fill:#000000;fill-opacity:1;stroke:none;stroke-width:1px;stroke-linecap:butt;stroke-linejoin:miter;stroke-opacity:1"
           d="m -451.42469,-26.087187 q 0.21498,0 0.40515,0.115755 0.19017,0.115755 0.28111,0.28112 0.091,0.165364 0.091,0.347266 l 0,0.115755 -1.28881,0 q -10e-4,0.0248 -10e-4,0.04961 0,0.363802 0.16536,0.56224 0.16537,0.198437 0.39688,0.198437 0.24804,0 0.41341,-0.09095 0.16536,-0.09095 0.29766,-0.305925 l 0.0992,0.04961 q -0.0992,0.248046 -0.30592,0.396875 -0.20671,0.148828 -0.50436,0.148828 -0.34727,0 -0.58705,-0.264584 -0.23978,-0.264583 -0.23978,-0.694531 0,-0.429948 0.22324,-0.669727 0.22325,-0.239778 0.55398,-0.239778 z m 0.51263,0.744141 q -0.0165,-0.264584 -0.17363,-0.438217 -0.1571,-0.173632 -0.339,-0.173632 -0.16536,0 -0.33899,0.190169 -0.1354,0.147794 -0.16537,0.42168 l 1.01699,0 z" />
        <path
           inkscape:connector-curvature="0"
           id="path4233"
           style="font-style:normal;font-variant:normal;font-weight:normal;font-stretch:normal;font-size:15px;line-height:104.99999523%;font-family:'Ume Mincho Balsa';-inkscape-font-specification:'Ume Mincho Balsa, Normal';text-align:center;letter-spacing:-0.5px;word-spacing:0px;writing-mode:lr-tb;text-anchor:middle;fill:#000000;fill-opacity:1;stroke:none;stroke-width:1px;stroke-linecap:butt;stroke-linejoin:miter;stroke-opacity:1"
           d="m -446.72944,-24.334323 0.24805,0 0,0.09922 -0.7276,0 0,-0.09922 0.24804,0 0,-1.141015 q 0,-0.248047 -0.11575,-0.338998 -0.11576,-0.09095 -0.24805,-0.09095 -0.28112,0 -0.59531,0.396875 l 0,1.174088 0.24805,0 0,0.09922 -0.72761,0 0,-0.09922 0.24805,0 0,-1.504817 -0.21498,0 0,-0.09922 0.33074,-0.148828 0.11575,0 0,0.446484 q 0.26458,-0.446484 0.59531,-0.446484 l 0.0661,0 q 0.19844,0 0.3638,0.157096 0.16536,0.157097 0.16536,0.454753 l 0,1.141015 z" />
        <path
           inkscape:connector-curvature="0"
           id="path4235"
           style="font-style:normal;font-variant:normal;font-weight:normal;font-stretch:normal;font-size:15px;line-height:104.99999523%;font-family:'Ume Mincho Balsa';-inkscape-font-specification:'Ume Mincho Balsa, Normal';text-align:center;letter-spacing:-0.5px;word-spacing:0px;writing-mode:lr-tb;text-anchor:middle;fill:#000000;fill-opacity:1;stroke:none;stroke-width:1px;stroke-linecap:butt;stroke-linejoin:miter;stroke-opacity:1"
           d="m -446.37445,-25.161145 q 0,-0.413412 0.24804,-0.669727 0.24805,-0.256315 0.62839,-0.256315 0.38034,0 0.63665,0.256315 0.25632,0.256315 0.25632,0.669727 0,0.396875 -0.24805,0.669726 -0.24805,0.272852 -0.64492,0.272852 -0.39688,0 -0.63666,-0.272852 -0.23977,-0.272851 -0.23977,-0.669726 z m 0.28112,0 q 0,0.347265 0.14056,0.587044 0.14056,0.239778 0.45475,0.239778 0.29766,0 0.45475,-0.239778 0.1571,-0.239779 0.1571,-0.587044 0,-0.33073 -0.1571,-0.570508 -0.15709,-0.239779 -0.45475,-0.239779 -0.31419,0 -0.45475,0.239779 -0.14056,0.239778 -0.14056,0.570508 z" />
        <path
           inkscape:connector-curvature="0"
           id="path4237"
           style="font-style:normal;font-variant:normal;font-weight:normal;font-stretch:normal;font-size:15px;line-height:104.99999523%;font-family:'Ume Mincho Balsa';-inkscape-font-specification:'Ume Mincho Balsa, Normal';text-align:center;letter-spacing:-0.5px;word-spacing:0px;writing-mode:lr-tb;text-anchor:middle;fill:#000000;fill-opacity:1;stroke:none;stroke-width:1px;stroke-linecap:butt;stroke-linejoin:miter;stroke-opacity:1"
           d="m -444.00202,-24.76427 q 0,0.1819 0.0827,0.264583 0.0827,0.08268 0.23151,0.08268 0.34726,0 0.67799,-0.330729 l 0,-1.107943 -0.26458,0 0,-0.09922 0.38034,-0.132292 0.11575,0 0,1.620573 0.21498,0 0,0.09922 -0.33073,0.132291 -0.11576,0 0,-0.363802 q -0.34726,0.380339 -0.67799,0.380339 -0.28112,0 -0.41341,-0.157097 -0.13229,-0.157096 -0.13229,-0.388606 l 0,-1.091407 -0.24805,0 0,-0.09922 0.3638,-0.132292 0.11576,0 0,1.322917 z" />
        <path
           inkscape:connector-curvature="0"
           id="path4239"
           style="font-style:normal;font-variant:normal;font-weight:normal;font-stretch:normal;font-size:15px;line-height:104.99999523%;font-family:'Ume Mincho Balsa';-inkscape-font-specification:'Ume Mincho Balsa, Normal';text-align:center;letter-spacing:-0.5px;word-spacing:0px;writing-mode:lr-tb;text-anchor:middle;fill:#000000;fill-opacity:1;stroke:none;stroke-width:1px;stroke-linecap:butt;stroke-linejoin:miter;stroke-opacity:1"
           d="m -442.48949,-26.087187 0.7276,0 0,0.115755 -0.2315,0 0.49609,1.30638 0.49609,-1.30638 -0.28112,0 0,-0.115755 0.69453,0 0,0.115755 -0.26458,0 -0.66146,1.736328 -0.0992,0 -0.66145,-1.736328 -0.21498,0 0,-0.115755 z" />
        <path
           inkscape:connector-curvature="0"
           id="path4241"
           style="font-style:normal;font-variant:normal;font-weight:normal;font-stretch:normal;font-size:15px;line-height:104.99999523%;font-family:'Ume Mincho Balsa';-inkscape-font-specification:'Ume Mincho Balsa, Normal';text-align:center;letter-spacing:-0.5px;word-spacing:0px;writing-mode:lr-tb;text-anchor:middle;fill:#000000;fill-opacity:1;stroke:none;stroke-width:1px;stroke-linecap:butt;stroke-linejoin:miter;stroke-opacity:1"
           d="m -439.57136,-26.087187 q 0.21498,0 0.40515,0.115755 0.19017,0.115755 0.28112,0.28112 0.0909,0.165364 0.0909,0.347266 l 0,0.115755 -1.28881,0 q -10e-4,0.0248 -10e-4,0.04961 0,0.363802 0.16536,0.56224 0.16537,0.198437 0.39688,0.198437 0.24805,0 0.41341,-0.09095 0.16537,-0.09095 0.29766,-0.305925 l 0.0992,0.04961 q -0.0992,0.248046 -0.30593,0.396875 -0.20671,0.148828 -0.50436,0.148828 -0.34727,0 -0.58704,-0.264584 -0.23978,-0.264583 -0.23978,-0.694531 0,-0.429948 0.22324,-0.669727 0.22324,-0.239778 0.55397,-0.239778 z m 0.51264,0.744141 q -0.0165,-0.264584 -0.17364,-0.438217 -0.15709,-0.173632 -0.339,-0.173632 -0.16536,0 -0.33899,0.190169 -0.1354,0.147794 -0.16537,0.42168 l 1.017,0 z" />
        <path
           inkscape:connector-curvature="0"
           id="path4243"
           style="font-style:normal;font-variant:normal;font-weight:normal;font-stretch:normal;font-size:15px;line-height:104.99999523%;font-family:'Ume Mincho Balsa';-inkscape-font-specification:'Ume Mincho Balsa, Normal';text-align:center;letter-spacing:-0.5px;word-spacing:0px;writing-mode:lr-tb;text-anchor:middle;fill:#000000;fill-opacity:1;stroke:none;stroke-width:1px;stroke-linecap:butt;stroke-linejoin:miter;stroke-opacity:1"
           d="m -437.52965,-26.087187 q 0.19843,0 0.38033,0.14056 0.18191,0.14056 0.18191,0.405143 l 0,1.07487 q 0,0.08268 0.0827,0.08268 0.0992,0 0.16536,-0.264583 l 0.0992,0.03307 q -0.0661,0.396875 -0.34726,0.396875 -0.0992,0 -0.16537,-0.06615 -0.0661,-0.06615 -0.0661,-0.148828 -0.2315,0.214974 -0.56223,0.214974 l -0.19844,0 q -0.23151,0 -0.3638,-0.132292 -0.13229,-0.132292 -0.13229,-0.28112 0,-0.330729 0.21497,-0.487825 0.21497,-0.157097 0.44648,-0.223242 0.23151,-0.06615 0.59531,-0.09922 l 0,-0.09922 q 0,-0.214974 -0.12402,-0.305925 -0.12402,-0.09095 -0.32246,-0.09095 -0.14883,0 -0.28939,0.07441 -0.14056,0.07441 -0.14056,0.223242 0,0.09922 -0.0579,0.14056 -0.0579,0.04134 -0.14056,0.04134 -0.0992,0 -0.0992,-0.09922 0,-0.248047 0.23978,-0.388607 0.23978,-0.14056 0.40514,-0.14056 l 0.19844,0 z m 0.33072,0.777213 q -0.3638,0.04961 -0.55397,0.124024 -0.19017,0.07441 -0.31419,0.206705 -0.12402,0.132292 -0.12402,0.297657 0,0.165364 0.0992,0.239778 0.0992,0.07442 0.33073,0.07442 0.29765,0 0.56223,-0.214975 l 0,-0.727604 z" />
        <path
           inkscape:connector-curvature="0"
           id="path4245"
           style="font-style:normal;font-variant:normal;font-weight:normal;font-stretch:normal;font-size:15px;line-height:104.99999523%;font-family:'Ume Mincho Balsa';-inkscape-font-specification:'Ume Mincho Balsa, Normal';text-align:center;letter-spacing:-0.5px;word-spacing:0px;writing-mode:lr-tb;text-anchor:middle;fill:#000000;fill-opacity:1;stroke:none;stroke-width:1px;stroke-linecap:butt;stroke-linejoin:miter;stroke-opacity:1"
           d="m -436.0998,-24.76427 q 0,0.1819 0.0827,0.264583 0.0827,0.08268 0.23151,0.08268 0.34727,0 0.678,-0.330729 l 0,-1.107943 -0.26459,0 0,-0.09922 0.38034,-0.132292 0.11576,0 0,1.620573 0.21497,0 0,0.09922 -0.33073,0.132291 -0.11575,0 0,-0.363802 q -0.34727,0.380339 -0.678,0.380339 -0.28112,0 -0.41341,-0.157097 -0.13229,-0.157096 -0.13229,-0.388606 l 0,-1.091407 -0.24805,0 0,-0.09922 0.3638,-0.132292 0.11576,0 0,1.322917 z" />
        <path
           inkscape:connector-curvature="0"
           id="path4247"
           style="font-style:normal;font-variant:normal;font-weight:normal;font-stretch:normal;font-size:15px;line-height:104.99999523%;font-family:'Ume Mincho Balsa';-inkscape-font-specification:'Ume Mincho Balsa, Normal';text-align:center;letter-spacing:-0.5px;word-spacing:0px;writing-mode:lr-tb;text-anchor:middle;fill:#000000;fill-opacity:1;stroke:none;stroke-width:1px;stroke-linecap:butt;stroke-linejoin:miter;stroke-opacity:1"
           d="m -433.11552,-25.987969 -0.26459,0 0,-0.09922 0.678,0 0,0.09922 -0.24805,0 -0.56534,0.796851 0.56534,0.856795 0.24805,0 0,0.09922 -0.79375,0 0,-0.09922 0.24805,0 -0.41858,-0.644922 -0.45786,0.644922 0.3142,0 0,0.09922 -0.74414,0 0,-0.09922 0.28112,0 0.53123,-0.759643 -0.58084,-0.894003 -0.23151,0 0,-0.09922 0.74414,0 0,0.09922 -0.23151,0 0.44958,0.681096 0.47646,-0.681096 z" />
      </g>
      <g
         transform="translate(1.6294877,-3.9511115)"
         id="g4879">
        <path
           inkscape:connector-curvature="0"
           id="path4249"
           style="font-style:normal;font-variant:normal;font-weight:normal;font-stretch:normal;font-size:15px;line-height:104.99999523%;font-family:'Ume Mincho Balsa';-inkscape-font-specification:'Ume Mincho Balsa, Normal';text-align:center;letter-spacing:-0.5px;word-spacing:0px;writing-mode:lr-tb;text-anchor:middle;fill:#000000;fill-opacity:1;stroke:none;stroke-width:1px;stroke-linecap:butt;stroke-linejoin:miter;stroke-opacity:1"
           d="m -453.61522,-22.46901 q 0,-0.09922 0.0662,-0.165365 0.0661,-0.06615 0.16536,-0.06615 0.0992,0 0.16537,0.06615 0.0661,0.06615 0.0661,0.165365 0,0.08268 -0.0661,0.148828 -0.0661,0.06615 -0.16537,0.06615 -0.0992,0 -0.16536,-0.06615 -0.0662,-0.06615 -0.0662,-0.148828 z m 0.36381,2.579687 0.41341,0 0,0.09922 -1.05834,0 0,-0.09922 0.41341,0 0,-1.504818 -0.41341,0 0,-0.115755 0.54571,-0.132291 0.0992,0 0,1.752864 z" />
        <path
           inkscape:connector-curvature="0"
           id="path4251"
           style="font-style:normal;font-variant:normal;font-weight:normal;font-stretch:normal;font-size:15px;line-height:104.99999523%;font-family:'Ume Mincho Balsa';-inkscape-font-specification:'Ume Mincho Balsa, Normal';text-align:center;letter-spacing:-0.5px;word-spacing:0px;writing-mode:lr-tb;text-anchor:middle;fill:#000000;fill-opacity:1;stroke:none;stroke-width:1px;stroke-linecap:butt;stroke-linejoin:miter;stroke-opacity:1"
           d="m -450.86245,-21.195703 q 0,-0.132292 -0.0579,-0.198438 -0.0579,-0.06614 -0.12402,-0.06614 -0.14883,0 -0.24805,0.165364 l 0,1.504818 -0.23151,0 0,-1.405599 q 0,-0.148828 -0.0331,-0.206706 -0.0331,-0.05788 -0.0992,-0.05788 -0.14882,0 -0.29765,0.165364 l 0,1.405599 0.24804,0 0,0.09922 -0.7276,0 0,-0.09922 0.24805,0 0,-1.537891 -0.1819,0 0,-0.09922 0.31419,-0.115755 0.0992,0 0,0.248046 q 0.11575,-0.248046 0.29765,-0.248046 l 0.0661,0 q 0.13229,0 0.19844,0.09922 0.0661,0.09922 0.0827,0.165365 0.11575,-0.264583 0.26458,-0.264583 l 0.0661,0 q 0.13229,0 0.23977,0.115755 0.10749,0.115755 0.10749,0.330729 l 0,1.30638 0.24805,0 0,0.09922 -0.72761,0 0,-0.09922 0.24805,0 0,-1.30638 z" />
        <path
           inkscape:connector-curvature="0"
           id="path4253"
           style="font-style:normal;font-variant:normal;font-weight:normal;font-stretch:normal;font-size:15px;line-height:104.99999523%;font-family:'Ume Mincho Balsa';-inkscape-font-specification:'Ume Mincho Balsa, Normal';text-align:center;letter-spacing:-0.5px;word-spacing:0px;writing-mode:lr-tb;text-anchor:middle;fill:#000000;fill-opacity:1;stroke:none;stroke-width:1px;stroke-linecap:butt;stroke-linejoin:miter;stroke-opacity:1"
           d="m -449.38299,-21.642187 q 0.19844,0 0.38034,0.140559 0.1819,0.14056 0.1819,0.405144 l 0,1.074869 q 0,0.08268 0.0827,0.08268 0.0992,0 0.16537,-0.264584 l 0.0992,0.03307 q -0.0661,0.396875 -0.34727,0.396875 -0.0992,0 -0.16536,-0.06615 -0.0661,-0.06614 -0.0661,-0.148828 -0.23151,0.214974 -0.56224,0.214974 l -0.19843,0 q -0.23151,0 -0.36381,-0.132291 -0.13229,-0.132292 -0.13229,-0.28112 0,-0.330729 0.21498,-0.487826 0.21497,-0.157096 0.44648,-0.223242 0.23151,-0.06615 0.59531,-0.09922 l 0,-0.09922 q 0,-0.214974 -0.12402,-0.305925 -0.12402,-0.09095 -0.32246,-0.09095 -0.14883,0 -0.28939,0.07441 -0.14056,0.07441 -0.14056,0.223242 0,0.09922 -0.0579,0.14056 -0.0579,0.04134 -0.14056,0.04134 -0.0992,0 -0.0992,-0.09922 0,-0.248047 0.23977,-0.388607 0.23978,-0.140559 0.40515,-0.140559 l 0.19843,0 z m 0.33073,0.777213 q -0.3638,0.04961 -0.55397,0.124024 -0.19017,0.07441 -0.31419,0.206705 -0.12402,0.132292 -0.12402,0.297656 0,0.165365 0.0992,0.239779 0.0992,0.07441 0.33073,0.07441 0.29766,0 0.56224,-0.214974 l 0,-0.727604 z" />
        <path
           inkscape:connector-curvature="0"
           id="path4255"
           style="font-style:normal;font-variant:normal;font-weight:normal;font-stretch:normal;font-size:15px;line-height:104.99999523%;font-family:'Ume Mincho Balsa';-inkscape-font-specification:'Ume Mincho Balsa, Normal';text-align:center;letter-spacing:-0.5px;word-spacing:0px;writing-mode:lr-tb;text-anchor:middle;fill:#000000;fill-opacity:1;stroke:none;stroke-width:1px;stroke-linecap:butt;stroke-linejoin:miter;stroke-opacity:1"
           d="m -446.92787,-19.922396 0,-0.132291 q -0.28112,0.181901 -0.52917,0.181901 -0.38034,0 -0.57051,-0.231511 -0.19017,-0.23151 -0.19017,-0.628385 0,-0.479558 0.19844,-0.694532 0.19844,-0.214973 0.41341,-0.214973 l 0.16537,0 q 0.21497,0 0.51263,0.214973 l 0.0661,-0.214973 0.16537,0 0,1.653645 q 0,0.413412 -0.19844,0.611849 -0.19844,0.198438 -0.59531,0.198438 -0.24805,0 -0.47129,-0.115755 -0.22324,-0.115756 -0.22324,-0.305925 0,-0.190169 0.16536,-0.173633 0.0992,0.01654 0.13229,0.09922 0.0331,0.08268 -0.0496,0.198438 0.16537,0.165364 0.44649,0.165364 0.26458,0 0.41341,-0.157096 0.14883,-0.157097 0.14883,-0.454753 z m -0.52917,-0.09922 q 0.26458,0 0.52917,-0.165364 l 0,-1.091406 q -0.26459,-0.214974 -0.52917,-0.214974 -0.24805,0 -0.38034,0.190169 -0.13229,0.190169 -0.13229,0.570508 0,0.380338 0.13229,0.545703 0.13229,0.165364 0.38034,0.165364 z" />
        <path
           inkscape:connector-curvature="0"
           id="path4257"
           style="font-style:normal;font-variant:normal;font-weight:normal;font-stretch:normal;font-size:15px;line-height:104.99999523%;font-family:'Ume Mincho Balsa';-inkscape-font-specification:'Ume Mincho Balsa, Normal';text-align:center;letter-spacing:-0.5px;word-spacing:0px;writing-mode:lr-tb;text-anchor:middle;fill:#000000;fill-opacity:1;stroke:none;stroke-width:1px;stroke-linecap:butt;stroke-linejoin:miter;stroke-opacity:1"
           d="m -445.713,-22.46901 q 0,-0.09922 0.0662,-0.165365 0.0661,-0.06615 0.16537,-0.06615 0.0992,0 0.16536,0.06615 0.0661,0.06615 0.0661,0.165365 0,0.08268 -0.0661,0.148828 -0.0661,0.06615 -0.16536,0.06615 -0.0992,0 -0.16537,-0.06615 -0.0662,-0.06615 -0.0662,-0.148828 z m 0.36381,2.579687 0.41341,0 0,0.09922 -1.05833,0 0,-0.09922 0.41341,0 0,-1.504818 -0.41341,0 0,-0.115755 0.5457,-0.132291 0.0992,0 0,1.752864 z" />
        <path
           inkscape:connector-curvature="0"
           id="path4259"
           style="font-style:normal;font-variant:normal;font-weight:normal;font-stretch:normal;font-size:15px;line-height:104.99999523%;font-family:'Ume Mincho Balsa';-inkscape-font-specification:'Ume Mincho Balsa, Normal';text-align:center;letter-spacing:-0.5px;word-spacing:0px;writing-mode:lr-tb;text-anchor:middle;fill:#000000;fill-opacity:1;stroke:none;stroke-width:1px;stroke-linecap:butt;stroke-linejoin:miter;stroke-opacity:1"
           d="m -442.77833,-19.889323 0.24805,0 0,0.09922 -0.7276,0 0,-0.09922 0.24804,0 0,-1.141016 q 0,-0.248046 -0.11575,-0.338997 -0.11575,-0.09095 -0.24805,-0.09095 -0.28112,0 -0.59531,0.396875 l 0,1.174088 0.24805,0 0,0.09922 -0.72761,0 0,-0.09922 0.24805,0 0,-1.504818 -0.21497,0 0,-0.09922 0.33073,-0.148828 0.11575,0 0,0.446484 q 0.26458,-0.446484 0.59531,-0.446484 l 0.0662,0 q 0.19844,0 0.3638,0.157096 0.16536,0.157096 0.16536,0.454752 l 0,1.141016 z" />
        <path
           inkscape:connector-curvature="0"
           id="path4261"
           style="font-style:normal;font-variant:normal;font-weight:normal;font-stretch:normal;font-size:15px;line-height:104.99999523%;font-family:'Ume Mincho Balsa';-inkscape-font-specification:'Ume Mincho Balsa, Normal';text-align:center;letter-spacing:-0.5px;word-spacing:0px;writing-mode:lr-tb;text-anchor:middle;fill:#000000;fill-opacity:1;stroke:none;stroke-width:1px;stroke-linecap:butt;stroke-linejoin:miter;stroke-opacity:1"
           d="m -441.48076,-21.642187 q 0.19843,0 0.38033,0.140559 0.18191,0.14056 0.18191,0.405144 l 0,1.074869 q 0,0.08268 0.0827,0.08268 0.0992,0 0.16536,-0.264584 l 0.0992,0.03307 q -0.0661,0.396875 -0.34726,0.396875 -0.0992,0 -0.16537,-0.06615 -0.0661,-0.06614 -0.0661,-0.148828 -0.23151,0.214974 -0.56223,0.214974 l -0.19844,0 q -0.23151,0 -0.3638,-0.132291 -0.1323,-0.132292 -0.1323,-0.28112 0,-0.330729 0.21498,-0.487826 0.21497,-0.157096 0.44648,-0.223242 0.23151,-0.06615 0.59531,-0.09922 l 0,-0.09922 q 0,-0.214974 -0.12402,-0.305925 -0.12402,-0.09095 -0.32246,-0.09095 -0.14883,0 -0.28939,0.07441 -0.14056,0.07441 -0.14056,0.223242 0,0.09922 -0.0579,0.14056 -0.0579,0.04134 -0.14056,0.04134 -0.0992,0 -0.0992,-0.09922 0,-0.248047 0.23978,-0.388607 0.23977,-0.140559 0.40514,-0.140559 l 0.19844,0 z m 0.33072,0.777213 q -0.3638,0.04961 -0.55397,0.124024 -0.19017,0.07441 -0.31419,0.206705 -0.12402,0.132292 -0.12402,0.297656 0,0.165365 0.0992,0.239779 0.0992,0.07441 0.33073,0.07441 0.29765,0 0.56223,-0.214974 l 0,-0.727604 z" />
        <path
           inkscape:connector-curvature="0"
           id="path4263"
           style="font-style:normal;font-variant:normal;font-weight:normal;font-stretch:normal;font-size:15px;line-height:104.99999523%;font-family:'Ume Mincho Balsa';-inkscape-font-specification:'Ume Mincho Balsa, Normal';text-align:center;letter-spacing:-0.5px;word-spacing:0px;writing-mode:lr-tb;text-anchor:middle;fill:#000000;fill-opacity:1;stroke:none;stroke-width:1px;stroke-linecap:butt;stroke-linejoin:miter;stroke-opacity:1"
           d="m -439.78633,-22.46901 q 0,-0.09922 0.0661,-0.165365 0.0661,-0.06615 0.16536,-0.06615 0.0992,0 0.16537,0.06615 0.0661,0.06615 0.0661,0.165365 0,0.08268 -0.0661,0.148828 -0.0661,0.06615 -0.16537,0.06615 -0.0992,0 -0.16536,-0.06615 -0.0661,-0.06615 -0.0661,-0.148828 z m 0.3638,2.579687 0.41341,0 0,0.09922 -1.05833,0 0,-0.09922 0.41341,0 0,-1.504818 -0.41341,0 0,-0.115755 0.5457,-0.132291 0.0992,0 0,1.752864 z" />
        <path
           inkscape:connector-curvature="0"
           id="path4265"
           style="font-style:normal;font-variant:normal;font-weight:normal;font-stretch:normal;font-size:15px;line-height:104.99999523%;font-family:'Ume Mincho Balsa';-inkscape-font-specification:'Ume Mincho Balsa, Normal';text-align:center;letter-spacing:-0.5px;word-spacing:0px;writing-mode:lr-tb;text-anchor:middle;fill:#000000;fill-opacity:1;stroke:none;stroke-width:1px;stroke-linecap:butt;stroke-linejoin:miter;stroke-opacity:1"
           d="m -437.24853,-21.526432 q -0.24805,0 -0.57878,0.595312 l 0,1.041797 0.24805,0 0,0.09922 -0.72761,0 0,-0.09922 0.24805,0 0,-1.521354 -0.24805,0 0,-0.09922 0.3638,-0.132291 0.11576,0 0,0.529166 q 0.28112,-0.529166 0.57878,-0.529166 l 0.1819,0 q 0.0992,0 0.21497,0.08268 0.11576,0.08268 0.11576,0.264583 0,0.06615 -0.0331,0.124024 -0.0331,0.05788 -0.14882,0.05788 -0.11576,0 -0.14883,-0.107487 -0.0331,-0.107487 0.0827,-0.206706 -0.0992,-0.09922 -0.26458,-0.09922 z" />
        <path
           inkscape:connector-curvature="0"
           id="path4267"
           style="font-style:normal;font-variant:normal;font-weight:normal;font-stretch:normal;font-size:15px;line-height:104.99999523%;font-family:'Ume Mincho Balsa';-inkscape-font-specification:'Ume Mincho Balsa, Normal';text-align:center;letter-spacing:-0.5px;word-spacing:0px;writing-mode:lr-tb;text-anchor:middle;fill:#000000;fill-opacity:1;stroke:none;stroke-width:1px;stroke-linecap:butt;stroke-linejoin:miter;stroke-opacity:1"
           d="m -435.62024,-21.642187 q 0.21497,0 0.40514,0.115755 0.19017,0.115755 0.28112,0.28112 0.091,0.165364 0.091,0.347265 l 0,0.115755 -1.28881,0 q -10e-4,0.02481 -10e-4,0.04961 0,0.363802 0.16536,0.562239 0.16537,0.198438 0.39688,0.198438 0.24805,0 0.41341,-0.09095 0.16537,-0.09095 0.29766,-0.305924 l 0.0992,0.04961 q -0.0992,0.248047 -0.30593,0.396875 -0.2067,0.148828 -0.50436,0.148828 -0.34726,0 -0.58704,-0.264583 -0.23978,-0.264583 -0.23978,-0.694531 0,-0.429948 0.22324,-0.669727 0.22324,-0.239778 0.55397,-0.239778 z m 0.51263,0.74414 q -0.0165,-0.264583 -0.17364,-0.438216 -0.15709,-0.173633 -0.33899,-0.173633 -0.16537,0 -0.339,0.190169 -0.13539,0.147795 -0.16537,0.42168 l 1.017,0 z" />
        <path
           inkscape:connector-curvature="0"
           id="path4269"
           style="font-style:normal;font-variant:normal;font-weight:normal;font-stretch:normal;font-size:15px;line-height:104.99999523%;font-family:'Ume Mincho Balsa';-inkscape-font-specification:'Ume Mincho Balsa, Normal';text-align:center;letter-spacing:-0.5px;word-spacing:0px;writing-mode:lr-tb;text-anchor:middle;fill:#000000;fill-opacity:1;stroke:none;stroke-width:1px;stroke-linecap:butt;stroke-linejoin:miter;stroke-opacity:1"
           d="m -433.03284,-21.642187 0.0992,0 0,0.661458 -0.0992,0 q -0.11575,-0.248047 -0.28112,-0.396875 -0.16536,-0.148828 -0.34726,-0.148828 -0.16537,0 -0.25632,0.09922 -0.091,0.09922 -0.091,0.248047 0,0.148828 0.10749,0.223243 0.10748,0.07441 0.37207,0.140559 0.33072,0.08268 0.49609,0.206706 0.16537,0.124024 0.16537,0.355534 0,0.23151 -0.18191,0.355534 -0.1819,0.124023 -0.51263,0.124023 -0.16536,0 -0.31419,-0.05788 -0.14883,-0.05788 -0.26458,-0.157097 l -0.11576,0.214974 -0.0992,0 0,-0.727604 0.0992,0 q 0.11576,0.297656 0.28939,0.454753 0.17363,0.157096 0.40514,0.157096 0.21498,0 0.32246,-0.115755 0.10749,-0.115755 0.10749,-0.248047 0,-0.148828 -0.11575,-0.223242 -0.11576,-0.07441 -0.39688,-0.14056 -0.34727,-0.06615 -0.49609,-0.206706 -0.14883,-0.14056 -0.14883,-0.355534 0,-0.198437 0.17363,-0.330729 0.17364,-0.132291 0.45476,-0.132291 0.13229,0 0.25631,0.04961 0.12402,0.04961 0.25632,0.165364 l 0.11575,-0.214973 z" />
      </g>
      <g
         transform="translate(2.2577777,-3.9511115)"
         id="g4892">
        <path
           inkscape:connector-curvature="0"
           id="path4271"
           style="font-style:normal;font-variant:normal;font-weight:normal;font-stretch:normal;font-size:15px;line-height:104.99999523%;font-family:'Ume Mincho Balsa';-inkscape-font-specification:'Ume Mincho Balsa, Normal';text-align:center;letter-spacing:-0.5px;word-spacing:0px;writing-mode:lr-tb;text-anchor:middle;fill:#000000;fill-opacity:1;stroke:none;stroke-width:1px;stroke-linecap:butt;stroke-linejoin:miter;stroke-opacity:1"
           d="m -452.39593,-18.817761 0.52917,0 0,0.115756 -0.97565,0.595312 -0.0827,-0.08268 0.52916,-0.628386 z m -0.0165,1.620573 q 0.21498,0 0.40515,0.115755 0.19017,0.115756 0.28112,0.28112 0.091,0.165365 0.091,0.347266 l 0,0.115755 -1.28881,0 q -10e-4,0.02481 -10e-4,0.04961 0,0.363803 0.16536,0.56224 0.16537,0.198438 0.39688,0.198438 0.24805,0 0.41341,-0.09095 0.16537,-0.09095 0.29766,-0.305924 l 0.0992,0.04961 q -0.0992,0.248047 -0.30593,0.396875 -0.20671,0.148828 -0.50436,0.148828 -0.34727,0 -0.58704,-0.264583 -0.23978,-0.264584 -0.23978,-0.694532 0,-0.429947 0.22324,-0.669726 0.22324,-0.239779 0.55397,-0.239779 z m 0.51264,0.744141 q -0.0165,-0.264583 -0.17364,-0.438216 -0.1571,-0.173633 -0.339,-0.173633 -0.16536,0 -0.33899,0.190169 -0.1354,0.147795 -0.16537,0.42168 l 1.017,0 z" />
        <path
           inkscape:connector-curvature="0"
           id="path4273"
           style="font-style:normal;font-variant:normal;font-weight:normal;font-stretch:normal;font-size:15px;line-height:104.99999523%;font-family:'Ume Mincho Balsa';-inkscape-font-specification:'Ume Mincho Balsa, Normal';text-align:center;letter-spacing:-0.5px;word-spacing:0px;writing-mode:lr-tb;text-anchor:middle;fill:#000000;fill-opacity:1;stroke:none;stroke-width:1px;stroke-linecap:butt;stroke-linejoin:miter;stroke-opacity:1"
           d="m -450.08964,-17.081433 q -0.24805,0 -0.57878,0.595313 l 0,1.041797 0.24805,0 0,0.09922 -0.72761,0 0,-0.09922 0.24805,0 0,-1.521354 -0.24805,0 0,-0.09922 0.3638,-0.132292 0.11576,0 0,0.529167 q 0.28112,-0.529167 0.57878,-0.529167 l 0.1819,0 q 0.0992,0 0.21497,0.08268 0.11576,0.08268 0.11576,0.264583 0,0.06615 -0.0331,0.124023 -0.0331,0.05788 -0.14882,0.05788 -0.11576,0 -0.14883,-0.107487 -0.0331,-0.107487 0.0827,-0.206706 -0.0992,-0.09922 -0.26458,-0.09922 z" />
        <path
           inkscape:connector-curvature="0"
           id="path4275"
           style="font-style:normal;font-variant:normal;font-weight:normal;font-stretch:normal;font-size:15px;line-height:104.99999523%;font-family:'Ume Mincho Balsa';-inkscape-font-specification:'Ume Mincho Balsa, Normal';text-align:center;letter-spacing:-0.5px;word-spacing:0px;writing-mode:lr-tb;text-anchor:middle;fill:#000000;fill-opacity:1;stroke:none;stroke-width:1px;stroke-linecap:butt;stroke-linejoin:miter;stroke-opacity:1"
           d="m -449.33779,-16.271146 q 0,-0.413412 0.24805,-0.669727 0.24805,-0.256315 0.62839,-0.256315 0.38033,0 0.63665,0.256315 0.25632,0.256315 0.25632,0.669727 0,0.396875 -0.24805,0.669726 -0.24805,0.272852 -0.64492,0.272852 -0.39688,0 -0.63666,-0.272852 -0.23978,-0.272851 -0.23978,-0.669726 z m 0.28112,0 q 0,0.347266 0.14056,0.587044 0.14056,0.239779 0.45476,0.239779 0.29765,0 0.45475,-0.239779 0.15709,-0.239778 0.15709,-0.587044 0,-0.330729 -0.15709,-0.570508 -0.1571,-0.239779 -0.45475,-0.239779 -0.3142,0 -0.45476,0.239779 -0.14056,0.239779 -0.14056,0.570508 z" />
        <path
           inkscape:connector-curvature="0"
           id="path4277"
           style="font-style:normal;font-variant:normal;font-weight:normal;font-stretch:normal;font-size:15px;line-height:104.99999523%;font-family:'Ume Mincho Balsa';-inkscape-font-specification:'Ume Mincho Balsa, Normal';text-align:center;letter-spacing:-0.5px;word-spacing:0px;writing-mode:lr-tb;text-anchor:middle;fill:#000000;fill-opacity:1;stroke:none;stroke-width:1px;stroke-linecap:butt;stroke-linejoin:miter;stroke-opacity:1"
           d="m -446.51887,-15.97349 q 0,0.248047 0.091,0.347266 0.0909,0.09922 0.23978,0.09922 0.34726,0 0.56224,-0.545704 l 0.0992,0.04961 q -0.1819,0.694531 -0.66146,0.694531 -0.28112,0 -0.42168,-0.157096 -0.14056,-0.157097 -0.14056,-0.487826 l 0,-1.124479 -0.47956,0 0,-0.09922 0.24805,0 q 0.26458,0 0.3638,-0.711067 l 0.0992,0 0,0.711067 0.81029,0 0,0.09922 -0.81029,0 0,1.124479 z" />
        <path
           inkscape:connector-curvature="0"
           id="path4279"
           style="font-style:normal;font-variant:normal;font-weight:normal;font-stretch:normal;font-size:15px;line-height:104.99999523%;font-family:'Ume Mincho Balsa';-inkscape-font-specification:'Ume Mincho Balsa, Normal';text-align:center;letter-spacing:-0.5px;word-spacing:0px;writing-mode:lr-tb;text-anchor:middle;fill:#000000;fill-opacity:1;stroke:none;stroke-width:1px;stroke-linecap:butt;stroke-linejoin:miter;stroke-opacity:1"
           d="m -444.72522,-18.024011 q 0,-0.09922 0.0661,-0.165364 0.0661,-0.06615 0.16536,-0.06615 0.0992,0 0.16537,0.06615 0.0661,0.06615 0.0661,0.165364 0,0.08268 -0.0661,0.148828 -0.0661,0.06615 -0.16537,0.06615 -0.0992,0 -0.16536,-0.06615 -0.0661,-0.06614 -0.0661,-0.148828 z m 0.36381,2.579688 0.41341,0 0,0.09922 -1.05834,0 0,-0.09922 0.41341,0 0,-1.504818 -0.41341,0 0,-0.115755 0.5457,-0.132292 0.0992,0 0,1.752865 z" />
        <path
           inkscape:connector-curvature="0"
           id="path4281"
           style="font-style:normal;font-variant:normal;font-weight:normal;font-stretch:normal;font-size:15px;line-height:104.99999523%;font-family:'Ume Mincho Balsa';-inkscape-font-specification:'Ume Mincho Balsa, Normal';text-align:center;letter-spacing:-0.5px;word-spacing:0px;writing-mode:lr-tb;text-anchor:middle;fill:#000000;fill-opacity:1;stroke:none;stroke-width:1px;stroke-linecap:butt;stroke-linejoin:miter;stroke-opacity:1"
           d="m -441.79055,-14.832474 0.24805,0 0,0.09922 -0.72761,0 0,-0.09922 0.24805,0 0,-0.711068 q -0.26458,0.214974 -0.49609,0.214974 -0.38034,0 -0.59531,-0.256315 -0.21498,-0.256315 -0.21498,-0.65319 0,-0.446485 0.20671,-0.7028 0.2067,-0.256315 0.48782,-0.256315 l 0.0661,0 q 0.29765,0 0.5457,0.28112 l 0.11576,-0.28112 0.11575,0 0,2.364714 z m -0.7276,-0.644922 q 0.23151,0 0.49609,-0.198438 l 0,-1.091406 q -0.24805,-0.297656 -0.5457,-0.297656 -0.21497,0 -0.35553,0.214974 -0.14057,0.214974 -0.14057,0.611849 0,0.347265 0.1571,0.553971 0.1571,0.206706 0.38861,0.206706 z" />
        <path
           inkscape:connector-curvature="0"
           id="path4283"
           style="font-style:normal;font-variant:normal;font-weight:normal;font-stretch:normal;font-size:15px;line-height:104.99999523%;font-family:'Ume Mincho Balsa';-inkscape-font-specification:'Ume Mincho Balsa, Normal';text-align:center;letter-spacing:-0.5px;word-spacing:0px;writing-mode:lr-tb;text-anchor:middle;fill:#000000;fill-opacity:1;stroke:none;stroke-width:1px;stroke-linecap:butt;stroke-linejoin:miter;stroke-opacity:1"
           d="m -441.03869,-15.874271 q 0,0.181901 0.0827,0.264583 0.0827,0.08268 0.23151,0.08268 0.34727,0 0.678,-0.33073 l 0,-1.107942 -0.26459,0 0,-0.09922 0.38034,-0.132292 0.11576,0 0,1.620573 0.21497,0 0,0.09922 -0.33073,0.132292 -0.11575,0 0,-0.363803 q -0.34727,0.380339 -0.678,0.380339 -0.28112,0 -0.41341,-0.157096 -0.13229,-0.157097 -0.13229,-0.388607 l 0,-1.091406 -0.24805,0 0,-0.09922 0.36381,-0.132292 0.11575,0 0,1.322917 z" />
        <path
           inkscape:connector-curvature="0"
           id="path4285"
           style="font-style:normal;font-variant:normal;font-weight:normal;font-stretch:normal;font-size:15px;line-height:104.99999523%;font-family:'Ume Mincho Balsa';-inkscape-font-specification:'Ume Mincho Balsa, Normal';text-align:center;letter-spacing:-0.5px;word-spacing:0px;writing-mode:lr-tb;text-anchor:middle;fill:#000000;fill-opacity:1;stroke:none;stroke-width:1px;stroke-linecap:butt;stroke-linejoin:miter;stroke-opacity:1"
           d="m -438.58358,-17.197188 q 0.21498,0 0.40515,0.115755 0.19017,0.115756 0.28111,0.28112 0.091,0.165365 0.091,0.347266 l 0,0.115755 -1.28881,0 q -0.001,0.02481 -0.001,0.04961 0,0.363803 0.16536,0.56224 0.16537,0.198438 0.39688,0.198438 0.24804,0 0.41341,-0.09095 0.16536,-0.09095 0.29766,-0.305924 l 0.0992,0.04961 q -0.0992,0.248047 -0.30592,0.396875 -0.20671,0.148828 -0.50436,0.148828 -0.34727,0 -0.58705,-0.264583 -0.23978,-0.264584 -0.23978,-0.694532 0,-0.429947 0.22325,-0.669726 0.22324,-0.239779 0.55397,-0.239779 z m 0.51263,0.744141 q -0.0165,-0.264583 -0.17363,-0.438216 -0.1571,-0.173633 -0.339,-0.173633 -0.16536,0 -0.33899,0.190169 -0.1354,0.147795 -0.16537,0.42168 l 1.01699,0 z" />
        <path
           inkscape:connector-curvature="0"
           id="path4287"
           style="font-style:normal;font-variant:normal;font-weight:normal;font-stretch:normal;font-size:15px;line-height:104.99999523%;font-family:'Ume Mincho Balsa';-inkscape-font-specification:'Ume Mincho Balsa, Normal';text-align:center;letter-spacing:-0.5px;word-spacing:0px;writing-mode:lr-tb;text-anchor:middle;fill:#000000;fill-opacity:1;stroke:none;stroke-width:1px;stroke-linecap:butt;stroke-linejoin:miter;stroke-opacity:1"
           d="m -435.99617,-17.197188 0.0992,0 0,0.661459 -0.0992,0 q -0.11576,-0.248047 -0.28112,-0.396875 -0.16537,-0.148829 -0.34727,-0.148829 -0.16536,0 -0.25631,0.09922 -0.0909,0.09922 -0.0909,0.248047 0,0.148828 0.10748,0.223242 0.10749,0.07441 0.37207,0.14056 0.33073,0.08268 0.4961,0.206706 0.16536,0.124023 0.16536,0.355534 0,0.23151 -0.1819,0.355534 -0.1819,0.124023 -0.51263,0.124023 -0.16537,0 -0.31419,-0.05788 -0.14883,-0.05788 -0.26459,-0.157097 l -0.11575,0.214974 -0.0992,0 0,-0.727604 0.0992,0 q 0.11575,0.297656 0.28939,0.454752 0.17363,0.157097 0.40514,0.157097 0.21497,0 0.32246,-0.115755 0.10749,-0.115756 0.10749,-0.248047 0,-0.148828 -0.11576,-0.223243 -0.11575,-0.07441 -0.39687,-0.140559 -0.34727,-0.06615 -0.4961,-0.206706 -0.14882,-0.14056 -0.14882,-0.355534 0,-0.198437 0.17363,-0.330729 0.17363,-0.132292 0.45475,-0.132292 0.13229,0 0.25632,0.04961 0.12402,0.04961 0.25631,0.165364 l 0.11576,-0.214974 z" />
        <path
           inkscape:connector-curvature="0"
           id="path4289"
           style="font-style:normal;font-variant:normal;font-weight:normal;font-stretch:normal;font-size:15px;line-height:104.99999523%;font-family:'Ume Mincho Balsa';-inkscape-font-specification:'Ume Mincho Balsa, Normal';text-align:center;letter-spacing:-0.5px;word-spacing:0px;writing-mode:lr-tb;text-anchor:middle;fill:#000000;fill-opacity:1;stroke:none;stroke-width:1px;stroke-linecap:butt;stroke-linejoin:miter;stroke-opacity:1"
           d="m -435.40968,-15.560078 q 0,-0.115756 0.0827,-0.206706 0.0827,-0.09095 0.21498,-0.09095 0.11575,0 0.19843,0.09095 0.0827,0.09095 0.0827,0.206706 0,0.115755 -0.0827,0.198437 -0.0827,0.08268 -0.19843,0.08268 -0.1323,0 -0.21498,-0.08268 -0.0827,-0.08268 -0.0827,-0.198437 z" />
      </g>
    </g>
  </g>
</svg>
