<?xml version="1.0" encoding="UTF-8" standalone="no"?>
<!-- Created with Inkscape (http://www.inkscape.org/) -->

<svg
   xmlns:dc="http://purl.org/dc/elements/1.1/"
   xmlns:cc="http://creativecommons.org/ns#"
   xmlns:rdf="http://www.w3.org/1999/02/22-rdf-syntax-ns#"
   xmlns:svg="http://www.w3.org/2000/svg"
   xmlns="http://www.w3.org/2000/svg"
   xmlns:xlink="http://www.w3.org/1999/xlink"
   xmlns:sodipodi="http://sodipodi.sourceforge.net/DTD/sodipodi-0.dtd"
   xmlns:inkscape="http://www.inkscape.org/namespaces/inkscape"
   width="48.323502mm"
   height="39.878002mm"
   viewBox="0 0 171.225 141.3"
   id="svg9497"
   version="1.1"
   inkscape:version="0.91 r13725"
   sodipodi:docname="lost-01-couleur.svg">
  <defs
     id="defs9499">
    <inkscape:path-effect
       is_visible="true"
       id="path-effect4249"
       effect="spiro" />
    <inkscape:path-effect
       is_visible="true"
       id="path-effect4245"
       effect="spiro" />
    <inkscape:path-effect
       effect="spiro"
       id="path-effect4241"
       is_visible="true" />
    <inkscape:path-effect
       is_visible="true"
       id="path-effect4237"
       effect="spiro" />
    <inkscape:path-effect
       effect="spiro"
       id="path-effect4225"
       is_visible="true" />
    <inkscape:path-effect
       effect="spiro"
       id="path-effect4221"
       is_visible="true" />
    <inkscape:path-effect
       is_visible="true"
       id="path-effect5494-2-1"
       effect="spiro" />
  </defs>
  <sodipodi:namedview
     id="base"
     pagecolor="#ffffff"
     bordercolor="#666666"
     borderopacity="1.0"
     inkscape:pageopacity="0.0"
     inkscape:pageshadow="2"
     inkscape:zoom="1.5514613"
     inkscape:cx="168.5354"
     inkscape:cy="66.965651"
     inkscape:document-units="px"
     inkscape:current-layer="layer2"
     showgrid="false"
     borderlayer="true"
     fit-margin-top="0"
     fit-margin-left="0"
     fit-margin-right="0"
     fit-margin-bottom="0"
     inkscape:window-width="1920"
     inkscape:window-height="1031"
     inkscape:window-x="0"
     inkscape:window-y="27"
     inkscape:window-maximized="1" />
  <metadata
     id="metadata9502">
    <rdf:RDF>
      <cc:Work
         rdf:about="">
        <dc:format>image/svg+xml</dc:format>
        <dc:type
           rdf:resource="http://purl.org/dc/dcmitype/StillImage" />
        <dc:title></dc:title>
      </cc:Work>
    </rdf:RDF>
  </metadata>
  <g
     inkscape:groupmode="layer"
     id="layer2"
     inkscape:label="couleur"
     style="display:inline"
     transform="translate(-1.3358967,-1.1598182)">
    <image
       style="display:inline"
       y="1.1598105"
       x="1.3358967"
       id="image5586"
       xlink:href="data:image/png;base64,iVBORw0KGgoAAAANSUhEUgAABfIAAAToAQAAAAB4RgylAAAJJGlDQ1BpY2MAAHjalZVnUJNZF8fv 8zzphUASQodQQ5EqJYCUEFoo0quoQOidUEVsiLgCK4qINEUQUUDBVSmyVkSxsCgoYkE3yCKgrBtX ERWUF/Sd0Xnf2Q/7n7n3/OY/Z+4995wPFwCCOFgSvLQnJqULvJ3smIFBwUzwg8L4aSkcT0838I96 Pwyg5XhvBfj3IkREpvGX4sLSyuWnCNIBgLKXWDMrPWWZDy8xPTz+K59dZsFSgUt8Y5mjv/Ho15xv LPqa4+vNXXoVCgAcKfoHDv+B/3vvslQ4gvTYqMhspk9yVHpWmCCSmbbcCR6Xy/QUJEfFJkT+UPC/ Sv4HpUdmpy9HbnLKBkFsdEw68/8ONTIwNATfZ/HW62uPIUb//85nWd+95HoA2LMAIHu+e+GVAHTu AED68XdPbamvlHwAOu7wMwSZ3zzU8oYGBEABdCADFIEq0AS6wAiYAUtgCxyAC/AAviAIrAN8EAMS gQBkgVywDRSAIrAH7AdVoBY0gCbQCk6DTnAeXAHXwW1wFwyDJ0AIJsArIALvwTwEQViIDNEgGUgJ Uod0ICOIDVlDDpAb5A0FQaFQNJQEZUC50HaoCCqFqqA6qAn6BToHXYFuQoPQI2gMmob+hj7BCEyC 6bACrAHrw2yYA7vCvvBaOBpOhXPgfHg3XAHXwyfgDvgKfBsehoXwK3gWAQgRYSDKiC7CRriIBxKM RCECZDNSiJQj9Ugr0o30IfcQITKDfERhUDQUE6WLskQ5o/xQfFQqajOqGFWFOo7qQPWi7qHGUCLU FzQZLY/WQVugeehAdDQ6C12ALkc3otvR19DD6An0ewwGw8CwMGYYZ0wQJg6zEVOMOYhpw1zGDGLG MbNYLFYGq4O1wnpgw7Dp2AJsJfYE9hJ2CDuB/YAj4pRwRjhHXDAuCZeHK8c14y7ihnCTuHm8OF4d b4H3wEfgN+BL8A34bvwd/AR+niBBYBGsCL6EOMI2QgWhlXCNMEp4SyQSVYjmRC9iLHErsYJ4iniD OEb8SKKStElcUggpg7SbdIx0mfSI9JZMJmuQbcnB5HTybnIT+Sr5GfmDGE1MT4wnFiG2RaxarENs SOw1BU9Rp3Ao6yg5lHLKGcodyow4XlxDnCseJr5ZvFr8nPiI+KwETcJQwkMiUaJYolnipsQUFUvV oDpQI6j51CPUq9RxGkJTpXFpfNp2WgPtGm2CjqGz6Dx6HL2IfpI+QBdJUiWNJf0lsyWrJS9IChkI Q4PBYyQwShinGQ8Yn6QUpDhSkVK7pFqlhqTmpOWkbaUjpQul26SHpT/JMGUcZOJl9sp0yjyVRclq y3rJZskekr0mOyNHl7OU48sVyp2WeywPy2vLe8tvlD8i3y8/q6Co4KSQolCpcFVhRpGhaKsYp1im eFFxWommZK0Uq1SmdEnpJVOSyWEmMCuYvUyRsryys3KGcp3ygPK8CkvFTyVPpU3lqSpBla0apVqm 2qMqUlNSc1fLVWtRe6yOV2erx6gfUO9Tn9NgaQRo7NTo1JhiSbN4rBxWC2tUk6xpo5mqWa95Xwuj xdaK1zqodVcb1jbRjtGu1r6jA+uY6sTqHNQZXIFeYb4iaUX9ihFdki5HN1O3RXdMj6Hnppen16n3 Wl9NP1h/r36f/hcDE4MEgwaDJ4ZUQxfDPMNuw7+NtI34RtVG91eSVzqu3LKya+UbYx3jSONDxg9N aCbuJjtNekw+m5qZCkxbTafN1MxCzWrMRth0tie7mH3DHG1uZ77F/Lz5RwtTi3SL0xZ/Wepaxls2 W06tYq2KXNWwatxKxSrMqs5KaM20DrU+bC20UbYJs6m3eW6rahth22g7ydHixHFOcF7bGdgJ7Nrt 5rgW3E3cy/aIvZN9of2AA9XBz6HK4ZmjimO0Y4ujyMnEaaPTZWe0s6vzXucRngKPz2viiVzMXDa5 9LqSXH1cq1yfu2m7Cdy63WF3F/d97qOr1Vcnre70AB48j30eTz1Znqmev3phvDy9qr1eeBt653r3 +dB81vs0+7z3tfMt8X3ip+mX4dfjT/EP8W/ynwuwDygNEAbqB24KvB0kGxQb1BWMDfYPbgyeXeOw Zv+aiRCTkIKQB2tZa7PX3lwnuy5h3YX1lPVh68+EokMDQptDF8I8wurDZsN54TXhIj6Xf4D/KsI2 oixiOtIqsjRyMsoqqjRqKtoqel/0dIxNTHnMTCw3tir2TZxzXG3cXLxH/LH4xYSAhLZEXGJo4rkk alJ8Um+yYnJ28mCKTkpBijDVInV/qkjgKmhMg9LWpnWl05c+xf4MzYwdGWOZ1pnVmR+y/LPOZEtk J2X3b9DesGvDZI5jztGNqI38jT25yrnbcsc2cTbVbYY2h2/u2aK6JX/LxFanrce3EbbFb/stzyCv NO/d9oDt3fkK+Vvzx3c47WgpECsQFIzstNxZ+xPqp9ifBnat3FW560thROGtIoOi8qKFYn7xrZ8N f674eXF31O6BEtOSQ3swe5L2PNhrs/d4qURpTun4Pvd9HWXMssKyd/vX779Zblxee4BwIOOAsMKt oqtSrXJP5UJVTNVwtV11W418za6auYMRB4cO2R5qrVWoLar9dDj28MM6p7qOeo368iOYI5lHXjT4 N/QdZR9tapRtLGr8fCzpmPC49/HeJrOmpmb55pIWuCWjZfpEyIm7J+1PdrXqtta1MdqKToFTGade /hL6y4PTrqd7zrDPtJ5VP1vTTmsv7IA6NnSIOmM6hV1BXYPnXM71dFt2t/+q9+ux88rnqy9IXii5 SLiYf3HxUs6l2cspl2euRF8Z71nf8+Rq4NX7vV69A9dcr9247nj9ah+n79INqxvnb1rcPHeLfavz tuntjn6T/vbfTH5rHzAd6Lhjdqfrrvnd7sFVgxeHbIau3LO/d/0+7/7t4dXDgw/8HjwcCRkRPox4 OPUo4dGbx5mP559sHUWPFj4Vf1r+TP5Z/e9av7cJTYUXxuzH+p/7PH8yzh9/9UfaHwsT+S/IL8on lSabpoymzk87Tt99ueblxKuUV/MzBX9K/FnzWvP12b9s/+oXBYom3gjeLP5d/Fbm7bF3xu96Zj1n n71PfD8/V/hB5sPxj+yPfZ8CPk3OZy1gFyo+a33u/uL6ZXQxcXHxPy6ikLxyKdSVAAAAIGNIUk0A AHomAACAhAAA+gAAAIDoAAB1MAAA6mAAADqYAAAXcJy6UTwAAAACYktHRAAB3YoTpAAAAAlwSFlz AAADIAAAAyAAPOSjYgAAAAd0SU1FB+IGBxcwErBZL34AADjZSURBVHja7Z3fjyXFvdjrzBnmLGLZ HkwkBrHQkyCFRwYjXYYYuefKkVBewh+QB+bGUXgLQxyFtYzpth2BpUu8SHnIRiGM/wSSJ1tBnsYg hgdfhkdfidxpWLTjSMTby6Kdnp2e7nRV9Y/qX9VVXdVdXev93mux50yf7s+p861vfetb3/oWiLUW F6gmuMuvs9zl75ZIc/7Q1ps/+qnW/NEH23rzbw34jDH0Z11zfgBsnflvA2DpzO8DYOrM7+nNHwH9 +Rca858m/HPN+Wca84ea87sJ/3APGZ4f4g/XgQfn30X8g3Xgwfkjvds/xPzL2vIDLLryBym/rSk/ bP/zYDgPegz+JY35vZTf1JQfGf9/M5wBHZj/JuQ/TH6EJS35Ix85b8FwBmjg9ndQ1z3TlR+CJ/zh cB14WP4wHXq3wUxL/iCdu3iDDQCD8kfbqevs6qk/Ueb5JO3/vIb8QcYfDDaADcqfT33DwTzocfjh OKAdfxQ4Ob+rIX/ogtxx9jTkj7ag9c/5bd34L4AS/+Oa8Udw2phRe0MZ0OH4QzLucDpUCGtg/nuz V0PFcAfjv42a30hfRcS/9eAPoPXJvbZwVTP+YBOQcf9wQzN+f6nEDz24JVs5/1Hy//txfMDAj9T/ PpJ/kCkMB394fPRPfxh/vPBf39/txP/nAJQmver5o/CWsQIurgB/e97NjwYvgjgYaArPwf+Kfw8A 51BA7TG74+K3q1HzcCADysgfxocH4JdbaTB8sfbT6CL1eq+2ajTQIgwj/5l/eR/ksgSSibl52n75 c9voukfK30gh/+VUoQm58I//d8vFfpz+TDb55jAeEBt/tHCq+MmPYEZW49Xea6C+aOcOE0Nk5F8B DWI81sKPOjmYHZFv+ir53SZ8cH7t8eO9+sU30t+q7HAOZICY+D3QIrP1R26UrjyLccy5an1iZIAU 8V8F7TJff/8ScWl4Of6H7E+ViNvHyvg9Cj+Y+efO8GVHkR2Hi9230j9Y18t3cQYxoN38UUTlB+78 fx4dhsmF19/96W/9BcgMrVW5zzAeBAP/+XUqP5jPf/ha4L8Sf3jh/HNvz3PjVL2PKv53QZcsAR+s zmJv5fyl1fzNOmqiQE8r4H+nxrtd1yEAoNVZJt56uuFRYH18/jOXgILNe62Bvy6L3SZ++TGITv4b Bf/HYHNtGRz5O934M6N+J/gLjc4fvFLwx7cSU//Gq0EEzm118Dtmw63AACNAJ/9TDiba2Ni2k9fH BzAwa14t6Xpdft90KzCAC9rJnxHd2LTyN/ct691FvNKOP9tvflYWzh2P38+I4t/slf7wTPwmhb/x XskvOXtzXP4PVlNz8nQcVv+23/oDXGxebISauB/LFTp/lBGZTX813Gb8bbP5bvDyH6jgX2pzvI6a +VuuRqvxeyr4n2j5+/XfzLya7i8f0+5mjskf0LojQpqFAJSn9vM3qK2hgH/5g3b+efAguEjiry9d b714G0ifA9D5sfX8/kk7v316/NYm/AU2U/61Of12Y/KnybMdt/j80v/91YfzYM2D9vHfWx+2X5nn c4zEj/vmB913+TRexJG3uLHw6dfB21nj8WPX54DhNmbyv2sPn17uuAxId4EY+F9kuA0Ej56Ndzsu gzec//fR+JnUvxCr8wqokDOpPwCNH1vPbip2QZMhqZMwGv9nyBmwJT7tbEx+3Pwy8QfYjETh9/i0 f3L8DpD9Y6f8r47CH60OwI9G9PnBGPzYefiRXH7kQcz+bgx+1H1l73tCLiiQWNCinR+pvyGZX7pR o/Mvm7L58Zgurwe38h9DU1FaAZUiWIHkTQJa+dFQb8rGj6OdkfjhXOmcLZ0fK9CStIZp5X9vKP73 pNq1Vv51+YMXFjyn/vHA/MEg1hMK6gBgc2B+6LzNzSH4A+SXnBuDfwj8OFxDP4BxXVP+GPMDOU5Q C/9NaP0fHIb/fcwvR4No/NYw/NmWckuGb9umP670qWPB76df4JL4vdr4ofn87kD8eFMt5JfwgBZ+ b7jmT1zDLFY9HP+A6hNncbHEwP2fgfhPnCFr9sTedrou8ouB+G8MZ/3xF0h/gAd9exB+aCHE26ab /wH3nwl+gWb+5P6zD3lvxSHZEACWviM4lWzmd4YsmUTyz+fb5p50/tOh+XMFms0csUlqI//A5icu 0iqgPLonmz+Qv05YfYJHfAHzKOx9o0b+cNDRC8n1t5ycf+ljEPd9XBM/jNGsDIsfH/1nt/gBlsEF Uyb/1kBTX0KObzigJPb7Lx5K4ofW4V7uO3HKaYX/0ppxcMR/m0b+5HYPD80ff+iW+Lcenu97r9uy +K3B+a/6oCJ//Q3/Y5v4Byx3Q0pY5Qfrcvi9gfYq1mTt99VvECxePRDmB0MEzpsk3K/yXwJP8M1p WvhHwY+LvSaZbACweaYRvztzar3gx/vXdeE/vTr7pMYP5oYu/PGND4IG/sXpTUH+kfDjk2BzXv8C 4Ce37P787oj8cTz7RQP/7Brr9KOBf/DJS0n2D52GL/CVAP97o/LH8d97K+tV/q0F45kHDfxgeO+5 Il/tbP+Tah9mdCXq/INs86BLENqP17To0Z783tCxh7qcxPYvaq4Qmw7X+f1RzU8m+x/P3MoWb6bN bnX+4WqFUeXgJD4P3R/CF+rNf5Hlk/LlzQ+CkiF6eK8P/+Z43kNFjuNgp6RBDDGoGr8i9cESxasr m1xduMYfuAr543j3OwT/ebsX/7Chww45+QPh0J3n5/dHH70qEi7cnL+bpMbvqeY/if/f3+b8V7n5 fbLqkBo5y/dML29x83tjxN66pNiz/gIvv6PM/JP8qzuMPaDGr9L8F/K7zJO4YPHxjxQ77JRNXAMG rJj8/KrZoYTPpxOCVW5+1eYHy1E6CqzaXPyhavOfi+fhL0APBVX5/SEPu+KSEx/z/zUXvzsZ/rMw tUG8/JZq8kwe4+cPnWmYHyS3sQ2lFs6t8o8ffGiX8DVkQ6lAFf5oMuYHwtjYBNGWVafMn6WpvKQr /9mXm13T4Aq/PyHzk0iISwPYuvKfXXb4+Cfh/ZPidcSB6vyqicvi8/FPxHsuBJWRnh2y809n+ML8 0I2eHTDyB87k+GEHoFQ9KvP7Q+ftcQv2og12fiOelvhQgdq3u5X5lQffGsSj+tBl/unMXgpBuzVe ZON3JsgfUztAmX9y5hOKRxvBSvzRyCvv7PyzXRb+cHLmEwq0oLPL+vJTt8KW9WdroFNmxITWAar6 L7lehTT+thGgym+rhm3jbwHTgR8VHbEY+MNp8qMsUZOBfzrB27J4jPxql97bxW83oCX+yc1+U4nW Wx0bLfhRB7BZ+CfovmX8Vjf/JN1PTNk2AuvBH7ZGQUn+gB7qVShftC4DVPhfVk3aLBETvz/R4TfG SamWxvx+2wisCT+cwzQWcSb516fLH7UZIII/mkjqSaOw8U/U/CPO5gGszD/B2XsqiQFasTXmbzs9 psxvqMZslajFgyP4zwRLGQwrDPxT9f6ROJ38E40+pBI0azfBH0xr7brO36QeBL8/YfOPpwCWxvxR J783xeB/LqGrNz88Ba5heCX43Unzx7rzu40GtKQ/D6lmpMmXXe3vTdl9iFtyY0r8hmpEEf7InTi/ Q+ef6uJFLo3hhYJ/2sNv3JLcoxF/0MU/Zfc/7mz/YOr6f9oUQiH5ZR9WIFualldI/Zm0+4BY66fP kfzTjZ7k/Ls68yce6OV2fm/y/E0eaME/dfeh+QBenfibSgsU/A54UjVgl1Dbf9LRnzuFv2Zjcv5Q A35Hc36fwj959w0zVn0c3fhp7a8ar1NO6wNAzn9FA/6G7V05/2Rzlxj53bv8d/kZ+B/Rmd+reUAE /9SnvzEagLXmry9C5vzTnz7GTeUFMv5QC/6olT9wJ756kfG36Y8W/HEtiybn18D9T2S7GkLJ+Ked vEHgVsxk3n8159fB/Y/RANzMP/3oc4qpN39A4d9TDcfGX9bzjN/Twf3EIVCjmV8L/QmrITjN+Gtr AJrpT61Cwp3Cr4n9RFshdeb3K5sUCv0xVKMxSVApJpLxT3/1K+dv1J8p585X+W3N+c0GfkcL9z+u zSC143ca+TWZPmJ+o5HfUk3GJm7ZgBb8pmoyNvHKZztqx58MwEt1/mnvHSHFKw8AKf/E6jZSxG/k 97SxP2Ejf6hH+CfGA7BV45988m0uUYv+3+UfScoOUM6vx/QrrjoQOb8Gq0dIItDEr0v4J64eD5fz a6P/5Z3wOf8jPW83upRD6Cm/21wdYooSlNZQc35d+m8zv6/J9D2uRiBy/9lUzcXDb1X5p753sMJv V/l1Cb/F1Y3kefs/qZpLkN/qdzcFUnLg9NMf6MAVG5VzftVUXPzFAIzBI434w1IWfcqvTfgB998i gpU2/JYu4YdENsgIVq7/+vA7pAOU8msTPo8r56On/NqEf+JKBDHvv6qp2KXkwGnKb95Z/Jpk77Xy B2BZH344gD1Y5g/1mf5i/nwAyOynNuGfSgROw/5b2saZ91/VUHz8Zplf9/bXjp/Y9Y75Neq/pRyy TP+1CZ/HZQdUR36nQX904ncJB/rO4Ndn+QuKd8fxB1rx+8QETFd+U2P+gCgmrqP+B4QDpCu/UeLX aPkxbtKfSVfergmcQN5T4tdj82kmUU3/NVp+jMunwWT8hmooDiFPU9Gx/ckJWMZvq2bi5bf05Y+I 8/yy8ctQDcXLH5P8jlbjV13/9Rp/0QTAKvObqpl4xK/zG6qZeIQ4TzGzP0+qZvpL4nfr/IZqJkF+ UzUTj3h3+ZUKtJ/3lvkPVDPxCDGB15Lfr/L7Oi2/xPFJwn9/md9WzcQjQeHAZfpjqWYS5DdVM/EI sQKvpf8W1flN1UxC/Nrsnk2lCABpy59azIzfUo0kxK9T+mRcCkBk/JZqJiF+zex/VATgtOSPq/wa pc8jcfIJTGZ/bNVIgvyWaiQhfkcv/4eYAGsZP6nx+2BXNZIQv17rF2QAK7OfevF7+Qo85t/QkH9B 8G9qyG8Q/Dua2X+3wq/Z/PGO4Cf1X7P4A9L/FYJfN//BzwMQmf/2vGokLgkq/A7YV43EJWGN/0XV SFxSb39LNRKXVPXf1Zxfs/wNIgCa2R+d8udx/yULD2jJbxf8muXP1NpfN/8hqvDrNn+/I/htkt9U jcTPbxX8vvb8hmokLgkq/FocPkXl13D8WujLH1X4tTg8rspv6MuPFpDMgl+j8qt3Dr9B8muoPwR/ oCO/qTE/XMB7pODXTv8dzfuv7vxutf9qlkDglf0HfY7vaOYPy4cKTV9q+rMidLvRxamOv3rz67V/ PyYWwDSs3wXFyTJANeY3Cn696hc18es1flXnv7qNX4i/pP+aLSC5ZX59jj+6Q/idbAEs1x9TNZII v3YbACr6o1sCPfKfEXLOr5qoB3+c8+tU/zzG2GkJmlz/DdVIXPJZ2X/Qjh8uYKzYJL+tGolLYPsv a8zvam5/qvw62h9y54uW7V/it1UjcYlT4dctAQXcAfxl/81UjcQlqxX/2QH3qUbikrr+6LWAVOXX bQGj4j8n/tA51Uj8/HbBH2rG79f49RqAPc353SyBqTi/21bNxCOO5vx+hV83/anaT90WAO48fr38 h6r9v60j/15M6o+tmolHvIr/r9MBhFCq8XPdFpCq81/dKkA4lf6r2wJGjV+zCXA1/qbbDmYvS6As +A3VTNz8hyV+rTI4avqj1wkStfin9vya7YBxK+Ov9vyaZcCBKr9eJ5jh+KEVk/1XK37nTrM/mmVw 18YvrU6QTv0Hq8xvq4b6C+IHDfymaigOqc5/7/KPz1+unKlXCZS6/t/lH1OcGr9eJYDq/Vc/fjL+ Gcfv6WR/zpra31BNxS5hbf6iVwAlAjX7r1UJhVBz/qCuP75ODihuf5vkD/XnV031l8MfgNmGzvqT 9N+gYn+0WsFLYMOK/TnTiT9p/J0Kfww0GoATY7+hOf92pf9q5QAl+u9pz2/EFX59HKBAe/5ZUO2/ evHPP6nMH5M+vWSp5mIVH8zdKr9OKZTJZMWp8+uTwueBmVvV/1Ajfh+s+lV+nVLIfLDmk/UT9OMH XpVfpxWYBL7W/jqlACX8bk1/tvRxgBLnoWY/I40caMRvlvl1mgAkqu6T9WN143dg/zUq/BpFEB3w hFvj12gPmwuecRr4tYlgecAENX6NHFAXmDs1+6NRBAsAc6PGH2mzBA9dtXr/1Yc/buTXaAk7aWm3 Nn5ptASM+O06/1yTL5BYeg+8XOV3tTGgCX+j/msygIVg2a77nzApTjUZmwTI/tT4tXEgEv7ntur2 x9dlAA7ALAR1+3NLlwHMb+bXZgD2wdxv5tdjBhOCRVP7a3OMVoD44xq/owk/mr5rzJ/MHYPS+XGa 8Sdzx6iJP+nXu6rZmPkb+q8m/JGH+K0af6JUWvBvg5fDJv3RJAkd6o7fwm+ohmPjt+5Ufh1CiFh/ 5g38mszAEL+hNX/Qxm+rhuuWo6SVw9L54wS/pZquW75M+ING/fe0WIOBCy1OY/vrMQNzEb/RwK/H AAxDV24bvwYeNGTP6p3oyA91PzM0dX5bNV6nQCOTOQoVfkcHAwr7rjPba+J3dejAcJ0CNOu/pwM/ aOcPNPCgk0HKyHfrVPhDAC6o5hPhj8D0PbhAc/5ER17OlyqqhefB9A0oDH228jvTN0BfoelL8/gF +afuQYTE9LfG/970+T9H+rNo5g+nH4KAmc86828nGuJS+KdugKD7mefa1g7umL4B6uQ3VBN28zut /NP3oB3E/1ILf+JBP6uakIW/pf/CkXlNNSFdoIK0678PJh4DjTB/W/sHU+cPIH/eSWv8cAA4UM1I Ex8ayHyQqh/cBCYeA4VnPRbnndb4IzBxDy4EK1ZRbKDe/skAMDtUDUkR6Pp7FH4fTHsEg9HnItW/ zj/1KbCD+DMV15Pf6+C3VENSBLuf7fozcQMKo1cJ9SqVf8IGFO2y8MHFdn7oQfxQNWaroKOWi2Jd LfzTnQPDyGEEuvin68L5aPG6k99UzdmfPwRTHgGg+0Dnj7anPAJ4mP96Oz/ygCZrQT2U/EBU3Wjm n6wCwZljB/+pM11+ZDp9On88YQOEuq5D54+2psufNP0i+Q3S1euW9ofVrRe2alQaf+5gtvLPLNWo bfwGmWfefHC0N9kRwIeazcT/8KFq1iZxcfIAXX9ghhwAu6pZmwSU3c8W/qOpWlC0xSgk2Jr5jxG/ pZq2Nz86n2GKm2mR6WTgRy7QBGfxiN8jvJsW/gBM0wfdxNETNv4JbibZgOaT3Ofbwo8PKLmsGrcq EfLcXCK80MaPDvh4STVvVUIUWSA1m85vqQauSIQiOw5hWdr4r6EOPLUvgHfIAgb+P6MKy1sT40fp kaT70MqPK7yD51QTlwV5nyELPzZAYFM1cQ3qhXKl7Vb+r/APcKQamRS8tsvGfwvzr7ymGrrC/3K5 zEMrf/wB/gIbqqEJCQAOnhPR8Xb+I8yfR+omIEFq/pn4UwsEjJuqsUl+EJ+5fPyzyfBHO0l/hJ2A cIzb+VMLCoBrqwbP+Neh5Q9LExMKf5DyA8tSTZ7yZ+aTjT9cSfnPP6OaHMtN5H36pQRDCn+8n/0A q523HkWuIvMTliIjNP5bGT84VY2essIpYQBmjPxoIQnJNBQI5sbvQvO/x8Yf38q+wCSWs+GyyiM4 AsfIj2dhiawbquEhP/IeEqu4ysx/eiUbhFXDxzgoiPjJ/FQ6f5zxn1MNn8g3KCabmM972fkvOekX sFXTxyceMp9J+z/Mzh96G5hfNT12BxbpFJKd3/en0v6fY36v3Bk7+OMb/hr2ISzV/O+ggFoI+Pjj YBP/AHuq+X+J5lJBJTepkz+0JjENi2yAJr9hJSzeyR/vvQnwR9XyP4R7oVtZlujmj/e8KSxmpFbE 4eefxmIMZPi39e1FTPye8hEg+ne4D8Ip2Au8/FNICPoaN2FYbUgm/nBH+XKwi/ndXvxnvmp+pMGv IP5lfv54R7ULjZr/b9B/V2x+/ncU83/rpuu5ifm50INf9bZsP/WBo5oeM/L7ag2Qk/L7IvyWMvzr iN/CGHt9+AOlBgh7YLYde7XMeEb+SCV/mE/B3b78KiurHWP+83b8bvKfi+U/svJ76vhv5Pxv1LWA lT9SNwBgfAjugVLsUA/+m+lCkIXjsXY//lDZDMC/iPDnFl6S7slP5kyPKlEag01a7/eg7gVw8KvZ k+TjsXcWYyfO7MvvKuL/APPPUyfI6ssfKNKfNAD7aspvCvDbCvDfBZn6hKgjHPblD5Xw37yQrz+E blMUgYffGp//C5APXgEQ4ldS2jRbv0p++mgTNJhPdn4lta3dFD+ZM0ZraTfWiD/K+I0YB+DqtQEn zR+n+LCew7HTOAVk53fAA2Pjv1H03t+2xDB5+EePQKT4my/G8c8cUf7xzyfP1j797Kss169h5x/9 eM7jjH+eJYOtiPD7Y08AsgTCpNfe8DMfuj9/MDZ/2nvn39jpOLDSkM/Pw2+Mip+lrz2T/HMLNFt/ Hv5wZP2/sp5pT/ZVDCH+aOQJzC9z43+wKYd/XAc6nTe+dXj2aT4HEOEPxnWgb2L+xW7s470U4IYY fzjuBDJ1nQ07nH+M458nYvzRuPwgC5sEc/xLnG+8jKv97fHw/ZT/iXwOc784/3j4Kf/aLJ/DkEmf vfjjMds/jdk+UEzBru6J81uj8WN/bTHPs/jvbbmQg3/M44GxyZwtil0UevGnQ5Z9lvXjtkdPlH8Z TVcuxMEqZezl5B/zeGw83drNndBW15GL3xwL/ypq8y+KYaB16jFNfjRmza/mU+DZZQn8znj8yOi/ gHeMwG8yP9CK/xA2+7KNC/lA/h9RvikHvzES/zsA84fZFOZYBv94AcS3oMo/Fcd/6DD+vPyXR+J3 scU/SX0fWiGQSfpvkPvRovl/ZNMuZb7raONvVsDw47T5jynXTpEfqc1B7jpb9Gs5+O1x+OHo9VQc vZ7PAeTwj6b/HnYY0ryHpyXxR2PNX1CaiZH5Dh0nKk+RP6Fewrt9AUpalcQ/lv+cqk/qetoS+W3W a4X5jcOMv+PiCfZfSH2YWs+FIY3/bET+Wfo1updMOPjHsv8g2yeYdGOJ/GONX9BpfhZvOWAo4Ta9 +L8P0ioJLOrDFf8cZ/0F7xCMul2fafJHlxK1MdPuK5d/lPW7MPEe7jdxBUyGBpte+wOU6uylcwB5 /MFI+u+g7rvOMPby8fvj8Cfdd8lAm5WZ9HVy7Z+YzyUcOZkZUvn9cdaPfHQE9EeMzc+VP3Yv66WC /Is4ks+f2IX7RuI3ODaM8vCPkj/jQbP5JaP14cu/NUfAhyHb1PrbOvLHINsmy2btJsifrlnfI53f GJX/ulz+kU4mDzPnmfFhzPz+OPbnT0PxB+PsAPbTCqXS+b1x+Nfx8VLy+ZMuNd8bHB8f/pbwP2hJ 5ndGaf+Ef8mCWy1Yi8fz8Nd3P8gXF6zYPEdQMvPDEX34etwRrI9w5rBXzOPYfzqGAUXbXEOHPVTP yo8TQcyh+V1IHrI6bxz8PjULSpp4kHyH1Xnm5h98Buzj+vLsD+LjH7wHoCABz3M49u+zhjRE5Era /oZsfnccfgcfr8NuKFj5s0KOA/P7YG5z1crgs5+DL6Fug4V9e0j+gUv5Qs33eJqJo34C03qsBH63 XCFTMv+wPRifTc/Ry9jnjy+5IwxhkN8bhD+IP18fvP2TUfJJvo2WHOun7295Q4/APi7ROAx//CHk X2a/vh//CddGXS7+Xw89gqXuG8dvzMOPJha1ChIyxcPu21D8yAsyBuSHRVa+5XoEHz9HYKaXQNX3 ufJk+fi/GdgAOeXDZaXz3xyY3xuYPxrYALmIn6eF+Phr5ZclC/x1nUqFTKn8iRs3uz4kPzyclcfH 7cE/4JFUePZ4nuMTnPwwqXS4Dhzi45nu5/gIL/9/GHIACCuHy8rnH7aOHdyiOzz/cFPItP1NXflh iiNnmYA+/IdD8vvD8sMReHcofqj/nGVuePmr509IFVjjz+WzD9z8/oCrGInr/zpnhICbf8h17GuI f9j2jwbk98C9pcNlh+Afsv195H4+NCj/6YCFTOH0Zej2H7IQK+TnNG999H9Yfr5Tw/nbf8BCssn0 kbfKEz8/V3iYT5wx+L8Zkt8cnj8Y7iwhF5i8VXr4+QdMRET8Q7f/gIVkXWCNwj/UDNIB1teD68+A DpAD7I9g3Ydh+TcG4/eA+QfO6WkP/u3B+JP+6w3OjxdJBpHEMvBWGe3B7w8VgYCWjbfKaw/+wTZy Qn5e72pi/JbDmPc/UX6bt0jP9PjNEfi5pqhc/LzOSQ/+eKgBGIb/x+AfqhBZYpgf05c/em0HgEtj 8HuD8F+EVYYv8U7u+vEP4UCjomMXx+Hn83FZxMflci7y2uY+/P4ASUz+EyDlt0bglz+ApXVK18Zp f/n8X2P+zTH0f4Cd5Fl66Sj2Z4BKymmFdrA9hv7Lr8SdVenlT8/pyW/L5Q8K/BW+T/bUf0suv1/w G8PzS6+Ejiq+pcKTPNOTX7r+BAQ/3/SxF7/0SmSE+vC6Vj35Lan8zl1+zudJdaBPSf4x9F/yBICw /txT6178ko9CQt13bVV3fnc0/s+kToDxwZTn/tt4/HL1H/Fbz8bj8ftSA1jolEE7s6Jj2E/J/BD7 pfhEa/79+ATbH3MUfpkrSND8PHKQVQsfg1/uWcA7qEjyccrP2TJ9+W15/NvI6GSnDY7BL3cC4yD+ a6n/wJM835df6gQeHlT2dH5e1ij6LzWAAr23nxQRCGMU/tmeVH678EFH4peGD92GBeFDmyPwn8nU Hxe1eT4Ftkbgl3oUjFNS/3H4ZZaiT0z+zYz/udH4bVn4OB8Wx58ff8d5bBR+iUd5YH4c/n/8f3z4 O86GUa7/EQo5wynMbHF0dnTG+fG+/IYsfpyPD6cw8z6TOuXt7yPzj2aOu6PxS1zB9uFRNcj8/KDP x/van+/J4veg+vs9Zo5i/NImkGgxc73HyCXCLzEF18d7NmHhk/H45QVwo22AD9lcs0bk59wkR+MH Gb89Ir+8AFyY8Rv9Pt+Xv+fjauJnh3WMyu/zTrMpLZEMJQH/vEWUX9YEzIN20wO9Axp99UeW/ffA DJU7vzAq/++l9V8YSoU12/veT7X9CcB8L+LO2hDnl6U/0BMJR+eXF0AHivhl2Z/stAhLY36PvVz1 BPlNodL2/fh5d1l28ptj80uynwEefvu3Rl9+SfYnwhVbxua/KZM/1JgfroSEIvs5+vHHjjz+PaGK Ej35ZbU/NMQBWv8alV/aAl7q/ljj89tS+OHIFYhs6Fbc/pBfQfvHsvhhIMkV+TEnwS/gjPS1n9L4 DbH90GrbH+6YPVPAL8v/hIksoVAwWy0/DD6LLUb11R85/GgcEVrM7Mnf82MN/JbYufK929+WwR+A mSU2lqvVHx+3v8AdlPPbn6vgl3QWuY+nLwL3Us8vlsyolt8F9wuuxfb2H16Uwe+g40ZEYjFq/R8H rKjhl6Q/qOCbCn5JCWSJ+y9YDkwtf6I7grngav2fpBkCsamQ2vlXwn/qCNUz7t3+tgR8qPu3xUIx vfkNOfyXfSX8khLgUMExIVPQe/wSeSh5Gx8s2ePzS0pgFXY/VevPTBm/IQEf7iPwwTmRWyi1P/C0 TcE7Keafi/6SPfnlJKDgeuH68sM0FsE79dYfvfnlJLD6YB6p6b/S+EVHkt76b0jhX4iO5L35TQn8 UPcFVzKVzh8TfqHFx/78jpQNDB6qd24r4HfBgxL4HWX8csYvVC9fbCat1P9J+K8JRuKV2h8XmN+C ua2AX878ZQtYAVgSbIKeHzPE8eHKXSDYkVS2P1y5EzUEveMPEvjh9F20lFBv/ZHGL3YjlfYHZiGI 3kil/xmh6fujKvhl2R/hGymdPyb2R7Qjqee31PAb4vhh4jso4g/l8C+EDXFP/s9l8YsO5CrbPwAr wgvJPfl9GfPfr8GSLZqI3JvfFOf/M5gJV6JS2f5fgZlwJbDe/oMEfg/M1fFLiJ8k9udEUf+V4n8i +ymYyNhb/w1x/gDMT0UTAVXyi2efCPBL8N9c8IRwJTm1/M+r4peyATsAhir9kcJ/BRiC2Q8C+iOB /9ew/wrqoUp+DyyE79Pbf5bQfz3+4/omxe8AS3ge2pM/kKE/DjxuUA2/DPtz6oIXhMcRtePXC8Lr UL31Rwr/QjgO2ZtfwgYSAJ4XjoMp7L8BCr/pzm8o4Zcx/oaa8/c5blMevyGDXzyPt7f+y+AXD9+q 9H/gPYTjGAr5oQ1T1f6RBP1J5l7ieeC9/bd7hflhER5V/VcWv7Okhl/GCRifova3lfDLKOD1q+Qe OvOHYC5eB0Yhf2I/xQ+iUOj/BzB8ojG/D/lFb9N7/JXU/qJurML5iw8uXFLFLyP+4MLws8b8joTw rUr7icK3hir+FVuc33B5j5uVxX8sQX8ADH8Kbb7rzy+jAArKvlVk/2UUYEraX5n9CSXYfyAh/K/S f0j4xdOoFfI7kN9Swy/D/gO4/PWMtvww/PYetxk+lMUvPP8NUPjQ4PvQUfJ/cviF2z9A4VuL70Nv frG/J4Nfgv1M9Od13umv/YufffxIJIFfRgFoAHg3f0VPOTPnwuvkd1Y6/r7OWbvodXhG9sr3pfAL 91+fe/kiuoRPyXtVCr/d64OFeMj+8NzFS48ofEWcX0IBr5Cb3035d2zyvX5PFy9gFIJlPv70gOmy AvXkP5Gh/4tTLvv/RX7G5d8I80vw33wU/uTg93J+4tnq4lfJEM7Ff+Dm/OBAlP/MGZ3/WoFPjBr9 +y/7k5sFpp7w/Ir/ieC/Z1eUX7z/JvxcWniO4C/cVnXxBw+GD9nvEpH4hQKp678ezF5lfzo+oRak RmhFkD8CoguHvPzpAdPpf3LvV2X/XUTJEMwoUdrwFysjQF9+8QKCHhy/mN1neMYZAOej1+du6Zjp /v6/BH6O/ovV/2IygwxLBkjd/MWF+s98F6T3s+fgoy+SBkjd/IWP3ysaPZwKv8mx/OIUnTZChzXb QvziC8/JCP4qO39IGs0/gOK8y/7tbwnyu+Al9vBzWJq2EB24v/9jC/NzbH6H3bdYqjlf/Bjq+B1Y +5NVf2D3NQ+zV6Ewv4T+m/B/xsVv7RJPBwtbjF+s7E3Shi5cfmHlT0zOGvEycZxmlhi/aPzwjIvf KR9xeTs3QL39Nzn8FtvFtQOa89e9+UX9B3jyILMRrvJHwvxgdjAu/2yXfO0K8ssYf2fsk4jE/Mz2 Kt9elN8W5ecofpI097zEnzz/ggi/ePwZF89hvEnS/oZV+fRMhF98/gj5mYPAXlVdw+zEb2X8Icpe ZX5a5ZcKsymkMv/H58i+vVo7Xz3aSQew/vyWGH+Awp9s/Ee1E1Ihv6GUP+TI3r5WP+H1TUF+4QNU PFS7l+0m39b5kznYfSL8wvEfntq3fv2E10iw/WXwM+t/Yj4vV99L+G0Bfk888ZqHv+T9IHFwBmRf /i1Rftz+FuN3rUf70iGhv/6wPbpVfBR+tpmuBQ1VIjw8APRd/xLmD4DBfPAmaMiWTT3Q/v6nOD9r +DBsSpMQ4xc8NSrmyj5vPCBbjF+8AKvLvvzlN6XZhKL8llr+yBHpvzI2bvHoj1V/Vzm/xVoEo9nO 4mOb+/Kvi4+/1tfs+mM3vivALxp/CJMJ3EeM/F7jwxTzc9SudsBqI7+A/givX4TbUP/Z+Mux20wC If0Xtf+wATzwBOOzHmt4V1R/xPjx7gWb8VKjmd8W4Tf6fZC4AaMPGDS3lVr+CO0+YuJvcbOxA6RK f0J09B1TGzSbz9QBUhV/gNnzjEdnec3tHwnyC+GjADzj7p0WflxDXlX7c/C3ZTmh4UNV/CRE4UMm /rdb3Dx08HT/+IklxB/Bzfts7g9o4f8Mfr4v/6+F23/Ougbexu+LtL/oAd4Be/izjT8QaX/RwnMB e+3qtk0maFrWn98Q5AeM/K3dXIhfdOdlCM4xrmG2uuqC/Fa/D+YPNxj3kIVtrtaZI6Q/QviwABVj 9mcrP9IBVfx/gPaTqf2T4few+S9i/dcW4ndh7X+m8as9SdoBDwnwm4L8JiO/18rvogJmqvhZw4dO 62UuuE+Z/WfnB63dBDL09z9F+VmPXhuGX/zcBMbsyWiLwr9Qtv7lwpPrWexnuNX6S4vxm0L8Hqzd y8IftM9yFPO7TPwn7Z6KJ2A/Rf0fBxZ/YNF/ipd6TYjf7vfBgp9N/4P2SPGXAvojGn8GcPmXqf+2 P8kX4N8Q40+o9tmyhylJEoEAv2gBL4f16D5vsvxs4UMKv4/OX+zLz/JwGr/tlAohtPO3ekmBEL8p yG+xmTBKpVcRflH/GZ29wMZvtPP3t/+i7c+8fLHd/qBQnf7go08Z+GlB3kiAX9D/Dzn4F+1/68// tmj7z9lcqIiy0CbCL6w/c7YULrr+gDHmL9ef2T2qXhyyhv9DQOu/cA15YP7Llz9dvrD4XqXulg/D z6L8Z2gLRz9+1vWX4zcXb4BzYF7JAPABuOG0xdUq/EbrH4XGLyb+6F+D+RIAYOn890vOQsIfOCxb +KhBdqH4lcFyWZhXnFgrPQjyM7n/1BxXof7LxL9C1MwwS18fsJWAH4qfrf1LRT8uvkx+/flNpuUL j/Ytnf78TP7zoU/yrxkmwb9gy352i1IhTfy97Q/TASTfbJWKrqyQ/HO24iFUPRXQHxb+o/dAWcyD Aoux9jl1ki+gPyzBV6+CD+7N+d+G2dss9sehXeX1H38Zgk+31qv8xW/2Nmv2LTVPyoWTiKH4w1s1 /GIq6AObzX8AdP1/cTj9D6/V+fPCYS54lUn/I2qFR6e//xB0+89OA38GA8BLPrhfmF/EfzM6v2ET /2HGv/BY+OlxSrd//+0+gLxo/hnBb2ZYBlME4wZ1kBPov37n4Jkzf3e+Dhy3PISx8vtD8Qdd7f9V Pup+/83/CH7mbqc/wG7K/yJTBuntDv0R4Kc/PfPczoGDJ/eP4xv7V/HrOf4YCr8x2H+fmiMHRPSn 4+kYd30t4T0+Tly5/fQLzbn4k0601/5XgfG3kx9335eKN9ZSd8LC385iyj4E1AMOvP72s8N/jrDn PCNm7YGNKhheNPn4H1XDv4P594u3QvtK7gOFqHay1f0Y+hqBN5z/CfmXSvzwvG4o9/Pw042UAw6H 4kddFZyU3sMm9RzmZwq/hV38Q9lPZD7n95TfvPWP0Beo8Vsm5TYvUvmNgfS/VGMul2OCP15P+V3L 2G29D32OLMDfMft4rzRbyfl/Dd+2S7Xzw61z8zco/BblKULzX6r3vpFb+vrXSr5AUBx9GiaztF/8 rwebb+PR239dJH5Ca/9ovZk/gO8vWVCvb6fhBxc5qC2N4dFjFALx2w7+Zny4aw3xY/uZIaadopGf qqVC/AvqX0HzL49ovwf5X0trCmShlcNe/APln/ugJWsN/QDPpvYT8mcB0uWDpstdai8TWX+h208X tMxbYW9NmDzED2+TB3gbL3foVgL0H3/p+uOANsO3iX4ZD2X/x6miEX517T7UUR6Ag2H4QWvSY5S2 /xxVoL1Z8Dc1dNiRYiO0/vJI+x8h5A/avxpIlOZBtHznbxf8zzbwd8wxhdYvHmj/Ywjaxx0n5Uf6 EywTsZX6JyI6v1j/pVi2sKlgSf7FE2MDUv3/mowNmU33GYqf6j8HoP14v3fT7gr1J/qI5K+j+h1L HALxQ+oB3slz2wuD4wF3AflDEh/c03QfKoRA/w3pcXnKuYiYHxVvKfOf36u175D8lJHFpekt5jdh +DZMQ0RtHQB0BDkE+L/u4G//o5+1/8Mp//nvXFgtIiuERB38J0L5J9R1KcpdcVzagAtz0PzM/urC j8xN9N5Pau1Ldx+G4o+oz0UuHORfRMj6/5V1kkYb52blyg5+kfwBmv/W8bujDmA4KAMIgDVrL3nv stPQAYJO/efiP7x602LiD0H35CDhn4UgCw8eH6If4MkaP9X94cs/PPh09kXIxB90DpuIH7rQwDhM mzILbRHidbg/XPxHHy0B4PqM/CbtVog/+d8lwu1HP8oFu/Q9tzpCXD4XP9LQPOWIFr/yO93GhDu1 +cfZmx/VLGgEOvg9HvuTzrP/Nmdc0C61abeCLbEEKvP2P8NXpTBKtNp5H3b+t3ZSv+sQv6bFrzqi HuTKJNEITnXSE4GO+zgc+uOsp/yX8euQ2v4GKz9xIXSsZ9eJy8Iu/ivs/B9Xn0hr/66NFQS/VeHf LV9GH74c5v0LZx9Xf3Fa9pfb8VzC7bSJd91Kf03U8OEOftb9v6FffSTF/oROV2ZDcTPizfch/8Xi dbTdtcIEmPdfk/yLtA3b+TtP1fxldi9SB9GxKAQN7L6XaXdBs2M2fpeYZuCwX0BLC+9amXbLbVF8 bwB2S/zUu5w54AVGfvLsNgxH6b/ddUH+3GB+4nRcK72k3iVi1x+H5Dc7+BlqCzbPuBD/bvaq03xy 8JP4OImKMn9kKMubDubz8nVQrRaXs1cBoKVOxmlhCyb+8jwbdPAz1NXI+MvvQiNRrLiCzm4En8PE X0lFstCXX7Rf3ZnYEDR0X4w8y3UKdJlP1M+Y+FPruXppC/33Qkw9QIUhMTJo6r5pN8PQaAHf6roJ G3+0ARvm7bXvxV+uZwpEgWTYV+o3dd9UT79f/NPu4mfTH3z22fsnP4n9jWwIpmQPsvM/VG0o+OZj +TNnnTdh67+I/wewXU6+ch3cbsc0/s7U1pS/umqKGv38v7TTZ847b8LW/sguXIN3TUceEzbVve2X dycmOc36gwbmxw5uYheju/3Z9J+0a276u4dC/Tc1oM1vmx/esH7T1L3rF7Pxw7s+eB3/++/gF1ih GkmW1G6/mf86evsN8EDAxM9Wv2sfIt/MXsFTnFdsGv8VVv6GOyD+lRlws3GGIqz16/4B3utq9ura OYAzGFohWUpjNeenpPzpolJXejR6DgN/UH7UGup4lPZnKW0RtejHFumod/JbTPx+mf9ixm+38hud 92xLkLjJwQ/68YeIn2J/OqdfGX9DAxxvF/zzzluw8Sd9aUHkQWL+uPX2USnrs/1LNnv3hKvYUZw4 ZK1/65Y1NcQeHI3f7rxn1KYfzbGJlm8a9+FHB2nbgRh/05EuVf6OOzDzOxWgP0H+9kGWrSxga3Dq iwz/wY47eIz6U0sGCKvtH4ZknidbWcb2pfWM3+zmt1j4g+rZc1ChLNL+nHjbb/bgbwbEqXOAmnfO y19RFch/iXjTL6XCs+nPaWsDpxboqa474GlGJ3/t6Ej0zR8jvlRY7myMZWFbN6CfrCH+H3bdALDz V57kwdRmgh8O+j8hP2Az8Ldu4D5By3rdbYCHSSb+Co9fHh6DsrVmLEv6Vbt76YLza493fT5iPD+o YRE5KLsneC71veIDTGUBw/YHr4MLRufnOfirljgojy9O+SXjqSjhVuufno6vH3R+Pq3r1cnvNxgK h2z//Ro/29HANA056/74J/iJnfxeg5/7CcnvVtyVK4xlqY+ZrmoVh/H8L6+h/UOSP23+3On8XPxo V5n8TgN/QNifMOPPvg9rWXMxOWPlb3JkS/xVf5FtX7ioZGaRpf2bPpzzR1V+1lOZRuJvms2S+u/n /Eb2hlhlODYJGPnDxnnGlaL9vep8lf1QcUF+g4W/OQcqLKb0tXiBMwr/HxnPn/Ub/Vy/UBcUiHpz dH6X8fzf5vKbXs4Pk4xmxl6Jn+1UIzFxGPn9Dn7Ula09NAgs0juzlDUUlNyrZ+C3u/jX4viqk3dg 0crQTBJk9rqbv2k0vZXzZ3EQP5tyh6KVuZnEYz3//UqzN+BU+W846S/albw3Mv8nzaNpHtPy0unB acbvT4u/ZTRys96au6dOqj+j8Zvt/AdG/s8Wa+5n3//rrH/DLg2T/neET+ZkkW0q/0cFc0uYLOf/ JOOHK5PnfhyH4/C7WaZQE7/nrmQTuLbDS/xsu0eR64aCTkd/dIVP5mQRJ4sJNvLPVv7FrZy/kSaP SrjleeT8s+7AsQQpcrMa+E+WYHasnXE28uc7E4si7LkjOoL7E+V1IRr4Q7T+90LGb1H5iwIN/oj8 t3Mj18D/Fqaw4b9bg8mJ3hzEpfKi0Yj8Nx3wr9r4z3B248qL8EWr/qQDCJnqPyJ/Uf6+zp9OyOcH 8EVrMDZ1E9TxWx38swV+0TIZD/JCGlb2VhbIMofHL8x6nT9fwbRiSi5GgOMqJH8WCRqBvzi+scYf uSS/T+GfIf75LtEo+eeGlj9matHBH7RtxIRadr0cbMv47RH4w5fb+IsUCsi/2Vb/COrPy+Vct5T/ ajym1Ns/j4eYMbQp97XzW5Vcva0p8BcJCJCstf7RmVPnxxbIVstfxNPw8dIt/NBdeKjK743VfSn8 qA2NLCDbHow6QWlwZX4U1lLMj+aB5s9XAVJ9SjANqUo5WA6N6n9VzA/b3/7tpxu4A7QnAWIXfLP0 /ULfmf+XUfHr/FCDT+MDB3UAWvV6NHOppAbFzqL1+nH40+wqvBuLekx9coUZVfv3z58fFz/nN/cO 0H+DNLKGujE1F8DF23/M0psH19Xwn+w+XPAfJv+9tYVMIYXfh56y6DGosvhv7IIjO+XHHs3vED/l jBm0MjMZ/qxgTBbPjGFI36TlYqBd+qLHmEniv7UNJ1wHcaoVSOAc3qcEQ6ABfVb0GHVJ/LBU8+xX dowqtOV/ASvrtLXo5DMbY7s7Lfx4N7QRkxWnUkeo/aPOaN5+F3/mc8ZkvfROfm+02VYXfxZ6ssl4 Wpg7oS3yp47vNx5/5jObcPaYOTRRF384Ff58ymWW9u66TPz2hPhBKS3WY+K31PO7BT+5XB108OPP TYDfyfltr5wISQ8GTo//CZ8oYRB08XtjRds6+HN8sMLF707D/pCH5OwQQCcOoO8hmwg/Hr2ygioF 0Jnbwf+BMwl+7D1khTjn5N/o/Nen0X9R1MZZ2ThX5fcAQyEl9fyomf/+4HS56jAEHfwo4K+c/+vM dV6qtn/QYR5hhRL1/Hku3s9BxWB2tT/SPOX8kPLJ9N+c/N9OYfwK8kZ0K/pTZCm1SNj1Bcfg93Mn 2HcqA67TsRgaTYHfy/lvuBX+TvUAnbtEh+dP5Lv436fwBZm82dk9nQnwOwUk/CmeKeOZXfxjrLaz 8vsVhenkB101bkbgJ3ywbyv67zK0v+IBoNRlo4r+XOniVz+AlXzMqKI/YRd/OIH+S6qM7vw75fHo T13DU2eF2lH4X85f+bVTYk36x5VPwFzgnrPzV0Gt1EAH/4bqAFzCv1niL63ndvL79AN+xuAnN0tW K++SutXG3/ENh+e3i1cRLz/bZv3R+CulU7srSU6Bv/yyov/d/Erx6fy3y+5Eg4ST4zeIV9F25/TK nZr+lPi9NI27Xbxp8ftlcxh2V5JcmxR/5Vjf7lNmfWL0mwB/TBSgjSlFMgoJuy4Yl9854ORXLFV+ r/Sq+5Rf1VLlPyq9Cma68ZclUhwdEeWPD1TzCfJPXu7y3+W/y6+v3OW/y3+XX1+5y6+Y//8DboaR +4MfPcQAAAAldEVYdGRhdGU6Y3JlYXRlADIwMTgtMDYtMDhUMDE6NDg6MTQrMDI6MDDBgetmAAAA JXRFWHRkYXRlOm1vZGlmeQAyMDE4LTA2LTA4VDAxOjQ4OjE0KzAyOjAwsNxT2gAAAB90RVh0cHM6 SGlSZXNCb3VuZGluZ0JveAAxMzd4MTEzKzAtMU5TkL4AAAAcdEVYdHBzOkxldmVsAEFkb2JlLTMu MCBFUFNGLTMuMAqbcLvjAAAAAElFTkSuQmCC "
       preserveAspectRatio="none"
       height="141.3"
       width="171.22501" />
  </g>
</svg>
