<?xml version="1.0" encoding="UTF-8" standalone="no"?>
<!-- Created with Inkscape (http://www.inkscape.org/) -->

<svg
   xmlns:dc="http://purl.org/dc/elements/1.1/"
   xmlns:cc="http://creativecommons.org/ns#"
   xmlns:rdf="http://www.w3.org/1999/02/22-rdf-syntax-ns#"
   xmlns:svg="http://www.w3.org/2000/svg"
   xmlns="http://www.w3.org/2000/svg"
   xmlns:sodipodi="http://sodipodi.sourceforge.net/DTD/sodipodi-0.dtd"
   xmlns:inkscape="http://www.inkscape.org/namespaces/inkscape"
   width="46.269981mm"
   height="42.930847mm"
   viewBox="0 0 46.269982 42.930848"
   version="1.1"
   id="svg51021"
   inkscape:version="0.91 r13725"
   sodipodi:docname="lost-02-couleur.svg">
  <defs
     id="defs51015">
    <clipPath
       clipPathUnits="userSpaceOnUse"
       id="clipPath1755-8">
      <rect
         style="fill:#ffffff;fill-opacity:1;fill-rule:evenodd;stroke:#000000;stroke-width:1.875;stroke-linecap:round;stroke-linejoin:round;stroke-miterlimit:4;stroke-dasharray:none;stroke-opacity:1"
         id="rect1757-46"
         width="160.91911"
         height="73.499458"
         x="-66.708733"
         y="91.882065" />
    </clipPath>
    <inkscape:path-effect
       effect="spiro"
       id="path-effect6081"
       is_visible="true" />
    <inkscape:path-effect
       effect="spiro"
       id="path-effect6083"
       is_visible="true" />
    <inkscape:path-effect
       effect="spiro"
       id="path-effect6085"
       is_visible="true" />
    <inkscape:path-effect
       effect="spiro"
       id="path-effect6099"
       is_visible="true" />
    <inkscape:path-effect
       effect="spiro"
       id="path-effect6097"
       is_visible="true" />
    <inkscape:path-effect
       effect="spiro"
       id="path-effect6095"
       is_visible="true" />
    <clipPath
       clipPathUnits="userSpaceOnUse"
       id="clipPath1755-8-5">
      <rect
         style="fill:#ffffff;fill-opacity:1;fill-rule:evenodd;stroke:#000000;stroke-width:1.875;stroke-linecap:round;stroke-linejoin:round;stroke-miterlimit:4;stroke-dasharray:none;stroke-opacity:1"
         id="rect1757-46-5"
         width="160.91911"
         height="73.499458"
         x="-66.708733"
         y="91.882065" />
    </clipPath>
    <inkscape:path-effect
       effect="spiro"
       id="path-effect6123"
       is_visible="true" />
    <inkscape:path-effect
       effect="spiro"
       id="path-effect6125"
       is_visible="true" />
    <inkscape:path-effect
       effect="spiro"
       id="path-effect6129"
       is_visible="true" />
    <inkscape:path-effect
       effect="spiro"
       id="path-effect6127"
       is_visible="true" />
    <inkscape:path-effect
       effect="spiro"
       id="path-effect6131"
       is_visible="true" />
    <inkscape:path-effect
       effect="spiro"
       id="path-effect6133"
       is_visible="true" />
    <inkscape:path-effect
       effect="spiro"
       id="path-effect6121"
       is_visible="true" />
    <inkscape:path-effect
       effect="spiro"
       id="path-effect6119"
       is_visible="true" />
  </defs>
  <sodipodi:namedview
     id="base"
     pagecolor="#ffffff"
     bordercolor="#666666"
     borderopacity="1.0"
     inkscape:pageopacity="0.0"
     inkscape:pageshadow="2"
     inkscape:zoom="3.8194288"
     inkscape:cx="85.850197"
     inkscape:cy="34.310939"
     inkscape:document-units="mm"
     inkscape:current-layer="layer1"
     showgrid="false"
     fit-margin-top="0"
     fit-margin-left="0"
     fit-margin-right="0"
     fit-margin-bottom="0"
     inkscape:window-width="1920"
     inkscape:window-height="1031"
     inkscape:window-x="0"
     inkscape:window-y="27"
     inkscape:window-maximized="1"
     borderlayer="true"
     inkscape:showpageshadow="false" />
  <metadata
     id="metadata51018">
    <rdf:RDF>
      <cc:Work
         rdf:about="">
        <dc:format>image/svg+xml</dc:format>
        <dc:type
           rdf:resource="http://purl.org/dc/dcmitype/StillImage" />
        <dc:title />
      </cc:Work>
    </rdf:RDF>
  </metadata>
  <g
     inkscape:groupmode="layer"
     id="layer3"
     inkscape:label="color"
     transform="translate(-76.027015,-0.78250411)"
     style="display:inline">
    <rect
       transform="translate(51.811888,-79.428935)"
       style="display:inline;color:#000000;clip-rule:nonzero;overflow:visible;visibility:visible;opacity:1;isolation:auto;mix-blend-mode:normal;color-interpolation:sRGB;color-interpolation-filters:linearRGB;solid-color:#000000;solid-opacity:1;fill:#000000;fill-opacity:1;fill-rule:nonzero;stroke:none;stroke-width:1.875;stroke-linecap:round;stroke-linejoin:round;stroke-miterlimit:4;stroke-dasharray:3.75, 3.75000000000000000;stroke-dashoffset:0;stroke-opacity:1;color-rendering:auto;image-rendering:auto;shape-rendering:auto;text-rendering:auto;enable-background:accumulate"
       id="rect5092-4"
       width="45.242825"
       height="26.139269"
       x="25.242285"
       y="96.967171" />
  </g>
  <g
     inkscape:label="Layer 1"
     inkscape:groupmode="layer"
     id="layer1"
     transform="translate(-24.215127,-80.211438)"
     style="display:inline">
    <g
       id="g4814"
       transform="matrix(0.89900653,0,0,0.89900653,10.321747,11.959184)"
       style="stroke:none">
      <path
         sodipodi:nodetypes="caaaaaaaaaaaaaaaaaaaaaaaaaaaaaaaaaaaaaaaaaaaaaaaaaaaaaaaaaaaaaaaaaaaaaaaaaaaaaaaaaaaaaaaaaaaaaaaaaaaaaaaaaaaaaaaaaaaaaaaaaaaaaaaaaac"
         inkscape:original-d="m 34.892845,110.11292 c 0,0 0.258459,-0.86571 0.106031,-1.25796 -0.150989,-0.38851 -0.799536,-0.44875 -0.918803,-0.84815 -0.09728,-0.32574 -0.0045,-0.76112 0.247368,-0.98947 0.238195,-0.21599 0.823665,0.15245 0.954137,-0.14136 0.206812,-0.46578 -0.844635,-0.76257 -0.848135,-1.27221 -0.0028,-0.2385 0.158214,-0.53949 0.388733,-0.60073 0.371715,-0.0987 0.742103,0.79078 1.024834,0.53006 0.403633,-0.37225 -0.695509,-0.97366 -0.636101,-1.51954 0.04208,-0.38661 0.321141,-0.78519 0.671434,-0.95416 0.18068,-0.0872 0.45864,-0.10634 0.600739,0.0352 0.267603,0.26653 0.0891,0.75362 0.0707,1.13086 -0.01806,0.36946 -0.482994,0.88813 -0.176699,1.0955 0.341264,0.23106 0.761013,-0.35263 1.060167,-0.63612 0.381791,-0.36178 0.365112,-1.21813 0.883469,-1.30751 0.273953,-0.0472 0.401037,0.43002 0.671434,0.49473 0.209042,0.05 0.503569,-0.27525 0.636073,-0.106 0.40338,0.51509 -1.250188,1.34993 -0.777438,1.80224 0.312138,0.29868 0.755763,-0.70025 1.166171,-0.5654 0.240284,0.079 0.361498,0.41862 0.353398,0.67141 -0.0158,0.49676 -1.054579,0.85965 -0.777466,1.2722 0.246211,0.36649 0.988794,0.0936 1.307536,-0.21198 0.295204,-0.28295 0.120142,-0.81291 0.247368,-1.20153 0.09677,-0.29554 0.338724,-0.54122 0.388734,-0.84816 0.0533,-0.32741 -0.185845,-0.66749 -0.106032,-0.98948 0.167442,-0.67541 0.533772,-1.44119 1.166172,-1.7316 0.18325,-0.0841 0.47865,-0.0898 0.60076,0.0707 0.28149,0.36988 -0.2672,0.91666 -0.21203,1.37821 0.0257,0.21502 0.22648,0.3852 0.24737,0.60076 0.0463,0.47829 -0.60438,1.05659 -0.2827,1.41357 0.25343,0.28126 0.87494,-0.38504 1.13083,-0.10603 0.26707,0.29117 0.003,0.8347 -0.21203,1.16617 -0.14755,0.22755 -0.80543,0.2236 -0.67144,0.45937 0.34635,0.6094 1.49338,-0.31851 1.90831,-0.88344 0.32345,-0.44043 -0.0144,-1.12821 0.212,-1.6256 0.3387,-0.74439 0.90918,-1.4432 1.625599,-1.83757 0.32402,-0.1784 0.78732,0.0279 1.09548,-0.1767 0.46292,-0.30732 0.51632,-0.9965 0.88346,-1.41357 0.4425,-0.50268 0.88776,-1.214217 1.55491,-1.272177 0.215449,-0.0186 0.47726,0.12059 0.565429,0.318027 0.132791,0.29752 -0.1614,0.63229 -0.21204,0.95415 -0.0588,0.374 -0.201899,0.76457 -0.106019,1.13084 0.0472,0.18017 0.131879,0.45372 0.318059,0.45943 0.704291,0.0217 0.79872,-1.17351 1.30751,-1.66094 0.26204,-0.25105 0.520731,-0.62705 0.88346,-0.63608 0.238449,-0.006 0.43432,0.21787 0.600769,0.38868 0.173431,0.17797 0.41159,0.38871 0.38873,0.63613 -0.0292,0.31561 -0.644418,0.38992 -0.636098,0.70677 0.007,0.26645 0.47069,0.31629 0.56541,0.56544 0.0713,0.18748 -0.22448,0.53393 -0.0353,0.60073 0.28665,0.10121 0.359658,-0.49039 0.5301,-0.7421 0.305918,-0.45187 0.50478,-0.98527 0.883429,-1.3782 0.35829,-0.37176 0.770391,-0.76213 1.27221,-0.88348 0.173279,-0.042 0.415479,-0.0658 0.53007,0.0707 0.18192,0.21672 -0.003,0.56702 -0.0353,0.84811 -0.0577,0.50033 -0.62727,1.11693 -0.282711,1.48424 0.129941,0.13851 0.436722,0.069 0.56541,-0.0707 0.375502,-0.40753 -0.0801,-1.12765 0.0707,-1.66094 0.223768,-0.79161 0.424259,-1.886147 1.201499,-2.155647 0.144701,-0.0501 0.344819,0.0457 0.42407,0.1767 0.20808,0.34406 -0.148251,0.80165 -0.106,1.201537 0.0505,0.47797 -0.0553,1.41391 0.424039,1.37821 0.62966,-0.0469 -0.210258,-1.478457 0.28273,-1.872977 0.12906,-0.10332 0.35503,0.1237 0.49473,0.0352 0.192191,-0.12169 0.116789,-0.4498 0.247371,-0.63607 0.0719,-0.10256 0.24246,-0.12881 0.282699,-0.2474 0.0579,-0.17063 -0.246439,-0.41715 -0.106,-0.53009 0.411031,-0.33051 1.130921,1.057 1.44887,0.63612 0.4237,-0.56077 -1.40315,-0.92535 -1.34287,-1.6256 0.0186,-0.21638 0.286202,-0.36327 0.494741,-0.42403 0.319899,-0.0931 0.804159,0.41816 0.9895,0.14133 0.296669,-0.443201 -0.92806,-0.85742 -0.8128,-1.37817 0.0494,-0.22335 0.393499,-0.23789 0.565401,-0.38871 0.11916,-0.10456 0.328647,-0.1953 0.318058,-0.3534 -0.0206,-0.30852 -0.694261,-0.29184 -0.70676,-0.60076 -0.01019,-0.24968 0.493522,-0.2829 0.530061,-0.5301 0.0547,-0.37016 -0.3226,-0.6781 -0.530061,-0.98944 -0.227499,-0.341461 -0.576639,-0.5964 -0.777469,-0.95417 -0.103939,-0.18519 -0.375671,-0.46544 -0.21203,-0.600741 0.378318,-0.312899 0.90915,0.411651 1.272201,0.74205 0.568108,0.51712 1.063238,1.157451 1.34287,1.872971 0.419069,1.07239 0.360078,2.27829 0.42407,3.42784 0.055,0.98803 0.264628,2.02545 -0.0353,2.968467 -0.308079,0.96837 -0.99899,1.80482 -1.731611,2.50905 -0.603129,0.57977 -1.46716,0.82008 -2.120299,1.34287 -0.1951,0.15613 -0.47984,0.2853 -0.530101,0.53004 -0.051,0.24855 0.380379,0.47264 0.2827,0.7068 -0.12796,0.30694 -0.589029,0.34586 -0.9188,0.3887 -0.743399,0.0966 -1.84684,-0.96452 -2.226339,-0.318 -0.157389,0.26819 0.684951,0.45499 0.56543,0.74207 -0.17351,0.41681 -0.895009,0.23382 -1.34287,0.1767 -0.529449,-0.0675 -0.965,-0.72435 -1.484229,-0.60077 -0.24362,0.058 -0.466632,0.31657 -0.494741,0.56544 -0.0195,0.17283 0.342761,0.314 0.24737,0.45943 -0.61584,0.93909 -2.26667,-0.0144 -3.357149,-0.28274 -0.471621,-0.11604 -0.857191,-0.56582 -1.34287,-0.56543 -0.33257,2.8e-4 -0.91442,0.0562 -0.9188,0.38874 -0.004,0.28467 0.650809,0.0985 0.777439,0.35339 0.166541,0.33528 -0.360849,0.73875 -0.247369,1.09551 0.1441,0.45305 0.84726,0.52905 1.060169,0.95413 0.17478,0.349 0.306941,0.8315 0.106001,1.16617 -0.125021,0.20819 -0.431371,0.24607 -0.67143,0.2827 -0.85395,0.13036 -2.12833,-0.98392 -2.57971,-0.24736 -0.1605,0.26186 0.64835,0.51144 0.49473,0.77743 -0.40688,0.70448 -1.637789,0.0389 -2.438369,-0.10597 -0.48754,-0.0881 -1.04507,-0.12821 -1.41354,-0.45944 -0.36468,-0.32779 -0.2302,-1.02163 -0.60076,-1.34287 -0.2592,-0.22468 -0.65385,-0.35361 -0.98947,-0.28269 -0.450064,0.0951 -1.151668,0.43262 -1.060172,0.88344 0.0808,0.39804 0.887332,0.0581 1.166202,0.35339 0.24124,0.25553 0.22205,0.67432 0.24737,1.02481 0.0366,0.50741 -0.22691,1.01814 -0.14137,1.51957 0.0807,0.47281 0.46744,0.84681 0.60077,1.30753 0.0991,0.34249 0.37222,0.78851 0.14133,1.06018 -0.25947,0.30529 -0.82025,0.15843 -1.2015,0.0352 -1.031298,-0.33323 -2.056781,-1.02973 -2.57971,-1.97895 -0.25115,-0.45587 0.06358,-1.07654 -0.141365,-1.55493 -0.147941,-0.3453 -0.390427,-0.71611 -0.742104,-0.84811 -0.57864,-0.21719 -1.758498,-0.3656 -1.837632,0.24737 -0.05546,0.42957 0.919676,0.16587 1.201533,0.49473 0.228655,0.26685 0.43908,0.73029 0.247367,1.02481 -0.287387,0.44147 -1.379587,-0.21403 -1.554903,0.28272 -0.113961,0.32289 0.547341,0.45829 0.671435,0.77742 0.145231,0.37347 0.260378,0.87004 0.03533,1.20155 -0.154855,0.22819 -0.592413,0.0782 -0.777437,0.28269 -0.481161,0.53173 0.118618,1.77932 -0.530098,2.08503 -0.424236,0.19987 -0.969462,-0.2426 -1.272173,-0.6008 -0.45015,-0.53264 -0.60955,-1.31829 -0.565438,-2.01428 0.04208,-0.66378 0.872095,-1.17929 0.777465,-1.83763 -0.04764,-0.33145 -0.671237,-0.44448 -0.6361,-0.77744 0.0396,-0.37505 0.674539,-0.39285 0.883468,-0.7068 0.0475,-0.0714 0.07067,-0.24734 0.07067,-0.24734"
         inkscape:path-effect="#path-effect6119"
         inkscape:connector-curvature="0"
         id="path6101"
         d="m 34.892845,110.11292 c 0.162811,-0.16104 0.2658,-0.38123 0.285033,-0.60942 0.01923,-0.22819 -0.04544,-0.46252 -0.179002,-0.64854 -0.122155,-0.17014 -0.295083,-0.29569 -0.463755,-0.41986 -0.168673,-0.12416 -0.33958,-0.25355 -0.455048,-0.42829 -0.10879,-0.16464 -0.162429,-0.37037 -0.122526,-0.56363 0.01995,-0.0966 0.06298,-0.18882 0.126829,-0.26404 0.06385,-0.0752 0.148682,-0.13304 0.243065,-0.1618 0.07951,-0.0242 0.163953,-0.0278 0.24696,-0.0235 0.08301,0.004 0.165456,0.016 0.248374,0.0217 0.08292,0.006 0.167197,0.005 0.247886,-0.0147 0.08069,-0.0199 0.158082,-0.0607 0.210917,-0.12484 0.04472,-0.0543 0.06999,-0.12345 0.0754,-0.19359 0.0054,-0.0701 -0.0085,-0.14112 -0.03577,-0.20597 -0.05451,-0.12971 -0.159378,-0.23196 -0.272651,-0.31541 -0.113273,-0.0834 -0.237198,-0.15171 -0.349567,-0.23637 -0.112369,-0.0847 -0.215248,-0.18948 -0.265547,-0.32087 -0.05061,-0.1322 -0.04151,-0.28809 0.03273,-0.40862 0.03712,-0.0603 0.08965,-0.11115 0.151728,-0.14516 0.06208,-0.034 0.13361,-0.0509 0.20428,-0.0469 0.100243,0.006 0.194443,0.0521 0.274651,0.11254 0.08021,0.0604 0.148721,0.13461 0.220229,0.20508 0.07151,0.0705 0.1477,0.13843 0.237922,0.18248 0.04511,0.022 0.0935,0.0378 0.143337,0.0439 0.04983,0.006 0.101148,0.002 0.148695,-0.0139 0.07672,-0.026 0.141085,-0.0837 0.180471,-0.15444 0.03939,-0.0708 0.05452,-0.15382 0.04859,-0.2346 -0.0059,-0.0808 -0.03231,-0.15933 -0.07108,-0.23045 -0.03877,-0.0711 -0.08972,-0.13507 -0.146086,-0.19324 -0.112724,-0.11634 -0.246638,-0.20975 -0.367772,-0.3173 -0.121134,-0.10756 -0.232579,-0.23468 -0.280229,-0.38951 -0.03183,-0.10341 -0.03332,-0.21535 -0.0088,-0.32072 0.02457,-0.10537 0.07474,-0.20416 0.141709,-0.28914 0.133944,-0.16996 0.331385,-0.28154 0.538478,-0.3443 0.09903,-0.03 0.20199,-0.0499 0.305437,-0.0475 0.103447,0.002 0.207687,0.0277 0.295302,0.0827 0.08836,0.0555 0.157136,0.13986 0.200098,0.23496 0.04296,0.0951 0.06077,0.2006 0.05842,0.30493 -0.0047,0.20867 -0.08774,0.40781 -0.187814,0.59097 -0.09521,0.17425 -0.208068,0.34186 -0.264296,0.5323 -0.02811,0.0952 -0.04144,0.19576 -0.02937,0.2943 0.01207,0.0986 0.05057,0.19509 0.116966,0.2689 0.08591,0.0955 0.215217,0.14749 0.343677,0.1486 0.12846,0.001 0.25508,-0.0462 0.358206,-0.12285 0.103126,-0.0766 0.183543,-0.18127 0.241309,-0.29602 0.05777,-0.11474 0.09361,-0.23953 0.116975,-0.36585 0.05573,-0.30126 0.04347,-0.61921 0.161758,-0.90183 0.05914,-0.1413 0.152746,-0.27174 0.282263,-0.35354 0.06476,-0.0409 0.13789,-0.0691 0.21382,-0.0791 0.07593,-0.01 0.154614,-0.002 0.225628,0.027 0.06565,0.0265 0.123477,0.0696 0.175133,0.11803 0.05166,0.0484 0.09773,0.10241 0.145551,0.15462 0.04782,0.0522 0.09785,0.10305 0.15579,0.14375 0.05794,0.0407 0.124529,0.0711 0.19496,0.0783 0.0543,0.006 0.109266,-0.003 0.161969,-0.0169 0.0527,-0.0142 0.103584,-0.0344 0.154853,-0.0531 0.05127,-0.0188 0.103336,-0.0362 0.157245,-0.0448 0.05391,-0.009 0.11008,-0.008 0.162006,0.009 0.04932,0.016 0.0936,0.0465 0.127456,0.0858 0.03386,0.0393 0.05739,0.0871 0.06956,0.13751 0.02434,0.1008 0.0027,0.20943 -0.04704,0.30044 -0.04971,0.091 -0.125765,0.16557 -0.21033,0.2256 -0.08456,0.06 -0.177887,0.10646 -0.271402,0.15129 -0.09351,0.0448 -0.187946,0.0885 -0.275812,0.14354 -0.08787,0.0551 -0.169595,0.1224 -0.229392,0.20712 -0.0598,0.0847 -0.0965,0.18816 -0.08977,0.29165 0.0034,0.0517 0.01758,0.10294 0.04293,0.14817 0.02536,0.0452 0.06196,0.0844 0.106357,0.11114 0.04932,0.0298 0.107378,0.0438 0.164983,0.0437 0.05761,-10e-5 0.114747,-0.014 0.167602,-0.0369 0.105709,-0.0458 0.192654,-0.12581 0.272008,-0.20933 0.07935,-0.0835 0.15394,-0.17259 0.244737,-0.24351 0.0908,-0.0709 0.201701,-0.12339 0.316841,-0.11938 0.07373,0.003 0.146097,0.0286 0.206137,0.0715 0.06004,0.0429 0.107789,0.1022 0.139266,0.16893 0.06296,0.13344 0.059,0.29256 0.008,0.43101 -0.04442,0.12059 -0.121805,0.22651 -0.208368,0.32149 -0.08656,0.095 -0.18292,0.18049 -0.273046,0.2721 -0.09013,0.0916 -0.174883,0.19062 -0.232797,0.30534 -0.05791,0.11472 -0.08755,0.24708 -0.06325,0.37327 0.02826,0.14683 0.130072,0.27539 0.261844,0.34606 0.131772,0.0707 0.290508,0.0851 0.435826,0.0499 0.145318,-0.0352 0.277076,-0.11806 0.380246,-0.22628 0.10317,-0.10823 0.178585,-0.24109 0.22962,-0.38163 0.139913,-0.3853 0.099,-0.81941 0.247368,-1.20153 0.0565,-0.14551 0.138932,-0.27921 0.214611,-0.41573 0.07568,-0.13652 0.145756,-0.27894 0.174123,-0.43243 0.03031,-0.16399 0.01159,-0.3331 -0.01859,-0.49712 -0.03017,-0.16401 -0.07176,-0.32633 -0.08745,-0.49236 -0.03537,-0.37427 0.06662,-0.75912 0.278147,-1.0699 0.211531,-0.31078 0.530334,-0.54599 0.888025,-0.6617 0.101239,-0.0327 0.207121,-0.0564 0.313351,-0.0503 0.10623,0.006 0.213493,0.0445 0.287409,0.121 0.04255,0.0441 0.07277,0.0993 0.09021,0.15806 0.01743,0.0587 0.02231,0.12079 0.01772,0.18187 -0.0092,0.12215 -0.0554,0.23848 -0.10925,0.3485 -0.05386,0.11002 -0.115997,0.21627 -0.160584,0.33036 -0.04459,0.1141 -0.0712,0.23875 -0.05012,0.35942 0.01874,0.10727 0.07357,0.20427 0.12661,0.29937 0.05304,0.0951 0.106118,0.19348 0.12076,0.30139 0.01739,0.12816 -0.02152,0.25818 -0.07967,0.3737 -0.05815,0.11552 -0.13526,0.22029 -0.201662,0.33127 -0.0664,0.11098 -0.123079,0.23164 -0.133871,0.36052 -0.0054,0.0644 0.001,0.13027 0.02275,0.19118 0.02171,0.0609 0.05909,0.11673 0.109763,0.1569 0.07709,0.0611 0.180127,0.0824 0.278282,0.0759 0.09816,-0.006 0.192783,-0.0384 0.284319,-0.0744 0.09154,-0.036 0.181722,-0.0765 0.276857,-0.10156 0.09513,-0.025 0.197043,-0.0339 0.291372,-0.006 0.121391,0.0359 0.220869,0.13243 0.27067,0.24881 0.0498,0.11638 0.052,0.25036 0.01688,0.37198 -0.03512,0.12162 -0.105947,0.2312 -0.194357,0.32181 -0.08841,0.0906 -0.194075,0.16299 -0.305225,0.22357 -0.120738,0.0658 -0.248496,0.11828 -0.367792,0.18667 -0.119296,0.0684 -0.232098,0.15527 -0.303648,0.2727 -0.08457,0.13879 -0.103933,0.31385 -0.0593,0.47012 0.04464,0.15628 0.150931,0.29261 0.287375,0.38092 0.136444,0.0883 0.301483,0.1293 0.463899,0.12337 0.162416,-0.006 0.321881,-0.0578 0.461263,-0.14135 0.278766,-0.16717 0.470002,-0.45416 0.579961,-0.76004 0.109958,-0.30589 0.146331,-0.63269 0.175109,-0.95646 0.04844,-0.54496 0.0782,-1.09511 0.212,-1.6256 0.105616,-0.41876 0.278694,-0.82611 0.551208,-1.16115 0.272514,-0.33504 0.650461,-0.59395 1.074391,-0.67642 0.182524,-0.0355 0.369562,-0.0383 0.554924,-0.053 0.185363,-0.0147 0.373264,-0.0425 0.540556,-0.12369 0.256565,-0.12449 0.440771,-0.36361 0.568442,-0.61861 0.127672,-0.25499 0.207496,-0.53083 0.315018,-0.79496 0.134898,-0.33137 0.31791,-0.64981 0.581691,-0.89153 0.263781,-0.241709 0.616,-0.400658 0.973219,-0.380647 0.113281,0.0063 0.226736,0.03077 0.327547,0.08283 0.100811,0.05206 0.188467,0.133063 0.237882,0.235195 0.03682,0.0761 0.0516,0.1618 0.04942,0.24631 -0.0022,0.0845 -0.02089,0.16799 -0.04831,0.24796 -0.05483,0.15994 -0.143735,0.30571 -0.213153,0.45988 -0.158691,0.35243 -0.212508,0.75929 -0.106019,1.13084 0.02632,0.0919 0.06238,0.18152 0.114398,0.26166 0.05202,0.0801 0.120548,0.15065 0.203661,0.19777 0.08921,0.0506 0.193436,0.0729 0.295869,0.068 0.102433,-0.005 0.202942,-0.0362 0.292415,-0.0863 0.178947,-0.1002 0.309848,-0.27159 0.395643,-0.45787 0.171591,-0.37257 0.176516,-0.80188 0.323583,-1.18479 0.07078,-0.18429 0.177026,-0.35916 0.330761,-0.48301 0.07687,-0.0619 0.165053,-0.1104 0.2598,-0.13809 0.09475,-0.0277 0.196093,-0.0343 0.292899,-0.015 0.118336,0.0236 0.226236,0.0846 0.323034,0.15662 0.0968,0.072 0.184377,0.15561 0.277735,0.23206 0.102741,0.0841 0.213778,0.1609 0.296193,0.26502 0.04121,0.0521 0.0748,0.11086 0.09285,0.17476 0.01804,0.0639 0.01997,0.13313 -3.09e-4,0.19635 -0.02546,0.0794 -0.08392,0.14453 -0.150385,0.19482 -0.06647,0.0503 -0.141513,0.0878 -0.213854,0.12915 -0.07234,0.0414 -0.143483,0.0879 -0.19681,0.15201 -0.02666,0.032 -0.04858,0.0683 -0.06225,0.10764 -0.01367,0.0394 -0.01891,0.0819 -0.0128,0.12315 0.01012,0.0682 0.05069,0.12901 0.101431,0.1757 0.05074,0.0467 0.111458,0.0809 0.172033,0.11388 0.06057,0.0329 0.122074,0.0653 0.175413,0.10902 0.05334,0.0437 0.09866,0.10024 0.116533,0.16684 0.01333,0.0497 0.01078,0.10247 0.0011,0.15299 -0.0097,0.0505 -0.02624,0.0994 -0.04096,0.14869 -0.01472,0.0493 -0.0277,0.0996 -0.02985,0.15098 -0.0021,0.0514 0.0072,0.1044 0.03439,0.14807 0.02742,0.044 0.07218,0.0764 0.121868,0.0913 0.04969,0.0149 0.103912,0.0128 0.153257,-0.003 0.04935,-0.016 0.09383,-0.0457 0.129807,-0.0831 0.03598,-0.0374 0.0636,-0.0824 0.0834,-0.13035 0.03961,-0.0959 0.04792,-0.20185 0.04695,-0.30562 -9.71e-4,-0.10377 -0.01071,-0.20756 -0.0052,-0.31119 0.01492,-0.27951 0.140956,-0.54357 0.307765,-0.76834 0.166808,-0.22477 0.373928,-0.41583 0.575664,-0.60986 0.188341,-0.18115 0.373636,-0.36659 0.580651,-0.52606 0.207015,-0.15948 0.438211,-0.29337 0.691559,-0.35742 0.0898,-0.0227 0.182828,-0.0365 0.275093,-0.0284 0.09226,0.008 0.184096,0.0395 0.254977,0.0991 0.05945,0.05 0.102262,0.11847 0.125875,0.19248 0.02361,0.074 0.02848,0.15337 0.01899,0.23047 -0.01898,0.1542 -0.09355,0.29617 -0.180165,0.42516 -0.160063,0.23838 -0.367658,0.45011 -0.471253,0.7179 -0.0518,0.1339 -0.07549,0.28145 -0.04774,0.4223 0.01388,0.0704 0.04059,0.13857 0.0805,0.19823 0.03991,0.0597 0.09316,0.11071 0.155777,0.14581 0.08795,0.0493 0.19283,0.0658 0.292616,0.0514 0.09979,-0.0144 0.194291,-0.0588 0.272794,-0.12207 0.114776,-0.0925 0.1949,-0.2239 0.238442,-0.36473 0.04354,-0.14082 0.05194,-0.29086 0.03902,-0.4377 -0.02585,-0.29367 -0.134351,-0.57273 -0.206762,-0.85851 -0.118291,-0.46685 -0.136306,-0.977781 0.06454,-1.415499 0.100426,-0.218858 0.255233,-0.414712 0.454182,-0.550372 0.198949,-0.13566 0.442723,-0.208773 0.682772,-0.189776 0.155902,0.01234 0.31349,0.06611 0.42407,0.1767 0.07676,0.07676 0.127362,0.177692 0.151028,0.283637 0.02367,0.105945 0.02118,0.21676 9.71e-4,0.323418 -0.04042,0.213316 -0.14904,0.40669 -0.257999,0.594482 -0.08506,0.1466 -0.171736,0.2933 -0.232777,0.45141 -0.06104,0.15811 -0.09576,0.32986 -0.07263,0.49776 0.01156,0.084 0.03766,0.16621 0.07977,0.23975 0.04211,0.0735 0.100447,0.1382 0.171305,0.18468 0.07086,0.0465 0.154326,0.0744 0.239046,0.0764 0.08472,0.002 0.170392,-0.0225 0.239326,-0.0718 0.07291,-0.0521 0.125173,-0.13033 0.153575,-0.21534 0.0284,-0.085 0.03388,-0.17659 0.02442,-0.26572 -0.01893,-0.17826 -0.09533,-0.34437 -0.159133,-0.51189 -0.06381,-0.16753 -0.116427,-0.34769 -0.08511,-0.524196 0.01566,-0.08825 0.05306,-0.173712 0.113795,-0.239629 0.06074,-0.06592 0.145699,-0.111009 0.23518,-0.116202 0.08416,-0.0049 0.165949,0.02444 0.247804,0.04462 0.04093,0.01009 0.08269,0.01799 0.124842,0.01817 0.04215,1.74e-4 0.08493,-0.0077 0.122084,-0.02759 0.0518,-0.02775 0.08944,-0.07732 0.112429,-0.131399 0.02299,-0.05408 0.0326,-0.112839 0.03928,-0.171223 0.0067,-0.05838 0.01068,-0.117257 0.02323,-0.174666 0.01255,-0.05741 0.03431,-0.114051 0.07242,-0.158782 0.04112,-0.04826 0.09816,-0.07943 0.1515,-0.113715 0.02667,-0.01714 0.0528,-0.03538 0.07582,-0.05718 0.02302,-0.0218 0.04294,-0.04734 0.05537,-0.07651 0.01811,-0.04246 0.01948,-0.09065 0.01108,-0.136041 -0.0084,-0.04539 -0.02608,-0.0885 -0.04512,-0.13055 -0.01904,-0.04205 -0.0396,-0.08356 -0.05427,-0.127322 -0.01467,-0.04377 -0.02333,-0.09036 -0.01769,-0.136177 0.005,-0.04032 0.02106,-0.07906 0.04521,-0.11173 0.02415,-0.03267 0.05622,-0.05927 0.09225,-0.07802 0.07208,-0.03749 0.158585,-0.04263 0.237281,-0.02243 0.0787,0.02019 0.149898,0.06434 0.209663,0.119377 0.05976,0.05504 0.108734,0.120797 0.152663,0.189142 0.08786,0.136691 0.158331,0.287016 0.271908,0.40322 0.05679,0.0581 0.124438,0.106954 0.201065,0.133958 0.07663,0.027 0.162702,0.031 0.238826,0.0026 0.051,-0.01902 0.09647,-0.05212 0.131429,-0.09384 0.03496,-0.04172 0.05948,-0.0919 0.07243,-0.144774 0.02589,-0.105745 0.0047,-0.220054 -0.0473,-0.315704 -0.05199,-0.09565 -0.133059,-0.173478 -0.224675,-0.232288 -0.09162,-0.05881 -0.19375,-0.0995 -0.297618,-0.132111 -0.207737,-0.06522 -0.427073,-0.100326 -0.620349,-0.200586 -0.09664,-0.05013 -0.186043,-0.116931 -0.252055,-0.203501 -0.06601,-0.08657 -0.107457,-0.193963 -0.104726,-0.302796 0.003,-0.121442 0.0625,-0.239514 0.155641,-0.317507 0.09314,-0.07799 0.217967,-0.115701 0.3391,-0.106523 0.08807,0.0067 0.172764,0.03672 0.253397,0.07278 0.08063,0.03605 0.158452,0.07836 0.240268,0.111641 0.08182,0.03328 0.168916,0.05758 0.257211,0.05522 0.08829,-0.0024 0.178282,-0.03381 0.238624,-0.09831 0.05118,-0.05471 0.07781,-0.130093 0.07902,-0.204997 0.0012,-0.07491 -0.02185,-0.149101 -0.05949,-0.213869 -0.07529,-0.129536 -0.203614,-0.218501 -0.33227,-0.295289 -0.128655,-0.07679 -0.264088,-0.147513 -0.368004,-0.255449 -0.05196,-0.05397 -0.09535,-0.117126 -0.120592,-0.187661 -0.02524,-0.07054 -0.03161,-0.148751 -0.01146,-0.220905 0.01604,-0.05744 0.04837,-0.109648 0.08932,-0.153012 0.04094,-0.04336 0.09034,-0.07818 0.142807,-0.106523 0.104944,-0.0567 0.221421,-0.08775 0.333278,-0.129175 0.08032,-0.02974 0.160236,-0.06606 0.222583,-0.12478 0.03117,-0.02936 0.05755,-0.06418 0.07489,-0.103332 0.01734,-0.03915 0.02543,-0.08274 0.02058,-0.125288 -0.0046,-0.04076 -0.02103,-0.07976 -0.04462,-0.113326 -0.02359,-0.03356 -0.05423,-0.06183 -0.08802,-0.08509 -0.06758,-0.04653 -0.146637,-0.07289 -0.224394,-0.09907 -0.07776,-0.02618 -0.156649,-0.05339 -0.223285,-0.101262 -0.03332,-0.02393 -0.06326,-0.05298 -0.08583,-0.08724 -0.02257,-0.03426 -0.0376,-0.07386 -0.04061,-0.114771 -0.0048,-0.06521 0.02132,-0.130086 0.06171,-0.181512 0.04039,-0.05143 0.09418,-0.09075 0.150236,-0.12442 0.05605,-0.03367 0.115013,-0.06235 0.1707,-0.09662 0.05569,-0.03427 0.108716,-0.07484 0.147416,-0.127547 0.06168,-0.08401 0.08199,-0.194263 0.06684,-0.297376 -0.01515,-0.103113 -0.06352,-0.199361 -0.127114,-0.281932 -0.127182,-0.165142 -0.310397,-0.27581 -0.469787,-0.410132 -0.314624,-0.265141 -0.535263,-0.621567 -0.777469,-0.95417 -0.06494,-0.08917 -0.132302,-0.177933 -0.177329,-0.278639 -0.04503,-0.100706 -0.06626,-0.216399 -0.0347,-0.322102 0.02319,-0.07767 0.0743,-0.14606 0.140044,-0.193477 0.06574,-0.04742 0.145546,-0.07416 0.226406,-0.07985 0.08086,-0.0057 0.162646,0.0093 0.237827,0.03959 0.07518,0.03031 0.143858,0.07571 0.20397,0.130087 0.120224,0.108761 0.204968,0.251308 0.273239,0.398351 0.06827,0.147043 0.12184,0.300584 0.190715,0.447345 0.327189,0.697181 0.975141,1.196295 1.34287,1.872971 0.277951,0.511471 0.381935,1.100521 0.41339,1.681786 0.03145,0.581266 -0.0055,1.164162 0.01068,1.746054 0.02756,0.993247 0.207845,2.005046 -0.0353,2.968467 -0.252773,1.00157 -0.942574,1.84237 -1.731611,2.50905 -0.640964,0.54157 -1.358371,0.99131 -2.120299,1.34287 -0.119968,0.0554 -0.242711,0.10932 -0.344588,0.19344 -0.05094,0.0421 -0.09623,0.0916 -0.12951,0.14866 -0.03328,0.0571 -0.05427,0.1219 -0.056,0.18794 -0.0017,0.0643 0.01473,0.12799 0.03978,0.18719 0.02505,0.0592 0.05859,0.11437 0.09267,0.16887 0.03408,0.0545 0.0689,0.10875 0.09681,0.16666 0.0279,0.0579 0.04887,0.11996 0.05344,0.18408 0.0072,0.10028 -0.02721,0.2018 -0.08878,0.28128 -0.06157,0.0795 -0.149127,0.13726 -0.244509,0.16905 -0.09538,0.0318 -0.198276,0.0383 -0.297995,0.0255 -0.09972,-0.0128 -0.196422,-0.0445 -0.287517,-0.0871 -0.226475,-0.10577 -0.415751,-0.27565 -0.600939,-0.44353 -0.185188,-0.16788 -0.373444,-0.33862 -0.598836,-0.44668 -0.112696,-0.054 -0.234111,-0.0916 -0.358674,-0.10181 -0.124563,-0.0102 -0.252411,0.008 -0.365951,0.06 -0.11354,0.0522 -0.212008,0.13975 -0.269686,0.25062 -0.05768,0.11088 -0.07245,0.24507 -0.03225,0.36341 0.02542,0.0748 0.07133,0.14135 0.124398,0.19993 0.05307,0.0586 0.113483,0.10994 0.172771,0.16221 0.05929,0.0523 0.117936,0.10596 0.166616,0.16824 0.04868,0.0623 0.08733,0.13395 0.101645,0.21169 0.0133,0.0722 0.005,0.14798 -0.02141,0.21653 -0.02637,0.0685 -0.07048,0.12987 -0.125439,0.1786 -0.109908,0.0975 -0.260453,0.14214 -0.407328,0.1397 -0.146875,-0.002 -0.290406,-0.0491 -0.421161,-0.116 -0.130755,-0.0669 -0.250087,-0.1539 -0.367534,-0.24213 -0.220277,-0.16548 -0.438012,-0.338 -0.684711,-0.46066 -0.246699,-0.12265 -0.529162,-0.19314 -0.799518,-0.14011 -0.13606,0.0267 -0.268559,0.0862 -0.364869,0.18597 -0.04815,0.0499 -0.0867,0.10937 -0.109999,0.17466 -0.0233,0.0653 -0.03111,0.1364 -0.01987,0.20481 0.01419,0.0864 0.0576,0.16521 0.105829,0.23832 0.04823,0.0731 0.102194,0.14287 0.141541,0.22111 0.08828,0.17554 0.09586,0.38732 0.03171,0.57305 -0.06415,0.18572 -0.196981,0.34475 -0.361856,0.45164 -0.164875,0.10688 -0.360354,0.16285 -0.556621,0.17219 -0.196267,0.009 -0.393287,-0.0268 -0.578226,-0.0932 -0.369879,-0.13274 -0.686056,-0.38107 -0.980861,-0.64092 -0.294805,-0.25985 -0.578028,-0.53725 -0.911295,-0.74549 -0.412771,-0.25792 -0.885325,-0.39943 -1.34287,-0.56543 -0.103192,-0.0374 -0.206313,-0.0764 -0.313564,-0.0998 -0.10725,-0.0234 -0.219773,-0.0308 -0.326456,-0.005 -0.106684,0.0259 -0.207233,0.0876 -0.265612,0.18057 -0.02919,0.0465 -0.04738,0.10011 -0.05039,0.15492 -0.003,0.0548 0.0094,0.11066 0.03722,0.15799 0.03711,0.0632 0.09953,0.10851 0.16694,0.13725 0.06741,0.0287 0.140161,0.0424 0.212463,0.0543 0.0723,0.0119 0.145265,0.0225 0.214797,0.0456 0.06953,0.0231 0.136328,0.06 0.183239,0.11625 0.03155,0.0379 0.05318,0.0835 0.06491,0.1314 0.01173,0.0479 0.01372,0.0979 0.0083,0.14685 -0.01076,0.098 -0.05036,0.19053 -0.09716,0.27726 -0.0468,0.0867 -0.10121,0.16931 -0.1451,0.25755 -0.04389,0.0882 -0.0774,0.1839 -0.07836,0.28245 -0.0012,0.12463 0.05058,0.246 0.128061,0.34363 0.07748,0.0976 0.179375,0.17338 0.28685,0.23649 0.214951,0.12623 0.459079,0.20825 0.645258,0.37401 0.16146,0.14375 0.269465,0.34779 0.291152,0.56288 0.02169,0.21509 -0.04474,0.43891 -0.185151,0.60329 -0.163268,0.19114 -0.42029,0.29364 -0.67143,0.2827 -0.26695,-0.0116 -0.514703,-0.14096 -0.735402,-0.29159 -0.220698,-0.15064 -0.425812,-0.32606 -0.662515,-0.45003 -0.118351,-0.062 -0.244529,-0.11075 -0.376151,-0.13366 -0.131623,-0.0229 -0.269036,-0.0193 -0.396441,0.0209 -0.127406,0.0402 -0.244253,0.11832 -0.321775,0.22714 -0.07752,0.10881 -0.113306,0.24882 -0.08743,0.37989 0.01505,0.0762 0.04986,0.14745 0.09313,0.21196 0.04328,0.0645 0.09502,0.12284 0.147084,0.1805 0.104134,0.1153 0.213833,0.23502 0.254512,0.38497 0.03412,0.12577 0.01454,0.26373 -0.0461,0.37909 -0.06063,0.11535 -0.160577,0.20817 -0.276486,0.26774 -0.115908,0.0596 -0.247151,0.0867 -0.377469,0.0866 -0.130319,-1e-4 -0.259809,-0.0269 -0.382686,-0.0703 -0.245753,-0.0868 -0.462735,-0.23789 -0.676792,-0.38659 -0.214056,-0.14869 -0.432096,-0.29859 -0.67884,-0.38255 -0.238556,-0.0812 -0.493544,-0.0972 -0.741228,-0.14354 -0.123842,-0.0232 -0.246833,-0.0543 -0.36253,-0.10416 -0.115697,-0.0499 -0.224265,-0.11921 -0.309782,-0.21174 -0.08421,-0.0911 -0.144121,-0.20246 -0.188738,-0.31823 -0.04462,-0.11577 -0.07464,-0.23655 -0.105156,-0.35681 -0.03052,-0.12026 -0.06178,-0.24081 -0.108723,-0.35566 -0.04694,-0.11485 -0.110325,-0.22452 -0.198143,-0.31217 -0.124595,-0.12435 -0.292494,-0.19819 -0.46434,-0.23636 -0.171846,-0.0382 -0.349127,-0.0431 -0.52513,-0.0463 -0.143821,-0.003 -0.288249,-0.004 -0.430875,0.0144 -0.142626,0.0187 -0.284305,0.0585 -0.407032,0.13352 -0.122728,0.075 -0.225606,0.18749 -0.27277,0.32338 -0.02358,0.0679 -0.03298,0.14104 -0.02501,0.21252 0.008,0.0715 0.03352,0.14122 0.07551,0.19961 0.06095,0.0847 0.153979,0.1425 0.25273,0.1763 0.09875,0.0338 0.203655,0.0453 0.307824,0.0519 0.10417,0.007 0.208859,0.008 0.312123,0.0235 0.103264,0.0152 0.206204,0.0445 0.293525,0.10171 0.07802,0.0511 0.141306,0.12322 0.186862,0.2046 0.04556,0.0814 0.07376,0.17182 0.08828,0.26395 0.02904,0.18424 0.0041,0.37248 -0.02777,0.55626 -0.08731,0.50406 -0.226561,1.01514 -0.14137,1.51957 0.08039,0.47599 0.352201,0.89372 0.60077,1.30753 0.09794,0.16305 0.194474,0.33101 0.236472,0.51652 0.021,0.0927 0.02788,0.18929 0.01365,0.28332 -0.01423,0.094 -0.05008,0.18552 -0.108792,0.26034 -0.06659,0.0849 -0.160924,0.14598 -0.263091,0.1806 -0.102168,0.0346 -0.211943,0.0436 -0.319476,0.035 -0.215066,-0.0171 -0.417999,-0.10188 -0.618933,-0.18044 -0.528348,-0.20656 -1.075593,-0.37909 -1.558523,-0.67675 -0.241465,-0.14882 -0.465583,-0.32901 -0.646321,-0.54761 -0.180738,-0.21861 -0.31719,-0.47687 -0.374866,-0.75459 -0.0532,-0.25619 -0.0388,-0.52078 -0.03591,-0.78243 0.0029,-0.26164 -0.0073,-0.52995 -0.105452,-0.7725 -0.07123,-0.17602 -0.186414,-0.33149 -0.317535,-0.46883 -0.131121,-0.13734 -0.278537,-0.25791 -0.424569,-0.37928 -0.168435,-0.13999 -0.33652,-0.28222 -0.524774,-0.39415 -0.188255,-0.11192 -0.399699,-0.19313 -0.618626,-0.19929 -0.109463,-0.003 -0.21987,0.0129 -0.322444,0.0512 -0.102574,0.0383 -0.197147,0.0994 -0.270937,0.18031 -0.07379,0.0809 -0.126302,0.18187 -0.145684,0.28965 -0.01938,0.10778 -0.0049,0.22208 0.04483,0.31965 0.05082,0.0997 0.136286,0.17908 0.233164,0.23511 0.09688,0.056 0.205046,0.09 0.314359,0.11403 0.218624,0.048 0.447841,0.0584 0.65401,0.14559 0.09897,0.0418 0.191025,0.10118 0.266472,0.17769 0.07545,0.0765 0.133976,0.17041 0.164686,0.27337 0.03071,0.10297 0.03299,0.21496 0.0018,0.31777 -0.03123,0.10282 -0.09657,0.19575 -0.185555,0.25598 -0.118196,0.08 -0.268756,0.0982 -0.410958,0.086 -0.142202,-0.0122 -0.280333,-0.0522 -0.420439,-0.0795 -0.140105,-0.0272 -0.286871,-0.0414 -0.424171,-0.002 -0.06865,0.0195 -0.134008,0.0524 -0.187353,0.0998 -0.05335,0.0474 -0.09427,0.10965 -0.111982,0.17878 -0.02277,0.0889 -0.0061,0.18512 0.03493,0.26723 0.04098,0.0821 0.104847,0.15112 0.176311,0.2087 0.142929,0.11516 0.316451,0.18735 0.460197,0.30149 0.183657,0.14583 0.313702,0.36493 0.328657,0.59897 0.0075,0.11702 -0.01365,0.23617 -0.06396,0.34209 -0.05031,0.10591 -0.130043,0.19816 -0.229363,0.26049 -0.117523,0.0738 -0.256429,0.10357 -0.391671,0.13457 -0.135242,0.031 -0.27381,0.0662 -0.385766,0.14812 -0.07616,0.0557 -0.136757,0.13139 -0.180089,0.21524 -0.04333,0.0838 -0.06978,0.1758 -0.0838,0.26913 -0.02804,0.18668 -0.007,0.3768 0.01273,0.56454 0.01974,0.18773 0.03805,0.37849 0.0047,0.56429 -0.01666,0.0929 -0.04639,0.18397 -0.09324,0.2659 -0.04686,0.0819 -0.111238,0.15458 -0.190433,0.20593 -0.109161,0.0708 -0.243417,0.0985 -0.373085,0.088 -0.129668,-0.0106 -0.254777,-0.0579 -0.365433,-0.12636 -0.221312,-0.13683 -0.381552,-0.35128 -0.533655,-0.56239 -0.213591,-0.29645 -0.424378,-0.60094 -0.549849,-0.9441 -0.125472,-0.34316 -0.158529,-0.73392 -0.01559,-1.07018 0.138827,-0.32658 0.423162,-0.56484 0.633493,-0.85066 0.105166,-0.14291 0.193559,-0.30196 0.229253,-0.47577 0.03569,-0.1738 0.01413,-0.36423 -0.08528,-0.5112 -0.09759,-0.14428 -0.256539,-0.23211 -0.392996,-0.34037 -0.06823,-0.0541 -0.13239,-0.1151 -0.178682,-0.18887 -0.04629,-0.0738 -0.07378,-0.16161 -0.06442,-0.2482 0.01053,-0.0975 0.06694,-0.18581 0.139984,-0.25124 0.07304,-0.0654 0.16197,-0.11036 0.25205,-0.1491 0.09008,-0.0387 0.182683,-0.0722 0.269188,-0.11834 0.08651,-0.0462 0.167862,-0.10653 0.222246,-0.18812 0.04832,-0.0725 0.07339,-0.16025 0.07067,-0.24734"
         style="fill:#ffffff;fill-rule:evenodd;stroke:none;stroke-width:0.52916664;stroke-linecap:round;stroke-linejoin:round;stroke-miterlimit:4;stroke-dasharray:none;stroke-opacity:1" />
      <path
         sodipodi:nodetypes="caaaaaassaaac"
         inkscape:original-d="m 62.359727,102.36036 c 0,0 -2.147601,1.03943 -3.295261,1.33517 -0.86165,0.22202 -1.76806,0.20306 -2.650399,0.31803 -2.170741,0.28288 -4.439701,0.18407 -6.50328,0.91469 -1.56608,0.55448 -2.72254,1.96841 -4.272669,2.56602 -1.55206,0.59834 -3.28433,0.55397 -4.89557,0.96734 -1.323114,0.33946 -2.557357,1.02263 -3.906067,1.23915 -2.030702,0.326 -6.169716,0.0689 -6.169716,0.0689 -0.129568,-0.13925 -0.09999,-0.44737 0.04654,-0.56865 0,0 3.648314,0.50371 5.461789,0.31211 1.330225,-0.14055 2.563169,-0.77605 3.870056,-1.06115 1.575788,-0.34378 3.249708,-0.25663 4.775168,-0.78026 1.35622,-0.46553 3.776449,-2.05986 3.776449,-2.05986"
         inkscape:path-effect="#path-effect6121"
         inkscape:connector-curvature="0"
         id="path6103"
         d="m 62.359727,102.36036 c -1.013632,0.62478 -2.132614,1.07817 -3.295261,1.33517 -0.869882,0.19229 -1.760563,0.27489 -2.650399,0.31803 -2.202158,0.10676 -4.500729,-0.008 -6.50328,0.91469 -1.511684,0.69625 -2.732083,1.93631 -4.272669,2.56602 -1.543366,0.63085 -3.270238,0.59553 -4.89557,0.96734 -1.332178,0.30475 -2.587157,0.88131 -3.906067,1.23915 -2.006407,0.54436 -4.151653,0.56832 -6.169716,0.0689 l 0.04654,-0.56865 c 1.753287,0.57097 3.654873,0.67963 5.461789,0.31211 1.311277,-0.26671 2.562589,-0.77635 3.870056,-1.06115 1.577016,-0.34352 3.217897,-0.35612 4.775168,-0.78026 1.396147,-0.38026 2.70086,-1.09191 3.776449,-2.05986"
         style="fill:none;fill-rule:evenodd;stroke:none;stroke-width:0.52916664;stroke-linecap:round;stroke-linejoin:round;stroke-miterlimit:4;stroke-dasharray:none;stroke-opacity:1" />
      <path
         sodipodi:nodetypes="aaaaaaaaa"
         inkscape:original-d="m 45.409068,104.08192 c 0.0937,0.47024 0.78514,0.59791 1.251539,0.70908 0.2409,0.0574 0.50252,0.0274 0.74213,-0.0353 0.50967,-0.13315 1.26625,-0.20097 1.41354,-0.70674 0.096,-0.32975 -0.40592,-0.56329 -0.5301,-0.8835 -0.048,-0.12381 0.0186,-0.30031 -0.0789,-0.39051 -0.25787,-0.23862 -0.69921,-0.18353 -1.04614,-0.12818 -0.36311,0.0579 -0.7114,0.23881 -0.998729,0.46818 -0.31933,0.25487 -0.83318,0.56622 -0.75331,0.96692 z"
         inkscape:path-effect="#path-effect6133"
         inkscape:connector-curvature="0"
         id="path6105"
         d="m 45.409068,104.08192 c 0.280709,0.40939 0.756087,0.67872 1.251539,0.70908 0.247381,0.0152 0.494466,-0.0258 0.74213,-0.0353 0.299068,-0.0114 0.605869,0.0224 0.892293,-0.0644 0.143213,-0.0434 0.279481,-0.11825 0.378778,-0.2302 0.0993,-0.11196 0.158513,-0.26333 0.142469,-0.41211 -0.0093,-0.0865 -0.04313,-0.16904 -0.08805,-0.24356 -0.04492,-0.0745 -0.100864,-0.14175 -0.157911,-0.20746 -0.114094,-0.13143 -0.237385,-0.26484 -0.284134,-0.43248 -0.01789,-0.0642 -0.02373,-0.13095 -0.03204,-0.19704 -0.0083,-0.0661 -0.0194,-0.13278 -0.04687,-0.19347 -0.04015,-0.0887 -0.114216,-0.15997 -0.200691,-0.2047 -0.08648,-0.0447 -0.184755,-0.064 -0.282116,-0.0643 -0.194721,-6.1e-4 -0.38132,0.0716 -0.563333,0.1408 -0.344622,0.13101 -0.696366,0.25722 -0.998729,0.46818 -0.340149,0.23733 -0.606385,0.57906 -0.75331,0.96692 l -3e-5,5e-5 z"
         style="fill:#000000;fill-rule:evenodd;stroke:none;stroke-width:0.52916664;stroke-linecap:round;stroke-linejoin:round;stroke-miterlimit:4;stroke-dasharray:none;stroke-opacity:1" />
      <path
         sodipodi:nodetypes="aaaaaaaaaaaaaaaaa"
         inkscape:original-d="m 49.593717,108.39554 c -0.88994,-0.21116 -1.80688,0.32478 -2.72108,0.3534 -0.35399,0.011 -0.732649,-0.20551 -1.060139,-0.0707 -0.24694,0.10169 -0.31569,0.44148 -0.5301,0.60071 -0.24965,0.18542 -0.67208,0.13239 -0.8481,0.38877 -0.10691,0.15567 -0.1399,0.40815 -0.0354,0.56544 0.17382,0.26149 0.60404,0.17918 0.88953,0.30985 0.28395,0.12996 0.50843,0.39277 0.81148,0.46815 0.282839,0.0704 0.655689,0.16208 0.873869,-0.0312 0.1498,-0.13271 0.11207,-0.39374 0.0936,-0.59302 -0.0315,-0.34074 -0.48957,-0.65813 -0.34332,-0.9675 0.17021,-0.35998 0.72923,-0.46093 1.12358,-0.40572 0.54616,0.0764 0.80462,0.84381 1.34202,0.9675 0.2367,0.0545 0.51904,0.0147 0.717859,-0.12482 0.20597,-0.14455 0.380071,-0.40386 0.37451,-0.65543 -0.005,-0.23374 -0.21186,-0.42507 -0.37451,-0.59298 -0.0879,-0.0907 -0.190949,-0.1833 -0.31388,-0.21245 z"
         inkscape:path-effect="#path-effect6131"
         inkscape:connector-curvature="0"
         id="path6107"
         d="m 49.593717,108.39554 c -0.800495,0.49882 -1.819723,0.63119 -2.72108,0.3534 -0.1754,-0.0541 -0.347293,-0.12297 -0.528362,-0.153 -0.09053,-0.015 -0.183186,-0.0201 -0.274196,-0.008 -0.09101,0.0118 -0.180456,0.0409 -0.257581,0.0906 -0.112899,0.0728 -0.193566,0.18506 -0.26963,0.29579 -0.07606,0.11073 -0.152502,0.22498 -0.26047,0.30492 -0.12632,0.0935 -0.283835,0.13149 -0.434948,0.17472 -0.07556,0.0216 -0.150882,0.0452 -0.221967,0.0787 -0.07109,0.0335 -0.138139,0.0774 -0.191185,0.13538 -0.0691,0.0755 -0.112456,0.17455 -0.119412,0.27668 -0.007,0.10213 0.02286,0.20666 0.08401,0.28876 0.04805,0.0645 0.114025,0.11437 0.186002,0.15029 0.07198,0.0359 0.149993,0.0584 0.228826,0.0744 0.157667,0.032 0.32059,0.0389 0.474702,0.0851 0.300158,0.09 0.536305,0.31825 0.81148,0.46815 0.138196,0.0753 0.290285,0.13159 0.447608,0.13544 0.07866,0.002 0.157971,-0.009 0.231694,-0.037 0.07372,-0.0275 0.141741,-0.0713 0.194567,-0.12967 0.0703,-0.0776 0.11181,-0.179 0.125105,-0.28287 0.01329,-0.10386 -6.27e-4,-0.2101 -0.03151,-0.31015 -0.05119,-0.16588 -0.147073,-0.31364 -0.225532,-0.4685 -0.07846,-0.15486 -0.141165,-0.32698 -0.117788,-0.499 0.01571,-0.11558 0.07068,-0.2247 0.150511,-0.30974 0.07983,-0.085 0.1838,-0.14624 0.295498,-0.17985 0.223395,-0.0672 0.470138,-0.0229 0.677571,0.0839 0.247608,0.12742 0.442341,0.33502 0.64421,0.52684 0.201869,0.19182 0.426693,0.3771 0.69781,0.44066 0.242694,0.0569 0.506335,0.007 0.717859,-0.12482 0.112307,-0.07 0.211417,-0.1632 0.279917,-0.27644 0.0685,-0.11325 0.105292,-0.24707 0.09459,-0.37899 -0.0097,-0.1198 -0.05788,-0.23444 -0.125901,-0.33353 -0.06803,-0.0991 -0.155418,-0.18355 -0.248609,-0.25945 -0.09809,-0.0799 -0.20326,-0.15108 -0.31388,-0.21245 l 8.1e-5,0 z"
         style="fill:#000000;fill-rule:evenodd;stroke:none;stroke-width:0.52916664;stroke-linecap:butt;stroke-linejoin:miter;stroke-miterlimit:4;stroke-dasharray:none;stroke-opacity:1" />
      <path
         sodipodi:nodetypes="cac"
         inkscape:original-d="m 36.094376,106.55797 c 0,0 -0.03299,1.18138 -0.106029,1.76691 -0.06231,0.49975 -0.282702,1.4842 -0.282702,1.4842"
         inkscape:path-effect="#path-effect6127"
         inkscape:connector-curvature="0"
         id="path6109"
         d="m 36.094376,106.55797 c 0.0055,0.59048 -0.02998,1.18133 -0.106029,1.76691 -0.0649,0.49972 -0.159355,0.99561 -0.282702,1.4842"
         style="fill:none;fill-rule:evenodd;stroke:none;stroke-width:0.52916664;stroke-linecap:round;stroke-linejoin:round;stroke-miterlimit:4;stroke-dasharray:none;stroke-opacity:1" />
      <path
         sodipodi:nodetypes="cac"
         inkscape:original-d="m 34.921744,110.15369 c 0,0 0.595997,1.43731 0.642564,2.19979 0.03999,0.65527 -0.318065,1.94361 -0.318065,1.94361"
         inkscape:path-effect="#path-effect6129"
         inkscape:connector-curvature="0"
         id="path6111"
         d="m 34.921744,110.15369 c 0.386299,0.6676 0.608769,1.42922 0.642564,2.19979 0.02897,0.66052 -0.08006,1.32678 -0.318065,1.94361"
         style="fill:none;fill-rule:evenodd;stroke:none;stroke-width:0.52916664;stroke-linecap:round;stroke-linejoin:round;stroke-miterlimit:4;stroke-dasharray:none;stroke-opacity:1" />
      <path
         sodipodi:nodetypes="cac"
         inkscape:original-d="m 60.926856,103.20542 c 0,0 0.37386,-1.12118 0.363948,-1.7009 -0.005,-0.29136 -0.212027,-0.84817 -0.212027,-0.84817"
         inkscape:path-effect="#path-effect6125"
         inkscape:connector-curvature="0"
         id="path6113"
         d="m 60.926856,103.20542 c 0.290179,-0.5124 0.41904,-1.11463 0.363948,-1.7009 -0.02737,-0.29125 -0.09913,-0.5783 -0.212027,-0.84817"
         style="fill:none;fill-rule:evenodd;stroke:none;stroke-width:0.52916664;stroke-linecap:round;stroke-linejoin:round;stroke-miterlimit:4;stroke-dasharray:none;stroke-opacity:1" />
      <path
         sodipodi:nodetypes="cc"
         inkscape:original-d="m 62.831007,101.88778 c 0,0 -0.11811,-1.03827 0.216148,-2.178587"
         inkscape:path-effect="#path-effect6123"
         inkscape:connector-curvature="0"
         id="path6115"
         d="m 62.831007,101.88778 0.216148,-2.178587"
         style="fill:none;fill-rule:evenodd;stroke:none;stroke-width:0.52916664;stroke-linecap:round;stroke-linejoin:round;stroke-miterlimit:4;stroke-dasharray:none;stroke-opacity:1" />
    </g>
    <g
       id="g6135"
       transform="matrix(0.17033713,0.12572272,-0.12572272,0.17033713,158.80672,-114.16217)"
       style="stroke-width:1.875;stroke-miterlimit:4;stroke-dasharray:none;stroke:none">
      <path
         sodipodi:nodetypes="caaaaaaaaaaaaaaaaaaaaaaaaaaaaaaaaaaccccaaaaaaaaaaaaaaaaaaaaaaaaaaaaaaaaaaaaaaaaaaaaaaaaac"
         inkscape:original-d="m 104.98763,1159.3866 c 0,0 1.43242,-0.7728 1.77246,-1.4582 0.35676,-0.7192 0.3351,-1.6413 0.093,-2.4069 -0.24555,-0.7767 -1.31685,-1.146 -1.48113,-1.944 -0.23086,-1.1214 -0.10467,-2.6761 0.83317,-3.3325 0.48295,-0.338 1.27919,-0.1578 1.7588,0.185 0.77502,0.5539 0.25238,2.646 1.20345,2.5922 1.07174,-0.061 1.22875,-2.0025 1.01824,-3.055 -0.24874,-1.2439 -2.31371,-1.6148 -2.49936,-2.8697 -0.0989,-0.6695 0.18114,-1.6701 0.83317,-1.8514 0.94016,-0.2614 1.55963,2.1503 2.4069,1.6662 1.10139,-0.6293 -0.41928,-2.5348 -0.27782,-3.7954 0.12939,-1.1543 0.12066,-2.5949 1.01838,-3.3327 0.93436,-0.7683 2.76861,-1.2394 3.61021,-0.3703 0.80148,0.8277 -0.12357,2.3243 -0.46274,3.4253 -0.24395,0.7913 -1.55978,1.5259 -1.11099,2.2217 0.43526,0.6747 2.04025,-0.8073 2.4069,-0.093 0.64258,1.2521 -2.97475,1.9784 -2.59197,3.3326 0.35865,1.2686 2.41955,1.6899 3.70296,1.3886 0.61641,-0.1453 1.16115,-0.77 1.29591,-1.3886 0.29091,-1.3347 -1.9286,-2.6773 -1.29591,-3.888 0.25325,-0.4846 1.16725,-0.097 1.57359,-0.4628 1.68626,-1.5185 0.4956,-5.4266 2.59212,-6.2949 0.37057,-0.1535 0.88827,0.1294 1.11084,0.4629 0.65043,0.9756 -0.37086,2.4053 0,3.5177 0.0974,0.2928 0.33612,0.5235 0.5555,0.7406 0.40808,0.4036 1.33182,0.447 1.38852,1.0182 0.0945,0.9563 -2.36198,1.2638 -1.94402,2.1292 0.39005,0.8078 2.03924,-0.8081 2.68458,-0.1852 0.66642,0.6433 -0.78127,2.1573 -0.093,2.7772 0.83346,0.7506 2.73226,0.4844 3.33268,-0.4629 0.55389,-0.8737 -1.32412,-2.0075 -0.92578,-2.9622 0.38787,-0.9299 2.43264,-0.4132 2.68458,-1.3887 0.27825,-1.0773 -1.52896,-1.7123 -1.85141,-2.7772 -0.42916,-1.4176 0.54459,-3.066 0,-4.4434 -0.49778,-1.2587 -2.07994,-1.8022 -2.77718,-2.9624 -2.66394,-5.0176 -3.84573,-11.745 -1.29606,-16.4779 1.45263,-2.5781 4.22327,-4.2847 6.85043,-5.6468 5.13727,-2.6632 9.75147,-2.3112 14.62648,-0.2778 1.97746,0.8268 3.99634,1.768 5.55423,3.2401 1.82873,1.7282 3.24429,3.9536 4.16585,6.2949 1.04862,2.6639 1.53753,5.6114 1.41396,8.4716 -0.12503,2.8804 -0.69099,5.8926 -2.15453,8.3766 -0.79784,1.354 -2.46636,1.9949 -3.42528,3.2401 -0.47176,0.6126 -1.51718,1.3786 -1.11085,2.0366 0.5414,0.8769 2.65696,-1.0431 3.0899,-0.1076 0.54634,1.1802 -1.87801,1.8216 -2.62701,2.8849 -0.94613,1.3429 -0.87838,3.5529 -2.3143,4.3508 -1.5951,0.8862 -3.72985,-0.9451 -5.46176,-0.3703 -0.81005,0.2688 -2.02761,0.817 -1.94401,1.6663 0.16646,1.6912 4.21222,0.8159 4.44352,2.4995 0.13084,0.9511 -1.25244,1.4828 -2.03662,2.0367 -1.17249,0.8281 -2.52582,1.3987 -3.88803,1.8514 -1.49319,0.4963 -3.05631,0.9836 -4.62874,0.9258 -0.57599,-0.022 -1.34258,0.014 -1.66619,-0.4629 -0.64476,-0.9504 1.29504,-2.7444 0.37028,-3.4253 -0.81238,-0.5983 -2.35704,0.2862 -2.77719,1.2034 -0.21545,0.4703 0.24686,1.0113 0.46289,1.4813 0.36461,0.7935 1.12088,1.3904 1.38852,2.2217 0.29381,0.9124 0.2832,1.9162 0.18522,2.8698 -0.0945,0.9234 -0.0901,2.0215 -0.74057,2.6846 -1.05909,1.0809 -2.85351,1.0777 -4.35092,1.2959 -1.1908,0.1736 -2.42754,0.2218 -3.61035,0 -1.17147,-0.2198 -2.74084,-0.2613 -3.33268,-1.2959 -0.57425,-1.004 -0.077,-2.457 0.55549,-3.4253 0.34165,-0.5231 1.46136,-0.4036 1.57374,-1.0183 0.13084,-0.7164 -0.62324,-1.4799 -1.29606,-1.7588 -2.47945,-1.0274 -5.32205,0.7149 -7.96113,1.2033 -1.27367,0.2358 -3.17116,-0.3016 -3.79557,0.8332 -0.17416,0.3165 0.10758,0.7711 0.37028,1.0184 0.79712,0.7487 2.06512,0.7698 3.14747,0.9256 0.733,0.1062 1.60354,-0.4078 2.22184,0 0.39238,0.2588 0.71701,0.8547 0.55535,1.2961 -0.26111,0.7126 -1.33313,0.7334 -2.03663,1.0184 -0.56988,0.2307 -1.24735,0.2141 -1.7588,0.5553 -0.63763,0.4254 -1.57693,0.9985 -1.48112,1.759 0.13229,1.0534 1.96117,0.9973 2.59197,1.8514 0.81165,1.0989 1.11695,2.5336 1.29606,3.888 0.13811,1.0419 0.52641,2.3741 -0.18522,3.1475 -0.44326,0.4816 -1.29591,0.37 -1.94401,0.2776 -1.40829,-0.2006 -2.5376,-1.312 -3.88803,-1.7588 -1.37907,-0.4562 -3.30186,0.1675 -4.25831,-0.9257 -0.75423,-0.8621 -0.53544,-2.3091 -0.27768,-3.4252 0.21793,-0.9436 1.36192,-1.5384 1.48113,-2.4995 0.10758,-0.8622 -0.4123,-1.6948 -0.74057,-2.4993 -0.22432,-0.5496 -1.06025,-1.0254 -0.83317,-1.5738 0.32115,-0.7756 1.84647,-0.1163 2.40691,-0.7407 0.54546,-0.6081 0.82924,-1.6765 0.46289,-2.4067 -0.31998,-0.6378 -1.92701,-0.9324 -1.92701,-0.9324"
         inkscape:path-effect="#path-effect6081"
         style="fill:#ffffff;fill-rule:evenodd;stroke:none;stroke-width:1.875;stroke-linecap:round;stroke-linejoin:round;stroke-miterlimit:4;stroke-dasharray:none;stroke-opacity:1"
         d="m 104.98763,1159.3866 c 0.7504,-0.2301 1.40201,-0.7662 1.77246,-1.4582 0.19671,-0.3674 0.31618,-0.7774 0.33612,-1.1937 0.0199,-0.4163 -0.0607,-0.8385 -0.24312,-1.2132 -0.17877,-0.3673 -0.44897,-0.6811 -0.72174,-0.9852 -0.27277,-0.304 -0.55353,-0.606 -0.75939,-0.9588 -0.32313,-0.5538 -0.44444,-1.2292 -0.30004,-1.8539 0.14441,-0.6247 0.56163,-1.1881 1.13321,-1.4786 0.28141,-0.143 0.59967,-0.2205 0.9144,-0.1962 0.31473,0.024 0.62462,0.1546 0.8444,0.3812 0.16982,0.1751 0.28093,0.3998 0.3566,0.6317 0.0757,0.2319 0.11822,0.473 0.1681,0.7117 0.0499,0.2388 0.10799,0.478 0.21225,0.6985 0.10425,0.2205 0.25834,0.4232 0.4665,0.5503 0.16535,0.101 0.36061,0.1508 0.55432,0.147 0.19372,-0 0.38543,-0.061 0.55293,-0.158 0.33499,-0.1948 0.5632,-0.5481 0.64524,-0.9269 0.082,-0.3787 0.0264,-0.7792 -0.11493,-1.1401 -0.14132,-0.3608 -0.36502,-0.6846 -0.61932,-0.977 -0.4199,-0.4828 -0.92331,-0.8846 -1.38543,-1.3271 -0.46211,-0.4426 -0.89296,-0.9421 -1.11393,-1.5426 -0.13703,-0.3724 -0.18687,-0.792 -0.0508,-1.1647 0.0681,-0.1864 0.18248,-0.3572 0.3367,-0.482 0.15422,-0.1249 0.34884,-0.2019 0.54722,-0.2047 0.25365,-0 0.49735,0.1122 0.69393,0.2726 0.19658,0.1603 0.35286,0.3635 0.50756,0.5646 0.1547,0.201 0.31167,0.4039 0.50924,0.563 0.19757,0.1591 0.44259,0.2727 0.69617,0.266 0.19139,-0.01 0.37856,-0.08 0.52794,-0.1994 0.14937,-0.1197 0.26146,-0.2832 0.32959,-0.4621 0.13626,-0.3579 0.0956,-0.7638 -0.0337,-1.1243 -0.2585,-0.7208 -0.84363,-1.2886 -1.10169,-2.0096 -0.20716,-0.5788 -0.18585,-1.2275 0.0105,-1.8101 0.19638,-0.5825 0.5608,-1.1006 1.00784,-1.5226 0.48722,-0.46 1.09078,-0.8174 1.75293,-0.9199 0.33108,-0.051 0.67349,-0.038 0.996,0.053 0.32251,0.091 0.62448,0.2595 0.86128,0.4965 0.22954,0.2297 0.39525,0.521 0.48435,0.8333 0.0891,0.3123 0.10229,0.6449 0.0474,0.965 -0.1098,0.6401 -0.49079,1.217 -0.99449,1.627 -0.37566,0.3058 -0.82494,0.533 -1.12229,0.9154 -0.14867,0.1912 -0.25489,0.4221 -0.26519,0.664 -0.005,0.121 0.014,0.2435 0.0603,0.3554 0.0464,0.1119 0.12037,0.2128 0.21617,0.2869 0.16522,0.1278 0.38499,0.1684 0.59323,0.1522 0.20823,-0.016 0.40858,-0.084 0.605,-0.1551 0.19642,-0.071 0.39331,-0.1461 0.59982,-0.1773 0.20651,-0.031 0.42687,-0.015 0.60885,0.087 0.18248,0.1028 0.31262,0.2879 0.36429,0.4909 0.0517,0.203 0.0281,0.4215 -0.0495,0.616 -0.0776,0.1945 -0.20711,0.3659 -0.36138,0.5075 -0.15428,0.1416 -0.333,0.2546 -0.51935,0.3502 -0.3727,0.1911 -0.77721,0.3145 -1.14947,0.5065 -0.18613,0.096 -0.36449,0.2097 -0.51812,0.352 -0.15363,0.1423 -0.28222,0.3144 -0.35845,0.5095 -0.0782,0.2001 -0.0994,0.4213 -0.0671,0.6338 0.0323,0.2124 0.11746,0.4159 0.24077,0.5919 0.24663,0.352 0.64087,0.586 1.05945,0.6834 0.41858,0.098 0.85991,0.066 1.27641,-0.04 0.41651,-0.1059 0.8111,-0.2842 1.19345,-0.4805 0.29346,-0.1506 0.58448,-0.3147 0.82492,-0.5405 0.24044,-0.2259 0.42869,-0.521 0.47099,-0.8481 0.0237,-0.1835 9.2e-4,-0.3715 -0.0535,-0.5484 -0.0545,-0.1769 -0.14005,-0.3431 -0.24141,-0.4979 -0.20272,-0.3097 -0.46684,-0.5734 -0.70574,-0.8561 -0.23889,-0.2828 -0.45819,-0.5959 -0.54521,-0.9557 -0.0435,-0.1799 -0.0524,-0.3695 -0.013,-0.5503 0.0394,-0.1808 0.12855,-0.3524 0.26299,-0.4796 0.1007,-0.095 0.22439,-0.164 0.35436,-0.2122 0.12998,-0.048 0.26651,-0.076 0.4035,-0.098 0.27399,-0.042 0.55548,-0.057 0.81573,-0.153 0.2916,-0.107 0.54225,-0.3123 0.72624,-0.5625 0.184,-0.2503 0.30356,-0.5442 0.37269,-0.847 0.13825,-0.6057 0.0786,-1.2363 0.0362,-1.8561 -0.0424,-0.6198 -0.0641,-1.2591 0.14364,-1.8446 0.10388,-0.2927 0.26594,-0.5677 0.49067,-0.7822 0.22473,-0.2144 0.51423,-0.3657 0.82267,-0.4025 0.20855,-0.025 0.42354,0 0.61779,0.083 0.19424,0.08 0.36716,0.2119 0.49305,0.38 0.18052,0.2411 0.25914,0.547 0.26742,0.8481 0.008,0.3011 -0.0494,0.6 -0.11923,0.8929 -0.0698,0.293 -0.15216,0.5838 -0.19467,0.8819 -0.0425,0.2982 -0.0438,0.6075 0.0465,0.8948 0.0944,0.3003 0.29125,0.5695 0.5555,0.7406 0.2526,0.1636 0.55333,0.2338 0.82462,0.3641 0.13565,0.065 0.26542,0.1465 0.36881,0.2559 0.10338,0.1093 0.17923,0.2486 0.19509,0.3982 0.014,0.1325 -0.0196,0.2678 -0.0841,0.3843 -0.0645,0.1166 -0.15867,0.2151 -0.26548,0.2947 -0.21363,0.1591 -0.47249,0.2424 -0.72301,0.3331 -0.25052,0.091 -0.50524,0.196 -0.69149,0.3865 -0.0931,0.095 -0.167,0.2112 -0.20265,0.3395 -0.0356,0.1284 -0.0314,0.2694 0.0227,0.3911 0.0499,0.1124 0.14066,0.2047 0.24809,0.2647 0.10742,0.06 0.23084,0.089 0.35385,0.092 0.24602,0.01 0.48345,-0.088 0.70225,-0.201 0.2188,-0.1126 0.42846,-0.2459 0.66013,-0.3289 0.11584,-0.042 0.23701,-0.07 0.35995,-0.075 0.12293,-0.01 0.24785,0.014 0.36031,0.064 0.11649,0.052 0.21747,0.136 0.29409,0.2379 0.0766,0.1018 0.12926,0.2208 0.15912,0.3448 0.0597,0.2478 0.0285,0.51 -0.0425,0.7549 -0.14196,0.4896 -0.4399,0.9338 -0.50374,1.4396 -0.0639,0.506 0.12972,1.0363 0.49965,1.3874 0.36993,0.3511 0.906,0.5166 1.41055,0.4422 0.50455,-0.074 0.9678,-0.3847 1.23465,-0.8193 0.26684,-0.4346 0.33449,-0.9847 0.18783,-1.4732 -0.15644,-0.521 -0.53064,-0.9437 -0.79891,-1.417 -0.13414,-0.2366 -0.24357,-0.4916 -0.28004,-0.7611 -0.0365,-0.2695 0.005,-0.5559 0.15317,-0.7841 0.14191,-0.2187 0.37073,-0.3694 0.61336,-0.4648 0.24264,-0.095 0.50142,-0.1409 0.75748,-0.1899 0.25607,-0.049 0.51411,-0.1032 0.75009,-0.214 0.23599,-0.1109 0.45104,-0.2849 0.56365,-0.52 0.0644,-0.1344 0.0932,-0.2848 0.0901,-0.4338 -0.003,-0.149 -0.0375,-0.2966 -0.0943,-0.4344 -0.11342,-0.2756 -0.31269,-0.5082 -0.53414,-0.7077 -0.22144,-0.1995 -0.46697,-0.3702 -0.69946,-0.5567 -0.23249,-0.1866 -0.45486,-0.3924 -0.61368,-0.6446 -0.2013,-0.3197 -0.29067,-0.7005 -0.30535,-1.078 -0.0147,-0.3774 0.0419,-0.7541 0.11434,-1.1249 0.14483,-0.7415 0.3541,-1.5028 0.19101,-2.2405 -0.14956,-0.6765 -0.60003,-1.2514 -1.1186,-1.7109 -0.51858,-0.4595 -1.11206,-0.8256 -1.65858,-1.2515 -2.39818,-1.8687 -3.78907,-4.8813 -3.93327,-7.9182 -0.14421,-3.0369 0.89268,-6.0697 2.63721,-8.5597 1.71855,-2.4529 4.11976,-4.4165 6.85043,-5.6468 4.55937,-2.0542 9.93206,-2.0012 14.62648,-0.2778 2.02452,0.7432 3.95441,1.7939 5.55423,3.2401 1.88414,1.7033 3.26601,3.9197 4.16585,6.2949 1.02011,2.6926 1.43759,5.5923 1.41396,8.4716 -0.024,2.9242 -0.53541,5.9415 -2.15453,8.3766 -0.87753,1.3198 -2.06232,2.4313 -3.42528,3.2401 -0.38547,0.2288 -0.79736,0.4442 -1.06828,0.8013 -0.13546,0.1786 -0.23114,0.3916 -0.2477,0.6151 -0.0166,0.2235 0.0514,0.4571 0.20513,0.6202 0.0936,0.099 0.21549,0.1699 0.34573,0.2105 0.13024,0.041 0.26862,0.052 0.40468,0.042 0.27213,-0.02 0.53107,-0.1209 0.7822,-0.2275 0.25114,-0.1067 0.50264,-0.2207 0.77133,-0.2681 0.13434,-0.024 0.27241,-0.03 0.40734,-0.01 0.13493,0.02 0.26676,0.067 0.37862,0.1455 0.1622,0.1132 0.27701,0.2889 0.32755,0.4802 0.0505,0.1912 0.0386,0.3966 -0.0219,0.585 -0.0605,0.1883 -0.16815,0.3598 -0.30234,0.5051 -0.13419,0.1453 -0.29449,0.2651 -0.46572,0.3641 -0.34246,0.198 -0.72526,0.3129 -1.10021,0.439 -0.37494,0.1261 -0.75214,0.2687 -1.06443,0.5115 -0.33023,0.2568 -0.57107,0.6142 -0.74604,0.9942 -0.17496,0.38 -0.28839,0.7848 -0.402,1.1874 -0.11362,0.4026 -0.22891,0.807 -0.40726,1.1854 -0.17835,0.3785 -0.42424,0.7329 -0.759,0.9838 -0.37708,0.2826 -0.84977,0.4193 -1.32029,0.4448 -0.47051,0.025 -0.94114,-0.055 -1.39739,-0.1725 -0.91251,-0.2355 -1.80184,-0.6246 -2.74408,-0.6426 -0.491,-0.01 -1.00016,0.092 -1.39474,0.3843 -0.19728,0.1462 -0.36205,0.3388 -0.46306,0.5626 -0.10101,0.2238 -0.13635,0.479 -0.0862,0.7194 0.0468,0.2243 0.16627,0.4303 0.32546,0.595 0.15918,0.1648 0.35691,0.2895 0.56773,0.3791 0.42166,0.1793 0.8873,0.2191 1.34375,0.2589 0.45645,0.04 0.92234,0.084 1.34076,0.2705 0.20921,0.093 0.40429,0.2225 0.55905,0.3914 0.15476,0.1689 0.26795,0.3788 0.30677,0.6046 0.0443,0.2574 -0.01,0.5266 -0.12872,0.7592 -0.11877,0.2326 -0.29947,0.43 -0.50593,0.59 -0.41294,0.3198 -0.91851,0.4898 -1.40197,0.6875 -1.32921,0.5436 -2.55002,1.3299 -3.88803,1.8514 -1.47167,0.5736 -3.0532,0.8139 -4.62874,0.9258 -0.30065,0.021 -0.60549,0.038 -0.90118,-0.02 -0.29569,-0.058 -0.58551,-0.2003 -0.76501,-0.4424 -0.17778,-0.2398 -0.23011,-0.5552 -0.19912,-0.8521 0.031,-0.2969 0.1383,-0.5801 0.25489,-0.855 0.11659,-0.2748 0.24404,-0.5468 0.31898,-0.8358 0.0749,-0.289 0.0946,-0.6008 -0.004,-0.8824 -0.12072,-0.343 -0.41706,-0.6137 -0.76328,-0.7248 -0.34623,-0.111 -0.73474,-0.067 -1.05873,0.098 -0.324,0.165 -0.58342,0.4456 -0.74439,0.7717 -0.16098,0.326 -0.22607,0.6953 -0.21079,1.0586 0.022,0.5217 0.20563,1.0269 0.46289,1.4813 0.43119,0.7617 1.07163,1.4058 1.38852,2.2217 0.35028,0.9018 0.26551,1.9057 0.18522,2.8698 -0.0391,0.4693 -0.0761,0.9407 -0.17918,1.4002 -0.10304,0.4595 -0.27534,0.9103 -0.56139,1.2844 -0.47724,0.6242 -1.23404,0.984 -2.00301,1.1452 -0.76897,0.1613 -1.56223,0.1454 -2.34791,0.1507 -1.20369,0.01 -2.40852,0.067 -3.61035,0 -0.61358,-0.034 -1.23078,-0.1029 -1.81413,-0.2962 -0.58336,-0.1933 -1.13503,-0.5195 -1.51855,-0.9997 -0.40988,-0.5132 -0.60663,-1.1968 -0.50907,-1.8463 0.0976,-0.6495 0.49465,-1.2525 1.06456,-1.579 0.27736,-0.1589 0.58701,-0.2522 0.87516,-0.3905 0.14407,-0.069 0.28345,-0.1502 0.40564,-0.2532 0.1222,-0.1031 0.22706,-0.229 0.29294,-0.3746 0.0857,-0.1894 0.10195,-0.4072 0.0581,-0.6104 -0.0438,-0.2032 -0.14591,-0.3918 -0.2822,-0.5487 -0.27258,-0.314 -0.66963,-0.495 -1.07198,-0.5997 -0.65734,-0.1711 -1.3518,-0.1609 -2.02238,-0.053 -0.67057,0.1081 -1.32168,0.3118 -1.96654,0.5252 -1.28973,0.4266 -2.62453,0.9017 -3.97221,0.7308 -0.73035,-0.093 -1.43808,-0.3741 -2.17418,-0.3616 -0.36805,0.01 -0.74211,0.091 -1.04917,0.2936 -0.15353,0.1015 -0.2887,0.232 -0.38943,0.386 -0.10073,0.1541 -0.16643,0.3319 -0.18279,0.5152 -0.0165,0.1845 0.0171,0.3718 0.0846,0.5443 0.0674,0.1726 0.16812,0.3309 0.28572,0.4741 0.36343,0.4424 0.88749,0.7375 1.44231,0.879 0.55481,0.1414 1.13964,0.1361 1.70516,0.047 0.3738,-0.059 0.74231,-0.1546 1.11935,-0.1873 0.37704,-0.033 0.77253,0 1.10249,0.1873 0.22227,0.1249 0.40807,0.3177 0.51253,0.5502 0.10446,0.2326 0.12452,0.5044 0.0428,0.7459 -0.0641,0.1896 -0.1881,0.3561 -0.34063,0.4857 -0.15254,0.1296 -0.33295,0.2238 -0.52121,0.2918 -0.37652,0.1361 -0.78086,0.1694 -1.17479,0.2409 -0.60623,0.11 -1.19285,0.3118 -1.7588,0.5553 -0.37977,0.1634 -0.7589,0.3512 -1.05164,0.6432 -0.14636,0.1459 -0.26924,0.3173 -0.34781,0.5085 -0.0786,0.1912 -0.11168,0.4028 -0.0817,0.6073 0.0402,0.2739 0.19183,0.5234 0.3908,0.7159 0.19898,0.1925 0.44342,0.3321 0.69619,0.4451 0.50554,0.2258 1.06266,0.3573 1.50498,0.6904 0.28061,0.2113 0.50144,0.4958 0.66346,0.8075 0.16202,0.3116 0.267,0.6504 0.33946,0.9941 0.14491,0.6875 0.16207,1.3962 0.29314,2.0864 0.103,0.5424 0.27636,1.0739 0.31163,1.6248 0.0176,0.2755 -1.1e-4,0.5553 -0.0776,0.8203 -0.0775,0.2649 -0.21675,0.5149 -0.41928,0.7024 -0.25115,0.2326 -0.58891,0.3587 -0.92958,0.3921 -0.34067,0.033 -0.68511,-0.021 -1.01443,-0.1145 -0.68634,-0.1945 -1.31246,-0.5536 -1.93487,-0.9022 -0.62241,-0.3486 -1.2586,-0.6938 -1.95316,-0.8566 -0.72021,-0.1688 -1.47029,-0.1339 -2.20766,-0.1928 -0.36869,-0.03 -0.7374,-0.083 -1.08965,-0.1958 -0.35226,-0.1128 -0.68873,-0.2868 -0.961,-0.5371 -0.45502,-0.4184 -0.70463,-1.0347 -0.7328,-1.6522 -0.0282,-0.6175 0.15321,-1.2336 0.45512,-1.773 0.23789,-0.425 0.54757,-0.8046 0.82891,-1.2022 0.28135,-0.3975 0.53908,-0.8236 0.65222,-1.2973 0.10514,-0.4402 0.0794,-0.9083 -0.0553,-1.3404 -0.13471,-0.432 -0.37641,-0.8281 -0.68523,-1.1589 -0.21449,-0.2298 -0.4623,-0.4307 -0.64464,-0.6867 -0.0912,-0.128 -0.16528,-0.2699 -0.20306,-0.4225 -0.0378,-0.1525 -0.0379,-0.3164 0.0145,-0.4646 0.0739,-0.209 0.24769,-0.3725 0.44702,-0.4695 0.19933,-0.097 0.42303,-0.1332 0.64438,-0.145 0.22134,-0.012 0.44331,-4e-4 0.66485,-0.01 0.22154,-0.01 0.44572,-0.034 0.65066,-0.1185 0.21694,-0.089 0.40617,-0.2424 0.54497,-0.4316 0.13881,-0.1892 0.22756,-0.4137 0.26297,-0.6456 0.0708,-0.4639 -0.0742,-0.9463 -0.34505,-1.3295 -0.21497,-0.3041 -0.50805,-0.5525 -0.84328,-0.7147 -0.33522,-0.1622 -0.71187,-0.2379 -1.08373,-0.2177"
         id="path6075"
         inkscape:connector-curvature="0" />
      <path
         sodipodi:nodetypes="aaaaaaaaaaaaaaaaaaaa"
         inkscape:original-d="m 132.49517,1118.8629 c 1.01831,0.3916 -0.45639,2.6526 0.46289,3.2401 0.5429,0.347 1.2325,-0.7347 1.85141,-0.5555 0.90346,0.2615 0.92971,2.3158 1.85156,2.1292 1.75023,-0.3543 0.25396,-3.9986 1.66619,-5.0915 0.39125,-0.3028 1.02158,-0.2759 1.48127,-0.093 1.17656,0.468 2.47756,1.516 2.59197,2.777 0.12939,1.4237 -2.37768,2.1823 -2.31429,3.6104 0.0538,1.2085 2.63485,1.7328 2.22169,2.8698 -0.5933,1.6326 -4.08604,-0.3056 -5.09149,1.1108 -0.7378,1.0394 1.02682,2.6525 0.46289,3.7955 -0.61815,1.253 -2.23012,2.3458 -3.61035,2.1292 -1.10125,-0.1729 -1.1075,-2.5344 -2.22169,-2.4995 -0.90077,0.028 -0.76513,2.1312 -1.66634,2.1292 -1.91334,0 -2.70232,-2.8049 -3.51775,-4.536 -0.66031,-1.4019 -1.85184,-3.2297 -1.01824,-4.5361 0.39064,-0.6122 1.844,0.2051 2.12909,-0.4629 0.4405,-1.0319 -2.24874,-1.8604 -1.75881,-2.8696 0.46129,-0.9504 2.17691,0.047 3.14747,-0.3703 1.32844,-0.5709 1.98294,-3.2958 3.33253,-2.7768 z"
         inkscape:path-effect="#path-effect6083"
         style="fill:none;fill-rule:evenodd;stroke:none;stroke-width:1.875;stroke-linecap:butt;stroke-linejoin:miter;stroke-miterlimit:4;stroke-dasharray:none;stroke-opacity:1"
         d="m 132.49517,1118.8629 c 0.1043,0.1057 0.17577,0.2415 0.21529,0.3846 0.0395,0.1432 0.048,0.2938 0.0365,0.4419 -0.0229,0.2961 -0.12344,0.5798 -0.20612,0.8651 -0.0827,0.2853 -0.14852,0.5848 -0.10004,0.8779 0.0242,0.1465 0.0777,0.2894 0.16535,0.4094 0.0876,0.1199 0.21044,0.2159 0.35189,0.2612 0.15747,0.05 0.33018,0.036 0.48828,-0.012 0.1581,-0.048 0.30398,-0.1296 0.44616,-0.214 0.14218,-0.084 0.2827,-0.173 0.43464,-0.2382 0.15194,-0.065 0.3177,-0.1067 0.48233,-0.091 0.12221,0.011 0.24058,0.054 0.34579,0.1173 0.10521,0.063 0.19754,0.1467 0.27673,0.2404 0.15837,0.1876 0.26318,0.4137 0.35907,0.6397 0.0959,0.226 0.18569,0.4566 0.31977,0.6622 0.13409,0.2057 0.31877,0.3877 0.5502,0.4696 0.24635,0.087 0.52827,0.051 0.75709,-0.076 0.22882,-0.1262 0.40568,-0.3361 0.51503,-0.5735 0.10936,-0.2373 0.15405,-0.501 0.15556,-0.7623 0.002,-0.2613 -0.039,-0.5212 -0.0938,-0.7767 -0.10955,-0.511 -0.27735,-1.0157 -0.28675,-1.5382 -0.005,-0.2613 0.0315,-0.5258 0.13141,-0.7673 0.0999,-0.2415 0.26614,-0.4591 0.48762,-0.5978 0.21534,-0.1348 0.47343,-0.1901 0.72748,-0.1931 0.25406,-0 0.50606,0.044 0.75379,0.1001 0.69002,0.1571 1.3823,0.4025 1.90831,0.8759 0.263,0.2367 0.47953,0.5289 0.60688,0.859 0.12735,0.3301 0.16266,0.6988 0.0768,1.0421 -0.0904,0.3612 -0.30849,0.679 -0.56386,0.9499 -0.25537,0.2709 -0.54962,0.5016 -0.82842,0.7484 -0.2788,0.2467 -0.54626,0.5146 -0.73012,0.8383 -0.18387,0.3238 -0.27805,0.7116 -0.19189,1.0738 0.073,0.3068 0.26854,0.5725 0.49931,0.7874 0.23078,0.2149 0.49796,0.386 0.75567,0.5678 0.25771,0.1817 0.51061,0.3786 0.69901,0.6314 0.18841,0.2529 0.30788,0.5704 0.2677,0.8832 -0.0305,0.2375 -0.15226,0.4591 -0.32369,0.6263 -0.17143,0.1672 -0.39036,0.2816 -0.62102,0.3459 -0.46133,0.1286 -0.95387,0.06 -1.42094,-0.046 -0.46706,-0.1058 -0.93042,-0.2489 -1.40893,-0.2685 -0.23925,-0.01 -0.48139,0.012 -0.70989,0.084 -0.22849,0.072 -0.44322,0.1945 -0.60702,0.3692 -0.22963,0.2448 -0.34793,0.5803 -0.37017,0.9153 -0.0223,0.3349 0.0456,0.6705 0.15032,0.9894 0.20937,0.6379 0.56689,1.2295 0.68274,1.8908 0.0816,0.4656 0.0367,0.9546 -0.1414,1.3925 -0.17806,0.4379 -0.49043,0.8223 -0.89019,1.0746 -0.39976,0.2522 -0.88592,0.369 -1.35518,0.312 -0.46927,-0.057 -0.91744,-0.2897 -1.22358,-0.6499 -0.38918,-0.4579 -0.52793,-1.0725 -0.80706,-1.6046 -0.13957,-0.2661 -0.31984,-0.5174 -0.56366,-0.6929 -0.12192,-0.088 -0.25893,-0.1557 -0.40454,-0.1926 -0.14561,-0.037 -0.29991,-0.043 -0.44643,-0.01 -0.2263,0.051 -0.42496,0.1926 -0.57784,0.3671 -0.15289,0.1745 -0.26393,0.3815 -0.36194,0.5918 -0.098,0.2103 -0.18453,0.4262 -0.29545,0.63 -0.11092,0.2038 -0.24846,0.3972 -0.43111,0.5403 -0.22364,0.1752 -0.50827,0.2666 -0.79232,0.2708 -0.28405,0 -0.5667,-0.077 -0.81432,-0.2157 -0.49525,-0.2784 -0.83654,-0.776 -1.04324,-1.3053 -0.2067,-0.5292 -0.294,-1.0959 -0.39379,-1.6553 -0.0998,-0.5593 -0.21615,-1.1243 -0.47408,-1.6305 -0.41032,-0.8054 -1.14939,-1.4055 -1.56224,-2.2096 -0.20642,-0.402 -0.32647,-0.8628 -0.25185,-1.3086 0.0373,-0.2228 0.12362,-0.4387 0.25973,-0.6191 0.13611,-0.1804 0.32285,-0.3241 0.53612,-0.3988 0.17922,-0.063 0.37213,-0.076 0.56198,-0.072 0.18985,0 0.37902,0.025 0.56888,0.029 0.18985,0 0.38277,-0.01 0.56174,-0.073 0.17898,-0.063 0.34399,-0.1808 0.43649,-0.3466 0.0748,-0.134 0.0984,-0.2936 0.0782,-0.4457 -0.0202,-0.1521 -0.0827,-0.2969 -0.16918,-0.4237 -0.17291,-0.2536 -0.43395,-0.4316 -0.69334,-0.5957 -0.25938,-0.164 -0.52814,-0.3242 -0.72966,-0.5557 -0.10077,-0.1158 -0.18338,-0.2489 -0.23004,-0.3951 -0.0467,-0.1462 -0.0562,-0.3059 -0.0148,-0.4537 0.0388,-0.1385 0.1214,-0.2631 0.22824,-0.3594 0.10685,-0.096 0.23726,-0.1647 0.37486,-0.2065 0.27522,-0.084 0.57216,-0.061 0.8538,-0 0.28164,0.058 0.55525,0.1514 0.83715,0.2085 0.2819,0.057 0.57935,0.077 0.85342,-0.01 0.19652,-0.063 0.37372,-0.1785 0.52209,-0.3217 0.14838,-0.1432 0.26892,-0.3134 0.37033,-0.4929 0.20282,-0.3592 0.33033,-0.7554 0.50899,-1.1272 0.17866,-0.3718 0.42265,-0.732 0.78333,-0.9321 0.18034,-0.1 0.38731,-0.1562 0.5932,-0.1443 0.20589,0.012 0.40977,0.095 0.55459,0.2414 z"
         id="path6077"
         inkscape:connector-curvature="0" />
      <path
         sodipodi:nodetypes="caaaaaccaac"
         inkscape:original-d="m 146.49784,1110.9906 c 0,0 7.70351,9.6561 8.12221,15.4632 0.313,4.3414 -2.1176,8.5759 -4.35092,12.3122 -2.11818,3.5437 -4.96538,6.7743 -8.33156,9.1647 -4.56552,3.2421 -10.10019,4.95 -15.45951,6.5726 -9.13919,2.767 -18.68215,4.076 -28.152646,5.297 -3.009554,0.388 -9.080802,0.6408 -9.080802,0.6408 l 0.461876,-0.9751 c 0,0 12.504012,-0.7216 18.680302,-1.6935 8.2976,-1.3058 16.58558,-2.9712 24.58203,-5.5426 2.42278,-0.7791 7.03078,-2.9765 7.03078,-2.9765"
         inkscape:path-effect="#path-effect6085;#path-effect6099"
         style="fill:none;fill-rule:evenodd;stroke:none;stroke-width:1.875;stroke-linecap:round;stroke-linejoin:round;stroke-miterlimit:4;stroke-dasharray:none;stroke-opacity:1"
         d="m 146.49784,1110.9906 c 2.57331,1.6326 4.70814,3.9494 6.12527,6.6474 1.41714,2.6979 2.11313,5.7705 1.99694,8.8158 -0.16791,4.401 -1.99203,8.593 -4.35092,12.3122 -2.22442,3.5072 -4.97364,6.7207 -8.33156,9.1647 -4.55322,3.314 -10.02683,5.0893 -15.45951,6.5726 -9.22241,2.518 -18.64012,4.3457 -28.152646,5.297 -3.01983,0.302 -6.048488,0.5157 -9.080802,0.6408 l 0.461876,-0.9751 c 6.24607,-0.3144 12.479512,-0.8795 18.680302,-1.6935 8.34535,-1.0955 16.67631,-2.6539 24.58203,-5.5426 2.39139,-0.8738 4.73892,-1.8676 7.03078,-2.9765"
         id="path6079"
         inkscape:connector-curvature="0" />
      <path
         sodipodi:nodetypes="caaac"
         inkscape:connector-curvature="0"
         id="path6089"
         d="m 134.41967,1147.8375 c 0,0 0.86668,-2.7702 1.04415,-4.2028 0.19152,-1.5459 -1.27247,-3.7948 0.014,-4.6731 0.92971,-0.6347 2.26985,0.5173 3.14887,1.2205 2.04944,1.6396 4.38756,6.538 4.38756,6.538"
         style="fill:none;fill-rule:evenodd;stroke:none;stroke-width:1.875;stroke-linecap:round;stroke-linejoin:round;stroke-miterlimit:4;stroke-dasharray:none;stroke-opacity:1" />
      <path
         sodipodi:nodetypes="caac"
         inkscape:original-d="m 141.91648,1133.8295 c 0,0 2.77529,0.05 3.85695,0.794 0.92491,0.6358 1.36131,1.8095 1.81503,2.8361 0.41157,0.9312 0.79409,2.9493 0.79409,2.9493"
         inkscape:path-effect="#path-effect6097"
         inkscape:connector-curvature="0"
         id="path6091"
         d="m 141.91648,1133.8295 c 1.3107,-0.3873 2.80581,-0.08 3.85695,0.794 0.8731,0.7256 1.41404,1.774 1.81503,2.8361 0.3602,0.954 0.62659,1.9434 0.79409,2.9493"
         style="fill:none;fill-rule:evenodd;stroke:none;stroke-width:1.875;stroke-linecap:round;stroke-linejoin:round;stroke-miterlimit:4;stroke-dasharray:none;stroke-opacity:1" />
      <path
         sodipodi:nodetypes="cac"
         inkscape:original-d="m 148.72287,1127.3634 c 0,0 1.94151,-0.9381 2.94943,-0.7941 1.00793,0.144 2.60912,1.5882 2.60912,1.5882"
         inkscape:path-effect="#path-effect6095"
         inkscape:connector-curvature="0"
         id="path6093"
         d="m 148.72287,1127.3634 c 0.82164,-0.6481 1.91343,-0.9421 2.94943,-0.7941 1.03601,0.148 2.00182,0.7359 2.60912,1.5882"
         style="fill:none;fill-rule:evenodd;stroke:none;stroke-width:1.875;stroke-linecap:round;stroke-linejoin:round;stroke-miterlimit:4;stroke-dasharray:none;stroke-opacity:1" />
    </g>
  </g>
</svg>
