<?xml version="1.0" encoding="UTF-8" standalone="no"?>
<!-- Created with Inkscape (http://www.inkscape.org/) -->

<svg
   xmlns:dc="http://purl.org/dc/elements/1.1/"
   xmlns:cc="http://creativecommons.org/ns#"
   xmlns:rdf="http://www.w3.org/1999/02/22-rdf-syntax-ns#"
   xmlns:svg="http://www.w3.org/2000/svg"
   xmlns="http://www.w3.org/2000/svg"
   xmlns:sodipodi="http://sodipodi.sourceforge.net/DTD/sodipodi-0.dtd"
   xmlns:inkscape="http://www.inkscape.org/namespaces/inkscape"
   width="46.032452mm"
   height="42.613544mm"
   viewBox="0 0 46.032452 42.613544"
   version="1.1"
   id="svg45388"
   inkscape:version="0.91 r13725"
   sodipodi:docname="origine-05-couleur.svg">
  <defs
     id="defs45382">
    <marker
       inkscape:stockid="Arrow1Send"
       orient="auto"
       refY="0"
       refX="0"
       id="marker7020"
       style="overflow:visible"
       inkscape:isstock="true">
      <path
         inkscape:connector-curvature="0"
         id="path7018"
         d="M 0,0 5,-5 -12.5,0 5,5 Z"
         style="fill:#000000;fill-opacity:1;fill-rule:evenodd;stroke:#000000;stroke-width:1.00000003pt;stroke-opacity:1"
         transform="matrix(-0.2,0,0,-0.2,-1.2,0)" />
    </marker>
    <clipPath
       clipPathUnits="userSpaceOnUse"
       id="clipPath1755-8">
      <rect
         style="fill:#ffffff;fill-opacity:1;fill-rule:evenodd;stroke:#000000;stroke-width:1.875;stroke-linecap:round;stroke-linejoin:round;stroke-miterlimit:4;stroke-dasharray:none;stroke-opacity:1"
         id="rect1757-46"
         width="160.91911"
         height="73.499458"
         x="-66.708733"
         y="91.882065" />
    </clipPath>
    <marker
       inkscape:isstock="true"
       style="overflow:visible"
       id="marker5737"
       refX="0"
       refY="0"
       orient="auto"
       inkscape:stockid="Arrow1Send"
       inkscape:collect="always">
      <path
         inkscape:connector-curvature="0"
         transform="matrix(-0.2,0,0,-0.2,-1.2,0)"
         style="fill:#000000;fill-opacity:1;fill-rule:evenodd;stroke:#000000;stroke-width:1.00000003pt;stroke-opacity:1"
         d="M 0,0 5,-5 -12.5,0 5,5 Z"
         id="path5735" />
    </marker>
    <clipPath
       clipPathUnits="userSpaceOnUse"
       id="clipPath5951">
      <rect
         y="1441.2406"
         x="22.150734"
         height="149.19472"
         width="161.30896"
         id="rect5953"
         style="color:#000000;clip-rule:nonzero;display:inline;overflow:visible;visibility:visible;opacity:1;isolation:auto;mix-blend-mode:normal;color-interpolation:sRGB;color-interpolation-filters:linearRGB;solid-color:#000000;solid-opacity:1;fill:none;fill-opacity:1;fill-rule:nonzero;stroke:#000000;stroke-width:1.79815364;stroke-linecap:round;stroke-linejoin:round;stroke-miterlimit:4;stroke-dasharray:none;stroke-dashoffset:0;stroke-opacity:1;color-rendering:auto;image-rendering:auto;shape-rendering:auto;text-rendering:auto;enable-background:accumulate" />
    </clipPath>
    <clipPath
       clipPathUnits="userSpaceOnUse"
       id="clipPath1755-8-3">
      <rect
         style="fill:#ffffff;fill-opacity:1;fill-rule:evenodd;stroke:#000000;stroke-width:1.875;stroke-linecap:round;stroke-linejoin:round;stroke-miterlimit:4;stroke-dasharray:none;stroke-opacity:1"
         id="rect1757-46-6"
         width="160.91911"
         height="73.499458"
         x="-66.708733"
         y="91.882065" />
    </clipPath>
  </defs>
  <sodipodi:namedview
     id="base"
     pagecolor="#ffffff"
     bordercolor="#666666"
     borderopacity="1.0"
     inkscape:pageopacity="0.0"
     inkscape:pageshadow="2"
     inkscape:zoom="2.0438539"
     inkscape:cx="32.024064"
     inkscape:cy="-22.223"
     inkscape:document-units="mm"
     inkscape:current-layer="layer3"
     showgrid="false"
     fit-margin-top="0"
     fit-margin-left="0"
     fit-margin-right="0"
     fit-margin-bottom="0"
     inkscape:window-width="1920"
     inkscape:window-height="1031"
     inkscape:window-x="0"
     inkscape:window-y="27"
     inkscape:window-maximized="1" />
  <metadata
     id="metadata45385">
    <rdf:RDF>
      <cc:Work
         rdf:about="">
        <dc:format>image/svg+xml</dc:format>
        <dc:type
           rdf:resource="http://purl.org/dc/dcmitype/StillImage" />
        <dc:title />
      </cc:Work>
    </rdf:RDF>
  </metadata>
  <g
     inkscape:groupmode="layer"
     id="layer3"
     inkscape:label="color"
     style="display:inline">
    <path
       id="path3201-2"
       d="m 7.6522744,13.899464 c -0.89955,0 -1.62368,0.724097 -1.62368,1.623653 l 0,9.417531 16.2388106,0 a 1.2178053,1.2178054 0 0 1 -0.003,-0.0388 1.2178053,1.2178054 0 0 1 1.217479,-1.218021 1.2178053,1.2178054 0 0 1 1.21802,1.218021 1.2178053,1.2178054 0 0 1 -0.003,0.0388 l 16.23927,0 0,-9.417531 c 0,-0.899556 -0.724131,-1.623653 -1.62365,-1.623653 z"
       style="fill:#000000;fill-opacity:1;fill-rule:evenodd;stroke:none;stroke-width:0.52916664;stroke-linecap:round;stroke-linejoin:round;stroke-miterlimit:4;stroke-dasharray:none;stroke-opacity:1"
       inkscape:connector-curvature="0" />
    <path
       inkscape:connector-curvature="0"
       style="fill:#000000;fill-opacity:1;fill-rule:evenodd;stroke:none;stroke-width:0.52916664;stroke-linecap:round;stroke-linejoin:round;stroke-miterlimit:4;stroke-dasharray:none;stroke-opacity:1"
       d="m 7.6522744,35.978579 c -0.89955,0 -1.62368,-0.72409 -1.62368,-1.623651 l 0,-9.41753 16.2388106,0 a 1.2178053,1.2178054 0 0 0 -0.003,0.0388 1.2178053,1.2178054 0 0 0 1.217479,1.21802 1.2178053,1.2178054 0 0 0 1.21802,-1.21802 1.2178053,1.2178054 0 0 0 -0.003,-0.0388 l 16.239318,0 0,9.41753 c 0,0.899561 -0.724128,1.623651 -1.623658,1.623651 z"
       id="path3286-4" />
  </g>
  <g
     inkscape:label="Layer 1"
     inkscape:groupmode="layer"
     id="layer1"
     transform="translate(-318.67424,-124.50275)"
     style="display:none">
    <path
       style="fill:#ffffff;fill-opacity:1;fill-rule:evenodd;stroke:#000000;stroke-width:0.63499987;stroke-linecap:round;stroke-linejoin:round;stroke-miterlimit:4;stroke-dasharray:none;stroke-dashoffset:0;stroke-opacity:1"
       d="m 325.52594,166.63342 0,-3.62648 31.69183,0 0,3.91475"
       id="rect3432"
       inkscape:connector-curvature="0"
       sodipodi:nodetypes="cccc" />
    <ellipse
       style="display:inline;fill:#ffffff;fill-opacity:1;fill-rule:evenodd;stroke:#000000;stroke-width:0.52916664;stroke-linecap:round;stroke-linejoin:round;stroke-miterlimit:4;stroke-dasharray:none;stroke-dashoffset:0;stroke-opacity:1"
       id="ellipse3332"
       cx="341.44543"
       cy="139.13013"
       rx="5.6019044"
       ry="3.3910673" />
    <ellipse
       ry="1.4835922"
       rx="2.2736862"
       cy="138.17514"
       cx="341.44543"
       id="ellipse3334"
       style="display:inline;fill:#ffffff;fill-opacity:1;fill-rule:evenodd;stroke:#000000;stroke-width:0.52916664;stroke-linecap:round;stroke-linejoin:round;stroke-miterlimit:4;stroke-dasharray:none;stroke-dashoffset:0;stroke-opacity:1" />
    <path
       inkscape:connector-curvature="0"
       style="fill:none;fill-opacity:1;fill-rule:evenodd;stroke:#000000;stroke-width:0.52916664;stroke-linecap:round;stroke-linejoin:round;stroke-miterlimit:4;stroke-dasharray:none;stroke-opacity:1"
       d="m 325.61409,138.13712 c -0.89955,0 -1.62368,0.7241 -1.62368,1.62366 l 0,9.41753 16.2388,0 a 1.2178054,1.2178054 0 0 1 -0.001,-0.0388 1.2178054,1.2178054 0 0 1 1.2175,-1.21802 1.2178054,1.2178054 0 0 1 1.21801,1.21802 1.2178054,1.2178054 0 0 1 -0.002,0.0388 l 16.23931,0 0,-9.41753 c 0,-0.89956 -0.72412,-1.62366 -1.62367,-1.62366 z"
       id="path3336" />
    <ellipse
       transform="scale(1,-1)"
       ry="3.3910673"
       rx="5.6019044"
       cy="-159.2233"
       cx="341.44543"
       id="ellipse3382"
       style="display:inline;fill:#ffffff;fill-opacity:1;fill-rule:evenodd;stroke:#000000;stroke-width:0.52916664;stroke-linecap:round;stroke-linejoin:round;stroke-miterlimit:4;stroke-dasharray:none;stroke-dashoffset:0;stroke-opacity:1" />
    <ellipse
       transform="scale(1,-1)"
       style="display:inline;fill:#ffffff;fill-opacity:1;fill-rule:evenodd;stroke:#000000;stroke-width:0.52916664;stroke-linecap:round;stroke-linejoin:round;stroke-miterlimit:4;stroke-dasharray:none;stroke-dashoffset:0;stroke-opacity:1"
       id="ellipse3384"
       cx="341.44543"
       cy="-160.17828"
       rx="2.2736862"
       ry="1.4835922" />
    <path
       id="path3386"
       d="m 325.61409,160.21624 c -0.89955,0 -1.62368,-0.7241 -1.62368,-1.62365 l 0,-9.41753 16.2388,0 a 1.2178054,1.2178054 0 0 0 -0.001,0.0388 1.2178054,1.2178054 0 0 0 1.2175,1.21801 1.2178054,1.2178054 0 0 0 1.21801,-1.21801 1.2178054,1.2178054 0 0 0 -0.002,-0.0388 l 16.23931,0 0,9.41753 c 0,0.89955 -0.72412,1.62365 -1.62367,1.62365 z"
       style="fill:none;fill-opacity:1;fill-rule:evenodd;stroke:#000000;stroke-width:0.52916664;stroke-linecap:round;stroke-linejoin:round;stroke-miterlimit:4;stroke-dasharray:none;stroke-opacity:1"
       inkscape:connector-curvature="0" />
    <rect
       y="-341.87457"
       x="-163.01538"
       height="0.97424436"
       width="4.1419477"
       id="rect3464"
       style="fill:#ffffff;fill-opacity:1;fill-rule:evenodd;stroke:#000000;stroke-width:0.52916664;stroke-linecap:round;stroke-linejoin:round;stroke-miterlimit:4;stroke-dasharray:none;stroke-dashoffset:0;stroke-opacity:1"
       transform="matrix(0,-1,-1,0,0,0)" />
    <rect
       transform="matrix(0,-1,-1,0,0,0)"
       style="fill:#ffffff;fill-opacity:1;fill-rule:evenodd;stroke:#000000;stroke-width:0.52916664;stroke-linecap:round;stroke-linejoin:round;stroke-miterlimit:4;stroke-dasharray:none;stroke-dashoffset:0;stroke-opacity:1"
       id="rect3466"
       width="5.5207167"
       height="0.97424436"
       x="-164.92377"
       y="-339.22873" />
    <rect
       y="343.51495"
       x="-164.92377"
       height="0.97424436"
       width="5.5207167"
       id="rect3484"
       style="fill:#ffffff;fill-opacity:1;fill-rule:evenodd;stroke:#000000;stroke-width:0.52916664;stroke-linecap:round;stroke-linejoin:round;stroke-miterlimit:4;stroke-dasharray:none;stroke-dashoffset:0;stroke-opacity:1"
       transform="matrix(0,-1,1,0,0,0)" />
    <path
       inkscape:connector-curvature="0"
       id="rect3390"
       d="m 325.45159,163.77358 31.82531,0 0,-0.97423 -31.82531,0 z"
       style="fill:#ffffff;fill-opacity:1;fill-rule:evenodd;stroke:#000000;stroke-width:0.52916664;stroke-linecap:round;stroke-linejoin:round;stroke-miterlimit:4;stroke-dasharray:none;stroke-dashoffset:0;stroke-opacity:1" />
    <path
       transform="matrix(0,-1,-1,0,0,0)"
       style="fill:#ffffff;fill-opacity:1;fill-rule:evenodd;stroke:#000000;stroke-width:0.52916664;stroke-linecap:round;stroke-linejoin:round;stroke-miterlimit:4;stroke-dasharray:none;stroke-dashoffset:0;stroke-opacity:1"
       d="m -166.84801,-339.22876 2.50322,0 0,0.97424 -2.50322,0 z"
       id="rect3396"
       inkscape:connector-curvature="0"
       sodipodi:nodetypes="ccccc" />
    <rect
       style="fill:#ffffff;fill-opacity:1;fill-rule:evenodd;stroke:#000000;stroke-width:0.52916664;stroke-linecap:round;stroke-linejoin:round;stroke-miterlimit:4;stroke-dasharray:none;stroke-dashoffset:0;stroke-opacity:1"
       id="rect3400"
       width="14.938412"
       height="0.97424436"
       x="325.4516"
       y="-164.83192"
       transform="scale(1,-1)" />
    <path
       style="fill:#ffffff;fill-opacity:1;fill-rule:evenodd;stroke:#000000;stroke-width:0.63499987;stroke-linecap:round;stroke-linejoin:round;stroke-miterlimit:4;stroke-dasharray:none;stroke-dashoffset:0;stroke-opacity:1"
       inkscape:transform-center-x="2.6404656"
       d="m 337.1708,166.73457 0,-1.7368 -6.55855,1.89126"
       id="path3404"
       inkscape:connector-curvature="0"
       sodipodi:nodetypes="ccc" />
    <path
       transform="matrix(0,-1,1,0,0,0)"
       style="fill:#ffffff;fill-opacity:1;fill-rule:evenodd;stroke:#000000;stroke-width:0.52916664;stroke-linecap:round;stroke-linejoin:round;stroke-miterlimit:4;stroke-dasharray:none;stroke-dashoffset:0;stroke-opacity:1"
       d="m -166.84804,343.51492 2.50322,0 0,0.97425 -2.50322,0 z"
       id="rect3414"
       inkscape:connector-curvature="0"
       sodipodi:nodetypes="ccccc" />
    <rect
       y="-164.83195"
       x="-357.29208"
       height="0.97424436"
       width="14.938412"
       id="rect3418"
       style="fill:#ffffff;fill-opacity:1;fill-rule:evenodd;stroke:#000000;stroke-width:0.52916664;stroke-linecap:round;stroke-linejoin:round;stroke-miterlimit:4;stroke-dasharray:none;stroke-dashoffset:0;stroke-opacity:1"
       transform="scale(-1,-1)" />
    <g
       id="g3428"
       transform="matrix(-0.2822222,0,0,-0.2822222,561.23391,484.02209)">
      <path
         style="fill:#ffffff;fill-opacity:1;fill-rule:evenodd;stroke:#000000;stroke-width:2.24999976;stroke-linecap:round;stroke-linejoin:round;stroke-miterlimit:4;stroke-dasharray:none;stroke-dashoffset:0;stroke-opacity:1"
         inkscape:transform-center-x="2.6404656"
         d="m 764.15333,1123.7509 0,6.6502 -24.87182,-6.4935 z"
         id="path3422"
         inkscape:connector-curvature="0"
         sodipodi:nodetypes="cccc" />
    </g>
    <path
       style="fill:#ffffff;fill-opacity:1;fill-rule:evenodd;stroke:#000000;stroke-width:0.63499987;stroke-linecap:round;stroke-linejoin:round;stroke-miterlimit:4;stroke-dasharray:none;stroke-dashoffset:0;stroke-opacity:1"
       d="m 338.08849,159.46 -1.28916,-9.99118"
       id="path3548"
       inkscape:connector-curvature="0" />
    <path
       inkscape:connector-curvature="0"
       id="path3550"
       d="m 344.64172,159.46 1.28916,-9.99118"
       style="fill:#ffffff;fill-opacity:1;fill-rule:evenodd;stroke:#000000;stroke-width:0.63499987;stroke-linecap:round;stroke-linejoin:round;stroke-miterlimit:4;stroke-dasharray:none;stroke-dashoffset:0;stroke-opacity:1" />
    <rect
       y="-135.43832"
       x="325.52594"
       height="8.0572443"
       width="31.691826"
       id="rect3552"
       style="fill:#ffffff;fill-opacity:1;fill-rule:evenodd;stroke:#000000;stroke-width:0.63499987;stroke-linecap:round;stroke-linejoin:round;stroke-miterlimit:4;stroke-dasharray:none;stroke-dashoffset:0;stroke-opacity:1"
       transform="scale(1,-1)" />
    <rect
       transform="matrix(0,1,-1,0,0,0)"
       style="fill:#ffffff;fill-opacity:1;fill-rule:evenodd;stroke:#000000;stroke-width:0.5291667;stroke-linecap:round;stroke-linejoin:round;stroke-miterlimit:4;stroke-dasharray:none;stroke-dashoffset:0;stroke-opacity:1"
       id="rect3556"
       width="4.4867563"
       height="0.97424436"
       x="135.08507"
       y="-341.87457" />
    <rect
       y="-339.22873"
       x="133.52151"
       height="0.97424436"
       width="5.5207167"
       id="rect3558"
       style="fill:#ffffff;fill-opacity:1;fill-rule:evenodd;stroke:#000000;stroke-width:0.52916664;stroke-linecap:round;stroke-linejoin:round;stroke-miterlimit:4;stroke-dasharray:none;stroke-dashoffset:0;stroke-opacity:1"
       transform="matrix(0,1,-1,0,0,0)" />
    <rect
       transform="matrix(0,1,1,0,0,0)"
       style="fill:#ffffff;fill-opacity:1;fill-rule:evenodd;stroke:#000000;stroke-width:0.52916664;stroke-linecap:round;stroke-linejoin:round;stroke-miterlimit:4;stroke-dasharray:none;stroke-dashoffset:0;stroke-opacity:1"
       id="rect3560"
       width="5.5207167"
       height="0.97424436"
       x="133.52151"
       y="343.51495" />
    <g
       id="g3722"
       transform="matrix(0.2822222,0,0,0.2822222,121.50977,-217.25306)">
      <g
         transform="translate(0,112.2387)"
         id="g3566">
        <rect
           y="1108.1703"
           x="722.62854"
           height="3.4520471"
           width="112.76687"
           id="rect3562"
           style="fill:#ffffff;fill-opacity:1;fill-rule:evenodd;stroke:#000000;stroke-width:1.875;stroke-linecap:round;stroke-linejoin:round;stroke-miterlimit:4;stroke-dasharray:none;stroke-dashoffset:0;stroke-opacity:1" />
        <rect
           style="fill:#ffffff;fill-opacity:1;fill-rule:evenodd;stroke:#000000;stroke-width:1.875;stroke-linecap:round;stroke-linejoin:round;stroke-miterlimit:4;stroke-dasharray:none;stroke-dashoffset:0;stroke-opacity:1"
           id="rect3564"
           width="112.76687"
           height="3.4520471"
           x="722.62854"
           y="1134.7388" />
      </g>
      <g
         transform="translate(0,112.2387)"
         id="g3586">
        <g
           id="g3576">
          <rect
             y="-771.44525"
             x="1113.1532"
             height="3.4520471"
             width="19.561596"
             id="rect3570"
             style="fill:#ffffff;fill-opacity:1;fill-rule:evenodd;stroke:#000000;stroke-width:1.87500012;stroke-linecap:round;stroke-linejoin:round;stroke-miterlimit:4;stroke-dasharray:none;stroke-dashoffset:0;stroke-opacity:1"
             transform="matrix(0,1,-1,0,0,0)" />
          <rect
             y="1111.9203"
             x="722.62854"
             height="3.4520471"
             width="52.931385"
             id="rect3572"
             style="fill:#ffffff;fill-opacity:1;fill-rule:evenodd;stroke:#000000;stroke-width:1.875;stroke-linecap:round;stroke-linejoin:round;stroke-miterlimit:4;stroke-dasharray:none;stroke-dashoffset:0;stroke-opacity:1" />
          <rect
             style="fill:#ffffff;fill-opacity:1;fill-rule:evenodd;stroke:#000000;stroke-width:1.875;stroke-linecap:round;stroke-linejoin:round;stroke-miterlimit:4;stroke-dasharray:none;stroke-dashoffset:0;stroke-opacity:1"
             id="rect3574"
             width="52.931385"
             height="3.4520471"
             x="722.62854"
             y="1130.9888" />
        </g>
        <g
           id="g3584">
          <path
             style="fill:#ffffff;fill-opacity:1;fill-rule:evenodd;stroke:#000000;stroke-width:2.24999976;stroke-linecap:round;stroke-linejoin:round;stroke-miterlimit:4;stroke-dasharray:none;stroke-dashoffset:0;stroke-opacity:1"
             inkscape:transform-center-x="2.6404656"
             d="m 764.15333,1115.8574 0,14.5437 -25.21779,-7.2719 z"
             id="path3578"
             inkscape:connector-curvature="0"
             sodipodi:nodetypes="cccc" />
          <rect
             y="1121.4546"
             x="724.81189"
             height="3.4520471"
             width="22.821285"
             id="rect3580"
             style="fill:#ffffff;fill-opacity:1;fill-rule:evenodd;stroke:#000000;stroke-width:1.87500012;stroke-linecap:round;stroke-linejoin:round;stroke-miterlimit:4;stroke-dasharray:none;stroke-dashoffset:0;stroke-opacity:1" />
          <rect
             style="fill:#ffffff;fill-opacity:1;fill-rule:evenodd;stroke:#000000;stroke-width:1.87500012;stroke-linecap:round;stroke-linejoin:round;stroke-miterlimit:4;stroke-dasharray:none;stroke-dashoffset:0;stroke-opacity:1"
             id="rect3582"
             width="5.3248043"
             height="3.4520471"
             x="-759.8125"
             y="1121.4546"
             transform="scale(-1,1)" />
        </g>
      </g>
      <g
         id="g3604"
         transform="matrix(-1,0,0,1,1558.0778,112.2386)">
        <g
           id="g3594">
          <rect
             transform="matrix(0,1,-1,0,0,0)"
             style="fill:#ffffff;fill-opacity:1;fill-rule:evenodd;stroke:#000000;stroke-width:1.87500012;stroke-linecap:round;stroke-linejoin:round;stroke-miterlimit:4;stroke-dasharray:none;stroke-dashoffset:0;stroke-opacity:1"
             id="rect3588"
             width="19.561596"
             height="3.4520471"
             x="1113.1532"
             y="-771.44525" />
          <rect
             style="fill:#ffffff;fill-opacity:1;fill-rule:evenodd;stroke:#000000;stroke-width:1.875;stroke-linecap:round;stroke-linejoin:round;stroke-miterlimit:4;stroke-dasharray:none;stroke-dashoffset:0;stroke-opacity:1"
             id="rect3590"
             width="52.931385"
             height="3.4520471"
             x="722.62854"
             y="1111.9203" />
          <rect
             y="1130.9888"
             x="722.62854"
             height="3.4520471"
             width="52.931385"
             id="rect3592"
             style="fill:#ffffff;fill-opacity:1;fill-rule:evenodd;stroke:#000000;stroke-width:1.875;stroke-linecap:round;stroke-linejoin:round;stroke-miterlimit:4;stroke-dasharray:none;stroke-dashoffset:0;stroke-opacity:1" />
        </g>
        <g
           id="g3602">
          <path
             sodipodi:nodetypes="cccc"
             inkscape:connector-curvature="0"
             id="path3596"
             d="m 764.15333,1115.8574 0,14.5437 -25.21779,-7.2719 z"
             inkscape:transform-center-x="2.6404656"
             style="fill:#ffffff;fill-opacity:1;fill-rule:evenodd;stroke:#000000;stroke-width:2.24999976;stroke-linecap:round;stroke-linejoin:round;stroke-miterlimit:4;stroke-dasharray:none;stroke-dashoffset:0;stroke-opacity:1" />
          <rect
             style="fill:#ffffff;fill-opacity:1;fill-rule:evenodd;stroke:#000000;stroke-width:1.87500012;stroke-linecap:round;stroke-linejoin:round;stroke-miterlimit:4;stroke-dasharray:none;stroke-dashoffset:0;stroke-opacity:1"
             id="rect3598"
             width="22.821285"
             height="3.4520471"
             x="724.81189"
             y="1121.4546" />
          <rect
             transform="scale(-1,1)"
             y="1121.4546"
             x="-759.8125"
             height="3.4520471"
             width="5.3248043"
             id="rect3600"
             style="fill:#ffffff;fill-opacity:1;fill-rule:evenodd;stroke:#000000;stroke-width:1.87500012;stroke-linecap:round;stroke-linejoin:round;stroke-miterlimit:4;stroke-dasharray:none;stroke-dashoffset:0;stroke-opacity:1" />
        </g>
      </g>
    </g>
    <path
       inkscape:connector-curvature="0"
       id="path3608"
       d="m 338.08849,138.98523 -1.28916,9.99117"
       style="fill:#ffffff;fill-opacity:1;fill-rule:evenodd;stroke:#000000;stroke-width:0.63499987;stroke-linecap:round;stroke-linejoin:round;stroke-miterlimit:4;stroke-dasharray:none;stroke-dashoffset:0;stroke-opacity:1" />
    <path
       style="fill:#ffffff;fill-opacity:1;fill-rule:evenodd;stroke:#000000;stroke-width:0.63499987;stroke-linecap:round;stroke-linejoin:round;stroke-miterlimit:4;stroke-dasharray:none;stroke-dashoffset:0;stroke-opacity:1"
       d="m 344.64172,138.98523 1.28916,9.99117"
       id="path3610"
       inkscape:connector-curvature="0" />
    <path
       transform="matrix(-0.8870656,0.46164339,0.46164339,0.8870656,0,0)"
       d="m -242.70746,287.57379 a 5.6191607,7.9980545 0 0 1 -2.30722,-6.89859 5.6191607,7.9980545 0 0 1 2.81319,-6.50706"
       sodipodi:open="true"
       sodipodi:end="4.1911936"
       sodipodi:start="2.1993325"
       sodipodi:ry="7.9980545"
       sodipodi:rx="5.6191607"
       sodipodi:cy="281.10425"
       sodipodi:cx="-239.40361"
       sodipodi:type="arc"
       id="path5551"
       style="fill:none;fill-opacity:1;fill-rule:evenodd;stroke:#000000;stroke-width:0.52916658;stroke-linecap:round;stroke-linejoin:round;stroke-miterlimit:4;stroke-dasharray:none;stroke-opacity:1;marker-end:url(#marker5737)" />
    <rect
       style="color:#000000;clip-rule:nonzero;display:inline;overflow:visible;visibility:visible;opacity:1;isolation:auto;mix-blend-mode:normal;color-interpolation:sRGB;color-interpolation-filters:linearRGB;solid-color:#000000;solid-opacity:1;fill:none;fill-opacity:1;fill-rule:nonzero;stroke:#000000;stroke-width:0.50747895;stroke-linecap:round;stroke-linejoin:round;stroke-miterlimit:4;stroke-dasharray:none;stroke-dashoffset:0;stroke-opacity:1;color-rendering:auto;image-rendering:auto;shape-rendering:auto;text-rendering:auto;enable-background:accumulate"
       id="rect5940-5"
       width="45.524971"
       height="42.106064"
       x="318.92798"
       y="124.75649" />
    <path
       style="fill:none;fill-opacity:1;fill-rule:evenodd;stroke:#000000;stroke-width:0.52916658;stroke-linecap:round;stroke-linejoin:round;stroke-miterlimit:4;stroke-dasharray:none;stroke-opacity:1;marker-end:url(#marker7020)"
       id="path7016"
       sodipodi:type="arc"
       sodipodi:cx="228.63878"
       sodipodi:cy="-297.56885"
       sodipodi:rx="5.6191607"
       sodipodi:ry="7.9980545"
       sodipodi:start="2.1993325"
       sodipodi:end="4.1911936"
       sodipodi:open="true"
       d="m 225.33493,-291.09931 a 5.6191607,7.9980545 0 0 1 -2.30722,-6.89859 5.6191607,7.9980545 0 0 1 2.81319,-6.50706"
       transform="matrix(0.8870656,-0.46164339,-0.46164339,-0.8870656,0,0)" />
    <rect
       y="124.75649"
       x="318.92798"
       height="42.106064"
       width="45.524971"
       id="rect8672-9"
       style="color:#000000;clip-rule:nonzero;display:inline;overflow:visible;visibility:visible;opacity:1;isolation:auto;mix-blend-mode:normal;color-interpolation:sRGB;color-interpolation-filters:linearRGB;solid-color:#000000;solid-opacity:1;fill:none;fill-opacity:1;fill-rule:nonzero;stroke:#000000;stroke-width:0.50747895;stroke-linecap:round;stroke-linejoin:round;stroke-miterlimit:4;stroke-dasharray:none;stroke-dashoffset:0;stroke-opacity:1;color-rendering:auto;image-rendering:auto;shape-rendering:auto;text-rendering:auto;enable-background:accumulate" />
  </g>
  <g
     inkscape:groupmode="layer"
     id="layer4"
     inkscape:label="vecto"
     style="display:none">
    <g
       transform="matrix(0.2822222,0,0,0.28222222,-21.50281,-4.7223431)"
       clip-path="url(#clipPath1755-8-3)"
       style="font-style:normal;font-weight:normal;line-height:0.01%;font-family:sans-serif;letter-spacing:0px;word-spacing:0px;fill:#000000;fill-opacity:1;stroke:#000000;stroke-width:0.37500003;stroke-linecap:round;stroke-linejoin:round;stroke-miterlimit:4;stroke-dasharray:none;stroke-opacity:1"
       id="flowRoot5709-2">
      <path
         inkscape:connector-curvature="0"
         d="m 88.8125,158.13672 q 0,1.23047 -0.732422,2.05078 -0.732422,0.82031 -2.138672,0.82031 -0.820312,0 -1.40625,-0.29297 -0.585937,-0.29297 -0.9375,-0.76172 -0.351562,-0.46875 -0.351562,-0.8789 0,-0.46875 0.205078,-0.67383 0.205078,-0.20508 0.498047,-0.20508 0.292968,0 0.439453,0.20508 0.146484,0.20508 0.146484,0.43945 0,0.41016 -0.292969,0.70313 0.05859,0.17578 0.556641,0.49805 0.498047,0.32226 1.142578,0.32226 0.820313,0 1.31836,-0.61523 0.498046,-0.61524 0.498046,-1.61133 0,-0.9961 -0.439453,-1.52344 -0.439453,-0.52734 -0.908203,-0.67383 -0.46875,-0.14648 -0.820312,-0.0879 l 0,-0.58594 2.753906,-3.51562 -3.28125,0 q -0.9375,0 -1.289063,1.93359 l -0.410156,0 0.410156,-2.7539 5.15625,0 0,0.82031 -2.871093,3.57422 q 0.410156,-0.0586 1.142578,0.26367 0.732422,0.32227 1.171875,0.99609 0.439453,0.67383 0.439453,1.55274 z"
         style="font-style:normal;font-variant:normal;font-weight:normal;font-stretch:normal;font-size:15px;line-height:100%;font-family:'Ume Mincho Balsa';-inkscape-font-specification:'Ume Mincho Balsa, Normal';text-align:start;writing-mode:lr-tb;text-anchor:start;fill:#000000;stroke:#000000;stroke-width:0.37500003;stroke-linecap:round;stroke-linejoin:round;stroke-miterlimit:4;stroke-dasharray:none;stroke-opacity:1"
         id="path6579" />
    </g>
  </g>
</svg>
