<?xml version="1.0" encoding="UTF-8" standalone="no"?>
<!-- Created with Inkscape (http://www.inkscape.org/) -->

<svg
   xmlns:dc="http://purl.org/dc/elements/1.1/"
   xmlns:cc="http://creativecommons.org/ns#"
   xmlns:rdf="http://www.w3.org/1999/02/22-rdf-syntax-ns#"
   xmlns:svg="http://www.w3.org/2000/svg"
   xmlns="http://www.w3.org/2000/svg"
   xmlns:sodipodi="http://sodipodi.sourceforge.net/DTD/sodipodi-0.dtd"
   xmlns:inkscape="http://www.inkscape.org/namespaces/inkscape"
   width="21.864136mm"
   height="46.157803mm"
   viewBox="0 0 77.471344 163.55128"
   id="svg7187"
   version="1.1"
   inkscape:version="0.91 r13725"
   sodipodi:docname="ou-suis-je-06-2-couleur.svg">
  <defs
     id="defs7189">
    <inkscape:path-effect
       is_visible="true"
       id="path-effect10770-5"
       effect="spiro" />
    <inkscape:path-effect
       effect="spiro"
       id="path-effect32883"
       is_visible="true" />
    <inkscape:path-effect
       effect="spiro"
       id="path-effect32893"
       is_visible="true" />
    <inkscape:path-effect
       effect="spiro"
       id="path-effect32885"
       is_visible="true" />
    <inkscape:path-effect
       effect="spiro"
       id="path-effect32895"
       is_visible="true" />
    <inkscape:path-effect
       effect="spiro"
       id="path-effect32889"
       is_visible="true" />
    <inkscape:path-effect
       effect="spiro"
       id="path-effect32887"
       is_visible="true" />
    <inkscape:path-effect
       effect="spiro"
       id="path-effect32891"
       is_visible="true" />
    <inkscape:path-effect
       is_visible="true"
       id="path-effect6227"
       effect="spiro" />
    <inkscape:path-effect
       is_visible="true"
       id="path-effect4719"
       effect="spiro" />
    <inkscape:path-effect
       is_visible="true"
       id="path-effect4715"
       effect="spiro" />
    <inkscape:path-effect
       is_visible="true"
       id="path-effect4707"
       effect="spiro" />
    <inkscape:path-effect
       is_visible="true"
       id="path-effect4711"
       effect="spiro" />
    <inkscape:path-effect
       is_visible="true"
       id="path-effect4713"
       effect="spiro" />
    <inkscape:path-effect
       effect="spiro"
       id="path-effect6479"
       is_visible="true" />
    <inkscape:path-effect
       effect="spiro"
       id="path-effect6507"
       is_visible="true" />
    <inkscape:path-effect
       effect="spiro"
       id="path-effect6473"
       is_visible="true" />
    <inkscape:path-effect
       effect="spiro"
       id="path-effect6471"
       is_visible="true" />
    <inkscape:path-effect
       effect="spiro"
       id="path-effect6469"
       is_visible="true" />
    <inkscape:path-effect
       effect="spiro"
       id="path-effect6477"
       is_visible="true" />
    <inkscape:path-effect
       effect="spiro"
       id="path-effect6475"
       is_visible="true" />
    <inkscape:path-effect
       effect="spiro"
       id="path-effect6401"
       is_visible="true" />
    <inkscape:path-effect
       is_visible="true"
       id="path-effect6390"
       effect="spiro" />
    <inkscape:path-effect
       is_visible="true"
       id="path-effect6393"
       effect="spiro" />
    <inkscape:path-effect
       effect="spiro"
       id="path-effect4543"
       is_visible="true" />
    <inkscape:path-effect
       effect="spiro"
       id="path-effect6249"
       is_visible="true" />
    <inkscape:path-effect
       effect="spiro"
       id="path-effect6665"
       is_visible="true" />
    <inkscape:path-effect
       effect="spiro"
       id="path-effect6667"
       is_visible="true" />
    <inkscape:path-effect
       effect="spiro"
       id="path-effect6657"
       is_visible="true" />
    <inkscape:path-effect
       effect="spiro"
       id="path-effect6659"
       is_visible="true" />
    <inkscape:path-effect
       effect="spiro"
       id="path-effect6533"
       is_visible="true" />
    <inkscape:path-effect
       is_visible="true"
       id="path-effect6525"
       effect="spiro" />
    <inkscape:path-effect
       effect="spiro"
       id="path-effect6515"
       is_visible="true" />
    <inkscape:path-effect
       is_visible="true"
       id="path-effect7139"
       effect="spiro" />
    <inkscape:path-effect
       is_visible="true"
       id="path-effect7153"
       effect="spiro" />
    <inkscape:path-effect
       is_visible="true"
       id="path-effect7145"
       effect="spiro" />
    <inkscape:path-effect
       is_visible="true"
       id="path-effect7137"
       effect="spiro" />
    <inkscape:path-effect
       is_visible="true"
       id="path-effect7141"
       effect="spiro" />
    <inkscape:path-effect
       is_visible="true"
       id="path-effect7109"
       effect="spiro" />
    <inkscape:path-effect
       is_visible="true"
       id="path-effect7107"
       effect="spiro" />
    <inkscape:path-effect
       is_visible="true"
       id="path-effect7105"
       effect="spiro" />
    <inkscape:path-effect
       is_visible="true"
       id="path-effect7101"
       effect="spiro" />
    <inkscape:path-effect
       is_visible="true"
       id="path-effect7103"
       effect="spiro" />
    <inkscape:path-effect
       effect="spiro"
       id="path-effect6747"
       is_visible="true" />
    <inkscape:path-effect
       effect="spiro"
       id="path-effect6739"
       is_visible="true" />
    <inkscape:path-effect
       effect="spiro"
       id="path-effect6737"
       is_visible="true" />
    <inkscape:path-effect
       effect="spiro"
       id="path-effect6685"
       is_visible="true" />
    <inkscape:path-effect
       effect="spiro"
       id="path-effect6687"
       is_visible="true" />
    <inkscape:path-effect
       effect="spiro"
       id="path-effect6673"
       is_visible="true" />
    <inkscape:path-effect
       effect="spiro"
       id="path-effect6893"
       is_visible="true" />
    <inkscape:path-effect
       effect="spiro"
       id="path-effect6897"
       is_visible="true" />
    <inkscape:path-effect
       effect="spiro"
       id="path-effect6881"
       is_visible="true" />
    <inkscape:path-effect
       is_visible="true"
       id="path-effect6861"
       effect="spiro" />
    <inkscape:path-effect
       effect="spiro"
       id="path-effect6775"
       is_visible="true" />
    <inkscape:path-effect
       effect="spiro"
       id="path-effect4826"
       is_visible="true" />
  </defs>
  <sodipodi:namedview
     id="base"
     pagecolor="#ffffff"
     bordercolor="#666666"
     borderopacity="1.0"
     inkscape:pageopacity="0.0"
     inkscape:pageshadow="2"
     inkscape:zoom="2.8"
     inkscape:cx="-110.21563"
     inkscape:cy="88.619803"
     inkscape:document-units="px"
     inkscape:current-layer="layer9"
     showgrid="false"
     fit-margin-top="0.3"
     fit-margin-left="0.3"
     fit-margin-right="0.3"
     fit-margin-bottom="0.3"
     inkscape:showpageshadow="false"
     borderlayer="true"
     inkscape:window-width="1920"
     inkscape:window-height="1031"
     inkscape:window-x="0"
     inkscape:window-y="27"
     inkscape:window-maximized="1" />
  <metadata
     id="metadata7192">
    <rdf:RDF>
      <cc:Work
         rdf:about="">
        <dc:format>image/svg+xml</dc:format>
        <dc:type
           rdf:resource="http://purl.org/dc/dcmitype/StillImage" />
        <dc:title />
      </cc:Work>
    </rdf:RDF>
  </metadata>
  <g
     inkscape:groupmode="layer"
     id="layer9"
     inkscape:label="color">
    <path
       sodipodi:nodetypes="cazcsczscsscc"
       inkscape:connector-curvature="0"
       id="path4824"
       d="m 25.040304,121.27059 c -0.08119,2.28381 -0.178022,4.56706 -0.290491,6.84954 -0.09951,2.01956 -0.20765,4.07696 0.303697,6.03325 0.255674,0.97814 0.668419,1.92251 1.27695,2.72986 0.608531,0.80736 1.418727,1.47394 2.359039,1.84535 1.053228,0.41601 2.254309,0.44542 3.326635,0.0814 1.072326,-0.36397 2.007351,-1.11841 2.589738,-2.08959 0.285927,1.22601 0.954267,2.35996 1.888372,3.20393 0.934105,0.84398 2.129823,1.39423 3.378458,1.55472 1.491855,0.19175 3.049418,-0.18074 4.293107,-1.02669 1.243689,-0.84595 2.162326,-2.15777 2.532038,-3.61575 0.323873,0.77211 0.880129,1.44497 1.57756,1.90826 0.697431,0.46329 1.533317,0.7152 2.370602,0.71442 1.150701,-0.001 2.275751,-0.47796 3.151419,-1.2245 0.875669,-0.74653 1.511622,-1.74923 1.921224,-2.82456 0.819203,-2.15066 0.750175,-4.52188 0.691675,-6.82254 -0.06161,-2.42289 -0.09907,-4.84639 -0.11239,-7.27003 -2.693265,-0.81663 -5.500604,-1.25607 -8.314585,-1.30151 -4.437088,-0.0716 -8.826465,0.82822 -13.247004,1.21774 -3.223362,0.28403 -6.470624,0.29632 -9.696044,0.0367 l 0,-5e-5 z"
       style="fill:#000000;fill-opacity:1;fill-rule:evenodd;stroke:none;stroke-width:1.875;stroke-linecap:round;stroke-linejoin:round;stroke-miterlimit:4;stroke-dasharray:none;stroke-opacity:1"
       inkscape:path-effect="#path-effect4826"
       inkscape:original-d="m 25.040304,121.27059 c -0.259719,13.33585 -0.646894,4.5923 -0.290491,6.84954 0.588303,3.72595 0.694761,10.58547 3.939686,10.60846 3.244926,0.0229 5.916373,-2.00814 5.916373,-2.00814 0,0 1.277269,4.63334 5.26683,4.75865 3.822504,0.12009 6.825145,-4.64244 6.825145,-4.64244 0,0 1.27734,2.66372 3.948162,2.62268 2.670889,-0.0416 5.751259,-2.96632 5.764318,-10.8716 0,-1.65486 0.126698,5.05924 -0.11239,-7.27003 0,0 -6.452833,-1.48769 -8.314585,-1.30151 -1.86175,0.18618 -9.709676,1.21774 -13.247004,1.21774 -3.537327,0 -9.696044,0.0367 -9.696044,0.0367 z" />
  </g>
  <g
     inkscape:label="Layer 1"
     inkscape:groupmode="layer"
     id="layer1"
     transform="translate(235.66508,-434.72546)"
     style="display:none">
    <rect
       style="color:#000000;clip-rule:nonzero;display:inline;overflow:visible;visibility:visible;opacity:1;isolation:auto;mix-blend-mode:normal;color-interpolation:sRGB;color-interpolation-filters:linearRGB;solid-color:#000000;solid-opacity:1;fill:none;fill-opacity:1;fill-rule:nonzero;stroke:#000000;stroke-width:1.91386974;stroke-linecap:round;stroke-linejoin:round;stroke-miterlimit:4;stroke-dasharray:none;stroke-dashoffset:0;stroke-opacity:1;color-rendering:auto;image-rendering:auto;shape-rendering:auto;text-rendering:auto;enable-background:accumulate"
       id="rect7322"
       width="73.431503"
       height="159.51143"
       x="-233.64516"
       y="436.74539" />
    <path
       sodipodi:nodetypes="cazcsczsc"
       inkscape:connector-curvature="0"
       id="path6773"
       d="m -213.15513,518.97655 c 0.53578,13.76508 0.43688,27.55484 -0.29628,41.31082 -0.11059,2.07503 -0.23202,4.18916 0.28692,6.2013 0.25947,1.00607 0.68137,1.97781 1.30592,2.80814 0.62455,0.83032 1.45789,1.51526 2.42519,1.8945 1.07608,0.42189 2.30204,0.44889 3.39565,0.0748 1.09362,-0.3741 2.04618,-1.14632 2.63841,-2.13889 0.28335,1.25793 0.9616,2.4239 1.91501,3.29205 0.95341,0.86815 2.17764,1.43453 3.45654,1.59914 1.52672,0.19651 3.12105,-0.18768 4.39069,-1.05803 1.26964,-0.87034 2.20292,-2.21886 2.5702,-3.71371 0.3278,0.79086 0.89391,1.48112 1.60531,1.95738 0.71141,0.47625 1.56531,0.73663 2.42141,0.73835 1.1822,0.002 2.33912,-0.48719 3.23787,-1.25521 0.89875,-0.76801 1.54941,-1.80034 1.96592,-2.90674 0.83301,-2.2128 0.74779,-4.64915 0.67516,-7.01243 -0.41168,-13.39641 -0.0545,-26.81642 1.06918,-40.17197"
       style="fill:none;fill-opacity:1;fill-rule:evenodd;stroke:#000000;stroke-width:1.50000012;stroke-linecap:round;stroke-linejoin:round;stroke-miterlimit:4;stroke-dasharray:none;stroke-opacity:1"
       inkscape:path-effect="#path-effect6775"
       inkscape:original-d="m -213.15513,518.97655 c -0.26488,13.70728 -2.66423,27.74855 -0.29628,41.31082 0.66671,3.81852 0.70855,10.88031 4.01803,10.90394 3.30949,0.0236 6.03406,-2.06409 6.03406,-2.06409 0,0 1.30264,4.76239 5.37155,4.89119 3.89859,0.12345 6.96089,-4.77174 6.96089,-4.77174 0,0 1.30278,2.73793 4.02672,2.69573 2.72397,-0.0428 5.86564,-3.04893 5.87895,-11.17438 0.002,-1.70096 1.31302,-27.49931 1.06918,-40.17197" />
    <g
       id="g6871"
       transform="matrix(-0.82687251,0,0,-0.83332934,161.03903,1273.6216)"
       style="fill:none;stroke-width:1.80702305;stroke-linecap:round;stroke-linejoin:round;stroke-miterlimit:4;stroke-dasharray:none">
      <path
         sodipodi:nodetypes="cszzc"
         inkscape:connector-curvature="0"
         id="path6841"
         d="m 427.15952,881.47592 c 0,0 -3.02691,0.64772 -2.98541,2.55405 0.0456,2.09643 3.54997,3.02624 8.61054,3.16376 5.06056,0.13753 8.18787,-0.83904 8.51701,-3.02219 0.32914,-2.18316 -2.62363,-2.79253 -2.62363,-2.79253"
         style="fill:none;fill-rule:evenodd;stroke:#000000;stroke-width:1.80702305;stroke-linecap:round;stroke-linejoin:round;stroke-miterlimit:4;stroke-dasharray:none;stroke-opacity:1" />
      <path
         style="color:#000000;clip-rule:nonzero;display:inline;overflow:visible;visibility:visible;opacity:1;isolation:auto;mix-blend-mode:normal;color-interpolation:sRGB;color-interpolation-filters:linearRGB;solid-color:#000000;solid-opacity:1;fill:none;fill-opacity:1;fill-rule:nonzero;stroke:#000000;stroke-width:1.80702305;stroke-linecap:round;stroke-linejoin:round;stroke-miterlimit:4;stroke-dasharray:none;stroke-dashoffset:0;stroke-opacity:1;color-rendering:auto;image-rendering:auto;shape-rendering:auto;text-rendering:auto;enable-background:accumulate"
         id="path6847"
         sodipodi:type="arc"
         sodipodi:cx="433.02832"
         sodipodi:cy="877.29773"
         sodipodi:rx="5.4986448"
         sodipodi:ry="1.9456744"
         sodipodi:start="3.6018185"
         sodipodi:end="3.5986246"
         sodipodi:open="true"
         d="m 428.1018,876.43356 a 5.4986448,1.9456744 0 0 1 7.36481,-0.87975 5.4986448,1.9456744 0 0 1 2.49213,2.60531 5.4986448,1.9456744 0 0 1 -7.36084,0.88391 5.4986448,1.9456744 0 0 1 -2.50388,-2.6039" />
      <path
         style="fill:none;fill-rule:evenodd;stroke:#000000;stroke-width:1.80702305;stroke-linecap:round;stroke-linejoin:round;stroke-miterlimit:4;stroke-dasharray:none;stroke-opacity:1"
         d="m 431.75657,882.00053 c 0,0 1.91756,0.0809 2.8712,0 2.11978,-0.17986 3.36149,-0.88636 3.36149,-0.88636"
         id="path6849"
         inkscape:connector-curvature="0"
         sodipodi:nodetypes="csc" />
      <path
         style="fill:none;fill-rule:evenodd;stroke:#000000;stroke-width:1.80702305;stroke-linecap:round;stroke-linejoin:round;stroke-miterlimit:4;stroke-dasharray:none;stroke-opacity:1"
         d="m 427.51946,883.26797 0.0385,-5.44407"
         id="path6855"
         inkscape:connector-curvature="0"
         sodipodi:nodetypes="cc" />
      <path
         style="fill:none;fill-rule:evenodd;stroke:#000000;stroke-width:1.80702305;stroke-linecap:round;stroke-linejoin:round;stroke-miterlimit:4;stroke-dasharray:none;stroke-opacity:1"
         d="m 438.68582,883.2385 -0.0603,-6.05037"
         id="path6857"
         inkscape:connector-curvature="0"
         sodipodi:nodetypes="cc" />
      <path
         sodipodi:nodetypes="ccccccssc"
         inkscape:connector-curvature="0"
         id="path6859"
         d="m 427.23427,887.02604 c -3.74135,1.10024 -7.16016,3.27478 -9.74273,6.19685 -2.58258,2.92207 -4.32051,6.58219 -4.95267,10.43038 -1.07075,6.51805 0.98131,13.08523 1.88669,19.6283 0.33023,2.3865 0.50811,4.79408 0.53222,7.2032 m 34.40254,0.67449 c -0.0729,-2.80187 0.10613,-5.61024 0.5341,-8.38019 0.52943,-3.42663 1.43683,-6.78289 2.09145,-10.18782 0.65463,-3.40493 1.05566,-6.90604 0.55906,-10.33758 -0.44434,-3.07047 -1.61922,-6.04339 -3.46656,-8.53589 -2.49034,-3.36007 -6.20422,-5.79221 -10.27961,-6.7319"
         style="fill:none;fill-opacity:1;fill-rule:evenodd;stroke:#000000;stroke-width:1.80702305;stroke-linecap:round;stroke-linejoin:round;stroke-miterlimit:4;stroke-dasharray:none;stroke-opacity:1"
         inkscape:original-d="m 427.23427,887.02604 c -7.1667,3.07211 -14.65174,9.80533 -14.6954,16.62723 0.0213,2.0306 1.79422,12.7048 1.88669,19.6283 0.14416,10.7925 0.79294,-6.1849 0.53222,7.2032 m 34.40254,0.67449 c -0.26053,-13.435 0.3751,2.58941 0.5341,-8.38019 0.11249,-7.7615 2.63921,-19.1073 2.65051,-20.5254 0.0682,-8.55593 0.4044,-6.4412 -3.46656,-8.53589 -7.0923,-3.83789 -10.27961,-6.7319 -10.27961,-6.7319"
         inkscape:path-effect="#path-effect6861" />
    </g>
    <path
       style="fill:none;fill-rule:evenodd;stroke:#000000;stroke-width:1.50000012;stroke-linecap:round;stroke-linejoin:round;stroke-miterlimit:4;stroke-dasharray:none;stroke-opacity:1"
       d="m -212.89901,553.86372 c 2.41691,0.22486 4.84817,0.29552 7.27406,0.21141 5.60434,-0.19432 11.19185,-1.21301 16.78753,-0.84591 2.43984,0.16006 4.86226,0.58429 7.2113,1.26287"
       id="path6879"
       inkscape:connector-curvature="0"
       inkscape:path-effect="#path-effect6881"
       inkscape:original-d="m -212.89901,553.86372 c 0.20985,-0.84591 14.03208,10.40889 7.27406,0.21141 -3.58449,-5.40875 11.19514,-1.1904 16.78753,-0.84591 2.43524,0.15 7.2113,1.26287 7.2113,1.26287"
       sodipodi:nodetypes="csac" />
    <path
       transform="matrix(-1,0,-0.06109498,0.99813196,0,0)"
       style="color:#000000;clip-rule:nonzero;display:inline;overflow:visible;visibility:visible;opacity:1;isolation:auto;mix-blend-mode:normal;color-interpolation:sRGB;color-interpolation-filters:linearRGB;solid-color:#000000;solid-opacity:1;fill:none;fill-opacity:1;fill-rule:nonzero;stroke:#000000;stroke-width:1.50140309;stroke-linecap:round;stroke-linejoin:round;stroke-miterlimit:4;stroke-dasharray:none;stroke-dashoffset:0;stroke-opacity:1;color-rendering:auto;image-rendering:auto;shape-rendering:auto;text-rendering:auto;enable-background:accumulate"
       id="path6885"
       sodipodi:type="arc"
       sodipodi:cx="165.89024"
       sodipodi:cy="498.90161"
       sodipodi:rx="14.240193"
       sodipodi:ry="5.0730629"
       sodipodi:start="3.6018185"
       sodipodi:end="3.5986246"
       sodipodi:open="true"
       d="m 153.13171,496.64841 a 14.240193,5.0730629 0 0 1 19.07313,-2.29382 14.240193,5.0730629 0 0 1 6.45402,6.79296 14.240193,5.0730629 0 0 1 -19.06282,2.30467 14.240193,5.0730629 0 0 1 -6.48446,-6.78928" />
    <path
       style="fill:none;fill-rule:evenodd;stroke:#000000;stroke-width:1.50000012;stroke-linecap:round;stroke-linejoin:round;stroke-miterlimit:4;stroke-dasharray:none;stroke-opacity:1"
       d="m -201.66792,497.04192 c -2.52325,-2.1394 -4.06861,-5.38966 -4.13511,-8.69714 -0.0312,-1.55273 0.24599,-3.09287 0.39193,-4.63904 0.14595,-1.54618 0.15358,-3.14763 -0.39193,-4.60172 -0.57386,-1.52963 -1.71417,-2.77604 -2.91956,-3.87882 -1.20539,-1.10278 -2.50943,-2.11173 -3.5528,-3.36889 -1.06237,-1.28006 -1.83803,-2.82199 -2.08113,-4.46762 -0.24311,-1.64562 0.0724,-3.39392 1.0024,-4.77314 0.98808,-1.46531 2.56089,-2.41 4.07558,-3.32056 1.5147,-0.91057 3.07607,-1.88611 4.01487,-3.38347 0.80796,-1.28866 1.07072,-2.83162 1.4231,-4.31124 0.17619,-0.73981 0.37975,-1.47683 0.69082,-2.1708 0.31107,-0.69397 0.73432,-1.34681 1.30204,-1.85283 0.56694,-0.50533 1.2721,-0.85401 2.01783,-0.99776 0.74573,-0.14375 1.52997,-0.0822 2.24413,0.17619 0.71416,0.25837 1.35626,0.71283 1.8374,1.30044 0.48113,0.58761 0.79996,1.30676 0.91235,2.05786 0.16743,-1.03884 0.60838,-2.03236 1.26643,-2.85345 0.65805,-0.82109 1.53168,-1.46785 2.50911,-1.85753 1.5519,-0.61871 3.35912,-0.56425 4.87096,0.14678 1.51183,0.71103 2.70632,2.06831 3.21948,3.65824 0.36608,-3.26539 2.00534,-6.37125 4.49469,-8.516 2.33135,-2.00862 5.38447,-3.16102 8.46159,-3.19385 3.07712,-0.0328 6.15412,1.0542 8.52779,3.01264"
       id="path6887"
       inkscape:connector-curvature="0"
       inkscape:path-effect="#path-effect6897"
       inkscape:original-d="m -201.66792,497.04192 c 0,0 -3.42836,-5.56239 -4.13511,-8.69714 -0.6772,-3.00367 1.09498,-6.36496 0,-9.24076 -1.15542,-3.03451 -5.14271,-4.28653 -6.47236,-7.24771 -1.26879,-2.82561 -2.22814,-6.36368 -1.07873,-9.24076 1.304,-3.26398 6.01334,-3.87585 8.09045,-6.70403 1.77447,-2.41614 0.68916,-7.11677 3.41596,-8.33487 2.27025,-1.01412 7.01171,2.53673 7.01171,2.53673 0,0 1.82417,-4.25597 3.77554,-4.71098 2.89941,-0.67613 8.09044,3.80502 8.09044,3.80502 0,0 1.75478,-6.844 4.49469,-8.516 4.83439,-2.95013 16.98938,-0.18121 16.98938,-0.18121"
       sodipodi:nodetypes="caaaaaacacac" />
    <path
       style="fill:none;fill-rule:evenodd;stroke:#000000;stroke-width:1.50000012;stroke-linecap:round;stroke-linejoin:round;stroke-miterlimit:4;stroke-dasharray:none;stroke-opacity:1"
       d="m -192.31897,501.39057 c -1.8537,-2.10868 -3.08289,-4.75969 -3.49467,-7.53695 -0.41178,-2.77726 -0.005,-5.67088 1.15743,-8.22671 0.77103,-1.69575 1.85731,-3.22926 2.69681,-4.89218 1.16315,-2.30403 1.84131,-4.85148 1.97766,-7.42885 0.3926,1.5591 1.30677,2.98206 2.56156,3.98725 1.2548,1.00519 2.84296,1.58679 4.45016,1.62969 1.27722,0.0341 2.56193,-0.26817 3.68996,-0.86817 1.12803,-0.59999 2.09676,-1.49633 2.78239,-2.57445 0.30906,2.05201 1.4255,3.97138 3.05639,5.25453 1.82374,1.43487 4.27146,2.04598 6.55561,1.63672 2.28416,-0.40927 4.36742,-1.83222 5.57951,-3.81104"
       id="path6891"
       inkscape:connector-curvature="0"
       inkscape:path-effect="#path-effect6893"
       inkscape:original-d="m -192.31897,501.39057 c 0,0 -3.27784,-10.53605 -2.33724,-15.76366 0.33027,-1.83554 2.00231,-3.16295 2.69681,-4.89218 0.9545,-2.37659 1.97766,-7.42885 1.97766,-7.42885 2.83547,-0.94237 4.03897,5.33756 7.01172,5.61694 2.42894,0.22832 6.47235,-3.44262 6.47235,-3.44262 0,0 1.21742,4.4037 3.05639,5.25453 3.72962,1.72556 12.13512,-2.17432 12.13512,-2.17432"
       sodipodi:nodetypes="caasacac" />
  </g>
  <g
     inkscape:groupmode="layer"
     id="layer10"
     inkscape:label="vecto"
     style="display:none">
    <g
       style="font-style:normal;font-variant:normal;font-weight:normal;font-stretch:normal;font-size:15px;line-height:125%;font-family:'Ume Mincho Balsa';-inkscape-font-specification:'Ume Mincho Balsa, Normal';text-align:start;letter-spacing:0px;word-spacing:0px;writing-mode:lr-tb;text-anchor:start;fill:#000000;fill-opacity:1;stroke:#000000;stroke-width:0.375;stroke-linecap:butt;stroke-linejoin:miter;stroke-miterlimit:4;stroke-dasharray:none;stroke-opacity:1"
       id="text8209">
      <path
         d="m 66.336498,142.47009 0.05859,0.35157 q -2.109375,0.29296 -3.134766,1.66992 -1.02539,1.37695 -1.083984,3.42773 0.878906,-1.46484 2.226563,-1.46484 1.171875,0 2.021484,0.84961 0.849609,0.84961 0.849609,2.25586 0,1.40625 -0.791015,2.19726 -0.791016,0.79102 -2.021485,0.79102 -1.464843,0 -2.34375,-1.23047 -0.878906,-1.23047 -0.878906,-3.10547 0,-2.46094 1.289063,-4.10156 1.289062,-1.64063 3.808593,-1.64063 z m -4.160156,6.21094 q 0,1.46484 0.673828,2.40234 0.673828,0.9375 1.611328,0.9375 0.820313,0 1.31836,-0.64453 0.498047,-0.64453 0.498047,-1.8164 0,-1.05469 -0.527344,-1.81641 -0.527344,-0.76172 -1.347656,-0.76172 -0.9375,0 -1.552735,0.67383 -0.615234,0.67383 -0.673828,1.02539 z"
         id="path8570"
         inkscape:connector-curvature="0" />
    </g>
  </g>
</svg>
