<?xml version="1.0" encoding="UTF-8" standalone="no"?>
<!-- Created with Inkscape (http://www.inkscape.org/) -->

<svg
   xmlns:dc="http://purl.org/dc/elements/1.1/"
   xmlns:cc="http://creativecommons.org/ns#"
   xmlns:rdf="http://www.w3.org/1999/02/22-rdf-syntax-ns#"
   xmlns:svg="http://www.w3.org/2000/svg"
   xmlns="http://www.w3.org/2000/svg"
   xmlns:sodipodi="http://sodipodi.sourceforge.net/DTD/sodipodi-0.dtd"
   xmlns:inkscape="http://www.inkscape.org/namespaces/inkscape"
   width="44.58033mm"
   height="37.127205mm"
   viewBox="0 0 157.9618 131.55308"
   id="svg5669"
   version="1.1"
   inkscape:version="0.91 r13725"
   sodipodi:docname="pif-00.svg">
  <defs
     id="defs5671">
    <inkscape:path-effect
       effect="envelope"
       id="path-effect5553"
       is_visible="true"
       yy="true"
       xx="true"
       bendpath1="m 279.84492,15.712893 5.56641,0"
       bendpath2="m 285.41133,15.712893 0,6.562501"
       bendpath3="m 279.84492,22.275394 5.56641,0"
       bendpath4="m 279.84492,15.712893 0,6.562501" />
    <inkscape:path-effect
       effect="envelope"
       id="path-effect5551"
       is_visible="true"
       yy="true"
       xx="true"
       bendpath1="m 252.83086,-2.7441403 c 27.25892,-20.5252967 47.84845,-0.6104781 67.08013,0"
       bendpath2="m 319.91099,-2.7441403 c -9.941,20.8699573 -4.39971,38.9249543 0,57.1875093"
       bendpath3="m 252.83086,54.443369 c 30.80583,-12.284782 51.02356,-9.168694 67.08013,0"
       bendpath4="m 252.83086,-2.7441403 c -8.71097,5.6459534 -23.97526,26.2855543 0,57.1875093"
       bendpath1-nodetypes="cc"
       bendpath2-nodetypes="cc"
       bendpath3-nodetypes="cc"
       bendpath4-nodetypes="cc" />
    <inkscape:path-effect
       effect="envelope"
       id="path-effect5612"
       is_visible="true"
       yy="true"
       xx="true"
       bendpath1="m 304.78691,-149.95508 c 9.06147,-17.68855 58.8695,-17.58027 67.08013,0"
       bendpath2="m 371.86704,-149.95508 c 21.00655,15.17056 8.86896,39.19437 0,57.187502"
       bendpath3="m 304.78691,-92.767578 c 31.56944,19.131971 50.75059,12.528012 67.08013,0"
       bendpath4="m 304.78691,-149.95508 c -14.41173,13.3937 -16.41661,51.801855 0,57.187502"
       bendpath1-nodetypes="cc"
       bendpath3-nodetypes="cc"
       bendpath2-nodetypes="cc"
       bendpath4-nodetypes="cc" />
    <inkscape:path-effect
       effect="spiro"
       id="path-effect5498"
       is_visible="true" />
    <inkscape:path-effect
       effect="spiro"
       id="path-effect5496"
       is_visible="true" />
    <inkscape:path-effect
       effect="spiro"
       id="path-effect5493"
       is_visible="true" />
    <inkscape:path-effect
       effect="spiro"
       id="path-effect5459"
       is_visible="true" />
    <inkscape:path-effect
       effect="spiro"
       id="path-effect5447"
       is_visible="true" />
  </defs>
  <sodipodi:namedview
     id="base"
     pagecolor="#ffffff"
     bordercolor="#666666"
     borderopacity="1.0"
     inkscape:pageopacity="0.0"
     inkscape:pageshadow="2"
     inkscape:zoom="1.979899"
     inkscape:cx="-8.7890315"
     inkscape:cy="12.231602"
     inkscape:document-units="px"
     inkscape:current-layer="layer1"
     showgrid="false"
     borderlayer="false"
     fit-margin-top="0"
     fit-margin-left="0"
     fit-margin-right="0"
     fit-margin-bottom="0"
     inkscape:window-width="1920"
     inkscape:window-height="1031"
     inkscape:window-x="0"
     inkscape:window-y="27"
     inkscape:window-maximized="1" />
  <metadata
     id="metadata5674">
    <rdf:RDF>
      <cc:Work
         rdf:about="">
        <dc:format>image/svg+xml</dc:format>
        <dc:type
           rdf:resource="http://purl.org/dc/dcmitype/StillImage" />
        <dc:title />
      </cc:Work>
    </rdf:RDF>
  </metadata>
  <g
     inkscape:label="Layer 1"
     inkscape:groupmode="layer"
     id="layer1"
     transform="translate(-72.793309,-46.271674)">
    <g
       id="g6389"
       transform="matrix(-0.79924018,0.84125224,-0.84125215,-0.79924018,323.40526,87.091919)"
       style="stroke:#ffffff;stroke-opacity:1">
      <path
         sodipodi:nodetypes="caaac"
         inkscape:original-d="m 70.780324,110.31086 c 0.58096,15.9459 12.80968,31.11872 26.3972,38.95583 14.136566,8.15379 34.444176,11.17462 48.834856,3.4782 19.99855,-10.69562 37.61765,-36.79898 33.65645,-59.129373 -3.82497,-21.56249 -28.74974,-37.80817 -50.15471,-42.43403"
         inkscape:path-effect="#path-effect5447"
         inkscape:connector-curvature="0"
         id="path5445"
         d="m 70.780324,110.31086 c 2.424815,16.03441 12.403593,30.76065 26.3972,38.95583 14.582186,8.53987 33.153846,9.77707 48.834856,3.4782 11.38632,-4.57375 21.22323,-12.98536 27.34739,-23.61842 6.12416,-10.63307 8.46209,-23.43072 6.30906,-35.510953 -2.0837,-11.691244 -8.35999,-22.590136 -17.42598,-30.260528 -9.06598,-7.670392 -20.85384,-12.054905 -32.72873,-12.173502"
         style="fill:none;fill-rule:evenodd;stroke:#ffffff;stroke-width:1.47321856;stroke-linecap:round;stroke-linejoin:round;stroke-miterlimit:4;stroke-dasharray:none;stroke-opacity:1" />
      <path
         sodipodi:nodetypes="cac"
         inkscape:original-d="m 73.364144,91.941307 c -1.13003,6.12543 -0.48896,12.540423 0.72084,18.672463 0.80364,4.07332 4.28957,11.76572 4.28957,11.76572"
         inkscape:path-effect="#path-effect5459"
         inkscape:connector-curvature="0"
         id="path5449"
         d="m 73.364144,91.941307 c -0.923065,6.196657 -0.677203,12.565413 0.72084,18.672463 0.933937,4.07971 2.378599,8.04222 4.28957,11.76572"
         style="fill:none;fill-rule:evenodd;stroke:#ffffff;stroke-width:1.47321856;stroke-linecap:round;stroke-linejoin:round;stroke-miterlimit:4;stroke-dasharray:none;stroke-opacity:1" />
      <path
         sodipodi:nodetypes="cacaaccsaac"
         inkscape:original-d="m 73.278164,88.267057 c 0,0 -1.33996,-5.79719 -2.42312,-8.46168 -1.47746,-3.63442 -5.51075,-10.14453 -5.51075,-10.14453 0,0 8.21421,11.47719 14.4052,13.52606 1.24361,0.41157 2.99461,0.68263 4.08404,-0.40782 1.27035,-1.27156 3.45151,-1.3593 1.03545,-5.32765 -1.57118,-2.714 -5.83489,-15.48008 -5.83489,-15.48008 0,0 -17.99632,0.90234 8.28462,5.6286 1.75075,0.31484 5.92791,-1.12012 7.81271,-3.56163 1.5537,-2.01261 1.74805,-5.00814 1.55579,-7.42188 -0.24659,-3.096 -3.39875,-8.0974 -3.39875,-8.0974"
         inkscape:path-effect="#path-effect5493"
         inkscape:connector-curvature="0"
         id="path5487"
         d="m 73.278164,88.267057 c -0.538581,-2.888526 -1.351105,-5.72591 -2.42312,-8.46168 -1.407606,-3.592194 -3.263421,-7.008494 -5.51075,-10.14453 0.996293,3.301899 2.875383,6.332968 5.389662,8.693802 2.514279,2.360834 5.65752,4.045587 9.015538,4.832258 0.689162,0.161448 1.394154,0.286338 2.101253,0.254412 0.7071,-0.03193 1.421808,-0.230593 1.982787,-0.662232 0.378469,-0.291208 0.676553,-0.680604 0.885051,-1.110219 0.208499,-0.429615 0.329218,-0.898845 0.382957,-1.373348 0.107478,-0.949006 -0.04928,-1.90676 -0.232558,-2.844083 -1.063161,-5.437276 -3.044513,-10.693842 -5.83489,-15.48008 0.747522,1.583445 1.925715,2.961007 3.374085,3.945035 1.44837,0.984027 3.163074,1.57191 4.910535,1.683565 1.492087,0.09534 3.00985,-0.156133 4.375731,-0.76423 1.365881,-0.608096 2.575477,-1.575423 3.436979,-2.7974 1.4898,-2.11317 1.860771,-4.854395 1.55579,-7.42188 -0.349816,-2.944922 -1.541903,-5.785029 -3.39875,-8.0974"
         style="fill:none;fill-rule:evenodd;stroke:#ffffff;stroke-width:1.64085484;stroke-linecap:round;stroke-linejoin:round;stroke-miterlimit:4;stroke-dasharray:none;stroke-opacity:1" />
      <path
         sodipodi:nodetypes="cac"
         inkscape:original-d="m 88.680804,31.461067 c 0,0 0.53793,4.04067 1.13964,5.9779 0.52043,1.67565 2.11708,4.81932 2.11708,4.81932"
         inkscape:path-effect="#path-effect5496"
         inkscape:connector-curvature="0"
         id="path5489"
         d="m 88.680804,31.461067 c 0.136988,2.028857 0.520577,4.040947 1.13964,5.9779 0.53514,1.674372 1.245982,3.292531 2.11708,4.81932"
         style="fill:none;fill-rule:evenodd;stroke:#ffffff;stroke-width:1.47321856;stroke-linecap:round;stroke-linejoin:round;stroke-miterlimit:4;stroke-dasharray:none;stroke-opacity:1" />
      <path
         sodipodi:nodetypes="cac"
         inkscape:original-d="m 110.73171,17.622537 c 0,0 -0.35721,-5.79304 0,-8.6562699 0.15323,-1.22819 0.9123,-3.59933 0.9123,-3.59933"
         inkscape:path-effect="#path-effect5498"
         inkscape:connector-curvature="0"
         id="path5491"
         d="m 110.73171,17.622537 c -0.50187,-2.856267 -0.50187,-5.800003 0,-8.6562699 0.21439,-1.2201633 0.51961,-2.4243574 0.9123,-3.59933"
         style="fill:none;fill-rule:evenodd;stroke:#ffffff;stroke-width:1.875;stroke-linecap:round;stroke-linejoin:round;stroke-miterlimit:4;stroke-dasharray:none;stroke-opacity:1" />
      <path
         inkscape:transform-center-y="-10.215644"
         inkscape:transform-center-x="1.618907"
         inkscape:connector-curvature="0"
         id="path5516"
         d="m 173.62983,97.621507 c 0,0 2.16361,6.133873 0.8519,11.973123 -1.31169,5.83927 -3.73073,9.60118 -3.73073,9.60118"
         style="fill:none;fill-rule:evenodd;stroke:#ffffff;stroke-width:1.47321856;stroke-linecap:round;stroke-linejoin:miter;stroke-miterlimit:4;stroke-dasharray:none;stroke-opacity:1" />
    </g>
    <g
       transform="matrix(1.0943108,0,0,1.0943108,-176.12479,74.665615)"
       style="font-style:normal;font-variant:normal;font-weight:normal;font-stretch:normal;font-size:15.00000191px;line-height:100%;font-family:'Ume Mincho Balsa';-inkscape-font-specification:'Ume Mincho Balsa, Normal';text-align:center;letter-spacing:-0.60000008px;word-spacing:0px;writing-mode:lr-tb;text-anchor:middle;fill:#ffffff;fill-opacity:1;stroke:#ffffff;stroke-width:0.27414518;stroke-linecap:butt;stroke-linejoin:miter;stroke-opacity:1;stroke-miterlimit:4;stroke-dasharray:none"
       id="flowRoot5437"
       inkscape:path-effect="#path-effect5551">
      <path
         d="m 252.50719,3.1143704 c -0.3423,0.6089823 -0.4678,1.1126199 -0.34665,1.5199711 0,0 0,1e-7 0,1e-7 0.0101,0.032764 0.0219,0.064827 0.0352,0.096182 0.1773,0.416215 0.60712,0.6175118 1.26674,0.5726235 0.65898,-0.044845 1.285,-0.2904192 1.8651,-0.7311424 0.0876,-0.066514 0.17281,-0.1377506 0.25576,-0.2136719 0.47195,-0.4300096 0.87186,-1.0099092 1.19161,-1.7287334 0.92823,-2.32172994 1.69682,-4.6823529 2.04217,-7.0988053 -0.31676,0.1398668 -0.63043,0.2756941 -0.94061,0.4063845 0.0201,-0.1199834 0.0392,-0.2402729 0.057,-0.3608936 0.75137,-0.3322362 1.52723,-0.6958286 2.31952,-1.0738116 -0.0134,0.1336357 -0.0279,0.2667565 -0.0434,0.3993911 -0.30764,0.1413697 -0.61281,0.280421 -0.91494,0.4161441 -0.32722,2.4676739 -1.06646,4.86317891 -1.96744,7.212207 -0.25055,0.6532033 -0.6116,1.2373319 -1.08429,1.7400938 0,0 0,1e-7 0,1e-7 -0.16852,0.1804644 -0.35152,0.350403 -0.5492,0.5092555 -0.744,0.5978574 -1.5707,0.9308588 -2.45978,0.9852826 -0.97934,0.059949 -1.62877,-0.1984059 -1.90312,-0.7146357 -0.0672,-0.1264088 -0.11127,-0.2604941 -0.13264,-0.4017985 -0.063,-0.4406767 0.0909,-0.9412018 0.43506,-1.5107573 1.24925,-2.0674824 2.39625,-4.11053382 3.01941,-6.0306367 -0.22121,0.062859 -0.44015,0.1204183 -0.65673,0.1721737 0.0362,-0.096092 0.0711,-0.1921197 0.1046,-0.2881 0.65344,-0.172315 1.33121,-0.3994634 2.03055,-0.6667309 -0.0237,0.1095254 -0.0486,0.2188848 -0.0748,0.3280994 -0.24692,0.088642 -0.49136,0.1723659 -0.73322,0.2505542 -0.56176,2.0064431 -1.62974,4.100967 -2.81599,6.2113551 z"
         style="font-style:normal;font-variant:normal;font-weight:normal;font-stretch:normal;font-size:15.00000191px;line-height:100%;font-family:'Ume Mincho Balsa';-inkscape-font-specification:'Ume Mincho Balsa, Normal';text-align:center;letter-spacing:-0.60000008px;writing-mode:lr-tb;text-anchor:middle;stroke:#ffffff;stroke-opacity:1;fill:#ffffff;fill-opacity:1;stroke-width:0.27414518;stroke-miterlimit:4;stroke-dasharray:none"
         id="path5482"
         inkscape:original-d="m 256.39804,4.4628919 q 0,1.0546876 0.55664,1.7285158 0.55664,0.6738282 1.43555,0.6738282 0.87891,0 1.43555,-0.5859375 0.55664,-0.5859376 0.61523,-1.8164065 l 0,-6.8554697 -1.05469,0 0,-0.3515625 2.57813,0 0,0.3515625 -0.99609,0 0,6.8554697 q 0,1.2890626 -0.70313,2.0800784 -0.70312,0.7910157 -1.875,0.7910157 -1.28906,0 -2.05078,-0.8203126 -0.76172,-0.8203126 -0.76172,-2.0507815 l 0,-6.8554697 -0.82031,0 0,-0.3515625 2.51953,0 0,0.3515625 -0.87891,0 0,6.8554697 z"
         inkscape:connector-curvature="0" />
      <path
         d="m 263.59262,3.726022 c 0.30825,-0.064949 0.61254,-0.129165 0.91897,-0.1935783 -0.0352,0.1338042 -0.0705,0.2672974 -0.10581,0.4004275 -0.89265,0.1830064 -1.81159,0.373275 -2.72155,0.5545176 0.0387,-0.1289137 0.0773,-0.2581019 0.1159,-0.3875084 0.31077,-0.063701 0.62092,-0.1280906 0.92979,-0.1926572 0.0886,-0.3113343 0.17704,-0.6245759 0.26467,-0.9392323 0.35539,-1.2164875 0.68225,-2.45694554 0.96763,-3.71957278 0.15679,-0.69369412 0.11368,-1.13356262 -0.10834,-1.30110552 -0.22323,-0.1684519 -0.49085,-0.1979574 -0.80303,-0.094414 -0.67403,0.2235653 -1.45715,1.0026284 -2.49662,2.25020203 -0.33609,1.22026357 -0.7256,2.43257747 -1.14595,3.62738107 -0.1012,0.2984593 -0.2034,0.5963483 -0.30595,0.8930413 0.31654,-0.056973 0.63216,-0.1157099 0.94668,-0.1757701 -0.0414,0.1264296 -0.0829,0.2527104 -0.12439,0.3787777 -0.92688,0.171427 -1.86517,0.3316123 -2.81149,0.4696443 0.0472,-0.1214848 0.0943,-0.2430858 0.1413,-0.3647037 0.32064,-0.048691 0.64026,-0.099937 0.95877,-0.1532996 0.1068,-0.29304 0.21326,-0.5870991 0.31866,-0.8814859 0.58926,-1.5908525 1.12456,-3.21264543 1.54528,-4.84382877 -0.25142,0.0761959 -0.50253,0.15100138 -0.75319,0.22406333 0.0346,-0.12560356 0.0685,-0.25138519 0.10175,-0.37734706 0.43302,-0.3054279 0.86172,-0.621361 1.2875,-0.9471266 0.13384,-0.045322 0.26788,-0.090992 0.40206,-0.1369497 -0.12696,0.5950088 -0.26829,1.18452092 -0.42158,1.76899791 0.93499,-1.35311471 1.72066,-2.21935681 2.50487,-2.49475311 -0.0464,0.016282 0.27937,-0.098095 0.233,-0.081813 0.46648,-0.1637498 0.8557,-0.090759 1.16487,0.2328015 0.30766,0.3219797 0.38137,0.9216163 0.19744,1.76640534 -0.2791,1.28186501 -0.59754,2.53836286 -0.94396,3.76916156 -0.0852,0.3183217 -0.17115,0.6350575 -0.25728,0.9497255 z"
         style="font-style:normal;font-variant:normal;font-weight:normal;font-stretch:normal;font-size:15.00000191px;line-height:100%;font-family:'Ume Mincho Balsa';-inkscape-font-specification:'Ume Mincho Balsa, Normal';text-align:center;letter-spacing:-0.60000008px;writing-mode:lr-tb;text-anchor:middle;stroke:#ffffff;stroke-opacity:1;fill:#ffffff;fill-opacity:1;stroke-width:0.27414518;stroke-miterlimit:4;stroke-dasharray:none"
         id="path5484"
         inkscape:original-d="m 267.75117,6.9238297 0.87891,0 0,0.3515625 -2.57813,0 0,-0.3515625 0.87891,0 0,-4.0429693 q 0,-0.8789063 -0.41016,-1.201172 -0.41016,-0.3222657 -0.87891,-0.3222657 -0.99609,0 -2.10937,1.4062502 l 0,4.1601568 0.87891,0 0,0.3515625 -2.57813,0 0,-0.3515625 0.87891,0 0,-5.3320319 -0.76172,0 0,-0.3515626 1.17187,-0.52734381 0.41016,0 0,1.58203141 q 0.9375,-1.58203141 2.10937,-1.58203141 l 0.23438,0 q 0.70312,0 1.28906,0.55664071 0.58594,0.5566407 0.58594,1.6113283 l 0,4.0429693 z"
         inkscape:connector-curvature="0" />
      <path
         d="m 278.30591,-4.3280788 c 0.0906,-0.4279128 0.0887,-0.7505603 -0.007,-0.9616356 -0.0952,-0.2111876 -0.22328,-0.312889 -0.38409,-0.3032841 -0.36239,0.021645 -0.71809,0.3195761 -1.06837,0.8790853 -0.38841,1.9072797 -0.77733,3.7105777 -1.18455,5.4597324 -0.10968,0.4971351 -0.21736,0.985533 -0.32367,1.4701069 -0.27599,0.020125 -0.55178,0.04255 -0.82759,0.067243 0.10651,-0.4847932 0.21361,-0.9705336 0.32315,-1.46777677 0.37147,-1.59700144 0.72633,-3.24176043 1.07584,-4.96791523 0.0971,-0.4797139 0.12415,-0.814061 0.0814,-0.9948653 -0.0427,-0.1810038 -0.1445,-0.262816 -0.30503,-0.2432877 -0.36222,0.044063 -0.77353,0.3663224 -1.23705,0.9544779 -0.36649,1.8891169 -0.74706,3.68335596 -1.15135,5.41911106 -0.0764,0.34670484 -0.15261,0.69154434 -0.2279,1.03216804 0.29518,-0.035702 0.59032,-0.068877 0.8857,-0.099468 -0.0317,0.1438694 -0.0633,0.2871026 -0.0947,0.4299151 -0.86757,0.088782 -1.73062,0.1991188 -2.59714,0.329327 0.0316,-0.1412502 0.0634,-0.2830811 0.0952,-0.4253293 0.29493,-0.045013 0.58975,-0.08771 0.88479,-0.1280132 0.0754,-0.3396016 0.15153,-0.6828955 0.22786,-1.0284733 0.44952,-1.92467468 0.86679,-3.9219092 1.26154,-6.0379698 -0.21979,0.037975 -0.43938,0.077823 -0.65885,0.1195152 0.0295,-0.1605628 0.0589,-0.3218201 0.0881,-0.4837975 0.4143,-0.2624089 0.82975,-0.5214862 1.24733,-0.7771486 0.12075,-0.019939 0.24153,-0.039276 0.36235,-0.058009 -0.0761,0.4131912 -0.15273,0.821539 -0.22994,1.2255041 0.43536,-0.8518482 0.87271,-1.3221861 1.3182,-1.3776113 0.0807,-0.010036 0.16134,-0.019796 0.24202,-0.02928 0.32297,-0.037962 0.53273,0.1046526 0.62868,0.4196205 0.0958,0.3145744 0.14141,0.5786485 0.13772,0.7919938 0.457,-0.8944509 0.86666,-1.367364 1.2317,-1.3893558 0.0807,-0.00486 0.16149,-0.00945 0.24223,-0.013747 0.32336,-0.017222 0.57541,0.1671243 0.75642,0.5456669 0.18083,0.3781762 0.19491,0.9232945 0.0456,1.6182528 -0.37274,1.7351289 -0.73701,3.3783639 -1.1131,4.98251632 -0.0778,0.34988662 -0.15466,0.69624948 -0.23046,1.03978978 0.29634,-0.00711 0.59269,-0.011456 0.88924,-0.013035 -0.0319,0.1442787 -0.0636,0.287996 -0.0951,0.4311863 -0.87063,0.00522 -1.73754,0.033808 -2.60622,0.08565 0.0314,-0.1433366 0.063,-0.2871809 0.0948,-0.4316001 0.2959,-0.017763 0.59181,-0.032788 0.88794,-0.04506 0.0757,-0.3436811 0.15231,-0.6900685 0.22991,-1.04008893 0.37482,-1.6036281 0.73687,-3.24943137 1.10392,-4.98411057 z"
         style="font-style:normal;font-variant:normal;font-weight:normal;font-stretch:normal;font-size:15.00000191px;line-height:100%;font-family:'Ume Mincho Balsa';-inkscape-font-specification:'Ume Mincho Balsa, Normal';text-align:center;letter-spacing:-0.60000008px;writing-mode:lr-tb;text-anchor:middle;stroke:#ffffff;stroke-opacity:1;fill:#ffffff;fill-opacity:1;stroke-width:0.27414518;stroke-miterlimit:4;stroke-dasharray:none"
         id="path5486"
         inkscape:original-d="m 280.90664,2.2949228 q 0,-0.46875 -0.20508,-0.703125 -0.20508,-0.2343751 -0.43945,-0.2343751 -0.52735,0 -0.87891,0.5859376 l 0,5.3320319 -0.82031,0 0,-4.9804694 q 0,-0.5273438 -0.11719,-0.7324219 -0.11719,-0.2050782 -0.35156,-0.2050782 -0.52734,0 -1.05469,0.5859376 l 0,4.9804694 0.87891,0 0,0.3515625 -2.57813,0 0,-0.3515625 0.87891,0 0,-5.4492195 -0.64453,0 0,-0.3515625 1.11328,-0.41015631 0.35156,0 0,0.87890641 q 0.41016,-0.87890641 1.05469,-0.87890641 l 0.23437,0 q 0.46875,0 0.70313,0.35156251 0.23437,0.3515626 0.29297,0.5859376 0.41015,-0.93750011 0.9375,-0.93750011 l 0.23437,0 q 0.46875,0 0.84961,0.41015631 0.38086,0.4101563 0.38086,1.1718751 l 0,4.6289069 0.87891,0 0,0.3515625 -2.57813,0 0,-0.3515625 0.87891,0 0,-4.6289069 z"
         inkscape:connector-curvature="0" />
      <path
         d="m 279.64538,-2.0810066 c 0.288,-1.2834033 0.8213,-2.3675696 1.60753,-3.1862981 0.78843,-0.8210257 1.64527,-1.2063462 2.56804,-1.1118408 0.92182,0.094408 1.58525,0.6336922 2.00627,1.5462297 0.42035,0.9110768 0.47784,2.0073482 0.18257,3.2485609 -0.24435,1.02716628 -0.67078,1.86041554 -1.28625,2.53664794 -0.0986,0.10917716 -0.20198,0.21411806 -0.31031,0.31498046 -0.77181,0.7186267 -1.632,1.0346813 -2.58225,0.9785431 -0.94977,-0.05611 -1.62848,-0.4636028 -2.02234,-1.2734322 -0.0552,-0.11358509 -0.10394,-0.23084318 -0.14608,-0.35191233 -0.24851,-0.74815256 -0.2551,-1.64126107 -0.0172,-2.70147867 z m 1.01247,0.015897 c -0.24408,1.07585322 -0.28115,1.96499532 -0.11381,2.68775835 0,2.7e-7 0.004,0.0173337 0.004,0.0173339 0.18009,0.70617282 0.64768,1.06220752 1.39369,1.10788312 0.70703,0.043288 1.32511,-0.2471901 1.8571,-0.89486292 0,8.7e-7 0.0131,-0.0159343 0.0131,-0.0159334 0.54582,-0.66572029 0.94014,-1.50765828 1.1889,-2.56067135 0.23668,-1.0018575 0.25797,-1.917136 0.06,-2.7294893 -0.1982,-0.8131739 -0.65203,-1.2821327 -1.37195,-1.3534889 -0.76035,-0.075364 -1.39954,0.2889934 -1.91402,1.0503895 -0.5134,0.7597909 -0.88457,1.666088 -1.11711,2.691081 z"
         style="font-style:normal;font-variant:normal;font-weight:normal;font-stretch:normal;font-size:15.00000191px;line-height:100%;font-family:'Ume Mincho Balsa';-inkscape-font-specification:'Ume Mincho Balsa, Normal';text-align:center;letter-spacing:-0.60000008px;writing-mode:lr-tb;text-anchor:middle;stroke:#ffffff;stroke-opacity:1;fill:#ffffff;fill-opacity:1;stroke-width:0.27414518;stroke-miterlimit:4;stroke-dasharray:none"
         id="path5488"
         inkscape:original-d="m 282.70898,3.9941418 q 0,-1.4648439 0.87891,-2.3730472 0.87891,-0.90820321 2.22656,-0.90820321 1.34766,0 2.25586,0.90820321 0.90821,0.9082033 0.90821,2.3730472 0,1.4062502 -0.87891,2.3730472 -0.87891,0.966797 -2.28516,0.966797 -1.40625,0 -2.25586,-0.966797 -0.84961,-0.966797 -0.84961,-2.3730472 z m 0.9961,0 q 0,1.2304689 0.49805,2.0800784 0.49804,0.8496095 1.61132,0.8496095 1.05469,0 1.61133,-0.8496095 0.55664,-0.8496095 0.55664,-2.0800784 0,-1.1718751 -0.55664,-2.0214846 -0.55664,-0.8496095 -1.61133,-0.8496095 -1.11328,0 -1.61132,0.8496095 -0.49805,0.8496095 -0.49805,2.0214846 z"
         inkscape:connector-curvature="0" />
      <path
         d="m 292.35005,-2.4390683 c 0.0913,-0.3880894 0.0913,-0.7027929 -3.3e-4,-0.9406626 -0.0917,-0.2380257 -0.21586,-0.3813815 -0.374,-0.4274552 -0.35597,-0.1037123 -0.71194,0.06297 -1.07011,0.4971014 -0.46018,1.9192476 -0.77797,3.28103591 -1.21252,5.0826097 -0.10638,0.4658631 -0.20989,0.9264442 -0.31046,1.3821943 -0.28517,-0.057385 -0.57014,-0.1128815 -0.85507,-0.1663475 0.10184,-0.4587879 0.20667,-0.9225424 0.31443,-1.3917187 0.38807,-1.60144058 0.71138,-2.9716481 1.12067,-4.673427 0.10776,-0.4480533 0.14431,-0.7734083 0.10786,-0.9706372 -0.0365,-0.1972595 -0.13363,-0.3170768 -0.29241,-0.3568067 -0.0329,-0.00823 -0.0663,-0.014266 -0.10028,-0.018099 -0.33288,-0.036349 -0.71647,0.141964 -1.15197,0.5353168 -0.47917,1.9807036 -0.80071,3.34693835 -1.25087,5.1977921 -0.0772,0.3345676 -0.15301,0.6663256 -0.22729,0.9954485 0.30016,0.047462 0.60061,0.097434 0.90158,0.149766 -0.0309,0.1374133 -0.0616,0.2743636 -0.092,0.4108622 -0.57808,-0.098522 -1.15387,-0.1883631 -1.72891,-0.2685108 -0.30201,-0.041074 -0.60393,-0.079939 -0.90594,-0.1164985 0.0311,-0.1391917 0.0625,-0.2788709 0.0941,-0.4190516 0.29737,0.036874 0.59463,0.076022 0.89196,0.1173509 0.0748,-0.331215 0.15113,-0.6651292 0.2289,-1.0019283 0.56649,-2.3300348 0.80205,-3.3566248 1.40799,-5.8566526 -0.21653,-0.043729 -0.4333,-0.085906 -0.65036,-0.1264802 0.0378,-0.1567821 0.0758,-0.3142214 0.11403,-0.4722839 0.2479,-0.066518 0.49558,-0.130893 0.74306,-0.1931309 0.17193,-0.042748 0.34378,-0.084426 0.51556,-0.1250577 0.11832,0.026741 0.23659,0.053969 0.3548,0.081671 -0.0966,0.3925844 -0.19151,0.781522 -0.28499,1.1664211 0.42913,-0.6564039 0.84581,-0.9675776 1.24822,-0.9230317 0,10e-8 0,10e-8 0,10e-8 0.0335,0.00381 0.0668,0.010043 0.10004,0.018697 0.0791,0.020593 0.1582,0.04138 0.23725,0.062359 0.31623,0.083915 0.51484,0.304636 0.59885,0.6526513 0.084,0.3481813 0.12259,0.6257939 0.11409,0.8367054 0.47149,-0.7271709 0.88405,-1.0411255 1.23847,-0.9339355 0.0787,0.023789 0.1573,0.047727 0.23592,0.071809 0.31467,0.096389 0.55652,0.3621463 0.73096,0.787795 0.17425,0.4251937 0.1886,0.9541055 0.0434,1.5786123 -0.36997,1.59111118 -0.69985,3.02545408 -1.05641,4.5296931 -0.0718,0.3210609 -0.14226,0.6397193 -0.21139,0.9561437 0.30601,0.072368 0.61209,0.1462472 0.91848,0.2214412 -0.0286,0.1320125 -0.0569,0.2636306 -0.085,0.3948665 -0.90099,-0.2177401 -1.79747,-0.4237371 -2.69523,-0.6131689 0.0295,-0.1341843 0.0592,-0.2687901 0.0891,-0.4038286 0.30535,0.065522 0.61074,0.1330187 0.91641,0.202303 0.0702,-0.3187163 0.14176,-0.6397411 0.21468,-0.9632384 0.3642,-1.5261362 0.69469,-2.95111756 1.0748,-4.567659 z"
         style="font-style:normal;font-variant:normal;font-weight:normal;font-stretch:normal;font-size:15.00000191px;line-height:100%;font-family:'Ume Mincho Balsa';-inkscape-font-specification:'Ume Mincho Balsa, Normal';text-align:center;letter-spacing:-0.60000008px;writing-mode:lr-tb;text-anchor:middle;stroke:#ffffff;stroke-opacity:1;fill:#ffffff;fill-opacity:1;stroke-width:0.27414518;stroke-miterlimit:4;stroke-dasharray:none"
         id="path5490"
         inkscape:original-d="m 294.70664,2.2949228 q 0,-0.46875 -0.20508,-0.703125 -0.20508,-0.2343751 -0.43945,-0.2343751 -0.52734,0 -0.87891,0.5859376 l 0,5.3320319 -0.82031,0 0,-4.9804694 q 0,-0.5273438 -0.11719,-0.7324219 -0.11718,-0.2050782 -0.35156,-0.2050782 -0.52734,0 -1.05469,0.5859376 l 0,4.9804694 0.87891,0 0,0.3515625 -2.57813,0 0,-0.3515625 0.87891,0 0,-5.4492195 -0.64453,0 0,-0.3515625 1.11328,-0.41015631 0.35156,0 0,0.87890641 q 0.41016,-0.87890641 1.05469,-0.87890641 l 0.23438,0 q 0.46875,0 0.70312,0.35156251 0.23438,0.3515626 0.29297,0.5859376 0.41016,-0.93750011 0.9375,-0.93750011 l 0.23437,0 q 0.46875,0 0.84961,0.41015631 0.38086,0.4101563 0.38086,1.1718751 l 0,4.6289069 0.87891,0 0,0.3515625 -2.57813,0 0,-0.3515625 0.87891,0 0,-4.6289069 z"
         inkscape:connector-curvature="0" />
      <path
         d="m 297.7476,-2.7651004 c 0.50964,0.1802289 0.95528,0.5153579 1.34379,0.9926751 0.38823,0.4769727 0.64979,0.97429339 0.78016,1.49109419 0.1305,0.51732667 0.14888,1.01396498 0.0507,1.49567761 -0.0312,0.1532411 -0.0625,0.3060947 -0.0939,0.4586162 -1.72989,-0.512516 -3.00154,-0.91048263 -4.71812,-1.41790689 -0.0182,0.0678813 -0.035,0.13608802 -0.0504,0.20461291 -0.22618,1.00520748 -0.19798,1.82214378 0.0877,2.46370928 0.0346,0.077726 0.0714,0.1517453 0.11024,0.2220904 0,0 0,0 0,0 0.28835,0.5061652 0.68845,0.8216851 1.19265,0.9561381 0.615,0.1640002 1.1536,0.1840982 1.61216,0.061257 0.13151,-0.035231 0.26236,-0.08437 0.39249,-0.1474279 0,0 0,0 0,0 0.3278,-0.159102 0.65232,-0.4051177 0.97112,-0.7382955 0.10892,0.098527 0.21798,0.196672 0.32718,0.2944329 -0.16392,0.2451794 -0.34808,0.4600793 -0.55221,0.6451692 0,0 0,1e-7 0,1e-7 -0.268,0.2448608 -0.57136,0.4363536 -0.91013,0.5753724 -0.59124,0.2426179 -1.25976,0.2687422 -2.00001,0.076874 -0.86273,-0.2236129 -1.52482,-0.7497038 -1.96415,-1.6046342 -0.0691,-0.1344195 -0.12939,-0.2727898 -0.18092,-0.4152115 -0.26624,-0.7706614 -0.28259,-1.6577309 -0.0518,-2.66933128 0.274,-1.20073482 0.76186,-2.08157452 1.4499,-2.59445992 0.69055,-0.5147443 1.4176,-0.6283722 2.20315,-0.3505732 0,0 3.4e-4,1.206e-4 3.4e-4,1.207e-4 z m 1.20554,3.68441248 c 0.10695,-0.71963852 0.0172,-1.38112085 -0.26133,-1.98433838 -0.2788,-0.6038022 -0.63083,-0.9887193 -1.06433,-1.1381331 -0.39458,-0.1360017 -0.85478,-0.00559 -1.3903,0.3964811 -0.41674,0.3117274 -0.74879,0.84602628 -0.99245,1.5874041 1.24223,0.37487306 2.45864,0.75554838 3.70841,1.13858628 z"
         style="font-style:normal;font-variant:normal;font-weight:normal;font-stretch:normal;font-size:15.00000191px;line-height:100%;font-family:'Ume Mincho Balsa';-inkscape-font-specification:'Ume Mincho Balsa, Normal';text-align:center;letter-spacing:-0.60000008px;writing-mode:lr-tb;text-anchor:middle;stroke:#ffffff;stroke-opacity:1;fill:#ffffff;fill-opacity:1;stroke-width:0.27414518;stroke-miterlimit:4;stroke-dasharray:none"
         id="path5492"
         inkscape:original-d="m 299.61445,0.71289139 q 0.76172,0 1.43555,0.41015631 0.67383,0.4101563 0.9961,0.9960939 0.32226,0.5859375 0.32226,1.2304689 l 0,0.4101563 -4.56665,0 q -0.004,0.087891 -0.004,0.1757813 0,1.2890626 0.58594,1.9921877 0.58593,0.7031251 1.40625,0.7031251 0.8789,0 1.46484,-0.3222657 0.58594,-0.3222656 1.05469,-1.0839845 l 0.35156,0.1757813 q -0.35156,0.8789064 -1.08398,1.4062502 -0.73243,0.5273438 -1.78711,0.5273438 -1.23047,0 -2.08008,-0.9375001 -0.84961,-0.9375002 -0.84961,-2.4609378 0,-1.5234377 0.79101,-2.3730472 0.79102,-0.84960951 1.96289,-0.84960951 z m 1.81641,2.63671911 q -0.0586,-0.9375001 -0.61523,-1.5527346 -0.55664,-0.6152344 -1.20118,-0.6152344 -0.58593,0 -1.20117,0.6738282 -0.47973,0.5236817 -0.58593,1.4941408 l 3.60351,0 z"
         inkscape:connector-curvature="0" />
      <path
         d="m 306.30268,6.7710706 c 0.31436,0.054262 0.62908,0.1053752 0.94421,0.1530715 -0.0235,0.1178543 -0.047,0.2356564 -0.0705,0.3531683 -0.92458,-0.1381381 -1.84456,-0.3052937 -2.76124,-0.4944878 0.0234,-0.1195896 0.0468,-0.2393136 0.0703,-0.3593279 0.31218,0.065208 0.62495,0.1278765 0.93836,0.1877178 0.0555,-0.2828927 0.1117,-0.5688989 0.16755,-0.8540973 0.2336,-1.1069084 0.4502,-2.2233973 0.64733,-3.3549778 0.10801,-0.6200036 0.0317,-1.0818056 -0.21701,-1.3839275 -0.24904,-0.30250863 -0.53548,-0.49991369 -0.85938,-0.58867306 -0.43521,-0.11926106 -0.91599,-0.044174 -1.45274,0.23045713 -0.31429,0.16172838 -0.6477,0.39133653 -1.00286,0.68933573 -0.22807,1.2165624 -0.4666,2.407727 -0.7197,3.5889107 -0.0584,0.2940055 -0.11629,0.5860938 -0.17366,0.8771926 0.28437,0.067991 0.56887,0.1347664 0.85352,0.200106 -9e-5,-2.02e-5 0.0783,0.018633 0.0782,0.018613 -0.0238,0.121488 -0.0476,0.2427049 -0.0712,0.3637181 -8e-5,-1.98e-5 -0.0781,-0.018388 -0.0782,-0.018408 -0.88638,-0.2008997 -1.77151,-0.4155275 -2.6553,-0.637224 0.0245,-0.1235712 0.0492,-0.2474062 0.074,-0.3715365 0.30979,0.07874 0.61978,0.1566029 0.92997,0.233294 0.0581,-0.2930648 0.11685,-0.5873218 0.17619,-0.8834465 0.3481,-1.6122833 0.67014,-3.2377216 0.98133,-4.92433829 -0.26016,-0.0814964 -0.51996,-0.16404392 -0.77945,-0.24744194 0.0252,-0.13275496 0.0503,-0.2658121 0.0754,-0.39920629 0.43495,-0.0698083 0.8696,-0.1396971 1.30135,-0.21004338 0.139,0.044882 0.27813,0.0894143 0.41738,0.13356656 -0.10258,0.59306254 -0.20708,1.17930343 -0.31407,1.76082222 0.35152,-0.39790228 0.69415,-0.69494819 1.03168,-0.89129374 0.48794,-0.28266532 0.96382,-0.3525704 1.44085,-0.21752173 0.0805,0.0228005 0.16115,0.0454145 0.24186,0.0678356 0.48355,0.13434458 0.9007,0.45420025 1.24984,0.95004548 0.3491,0.49578419 0.46964,1.10852579 0.34285,1.84731829 -0.19268,1.1226619 -0.40722,2.231897 -0.63959,3.3316659 -0.0557,0.2837917 -0.11166,0.5674801 -0.16726,0.8491129 z"
         style="font-style:normal;font-variant:normal;font-weight:normal;font-stretch:normal;font-size:15.00000191px;line-height:100%;font-family:'Ume Mincho Balsa';-inkscape-font-specification:'Ume Mincho Balsa, Normal';text-align:center;letter-spacing:-0.60000008px;writing-mode:lr-tb;text-anchor:middle;stroke:#ffffff;stroke-opacity:1;fill:#ffffff;fill-opacity:1;stroke-width:0.27414518;stroke-miterlimit:4;stroke-dasharray:none"
         id="path5494"
         inkscape:original-d="m 309.15118,6.9238297 0.8789,0 0,0.3515625 -2.57812,0 0,-0.3515625 0.8789,0 0,-4.0429693 q 0,-0.8789063 -0.41015,-1.201172 -0.41016,-0.3222657 -0.87891,-0.3222657 -0.99609,0 -2.10937,1.4062502 l 0,4.1601568 0.8789,0 0,0.3515625 -2.57812,0 0,-0.3515625 0.8789,0 0,-5.3320319 -0.76172,0 0,-0.3515626 1.17188,-0.52734381 0.41016,0 0,1.58203141 q 0.9375,-1.58203141 2.10937,-1.58203141 l 0.23438,0 q 0.70312,0 1.28906,0.55664071 0.58594,0.5566407 0.58594,1.6113283 l 0,4.0429693 z"
         inkscape:connector-curvature="0" />
      <path
         d="m 311.16837,5.4296387 c -0.094,0.4521664 -0.10169,0.8031884 -0.0188,1.0537152 0,0 0,1e-7 0,1e-7 0.026,0.075049 0.0602,0.1408952 0.10249,0.1974891 0.18235,0.2437633 0.46244,0.3722466 0.84084,0.3802386 0.46769,0.00988 0.92865,-0.169697 1.385,-0.5322787 0.40697,-0.3225435 0.81489,-0.7926544 1.20999,-1.4014712 0.11457,0.052539 0.22881,0.1041293 0.34271,0.1547765 -0.24356,0.4736 -0.50809,0.8830172 -0.78607,1.222915 -0.67877,0.8350529 -1.4474,1.2637383 -2.30731,1.2474951 -0.71024,-0.013416 -1.20686,-0.2285355 -1.48627,-0.6199991 -0.13665,-0.1914501 -0.22104,-0.4302674 -0.25338,-0.7155712 -0.0297,-0.3020528 -0.002,-0.6548713 0.0804,-1.0590133 0.27363,-1.3393153 0.5107,-2.6945164 0.69024,-4.0673761 -0.61384,-0.075006 -1.22262,-0.1673029 -1.82769,-0.2749737 0.0169,-0.12319526 0.0335,-0.24660075 0.0496,-0.37022422 0.31217,0.0567235 0.62548,0.10932248 0.94012,0.15752197 0.65309,0.10004483 1.28002,-0.71305816 1.629,-2.45736215 0.12507,0.016662 0.25042,0.032506 0.37609,0.047519 -0.0469,0.88966125 -0.1258,1.76599956 -0.23021,2.6317586 1.04418,0.1005396 2.0983,0.1480711 3.16975,0.1355649 -0.0146,0.1184117 -0.0298,0.2366678 -0.0456,0.3547699 -1.07009,0.014495 -2.12423,-0.030614 -3.16937,-0.1283386 -0.17603,1.3632569 -0.41478,2.7108667 -0.69155,4.0428443 z"
         style="font-style:normal;font-variant:normal;font-weight:normal;font-stretch:normal;font-size:15.00000191px;line-height:100%;font-family:'Ume Mincho Balsa';-inkscape-font-specification:'Ume Mincho Balsa, Normal';text-align:center;letter-spacing:-0.60000008px;writing-mode:lr-tb;text-anchor:middle;stroke:#ffffff;stroke-opacity:1;fill:#ffffff;fill-opacity:1;stroke-width:0.27414518;stroke-miterlimit:4;stroke-dasharray:none"
         id="path5496"
         inkscape:original-d="m 313.29727,5.0488294 q 0,0.8789064 0.32227,1.230469 0.32226,0.3515625 0.84961,0.3515625 1.23046,0 1.99218,-1.933594 l 0.35157,0.1757813 q -0.64454,2.4609378 -2.34375,2.4609378 -0.9961,0 -1.49415,-0.5566407 -0.49804,-0.5566407 -0.49804,-1.7285159 l 0,-3.9843755 -1.69922,0 0,-0.35156251 0.87891,0 q 0.9375,0 1.28906,-2.51953159 l 0.35156,0 0,2.51953159 2.87109,0 0,0.35156251 -2.87109,0 0,3.9843755 z"
         inkscape:connector-curvature="0" />
      <path
         d="m 243.58144,20.870158 c 0.73649,-0.01441 1.46165,-0.0371 2.17598,-0.06696 -0.0131,0.124981 -0.0253,0.249998 -0.0365,0.375057 -1.80273,0.08111 -3.67368,0.117763 -5.62227,0.09307 0.0136,-0.13223 0.0283,-0.26441 0.0442,-0.396541 0.74121,0.01269 1.47122,0.01625 2.19059,0.01162 0.16996,-1.483362 0.48104,-2.949255 0.92769,-4.403967 0.57763,-1.892147 1.3659,-3.722372 2.29933,-5.510575 -0.74579,-0.05874 -1.50219,-0.136141 -2.2698,-0.234653 0.0685,-0.120712 0.1376,-0.241034 0.20737,-0.360974 1.05658,-0.05533 2.08453,-0.141178 3.08829,-0.255234 0.18156,0.01264 0.36251,0.02412 0.54285,0.03447 -1.08952,2.064971 -2.00978,4.171755 -2.65716,6.363006 -0.42889,1.438527 -0.72758,2.886482 -0.89054,4.351682 z"
         style="font-style:normal;font-variant:normal;font-weight:normal;font-stretch:normal;font-size:15.00000191px;line-height:100%;font-family:'Ume Mincho Balsa';-inkscape-font-specification:'Ume Mincho Balsa, Normal';text-align:center;letter-spacing:-0.60000008px;writing-mode:lr-tb;text-anchor:middle;stroke:#ffffff;stroke-opacity:1;fill:#ffffff;fill-opacity:1;stroke-width:0.27414518;stroke-miterlimit:4;stroke-dasharray:none"
         id="path5498"
         inkscape:original-d="m 255.29179,21.923832 1.46485,0 0,0.351562 -3.69141,0 0,-0.351562 1.40625,0 0,-9.257814 -1.64062,0 0,-0.351563 2.05078,-0.527343 0.41015,0 0,10.13672 z"
         inkscape:connector-curvature="0" />
      <path
         d="m 253.83358,11.06865 c 0.0876,-0.239919 0.25826,-0.446702 0.50733,-0.62217 0.24903,-0.175438 0.51433,-0.275931 0.79521,-0.302023 0.28111,-0.02611 0.48481,0.03092 0.61543,0.173061 0.13044,0.141954 0.1554,0.333702 0.0748,0.574939 -0.0671,0.200931 -0.22029,0.391516 -0.46253,0.570061 -0.24228,0.178581 -0.507,0.280657 -0.79497,0.30538 -0.28784,0.02471 -0.50255,-0.03621 -0.63952,-0.181321 -0.13712,-0.145267 -0.16879,-0.318021 -0.0958,-0.517927 z m -0.549,9.160726 c 0.64008,-0.06829 1.27124,-0.139807 1.89337,-0.21345 -0.009,0.117663 -0.0176,0.235312 -0.0253,0.352959 -1.59353,0.190882 -3.24769,0.368661 -4.96357,0.515349 0.009,-0.12088 0.0197,-0.241735 0.0309,-0.362573 0.66981,-0.05574 1.32989,-0.116352 1.98043,-0.180735 0.11839,-1.372821 0.33954,-2.732373 0.65828,-4.096787 0.0996,-0.441015 0.20841,-0.882505 0.32582,-1.325013 -0.62675,0.04913 -1.26198,0.09251 -1.90576,0.128737 0.0399,-0.140178 0.0807,-0.280343 0.1224,-0.420511 0.89366,-0.20697 1.76793,-0.425351 2.62585,-0.65343 0.14772,-0.01245 0.29499,-0.02523 0.44182,-0.0383 -0.20656,0.742325 -0.39145,1.480364 -0.55156,2.217044 -0.30668,1.3593 -0.51925,2.711756 -0.63266,4.076712 z"
         style="font-style:normal;font-variant:normal;font-weight:normal;font-stretch:normal;font-size:15.00000191px;line-height:100%;font-family:'Ume Mincho Balsa';-inkscape-font-specification:'Ume Mincho Balsa, Normal';text-align:center;letter-spacing:-0.60000008px;writing-mode:lr-tb;text-anchor:middle;stroke:#ffffff;stroke-opacity:1;fill:#ffffff;fill-opacity:1;stroke-width:0.27414518;stroke-miterlimit:4;stroke-dasharray:none"
         id="path5500"
         inkscape:original-d="m 260.90273,12.783205 q 0,-0.351562 0.23438,-0.585937 0.23437,-0.234375 0.58593,-0.234375 0.35157,0 0.58594,0.234375 0.23438,0.234375 0.23438,0.585937 0,0.292969 -0.23438,0.527344 -0.23437,0.234375 -0.58594,0.234375 -0.35156,0 -0.58593,-0.234375 -0.23438,-0.234375 -0.23438,-0.527344 z m 1.28906,9.140627 1.46485,0 0,0.351562 -3.75,0 0,-0.351562 1.46484,0 0,-5.332032 -1.46484,0 0,-0.410157 1.93359,-0.46875 0.35156,0 0,6.210939 z"
         inkscape:connector-curvature="0" />
      <path
         d="m 258.55465,19.993199 c -0.14194,0.01895 -0.28436,0.03789 -0.42723,0.0568 0.0837,-1.474346 0.27068,-2.93729 0.5554,-4.420543 0.32049,-1.758935 0.75723,-3.524543 1.27164,-5.360124 -0.28901,0.04036 -0.57965,0.08021 -0.87178,0.119297 0.0356,-0.122266 0.0715,-0.244668 0.10766,-0.367238 0.50199,-0.2448224 0.9978,-0.4928242 1.48856,-0.7438727 0.15324,-0.022763 0.30609,-0.045654 0.45852,-0.068635 -0.46962,1.6873788 -0.88522,3.3095538 -1.21877,4.9255618 0.88948,-0.65568 1.68443,-1.036574 2.38595,-1.131903 0.96712,-0.131418 1.6498,0.07885 2.09967,0.624246 0.26591,0.322378 0.4264,0.722674 0.48836,1.19571 0,0 0,0 0,0 0.0393,0.323445 0.032,0.682482 -0.0194,1.076556 -0.13641,1.044934 -0.51125,1.887795 -1.18505,2.545671 -0.6729,0.656992 -1.53452,1.05973 -2.62743,1.208844 -0.72785,0.09931 -1.36961,-0.004 -1.90385,-0.31616 -0.2014,0.218386 -0.40217,0.436963 -0.60224,0.65579 z m 2.53647,-0.858892 c 0.63751,-0.08629 1.23167,-0.395428 1.79945,-0.92669 0.56845,-0.531888 0.88913,-1.255795 1.01396,-2.185316 0.0556,-0.413745 0.068,-0.772908 0.0334,-1.077487 -0.047,-0.38158 -0.16677,-0.678831 -0.3655,-0.888759 -0.35851,-0.378708 -0.8137,-0.531142 -1.38769,-0.453969 -0.74844,0.100628 -1.53704,0.439178 -2.36172,1.007263 -0.059,0.300324 -0.11469,0.599263 -0.16703,0.897051 -0.21321,1.148002 -0.36988,2.284173 -0.46702,3.424684 0.44186,0.248048 1.0834,0.314046 1.90216,0.203223 z"
         style="font-style:normal;font-variant:normal;font-weight:normal;font-stretch:normal;font-size:15.00000191px;line-height:100%;font-family:'Ume Mincho Balsa';-inkscape-font-specification:'Ume Mincho Balsa, Normal';text-align:center;letter-spacing:-0.60000008px;writing-mode:lr-tb;text-anchor:middle;stroke:#ffffff;stroke-opacity:1;fill:#ffffff;fill-opacity:1;stroke-width:0.27414518;stroke-miterlimit:4;stroke-dasharray:none"
         id="path5502"
         inkscape:original-d="m 266.39648,22.333988 -0.35156,0 0,-9.66797 -0.76172,0 0,-0.351563 1.17188,-0.527343 0.41015,0 0,4.746094 q 0.9961,-0.820313 1.9336,-0.820313 1.28906,0 2.05078,0.908204 0.76172,0.908203 0.76172,2.373047 0,1.582031 -0.84961,2.460938 -0.84961,0.878906 -2.25586,0.878906 -0.9375,0 -1.64063,-0.585938 l -0.46875,0.585938 z m 2.10938,-0.527344 q 0.82031,0 1.52344,-0.703125 0.70312,-0.703125 0.70312,-2.109375 0,-1.40625 -0.58594,-2.050782 -0.58593,-0.644531 -1.34765,-0.644531 -0.9961,0 -1.9336,0.703125 l 0,4.335938 q 0.58594,0.46875 1.64063,0.46875 z"
         inkscape:connector-curvature="0" />
      <path
         d="m 269.44779,12.084999 c 0.5259,-0.0607 0.99439,0.02892 1.41408,0.26544 0.41922,0.23625 0.71073,0.546807 0.87787,0.923547 0.107,0.241171 0.16949,0.493064 0.18769,0.754841 0.009,0.146505 0.003,0.296442 -0.0157,0.449789 -0.0169,0.135523 -0.0333,0.270801 -0.049,0.405867 -1.58248,0.133508 -3.14703,0.308369 -4.76372,0.517373 -0.0103,0.05844 -0.019,0.116664 -0.0263,0.174676 -0.10588,0.850685 0.0447,1.475129 0.42291,1.881599 0.37842,0.406661 0.86305,0.573258 1.43606,0.507487 0.61505,-0.0706 1.13023,-0.228541 1.5502,-0.478018 0.42039,-0.249726 0.80784,-0.634384 1.17417,-1.158817 0.11658,0.04672 0.23323,0.09363 0.34997,0.140723 -0.28916,0.591866 -0.69007,1.078208 -1.21592,1.468395 -0.52546,0.389895 -1.15277,0.624907 -1.89154,0.71048 -0.85992,0.09961 -1.58744,-0.108168 -2.15024,-0.639902 -0.0377,-0.03564 -0.074,-0.07232 -0.10876,-0.110038 0,0 0,0 0,0 -0.48669,-0.534423 -0.68684,-1.263648 -0.56687,-2.203036 0.0479,-0.375065 0.13644,-0.725215 0.26249,-1.04967 0,0 0,0 0,0 0.1957,-0.519277 0.48684,-0.977024 0.86232,-1.366074 0,0 0,0 0,0 0.0209,-0.02201 0.042,-0.04382 0.0634,-0.06542 0.64666,-0.652619 1.37932,-1.03603 2.18652,-1.1292 0,0 3.5e-4,-4.1e-5 3.5e-4,-4.1e-5 z m 1.49444,2.48038 c 0.01,-0.156908 0.008,-0.306152 -0.004,-0.447671 -0.0418,-0.416487 -0.18106,-0.768771 -0.42162,-1.051656 -0.32312,-0.379972 -0.70087,-0.547494 -1.14704,-0.496243 -0.40462,0.04648 -0.85824,0.328763 -1.35735,0.840631 -0.29138,0.298073 -0.52268,0.67219 -0.68645,1.116132 0,0 0,0 0,0 -0.0559,0.146932 -0.10442,0.3019 -0.14513,0.464732 1.27151,-0.164231 2.51335,-0.307449 3.76205,-0.425925 z"
         style="font-style:normal;font-variant:normal;font-weight:normal;font-stretch:normal;font-size:15.00000191px;line-height:100%;font-family:'Ume Mincho Balsa';-inkscape-font-specification:'Ume Mincho Balsa, Normal';text-align:center;letter-spacing:-0.60000008px;writing-mode:lr-tb;text-anchor:middle;stroke:#ffffff;stroke-opacity:1;fill:#ffffff;fill-opacity:1;stroke-width:0.27414518;stroke-miterlimit:4;stroke-dasharray:none"
         id="path5504"
         inkscape:original-d="m 275.46445,15.712893 q 0.76172,0 1.43555,0.410157 0.67383,0.410156 0.99609,0.996093 0.32227,0.585938 0.32227,1.230469 l 0,0.410157 -4.56665,0 q -0.004,0.08789 -0.004,0.175781 0,1.289063 0.58593,1.992188 0.58594,0.703125 1.40625,0.703125 0.87891,0 1.46485,-0.322266 0.58593,-0.322266 1.05468,-1.083984 l 0.35157,0.175781 q -0.35157,0.878906 -1.08399,1.40625 -0.73242,0.527344 -1.78711,0.527344 -1.23047,0 -2.08008,-0.9375 -0.8496,-0.9375 -0.8496,-2.460938 0,-1.523438 0.79101,-2.373047 0.79102,-0.84961 1.96289,-0.84961 z m 1.81641,2.636719 q -0.0586,-0.9375 -0.61524,-1.552734 -0.55664,-0.615235 -1.20117,-0.615235 -0.58594,0 -1.20117,0.673829 -0.47974,0.523681 -0.58594,1.49414 l 3.60352,0 z"
         inkscape:connector-curvature="0" />
      <path
         d="m 277.72755,11.971725 c -0.54845,0.0045 -1.27473,0.625176 -2.13514,1.831579 0,0 0,0 0,0 -0.0796,0.109575 -0.16035,0.224074 -0.24194,0.343409 -0.14803,1.216845 -0.24895,2.406917 -0.3025,3.590086 0.30243,-0.01476 0.60468,-0.02784 0.907,-0.03922 -0.005,0.112227 -0.01,0.224325 -0.0138,0.336306 -0.88777,0.03417 -1.77307,0.08279 -2.66295,0.145515 0.004,-0.112675 0.009,-0.225461 0.0144,-0.338373 0.30305,-0.02115 0.60575,-0.04067 0.90841,-0.05854 0.0592,-1.295044 0.17565,-2.596908 0.34859,-3.932414 0.0536,-0.452092 0.11293,-0.909486 0.17767,-1.372841 -0.30035,0.01493 -0.60063,0.03169 -0.90119,0.05024 0.017,-0.1199 0.0343,-0.240175 0.052,-0.360838 0.46412,-0.187986 0.92771,-0.372386 1.39187,-0.553308 0.13989,-0.006 0.27976,-0.01159 0.41964,-0.01676 -0.0971,0.647854 -0.1841,1.28391 -0.26062,1.909878 0.8383,-1.284277 1.64136,-1.951152 2.3593,-1.956375 0.21999,-0.0016 0.43998,-0.0022 0.66009,-0.0017 0.24041,4.95e-4 0.48518,0.103009 0.7377,0.306248 0.25251,0.203219 0.34864,0.524113 0.29392,0.955304 -0.0199,0.156808 -0.0781,0.302458 -0.1748,0.437624 -0.0967,0.135165 -0.28529,0.200743 -0.56647,0.199551 -0.2809,-0.0012 -0.44723,-0.126434 -0.4958,-0.380616 -0.0485,-0.253947 0.0838,-0.501542 0.39648,-0.738273 -0.20848,-0.23895 -0.5113,-0.359776 -0.91177,-0.35646 z"
         style="font-style:normal;font-variant:normal;font-weight:normal;font-stretch:normal;font-size:15.00000191px;line-height:100%;font-family:'Ume Mincho Balsa';-inkscape-font-specification:'Ume Mincho Balsa, Normal';text-align:center;letter-spacing:-0.60000008px;writing-mode:lr-tb;text-anchor:middle;stroke:#ffffff;stroke-opacity:1;fill:#ffffff;fill-opacity:1;stroke-width:0.27414518;stroke-miterlimit:4;stroke-dasharray:none"
         id="path5506"
         inkscape:original-d="m 283.59492,16.12305 q -0.8789,0 -2.05078,2.109375 l 0,3.691407 0.87891,0 0,0.351562 -2.57813,0 0,-0.351562 0.87891,0 0,-5.390626 -0.87891,0 0,-0.351563 1.28906,-0.46875 0.41016,0 0,1.875001 q 0.99609,-1.875001 2.05078,-1.875001 l 0.64453,0 q 0.35157,0 0.76172,0.292969 0.41016,0.292969 0.41016,0.9375 0,0.234375 -0.11719,0.439453 -0.11719,0.205079 -0.52734,0.205079 -0.41016,0 -0.52735,-0.38086 -0.11718,-0.380859 0.29297,-0.732422 -0.35156,-0.351562 -0.9375,-0.351562 z"
         inkscape:path-effect="#path-effect5553"
         inkscape:connector-curvature="0" />
      <path
         d="m 283.01618,15.962124 c -0.0436,0.556452 0.0467,0.949418 0.25767,1.181263 0.1505,0.165374 0.34092,0.276664 0.56998,0.335026 0,0 0,0 0,0 0.0935,0.0241 0.19343,0.03964 0.29981,0.04675 0.59713,0.03987 1.12733,-0.205813 1.60523,-0.742459 0.21623,-0.237704 0.42185,-0.533335 0.62059,-0.888895 0.12118,0.06922 0.24254,0.138683 0.36404,0.208379 -0.28054,0.716829 -0.61796,1.24081 -1.03304,1.584346 -0.43937,0.372722 -0.96478,0.535795 -1.58249,0.495851 -0.10439,-0.0068 -0.20467,-0.01686 -0.30087,-0.0304 0,0 0,0 0,0 -0.54228,-0.07417 -0.95551,-0.262304 -1.23567,-0.571842 -0.32879,-0.363256 -0.4744,-0.914226 -0.41558,-1.658414 0.0542,-0.685338 0.1232,-1.375025 0.20712,-2.072881 0.065,-0.594962 0.13949,-1.199557 0.22326,-1.814779 -0.58378,-0.03345 -1.16617,-0.0604 -1.74855,-0.08057 0.0164,-0.119043 0.0332,-0.238472 0.0503,-0.358297 0.30098,0.01081 0.60204,0.02345 0.90338,0.03789 0.64762,0.03102 1.19338,-0.785401 1.73669,-2.5394232 0.12021,0.00924 0.24044,0.018762 0.3607,0.028575 -0.15269,0.8906378 -0.28897,1.7597588 -0.40806,2.6100298 0.3042,0.02107 0.6085,0.04385 0.91309,0.06826 0.61266,0.05183 1.22703,0.112856 1.84483,0.182275 0.0786,0.0094 0.1572,0.019 0.23582,0.02872 -0.016,0.117008 -0.0316,0.233653 -0.0469,0.349942 -0.0787,-0.0096 -0.15733,-0.01904 -0.23597,-0.02834 -0.61821,-0.06841 -1.23297,-0.128449 -1.84601,-0.179323 -0.30477,-0.02393 -0.60926,-0.04623 -0.91364,-0.06685 -0.0829,0.613072 -0.15662,1.215656 -0.22087,1.808687 -0.083,0.695578 -0.15133,1.383163 -0.20485,2.066488 z"
         style="font-style:normal;font-variant:normal;font-weight:normal;font-stretch:normal;font-size:15.00000191px;line-height:100%;font-family:'Ume Mincho Balsa';-inkscape-font-specification:'Ume Mincho Balsa, Normal';text-align:center;letter-spacing:-0.60000008px;writing-mode:lr-tb;text-anchor:middle;stroke:#ffffff;stroke-opacity:1;fill:#ffffff;fill-opacity:1;stroke-width:0.27414518;stroke-miterlimit:4;stroke-dasharray:none"
         id="path5508"
         inkscape:original-d="m 289.14727,20.048831 q 0,0.878907 0.32226,1.230469 0.32227,0.351563 0.84961,0.351563 1.23047,0 1.99219,-1.933594 l 0.35156,0.175781 q -0.64453,2.460938 -2.34375,2.460938 -0.99609,0 -1.49414,-0.556641 -0.49805,-0.55664 -0.49805,-1.728516 l 0,-3.984375 -1.69922,0 0,-0.351563 0.87891,0 q 0.9375,0 1.28906,-2.519531 l 0.35157,0 0,2.519531 2.87109,0 0,0.351563 -2.87109,0 0,3.984375 z"
         inkscape:connector-curvature="0" />
      <path
         d="m 291.16959,12.733374 c 0.5036,0.0905 0.96321,0.342742 1.38635,0.750109 0.42301,0.407257 0.60007,0.908933 0.5404,1.49644 -0.008,0.07727 -0.0155,0.154389 -0.0231,0.231368 -0.12097,1.107112 -0.20488,2.198318 -0.25137,3.287004 -0.008,0.178865 0.095,0.286739 0.30602,0.324628 0.25449,0.0457 0.47253,-0.201582 0.67226,-0.742535 0.12461,0.05921 0.24926,0.118516 0.37393,0.177911 -0.2131,0.825763 -0.65868,1.170664 -1.37972,1.043462 -0.25339,-0.0447 -0.4631,-0.152611 -0.62766,-0.32454 -0.16459,-0.171949 -0.24346,-0.347201 -0.2361,-0.526308 -0.61013,0.364392 -1.33261,0.479273 -2.17749,0.353611 -0.25326,-0.03767 -0.50638,-0.07427 -0.75945,-0.10973 -0.59014,-0.0827 -1.05031,-0.285354 -1.3758,-0.616336 -0.32544,-0.330925 -0.4788,-0.658712 -0.45958,-0.986607 0.0426,-0.727349 0.36346,-1.238367 0.94018,-1.512111 0.57772,-0.274213 1.17011,-0.437819 1.77383,-0.490925 0.60456,-0.05318 1.37168,-0.0364 2.30639,0.05791 0.004,-0.03266 0.007,-0.06532 0.0107,-0.098 0.008,-0.07721 0.0154,-0.154563 0.0233,-0.232067 0.049,-0.478953 -0.0682,-0.853677 -0.35898,-1.117729 -0.29053,-0.263817 -0.68654,-0.442497 -1.18977,-0.52969 -0.37752,-0.06541 -0.75452,-0.04145 -1.13162,0.07207 -0.37667,0.113391 -0.58572,0.343059 -0.62319,0.680645 -0.025,0.225139 -0.1148,0.372237 -0.2713,0.443857 -0.0684,0.03131 -0.14189,0.0529 -0.22046,0.06484 -0.10136,0.0152 -0.21099,0.01453 -0.32888,-0.0019 -0.0913,-0.01274 -0.16437,-0.03766 -0.21915,-0.07496 0,0 0,0 0,0 0,0 0,0 0,0 0,0 0,0 0,0 0,0 0,0 0,0 0,0 0,0 0,0 0,0 0,0 0,0 -0.0966,-0.06568 -0.13748,-0.169752 -0.12201,-0.313083 0.0607,-0.562113 0.41983,-0.971695 1.06703,-1.203539 0.64796,-0.232114 1.18235,-0.309029 1.60109,-0.236713 0.25128,0.0434 0.50262,0.08773 0.75411,0.132932 z m 0.96373,2.850252 c -0.93757,-0.05675 -1.65539,-0.0359 -2.15479,0.05169 -0.49909,0.08754 -0.91937,0.256617 -1.25838,0.503535 -0.3389,0.246854 -0.52082,0.554574 -0.54301,0.917583 -0.0222,0.363282 0.0919,0.642129 0.33732,0.838947 0.24582,0.197167 0.66387,0.335717 1.25471,0.424326 0.75979,0.113948 1.485,-0.0027 2.1838,-0.352785 0.0405,-0.790157 0.1006,-1.582907 0.18035,-2.383296 z"
         style="font-style:normal;font-variant:normal;font-weight:normal;font-stretch:normal;font-size:15.00000191px;line-height:100%;font-family:'Ume Mincho Balsa';-inkscape-font-specification:'Ume Mincho Balsa, Normal';text-align:center;letter-spacing:-0.60000008px;writing-mode:lr-tb;text-anchor:middle;stroke:#ffffff;stroke-opacity:1;fill:#ffffff;fill-opacity:1;stroke-width:0.27414518;stroke-miterlimit:4;stroke-dasharray:none"
         id="path5510"
         inkscape:original-d="m 296.39883,15.712893 q 0.70312,0 1.34766,0.498047 0.64453,0.498047 0.64453,1.435547 l 0,3.808595 q 0,0.292968 0.29297,0.292968 0.35156,0 0.58593,-0.9375 l 0.35157,0.117188 q -0.23438,1.40625 -1.23047,1.40625 -0.35157,0 -0.58594,-0.234375 -0.23438,-0.234375 -0.23438,-0.527344 -0.82031,0.761719 -1.99218,0.761719 l -0.70313,0 q -0.82031,0 -1.28906,-0.46875 -0.46875,-0.46875 -0.46875,-0.996094 0,-1.171875 0.76172,-1.728516 0.76172,-0.556641 1.58203,-0.791016 0.82031,-0.234375 2.10937,-0.351562 l 0,-0.351563 q 0,-0.761719 -0.43945,-1.083984 -0.43945,-0.322266 -1.14258,-0.322266 -0.52734,0 -1.02539,0.263672 -0.49804,0.263672 -0.49804,0.791016 0,0.351562 -0.20508,0.498047 -0.20508,0.146484 -0.49805,0.146484 -0.35156,0 -0.35156,-0.351562 0,-0.878907 0.84961,-1.376954 0.84961,-0.498047 1.43554,-0.498047 l 0.70313,0 z m 1.17187,2.753907 q -1.28906,0.175781 -1.96289,0.439453 -0.67382,0.263672 -1.11328,0.732422 -0.43945,0.46875 -0.43945,1.054688 0,0.585937 0.35156,0.849609 0.35156,0.263672 1.17188,0.263672 1.05468,0 1.99218,-0.761719 l 0,-2.578125 z"
         inkscape:connector-curvature="0" />
      <path
         d="m 297.92159,11.140431 c 0.0371,-0.231934 0.15266,-0.407988 0.34556,-0.526988 0.19305,-0.119087 0.41486,-0.15111 0.66548,-0.09655 0.25063,0.05456 0.44612,0.177354 0.58753,0.367645 0.14138,0.190258 0.19325,0.400296 0.15642,0.63035 -0.0307,0.191637 -0.14114,0.346145 -0.3318,0.463845 -0.19057,0.117645 -0.41111,0.150228 -0.66192,0.0975 -0.25074,-0.05271 -0.44857,-0.173272 -0.59213,-0.362239 -0.1436,-0.189049 -0.20008,-0.38032 -0.16914,-0.573564 z m 0.48608,8.852259 c 0.52202,0.10243 1.04299,0.204453 1.56121,0.304785 -0.003,0.106865 -0.006,0.213707 -0.009,0.320536 -1.35569,-0.263103 -2.63989,-0.519395 -4.01528,-0.784722 0.003,-0.106631 0.006,-0.213302 0.009,-0.320024 0.5264,0.101651 1.0509,0.204178 1.57511,0.306972 0.0385,-1.225574 0.12484,-2.448224 0.25747,-3.686941 0.0385,-0.401415 0.0812,-0.805989 0.128,-1.214118 -0.52176,-0.105088 -1.0494,-0.212035 -1.57248,-0.317682 0.0148,-0.129176 0.03,-0.258707 0.0457,-0.388604 0.7053,-0.0077 1.42534,-0.01455 2.12917,-0.02318 0.12547,0.02541 0.2509,0.05073 0.37627,0.07597 -0.0873,0.689957 -0.16358,1.369863 -0.22817,2.041732 -0.13254,1.237238 -0.21886,2.459303 -0.2572,3.685283 z"
         style="font-style:normal;font-variant:normal;font-weight:normal;font-stretch:normal;font-size:15.00000191px;line-height:100%;font-family:'Ume Mincho Balsa';-inkscape-font-specification:'Ume Mincho Balsa, Normal';text-align:center;letter-spacing:-0.60000008px;writing-mode:lr-tb;text-anchor:middle;stroke:#ffffff;stroke-opacity:1;fill:#ffffff;fill-opacity:1;stroke-width:0.27414518;stroke-miterlimit:4;stroke-dasharray:none"
         id="path5512"
         inkscape:original-d="m 302.30274,12.783205 q 0,-0.351562 0.23437,-0.585937 0.23438,-0.234375 0.58594,-0.234375 0.35156,0 0.58594,0.234375 0.23437,0.234375 0.23437,0.585937 0,0.292969 -0.23437,0.527344 -0.23438,0.234375 -0.58594,0.234375 -0.35156,0 -0.58594,-0.234375 -0.23437,-0.234375 -0.23437,-0.527344 z m 1.28906,9.140627 1.46484,0 0,0.351562 -3.75,0 0,-0.351562 1.46485,0 0,-5.332032 -1.46485,0 0,-0.410157 1.9336,-0.46875 0.35156,0 0,6.210939 z"
         inkscape:connector-curvature="0" />
      <path
         d="m 306.85473,16.009754 c -0.55179,-0.06055 -1.27965,0.416268 -2.12561,1.402183 0,0 0,0 0,0 -0.0782,0.08968 -0.15741,0.183667 -0.2374,0.281922 -0.12205,1.135875 -0.20366,2.264756 -0.24201,3.401962 0.30309,0.05043 0.60495,0.09891 0.9055,0.145277 -0.004,0.108517 -0.007,0.217046 -0.0101,0.325597 -0.88206,-0.137519 -1.77346,-0.292744 -2.67299,-0.460957 0.003,-0.107423 0.006,-0.214841 0.009,-0.322266 0.30645,0.05701 0.61217,0.112514 0.91712,0.166332 0.0407,-1.238209 0.13215,-2.466613 0.27082,-3.705246 0.0428,-0.419049 0.0903,-0.840257 0.14227,-1.264293 -0.30782,-0.05044 -0.61608,-0.103062 -0.92473,-0.157633 0.0132,-0.109581 0.0267,-0.219336 0.0404,-0.329277 0.47135,-0.06652 0.94294,-0.137494 1.41453,-0.213907 0.14371,0.02251 0.28729,0.0445 0.43074,0.06595 -0.0804,0.589009 -0.15263,1.172684 -0.21598,1.75297 0.82141,-1.057071 1.62835,-1.554164 2.35336,-1.475336 0.22209,0.02415 0.44345,0.04664 0.66406,0.0674 0.24074,0.02265 0.48648,0.137435 0.73651,0.343504 0.2501,0.206124 0.34258,0.510027 0.28689,0.916059 -0.0202,0.147361 -0.0777,0.282839 -0.1726,0.405571 -0.0948,0.122656 -0.27882,0.173581 -0.55455,0.149051 -0.27566,-0.02452 -0.44075,-0.161826 -0.49021,-0.407445 -0.0497,-0.246628 0.0803,-0.464327 0.38982,-0.66031 -0.20812,-0.242453 -0.51174,-0.382844 -0.91506,-0.427103 z"
         style="font-style:normal;font-variant:normal;font-weight:normal;font-stretch:normal;font-size:15.00000191px;line-height:100%;font-family:'Ume Mincho Balsa';-inkscape-font-specification:'Ume Mincho Balsa, Normal';text-align:center;letter-spacing:-0.60000008px;writing-mode:lr-tb;text-anchor:middle;stroke:#ffffff;stroke-opacity:1;fill:#ffffff;fill-opacity:1;stroke-width:0.27414518;stroke-miterlimit:4;stroke-dasharray:none"
         id="path5514"
         inkscape:original-d="m 311.19493,16.12305 q -0.87891,0 -2.05079,2.109375 l 0,3.691407 0.87891,0 0,0.351562 -2.57812,0 0,-0.351562 0.8789,0 0,-5.390626 -0.8789,0 0,-0.351563 1.28906,-0.46875 0.41015,0 0,1.875001 q 0.9961,-1.875001 2.05079,-1.875001 l 0.64453,0 q 0.35156,0 0.76172,0.292969 0.41015,0.292969 0.41015,0.9375 0,0.234375 -0.11718,0.439453 -0.11719,0.205079 -0.52735,0.205079 -0.41015,0 -0.52734,-0.38086 -0.11719,-0.380859 0.29297,-0.732422 -0.35157,-0.351562 -0.9375,-0.351562 z"
         inkscape:connector-curvature="0" />
      <path
         d="m 312.5319,15.821633 c 0.47485,-0.02586 0.88608,0.0693 1.23122,0.293717 0.3455,0.224646 0.56209,0.510787 0.66869,0.872164 0.0681,0.230734 0.0974,0.475497 0.0913,0.734004 -0.004,0.145376 -0.0183,0.295323 -0.0438,0.449421 -0.0226,0.136222 -0.0444,0.272525 -0.0655,0.408934 -1.23348,0.170186 -2.59292,0.226864 -4.04362,0.186323 -0.009,0.05569 -0.0171,0.111419 -0.0237,0.167201 -0.0953,0.817158 0.0396,1.460426 0.36777,1.922709 0.32783,0.461743 0.74326,0.701607 1.22276,0.700458 0.51503,-0.0012 0.9333,-0.121343 1.27353,-0.352884 0.34111,-0.232135 0.65256,-0.61541 0.9594,-1.153386 0.0866,0.04798 0.17235,0.0956 0.25719,0.142877 -0.24806,0.612992 -0.56701,1.115347 -0.98652,1.490288 -0.42006,0.375418 -0.92241,0.564394 -1.53898,0.560737 -0.7166,-0.0042 -1.3485,-0.339636 -1.84468,-0.965261 -0.49784,-0.62773 -0.71806,-1.42486 -0.611,-2.383768 0.04,-0.357927 0.11659,-0.683861 0.22821,-0.979161 0,0 0,0 0,0 0.18487,-0.49863 0.46836,-0.910729 0.84327,-1.244728 0.59782,-0.532579 1.28288,-0.80982 2.01406,-0.849628 0,0 3.2e-4,-1.7e-5 3.2e-4,-1.7e-5 z m 1.16899,2.444373 c 0.0162,-0.15592 0.023,-0.303893 0.0201,-0.443813 -0.009,-0.410401 -0.10291,-0.751106 -0.29309,-1.027165 -0.25503,-0.370179 -0.58124,-0.540489 -0.98112,-0.519959 -0.36236,0.01861 -0.78185,0.247614 -1.24064,0.680369 -0.26841,0.252476 -0.48083,0.580719 -0.63126,0.988753 0,0 0,0 0,0 -0.0507,0.135249 -0.0946,0.279362 -0.13136,0.432476 1.14642,0.02727 2.23755,-0.0068 3.25739,-0.110661 z"
         style="font-style:normal;font-variant:normal;font-weight:normal;font-stretch:normal;font-size:15.00000191px;line-height:100%;font-family:'Ume Mincho Balsa';-inkscape-font-specification:'Ume Mincho Balsa, Normal';text-align:center;letter-spacing:-0.60000008px;writing-mode:lr-tb;text-anchor:middle;stroke:#ffffff;stroke-opacity:1;fill:#ffffff;fill-opacity:1;stroke-width:0.27414518;stroke-miterlimit:4;stroke-dasharray:none"
         id="path5517"
         inkscape:original-d="m 316.86446,15.712893 q 0.76171,0 1.43554,0.410157 0.67383,0.410156 0.9961,0.996093 0.32226,0.585938 0.32226,1.230469 l 0,0.410157 -4.56665,0 q -0.004,0.08789 -0.004,0.175781 0,1.289063 0.58594,1.992188 0.58593,0.703125 1.40625,0.703125 0.8789,0 1.46484,-0.322266 0.58594,-0.322266 1.05469,-1.083984 l 0.35156,0.175781 q -0.35156,0.878906 -1.08398,1.40625 -0.73243,0.527344 -1.78711,0.527344 -1.23047,0 -2.08008,-0.9375 -0.84961,-0.9375 -0.84961,-2.460938 0,-1.523438 0.79101,-2.373047 0.79102,-0.84961 1.9629,-0.84961 z m 1.8164,2.636719 q -0.0586,-0.9375 -0.61523,-1.552734 -0.55664,-0.615235 -1.20117,-0.615235 -0.58594,0 -1.20118,0.673829 -0.47973,0.523681 -0.58593,1.49414 l 3.60351,0 z"
         inkscape:connector-curvature="0" />
      <path
         d="m 248.59313,29.809458 c 0.70718,-0.09968 1.39664,-0.05804 2.07131,0.118337 0.67468,0.176384 1.19795,0.428985 1.5844,0.759731 0.28661,0.245308 0.49947,0.511831 0.64178,0.800529 0.0497,0.101649 0.0909,0.206028 0.12371,0.313169 0.0405,0.132052 0.0817,0.263859 0.12361,0.395445 -1.95654,0.360691 -3.98352,0.720355 -6.10641,1.066448 0.0186,0.05976 0.0392,0.119166 0.0618,0.178219 0.33121,0.865462 0.89014,1.479868 1.61023,1.840064 0.72231,0.361311 1.43842,0.463281 2.14419,0.320153 0.7566,-0.153434 1.33491,-0.384861 1.7478,-0.689936 0.41368,-0.305657 0.72214,-0.738238 0.94324,-1.299001 0.16811,0.02663 0.33564,0.05309 0.50248,0.07938 -0.0941,0.613104 -0.3722,1.148183 -0.8485,1.608467 -0.47582,0.459826 -1.15102,0.787531 -2.04937,0.976122 -1.04725,0.219853 -2.09437,0.108791 -3.13682,-0.361226 -1.0399,-0.468871 -1.81695,-1.225113 -2.22708,-2.261013 -0.13269,-0.335146 -0.21177,-0.653799 -0.23799,-0.955135 0,0 0,0 0,0 -0.0546,-0.628785 0.12303,-1.176757 0.51637,-1.640905 0.58147,-0.686167 1.44802,-1.095594 2.53482,-1.248781 0,0 4.6e-4,-6.5e-5 4.6e-4,-6.5e-5 z m 3.20246,2.210166 c -0.0443,-0.108576 -0.0941,-0.212647 -0.14957,-0.31223 -0.25058,-0.4457 -0.61938,-0.800533 -1.12075,-1.065799 -0.61222,-0.323909 -1.21252,-0.44765 -1.80909,-0.360616 -0.54007,0.07879 -1.04494,0.384661 -1.48416,0.924087 -0.28244,0.345543 -0.40937,0.777361 -0.3681,1.292922 0,0 0,0 0,0 0.009,0.111092 0.0256,0.225954 0.05,0.344535 1.68252,-0.266849 3.30567,-0.543302 4.88164,-0.822899 z"
         style="font-style:normal;font-variant:normal;font-weight:normal;font-stretch:normal;font-size:15.00000191px;line-height:100%;font-family:'Ume Mincho Balsa';-inkscape-font-specification:'Ume Mincho Balsa, Normal';text-align:center;letter-spacing:-0.60000008px;writing-mode:lr-tb;text-anchor:middle;stroke:#ffffff;stroke-opacity:1;fill:#ffffff;fill-opacity:1;stroke-width:0.27414518;stroke-miterlimit:4;stroke-dasharray:none"
         id="path5519"
         inkscape:original-d="m 258.21445,30.712895 q 0.76172,0 1.43555,0.410157 0.67382,0.410156 0.99609,0.996093 0.32227,0.585938 0.32227,1.230469 l 0,0.410157 -4.56665,0 q -0.004,0.08789 -0.004,0.175781 0,1.289063 0.58594,1.992188 0.58594,0.703125 1.40625,0.703125 0.87891,0 1.46484,-0.322266 0.58594,-0.322266 1.05469,-1.083984 l 0.35157,0.175781 q -0.35157,0.878906 -1.08399,1.40625 -0.73242,0.527344 -1.78711,0.527344 -1.23047,0 -2.08008,-0.9375 -0.84961,-0.9375 -0.84961,-2.460938 0,-1.523438 0.79102,-2.373047 0.79101,-0.84961 1.96289,-0.84961 z m 1.81641,2.636719 q -0.0586,-0.9375 -0.61524,-1.552734 -0.55664,-0.615235 -1.20117,-0.615235 -0.58594,0 -1.20117,0.673828 -0.47974,0.523682 -0.58594,1.494141 l 3.60352,0 z"
         inkscape:connector-curvature="0" />
      <path
         d="m 258.48155,32.454754 c 0.16694,0.542053 0.42049,0.894131 0.74057,1.057119 0.32107,0.163493 0.68381,0.202174 1.08569,0.119258 0.94171,-0.19429 1.48,-0.927362 1.73322,-2.210411 0.14654,0.02852 0.29259,0.05709 0.43823,0.08571 -0.0747,1.580413 -0.66658,2.492469 -1.95704,2.764121 -0.75418,0.15876 -1.38924,0.113751 -1.89622,-0.145454 -0.50505,-0.258213 -0.89124,-0.749768 -1.12121,-1.476106 -0.19928,-0.629416 -0.38443,-1.262149 -0.55302,-1.90146 -0.16163,-0.60811 -0.3102,-1.220079 -0.44392,-1.837709 -0.7024,0.120357 -1.41599,0.241545 -2.14085,0.362493 -0.0258,-0.112498 -0.0511,-0.225147 -0.0758,-0.337956 0.3759,-0.06169 0.74873,-0.12347 1.1185,-0.185201 0.8005,-0.133638 1.12466,-1.016588 1.20047,-2.677064 0.14623,-0.02248 0.29197,-0.04496 0.43722,-0.06742 0.10702,0.808155 0.24199,1.60711 0.40188,2.400202 1.18002,-0.20087 2.30472,-0.394269 3.42568,-0.583785 0.02,0.108637 0.0404,0.217121 0.0612,0.325463 -1.11623,0.190768 -2.2438,0.386937 -3.41862,0.589604 0.12936,0.613937 0.27296,1.222291 0.42908,1.826873 0.1629,0.635953 0.34198,1.265442 0.53486,1.891728 z"
         style="font-style:normal;font-variant:normal;font-weight:normal;font-stretch:normal;font-size:15.00000191px;line-height:100%;font-family:'Ume Mincho Balsa';-inkscape-font-specification:'Ume Mincho Balsa, Normal';text-align:center;letter-spacing:-0.60000008px;writing-mode:lr-tb;text-anchor:middle;stroke:#ffffff;stroke-opacity:1;fill:#ffffff;fill-opacity:1;stroke-width:0.27414518;stroke-miterlimit:4;stroke-dasharray:none"
         id="path5521"
         inkscape:original-d="m 264.99726,35.048833 q 0,0.878907 0.32227,1.230469 0.32226,0.351563 0.84961,0.351563 1.23047,0 1.99219,-1.933594 l 0.35156,0.175781 q -0.64453,2.460938 -2.34375,2.460938 -0.9961,0 -1.49414,-0.556641 -0.49805,-0.556641 -0.49805,-1.728516 l 0,-3.984375 -1.69922,0 0,-0.351563 0.87891,0 q 0.9375,0 1.28906,-2.519531 l 0.35156,0 0,2.519531 2.8711,0 0,0.351563 -2.8711,0 0,3.984375 z"
         inkscape:connector-curvature="0" />
      <path
         d="m 271.64722,23.543103 c -0.0191,-0.214151 0.0473,-0.40172 0.19802,-0.561159 0.15078,-0.159462 0.34808,-0.250744 0.59063,-0.272909 0.24268,-0.02218 0.44961,0.03215 0.62202,0.161387 0.17243,0.129239 0.26723,0.300971 0.28575,0.514093 0.0154,0.177684 -0.0504,0.343733 -0.19792,0.499463 -0.14749,0.155703 -0.34166,0.244678 -0.5837,0.267812 -0.24194,0.02312 -0.45128,-0.02731 -0.62694,-0.152898 -0.17568,-0.125594 -0.27192,-0.277244 -0.28786,-0.455789 z m 2.68694,7.961608 c 0.4923,-0.05571 0.98443,-0.106866 1.47716,-0.153397 0.0251,0.101443 0.0505,0.202816 0.0762,0.304131 -1.26129,0.1202 -2.51588,0.270559 -3.7774,0.449623 -0.0272,-0.102329 -0.0541,-0.20472 -0.0807,-0.307186 0.49306,-0.06947 0.98532,-0.134624 1.47768,-0.19536 -0.28869,-1.134494 -0.54085,-2.273175 -0.74609,-3.433353 -0.0742,-0.416593 -0.14415,-0.835208 -0.20957,-1.256109 -0.50113,0.05422 -1.00258,0.112728 -1.50561,0.175415 -0.0194,-0.121356 -0.0384,-0.2429 -0.057,-0.364641 0.64367,-0.221212 1.28589,-0.434401 1.92906,-0.639705 0.12043,-0.01207 0.24081,-0.02389 0.36116,-0.03546 0.0947,0.682792 0.20177,1.359286 0.31957,2.030492 0.20187,1.157375 0.45038,2.293627 0.73548,3.42555 z"
         style="font-style:normal;font-variant:normal;font-weight:normal;font-stretch:normal;font-size:15.00000191px;line-height:100%;font-family:'Ume Mincho Balsa';-inkscape-font-specification:'Ume Mincho Balsa, Normal';text-align:center;letter-spacing:-0.60000008px;writing-mode:lr-tb;text-anchor:middle;stroke:#ffffff;stroke-opacity:1;fill:#ffffff;fill-opacity:1;stroke-width:0.27414518;stroke-miterlimit:4;stroke-dasharray:none"
         id="path5523"
         inkscape:original-d="m 278.15273,27.783207 q 0,-0.351562 0.23438,-0.585937 0.23437,-0.234375 0.58594,-0.234375 0.35156,0 0.58593,0.234375 0.23438,0.234375 0.23438,0.585937 0,0.292969 -0.23438,0.527344 -0.23437,0.234375 -0.58593,0.234375 -0.35157,0 -0.58594,-0.234375 -0.23438,-0.234375 -0.23438,-0.527344 z m 1.28907,9.140626 1.46484,0 0,0.351563 -3.75,0 0,-0.351563 1.46484,0 0,-5.332031 -1.46484,0 0,-0.410157 1.93359,-0.46875 0.35157,0 0,6.210938 z"
         inkscape:connector-curvature="0" />
      <path
         d="m 283.48351,31.012098 c 0.30112,0.0018 0.60265,0.0053 0.90465,0.01058 0.0231,0.09958 0.0464,0.199095 0.0701,0.298566 -0.88565,-0.01504 -1.76662,-0.01501 -2.64482,1.43e-4 -0.0241,-0.09995 -0.048,-0.199948 -0.0716,-0.300009 0.2995,-0.005 0.59937,-0.0082 0.89969,-0.0097 -0.25984,-1.109672 -0.48282,-2.22437 -0.66142,-3.356829 -0.006,-0.03981 -0.0126,-0.07963 -0.0188,-0.119476 -0.0784,-0.500836 -0.26767,-0.846154 -0.57624,-1.031488 -0.30826,-0.185156 -0.62277,-0.276842 -0.94501,-0.273275 -0.68293,0.0076 -1.3557,0.431292 -1.98661,1.272146 0.0118,0.0739 0.0238,0.147748 0.0359,0.221528 0.18629,1.142055 0.41785,2.265022 0.68633,3.383055 0.29739,-0.01499 0.59506,-0.02824 0.89313,-0.03976 0.024,0.100416 0.0482,0.200769 0.0727,0.301068 -0.87401,0.03436 -1.74389,0.08372 -2.61256,0.147899 -0.0252,-0.100906 -0.0501,-0.201867 -0.0747,-0.302896 0.2963,-0.02165 0.5928,-0.0416 0.88962,-0.05982 -0.2709,-1.120263 -0.50491,-2.245391 -0.69342,-3.389939 -0.0681,-0.411 -0.13224,-0.824038 -0.1922,-1.239166 -0.26026,0.01278 -0.52036,0.02682 -0.78042,0.04212 -0.0149,-0.10236 -0.0296,-0.204856 -0.044,-0.30749 0.37879,-0.177174 0.7586,-0.351119 1.13979,-0.521972 0.14041,-0.0059 0.28086,-0.01136 0.42136,-0.01649 0.0598,0.461681 0.12494,0.920616 0.19496,1.376884 0.50114,-0.939674 1.17247,-1.419185 1.97649,-1.426947 0.0806,-7.78e-4 0.16118,-0.0014 0.2418,-0.002 0.48421,-0.0032 0.94756,0.159658 1.39451,0.483625 0.44709,0.324072 0.71256,0.789546 0.80581,1.38916 0.006,0.03977 0.0124,0.07952 0.0187,0.119254 0.17708,1.130366 0.39832,2.243278 0.65636,3.351193 z"
         style="font-style:normal;font-variant:normal;font-weight:normal;font-stretch:normal;font-size:15.00000191px;line-height:100%;font-family:'Ume Mincho Balsa';-inkscape-font-specification:'Ume Mincho Balsa, Normal';text-align:center;letter-spacing:-0.60000008px;writing-mode:lr-tb;text-anchor:middle;stroke:#ffffff;stroke-opacity:1;fill:#ffffff;fill-opacity:1;stroke-width:0.27414518;stroke-miterlimit:4;stroke-dasharray:none"
         id="path5525"
         inkscape:original-d="m 288.45117,36.923833 0.87891,0 0,0.351563 -2.57813,0 0,-0.351563 0.87891,0 0,-4.042969 q 0,-0.878906 -0.41016,-1.201172 -0.41015,-0.322265 -0.8789,-0.322265 -0.9961,0 -2.10938,1.40625 l 0,4.160156 0.87891,0 0,0.351563 -2.57813,0 0,-0.351563 0.87891,0 0,-5.332031 -0.76172,0 0,-0.351563 1.17188,-0.527344 0.41015,0 0,1.582032 q 0.9375,-1.582032 2.10938,-1.582032 l 0.23437,0 q 0.70313,0 1.28907,0.556641 0.58593,0.556641 0.58593,1.611328 l 0,4.042969 z"
         inkscape:connector-curvature="0" />
      <path
         d="m 288.66805,23.425172 c -0.27468,-0.03436 -0.54916,-0.0672 -0.82351,-0.09846 -0.008,-0.102926 -0.0156,-0.20601 -0.0231,-0.309253 0.26131,-0.06133 0.5229,-0.121119 0.7849,-0.179514 0.13034,-0.03017 0.26077,-0.05998 0.39131,-0.08943 0.16908,0.02217 0.33819,0.04488 0.50737,0.06812 0.003,0.04688 0.005,0.09375 0.008,0.14061 0.1208,1.78174 0.32093,3.526402 0.57927,5.231598 0.14845,0.984257 0.32915,1.956551 0.5373,2.924593 0.27406,0.03615 0.54828,0.07397 0.82273,0.113408 0.0212,0.09904 0.0427,0.19801 0.0644,0.296934 -0.39315,0.07125 -0.78487,0.146188 -1.17555,0.225301 -0.14728,-0.01843 -0.29449,-0.03636 -0.44163,-0.05377 -0.0606,-0.263582 -0.11927,-0.527474 -0.17586,-0.791815 -0.51066,0.486421 -1.09287,0.699072 -1.76296,0.641235 -0.3329,-0.02873 -0.64553,-0.07996 -0.93813,-0.155002 0,0 0,0 0,0 -0.54541,-0.136992 -1.01983,-0.360875 -1.42159,-0.678544 -0.30203,-0.238819 -0.55338,-0.53055 -0.75091,-0.877243 -0.20278,-0.357183 -0.34938,-0.774461 -0.43367,-1.252168 -0.0564,-0.319468 -0.07,-0.615461 -0.0419,-0.887296 0,0 0,0 0,0 0.0104,-0.09664 0.0261,-0.190152 0.047,-0.280501 0.0806,-0.341471 0.23791,-0.637403 0.47064,-0.884364 0.30234,-0.320825 0.6932,-0.525776 1.16992,-0.609566 0,0 0,0 0,0 0.25871,-0.04233 0.542,-0.04971 0.84988,-0.02143 0.80064,0.07354 1.50631,0.418678 2.1269,1.01698 -0.15389,-1.145673 -0.27973,-2.309264 -0.37124,-3.490437 z m -1.69876,2.925325 c -0.32831,-0.01373 -0.60753,0.02335 -0.83739,0.109476 -0.2348,0.09169 -0.417,0.235646 -0.54582,0.430001 -0.14509,0.218897 -0.22942,0.50163 -0.25095,0.845683 -0.0154,0.260597 0.005,0.55585 0.0625,0.884728 0.12934,0.73745 0.4434,1.320694 0.92151,1.756376 0.18455,0.168183 0.37418,0.306545 0.56801,0.415364 0.31311,0.176111 0.63743,0.277855 0.9718,0.306855 0.67071,0.05817 1.25166,-0.171135 1.76149,-0.69164 -0.1573,-0.772038 -0.29636,-1.547602 -0.41484,-2.330662 -0.036,-0.237116 -0.0709,-0.474837 -0.10456,-0.713119 -0.75098,-0.611943 -1.4572,-0.951558 -2.13172,-1.013062 z"
         style="font-style:normal;font-variant:normal;font-weight:normal;font-stretch:normal;font-size:15.00000191px;line-height:100%;font-family:'Ume Mincho Balsa';-inkscape-font-specification:'Ume Mincho Balsa, Normal';text-align:center;letter-spacing:-0.60000008px;writing-mode:lr-tb;text-anchor:middle;stroke:#ffffff;stroke-opacity:1;fill:#ffffff;fill-opacity:1;stroke-width:0.27414518;stroke-miterlimit:4;stroke-dasharray:none"
         id="path5527"
         inkscape:original-d="m 294.47227,27.607426 -0.76172,0 0,-0.351562 1.11328,-0.468751 0.46875,0 0,9.66797 0.76172,0 0,0.351563 -1.17188,0.46875 -0.41015,0 0,-0.9375 q -0.87891,0.996094 -1.81641,0.996094 -1.34766,0 -2.08008,-0.820313 -0.73242,-0.820312 -0.73242,-2.460938 0,-1.523437 0.76172,-2.431641 0.76172,-0.908203 1.99219,-0.908203 1.11328,0 1.875,0.9375 l 0,-4.042969 z m -1.875,3.632813 q -0.9375,0.05859 -1.37696,0.761719 -0.43945,0.703125 -0.43945,2.050781 0,1.289063 0.55664,2.021485 0.55664,0.732422 1.31836,0.732422 0.9375,0 1.81641,-1.054688 l 0,-3.574219 q -0.9375,-0.9375 -1.875,-0.9375 z"
         inkscape:connector-curvature="0" />
      <path
         d="m 293.42803,24.303235 c -0.0168,-0.204548 0.055,-0.360766 0.21424,-0.467581 0.15932,-0.106845 0.36622,-0.137458 0.62006,-0.09102 0.25394,0.04646 0.46998,0.154431 0.6493,0.323202 0.17928,0.168738 0.27697,0.355956 0.29393,0.560707 0.0141,0.170678 -0.057,0.307803 -0.21397,0.41198 -0.15693,0.10416 -0.3621,0.13244 -0.61617,0.08582 -0.25394,-0.0466 -0.4723,-0.152573 -0.65386,-0.31862 -0.1816,-0.166096 -0.27956,-0.333952 -0.29353,-0.504487 z m 2.53816,8.081754 c 0.52963,0.104713 1.05896,0.213653 1.58821,0.326234 0.0214,0.09959 0.043,0.199127 0.0649,0.298617 -1.35604,-0.289527 -2.70947,-0.554085 -4.0645,-0.78434 -0.0222,-0.09885 -0.0442,-0.197754 -0.0659,-0.296705 0.529,0.08975 1.05814,0.184746 1.58771,0.284453 -0.2393,-1.101153 -0.44653,-2.20627 -0.61395,-3.326462 -0.0604,-0.402241 -0.11767,-0.806108 -0.17159,-1.21147 -0.53011,-0.09671 -1.06006,-0.189551 -1.59022,-0.277923 -0.0154,-0.11624 -0.0306,-0.232627 -0.0455,-0.349159 0.68314,-0.01665 1.3653,-0.02575 2.04865,-0.02944 0.12712,0.02365 0.25422,0.0475 0.38129,0.07153 0.0805,0.658713 0.17021,1.313417 0.2678,1.963804 0.16758,1.121562 0.3746,2.228126 0.61313,3.330861 z"
         style="font-style:normal;font-variant:normal;font-weight:normal;font-stretch:normal;font-size:15.00000191px;line-height:100%;font-family:'Ume Mincho Balsa';-inkscape-font-specification:'Ume Mincho Balsa, Normal';text-align:center;letter-spacing:-0.60000008px;writing-mode:lr-tb;text-anchor:middle;stroke:#ffffff;stroke-opacity:1;fill:#ffffff;fill-opacity:1;stroke-width:0.27414518;stroke-miterlimit:4;stroke-dasharray:none"
         id="path5529"
         inkscape:original-d="m 298.85274,27.783207 q 0,-0.351562 0.23437,-0.585937 0.23438,-0.234375 0.58594,-0.234375 0.35156,0 0.58594,0.234375 0.23437,0.234375 0.23437,0.585937 0,0.292969 -0.23437,0.527344 -0.23438,0.234375 -0.58594,0.234375 -0.35156,0 -0.58594,-0.234375 -0.23437,-0.234375 -0.23437,-0.527344 z m 1.28906,9.140626 1.46484,0 0,0.351563 -3.75,0 0,-0.351563 1.46485,0 0,-5.332031 -1.46485,0 0,-0.410157 1.9336,-0.46875 0.35156,0 0,6.210938 z"
         inkscape:connector-curvature="0" />
      <path
         d="m 304.20824,29.017298 c 0.1225,0.02625 0.24484,0.05234 0.36703,0.07827 0.0902,0.685866 0.1904,1.367985 0.29873,2.048028 10e-6,8e-6 0.005,0.03221 0.005,0.03221 -0.12305,-0.02794 -0.24624,-0.056 -0.36955,-0.08418 0,6e-6 -0.0229,-0.0362 -0.0229,-0.03619 -0.3639,-0.566655 -0.76556,-1.04576 -1.21144,-1.439118 -0.45517,-0.401562 -0.90713,-0.652069 -1.36155,-0.754797 -0.30319,-0.06854 -0.5493,-0.0709 -0.73785,-0.0073 0,0 0,0 0,0 -0.0685,0.02359 -0.12957,0.05574 -0.18302,0.09643 -0.20145,0.15336 -0.28127,0.381589 -0.23718,0.685065 0.0347,0.239049 0.14791,0.449338 0.33847,0.631907 0,0 0,0 0,0 0.0514,0.04985 0.10846,0.09763 0.1711,0.143334 0.0456,0.03328 0.0959,0.06743 0.15093,0.102475 0.29911,0.193981 0.7394,0.415939 1.31906,0.665079 0.85748,0.368548 1.51364,0.730721 1.97332,1.088962 0.45938,0.358006 0.73482,0.781835 0.83169,1.268919 0.0969,0.487021 -0.0513,0.803731 -0.45355,0.947223 -0.40245,0.143574 -1.01921,0.106406 -1.85431,-0.106481 -0.39997,-0.101962 -0.79316,-0.253681 -1.17783,-0.453711 -0.0164,-0.0084 -0.0329,-0.01684 -0.0493,-0.02539 -0.40267,-0.209562 -0.77321,-0.449913 -1.10943,-0.720925 -0.10176,0.183932 -0.20267,0.367412 -0.30263,0.550323 -0.12638,-0.02979 -0.25281,-0.05945 -0.3793,-0.08897 -0.16061,-0.735984 -0.30934,-1.47365 -0.44345,-2.216246 0.12632,0.0284 0.25256,0.0569 0.37872,0.0855 0.4037,0.674004 0.86644,1.224347 1.37181,1.649061 0.14355,0.120635 0.29054,0.230026 0.4407,0.328105 0.37718,0.250692 0.77615,0.42986 1.19408,0.535549 0.54232,0.137146 0.92251,0.12071 1.14303,-0.05187 0.22043,-0.172503 0.3025,-0.397858 0.24806,-0.673904 -0.0613,-0.31071 -0.25012,-0.579107 -0.569,-0.804228 -0.31889,-0.225127 -0.84285,-0.491128 -1.5729,-0.797991 -0.31448,-0.121712 -0.60009,-0.245504 -0.85619,-0.371051 -0.47634,-0.228271 -0.85335,-0.463221 -1.12862,-0.705904 -0.22169,-0.195451 -0.39469,-0.399855 -0.51812,-0.613837 0,0 0,0 0,0 -0.11241,-0.192473 -0.18382,-0.392583 -0.21387,-0.600871 -0.0581,-0.40269 0.11688,-0.691727 0.52016,-0.867623 0.24604,-0.10731 0.54901,-0.153902 0.90751,-0.139305 0,0 0,0 0,0 0.2276,0.01131 0.47808,0.04761 0.75136,0.108885 0.33001,0.074 0.65566,0.196404 0.97773,0.367982 0.32215,0.171625 0.66306,0.413925 1.02499,0.728039 0.11244,-0.192954 0.22479,-0.385997 0.33839,-0.581427 z"
         style="font-style:normal;font-variant:normal;font-weight:normal;font-stretch:normal;font-size:15.00000191px;line-height:100%;font-family:'Ume Mincho Balsa';-inkscape-font-specification:'Ume Mincho Balsa, Normal';text-align:center;letter-spacing:-0.60000008px;writing-mode:lr-tb;text-anchor:middle;stroke:#ffffff;stroke-opacity:1;fill:#ffffff;fill-opacity:1;stroke-width:0.27414518;stroke-miterlimit:4;stroke-dasharray:none"
         id="path5531"
         inkscape:original-d="m 308.68243,30.712895 0.35156,0 0,2.343751 -0.35156,0 q -0.41016,-0.878907 -0.9961,-1.406251 -0.58594,-0.527343 -1.23047,-0.527343 -0.58593,0 -0.9082,0.351562 -0.32227,0.351563 -0.32227,0.878906 0,0.527344 0.38086,0.791016 0.38086,0.263672 1.31836,0.498047 1.17188,0.292969 1.75782,0.732422 0.58593,0.439453 0.58593,1.259766 0,0.820312 -0.64453,1.259766 -0.64453,0.439453 -1.8164,0.439453 -0.58594,0 -1.11329,-0.205078 -0.52734,-0.205079 -0.9375,-0.556641 l -0.41015,0.761719 -0.35157,0 0,-2.578126 0.35157,0 q 0.41015,1.054688 1.02539,1.611329 0.61523,0.55664 1.43555,0.55664 0.76171,0 1.14257,-0.410156 0.38086,-0.410156 0.38086,-0.878906 0,-0.527344 -0.41015,-0.791016 -0.41016,-0.263672 -1.40625,-0.498047 -1.23047,-0.234375 -1.75782,-0.732422 -0.52734,-0.498047 -0.52734,-1.259766 0,-0.703125 0.61523,-1.171875 0.61524,-0.46875 1.61133,-0.46875 0.46875,0 0.90821,0.175781 0.43945,0.175782 0.9082,0.585938 l 0.41016,-0.761719 z"
         inkscape:connector-curvature="0" />
      <path
         d="m 305.91809,30.345748 c 2.28351,0.484067 4.44396,0.889497 6.45985,1.16984 0.041,0.227549 0.0832,0.454941 0.12673,0.682282 -2.03188,-0.303023 -4.1999,-0.725234 -6.49031,-1.222464 -0.0329,-0.209649 -0.065,-0.419516 -0.0963,-0.629658 z"
         style="font-style:normal;font-variant:normal;font-weight:normal;font-stretch:normal;font-size:15.00000191px;line-height:100%;font-family:'Ume Mincho Balsa';-inkscape-font-specification:'Ume Mincho Balsa, Normal';text-align:center;letter-spacing:-0.60000008px;writing-mode:lr-tb;text-anchor:middle;stroke:#ffffff;stroke-opacity:1;fill:#ffffff;fill-opacity:1;stroke-width:0.27414518;stroke-miterlimit:4;stroke-dasharray:none"
         id="path5533"
         inkscape:original-d="m 310.1918,31.826177 6.5625,0 0,0.703125 -6.5625,0 0,-0.703125 z"
         inkscape:connector-curvature="0" />
      <path
         d="m 259.19298,51.644009 c 0.28396,-0.09695 0.56903,-0.193014 0.85502,-0.288142 0.0151,0.117711 0.0292,0.235776 0.0423,0.354209 -0.83631,0.279021 -1.66502,0.566387 -2.48109,0.860938 -0.0159,-0.118504 -0.0329,-0.236656 -0.0511,-0.35447 0.27966,-0.100462 0.56056,-0.200038 0.8425,-0.298682 -0.36052,-2.507717 -1.21299,-4.8758 -2.23624,-7.201722 -0.27449,0.08205 -0.54966,0.164738 -0.82529,0.24799 -0.0581,-0.127767 -0.11678,-0.255453 -0.17592,-0.383059 0.40242,-0.285947 0.80701,-0.569643 1.21232,-0.850448 0.10687,-0.03092 0.21364,-0.06175 0.3203,-0.0925 0.10389,0.235092 0.20638,0.470497 0.30712,0.706222 0.38836,-0.645307 0.94693,-1.065899 1.66432,-1.267332 0.14744,-0.0414 0.29468,-0.08261 0.44169,-0.123613 0.75532,-0.210679 1.51459,-0.139729 2.25225,0.20932 0.73556,0.348058 1.26913,1.011015 1.56571,1.991676 0.28632,0.946726 0.21243,1.801985 -0.18212,2.559223 -0.39487,0.75782 -1.09496,1.293141 -2.06441,1.601396 -0.7016,0.22309 -1.34334,0.189725 -1.96583,-0.09742 0.20349,0.794857 0.36663,1.602169 0.47844,2.426411 z m 1.37627,-2.841915 c 0.62311,-0.196834 1.08056,-0.610345 1.35041,-1.233514 0.26962,-0.622661 0.29515,-1.338816 0.0459,-2.141269 -0.27137,-0.873779 -0.72451,-1.45195 -1.32761,-1.737634 -0.60481,-0.286493 -1.20959,-0.347412 -1.79487,-0.181167 -0.67047,0.190447 -1.22622,0.612035 -1.65622,1.271497 0.55271,1.325525 1.04635,2.667693 1.42259,4.041152 0.69016,0.184052 1.33352,0.178758 1.95977,-0.01907 z"
         style="font-style:normal;font-variant:normal;font-weight:normal;font-stretch:normal;font-size:15.00000191px;line-height:100%;font-family:'Ume Mincho Balsa';-inkscape-font-specification:'Ume Mincho Balsa, Normal';text-align:center;letter-spacing:-0.60000008px;writing-mode:lr-tb;text-anchor:middle;stroke:#ffffff;stroke-opacity:1;fill:#ffffff;fill-opacity:1;stroke-width:0.27414518;stroke-miterlimit:4;stroke-dasharray:none"
         id="path5535"
         inkscape:original-d="m 259.96523,54.091806 0.87891,0 0,0.351563 -2.57813,0 0,-0.351563 0.87891,0 0,-7.500001 -0.76172,0 0,-0.410156 1.28906,-0.46875 0.29297,0 0,0.761719 q 0.82031,-0.761719 1.81641,-0.761719 l 0.41015,0 q 1.05469,0 1.84571,0.820313 0.79101,0.820312 0.79101,2.402344 0,1.523437 -0.79101,2.460937 -0.79102,0.937501 -2.25586,0.937501 -1.05469,0 -1.81641,-0.703125 l 0,2.460937 z m 1.81641,-2.285156 q 0.9375,0 1.52344,-0.791016 0.58593,-0.791016 0.58593,-2.080078 0,-1.40625 -0.64453,-2.080079 -0.64453,-0.673828 -1.46484,-0.673828 -0.9375,0 -1.81641,0.761719 l 0,4.277344 q 0.87891,0.585938 1.81641,0.585938 z"
         inkscape:connector-curvature="0" />
      <path
         d="m 265.80514,41.205078 c 0.52087,-0.124647 1.05115,-0.115214 1.58678,0.02679 0.53538,0.141945 0.96601,0.366965 1.29157,0.671833 0.32563,0.304927 0.54652,0.653756 0.66145,1.04558 0.0366,0.124778 0.0728,0.2498 0.10869,0.37508 -1.52134,0.340098 -3.0616,0.719938 -4.61097,1.130575 0.0133,0.05503 0.0278,0.109754 0.0436,0.164164 0.23158,0.798194 0.58554,1.371697 1.08317,1.711303 0.49823,0.340016 1.01437,0.440464 1.56808,0.299264 0.59152,-0.150843 1.06284,-0.374398 1.41068,-0.672687 0.34762,-0.298108 0.62221,-0.721935 0.81422,-1.266316 0.13152,0.02783 0.26295,0.05589 0.39431,0.08417 -0.0961,0.599334 -0.35786,1.125024 -0.77923,1.577631 -0.42143,0.452679 -0.99305,0.770138 -1.70402,0.952269 -0.83301,0.213395 -1.58093,0.09772 -2.2837,-0.3441 -0.70081,-0.440578 -1.18004,-1.139377 -1.45912,-2.084089 -0.27993,-0.947584 -0.25781,-1.738905 0.11361,-2.398879 0.36931,-0.656218 0.95772,-1.080392 1.76054,-1.272513 0,0 3.4e-4,-8.1e-5 3.4e-4,-8.1e-5 z m 2.60002,1.957716 c -0.20664,-0.561927 -0.56011,-0.985078 -1.05359,-1.268213 -0.49403,-0.283448 -0.96466,-0.372378 -1.4039,-0.266481 -0.4001,0.09646 -0.74252,0.400112 -1.02838,0.915736 -0.224,0.402332 -0.27366,0.907496 -0.16408,1.524768 1.22556,-0.322799 2.44386,-0.626236 3.64995,-0.90581 z"
         style="font-style:normal;font-variant:normal;font-weight:normal;font-stretch:normal;font-size:15.00000191px;line-height:100%;font-family:'Ume Mincho Balsa';-inkscape-font-specification:'Ume Mincho Balsa, Normal';text-align:center;letter-spacing:-0.60000008px;writing-mode:lr-tb;text-anchor:middle;stroke:#ffffff;stroke-opacity:1;fill:#ffffff;fill-opacity:1;stroke-width:0.27414518;stroke-miterlimit:4;stroke-dasharray:none"
         id="path5537"
         inkscape:original-d="m 268.56445,45.712899 q 0.76172,0 1.43555,0.410156 0.67383,0.410157 0.99609,0.996094 0.32227,0.585938 0.32227,1.230469 l 0,0.410156 -4.56665,0 q -0.004,0.08789 -0.004,0.175782 0,1.289062 0.58594,1.992187 0.58594,0.703126 1.40625,0.703126 0.87891,0 1.46485,-0.322266 0.58593,-0.322266 1.05468,-1.083985 L 271.611,50.4004 q -0.35157,0.878906 -1.08399,1.40625 -0.73242,0.527344 -1.78711,0.527344 -1.23047,0 -2.08008,-0.937501 -0.84961,-0.9375 -0.84961,-2.460937 0,-1.523438 0.79102,-2.373047 0.79102,-0.84961 1.96289,-0.84961 z m 1.81641,2.636719 q -0.0586,-0.9375 -0.61524,-1.552734 -0.55664,-0.615235 -1.20117,-0.615235 -0.58594,0 -1.20117,0.673828 -0.47974,0.523682 -0.58594,1.494141 l 3.60352,0 z"
         inkscape:connector-curvature="0" />
      <path
         d="m 277.05375,44.927385 c 0.29719,-0.04718 0.59454,-0.09275 0.89205,-0.136646 0.0317,0.109602 0.0633,0.219465 0.0948,0.329613 -0.87529,0.12935 -1.74943,0.273023 -2.62192,0.42986 -0.0286,-0.110722 -0.0575,-0.22116 -0.0866,-0.331331 0.29648,-0.05328 0.59316,-0.105022 0.89001,-0.155189 -0.34592,-1.266866 -0.71609,-2.491767 -1.09834,-3.701357 -0.16568,-0.524257 -0.4165,-0.858431 -0.74758,-1.003446 -0.33143,-0.145173 -0.65153,-0.19042 -0.95968,-0.135253 -0.65655,0.11754 -1.21129,0.663915 -1.68385,1.658731 0.38304,1.250617 0.74219,2.520757 1.05497,3.83143 0.29522,-0.0617 0.59068,-0.121991 0.88637,-0.180835 0.0274,0.110515 0.0544,0.221299 0.0812,0.332366 -0.44273,0.08808 -0.88498,0.179384 -1.32663,0.273755 -0.42699,0.08888 -0.85421,0.180779 -1.28146,0.275533 -0.024,-0.111853 -0.0483,-0.223417 -0.0731,-0.334705 0.29573,-0.06542 0.5914,-0.129442 0.88692,-0.192022 -0.38813,-1.68361 -0.86105,-3.301226 -1.36629,-4.892892 -0.25159,0.05006 -0.50381,0.101324 -0.75668,0.153745 -0.0334,-0.105102 -0.0669,-0.210075 -0.10056,-0.314924 0.33216,-0.232936 0.66301,-0.462563 0.99209,-0.688485 0,2e-6 0.0193,-0.01364 0.0193,-0.01364 0.13471,-0.02794 0.26941,-0.05557 0.40411,-0.08289 0.15187,0.468183 0.30219,0.93859 0.44959,1.411969 0.3207,-1.072232 0.85701,-1.670599 1.62938,-1.807942 0.077,-0.0137 0.1541,-0.02729 0.23117,-0.04077 0.46215,-0.08085 0.94015,0.0126 1.43253,0.278872 0.49203,0.266087 0.84132,0.713416 1.04161,1.341255 0.38539,1.208037 0.76092,2.429936 1.11665,3.695206 z"
         style="font-style:normal;font-variant:normal;font-weight:normal;font-stretch:normal;font-size:15.00000191px;line-height:100%;font-family:'Ume Mincho Balsa';-inkscape-font-specification:'Ume Mincho Balsa, Normal';text-align:center;letter-spacing:-0.60000008px;writing-mode:lr-tb;text-anchor:middle;stroke:#ffffff;stroke-opacity:1;fill:#ffffff;fill-opacity:1;stroke-width:0.27414518;stroke-miterlimit:4;stroke-dasharray:none"
         id="path5539"
         inkscape:original-d="m 278.10117,51.923837 0.87891,0 0,0.351563 -2.57813,0 0,-0.351563 0.87891,0 0,-4.042969 q 0,-0.878906 -0.41016,-1.201172 -0.41015,-0.322266 -0.8789,-0.322266 -0.9961,0 -2.10938,1.406251 l 0,4.160156 0.87891,0 0,0.351563 -2.57813,0 0,-0.351563 0.87891,0 0,-5.332032 -0.76172,0 0,-0.351562 1.17187,-0.527344 0.41016,0 0,1.582031 q 0.9375,-1.582031 2.10938,-1.582031 l 0.23437,0 q 0.70313,0 1.28906,0.556641 0.58594,0.55664 0.58594,1.611328 l 0,4.042969 z"
         inkscape:connector-curvature="0" />
      <path
         d="m 281.7201,38.622498 c 0.1177,-0.0073 0.23545,-0.01436 0.35327,-0.0211 0.22674,0.675935 0.4605,1.36285 0.69563,2.051542 -0.11807,0.0072 -0.23609,0.01462 -0.35407,0.02238 -0.45141,-0.499815 -0.92463,-0.888247 -1.41939,-1.165347 -0.49479,-0.277113 -0.95654,-0.395657 -1.38536,-0.355048 -0.38988,0.03692 -0.6577,0.171073 -0.80335,0.399883 -0.14573,0.228951 -0.16717,0.499398 -0.0643,0.810358 0.10301,0.311344 0.3068,0.530884 0.61249,0.659553 0.3069,0.12918 0.79313,0.228757 1.46859,0.310628 0.84171,0.102024 1.50837,0.278307 1.99109,0.513745 0.48347,0.235807 0.81125,0.602726 0.98048,1.098932 0.16969,0.497571 0.0823,0.895865 -0.26534,1.198212 -0.34825,0.302867 -0.92136,0.48749 -1.72055,0.566021 -0.3993,0.03924 -0.79833,0.01586 -1.19662,-0.07104 -0.39833,-0.08691 -0.76923,-0.221122 -1.11368,-0.403732 -0.0663,0.252858 -0.13372,0.507902 -0.20238,0.764426 -0.11955,0.01577 -0.23909,0.03182 -0.3586,0.04815 -0.23726,-0.807986 -0.47976,-1.597989 -0.72643,-2.379644 0.1175,-0.01576 0.23503,-0.03124 0.35261,-0.04645 0.47749,0.603274 0.97575,1.05336 1.49983,1.347824 0.52409,0.294465 1.06494,0.413168 1.62298,0.35858 0.51786,-0.05066 0.86437,-0.210203 1.03943,-0.483357 0.17481,-0.272768 0.21364,-0.550279 0.1179,-0.834852 -0.10754,-0.319639 -0.32681,-0.548337 -0.65615,-0.684983 -0.3283,-0.136218 -0.85378,-0.248001 -1.56693,-0.322495 -0.87295,-0.0592 -1.52837,-0.207331 -1.97809,-0.462705 -0.44832,-0.254584 -0.745,-0.60633 -0.89276,-1.057001 -0.13613,-0.415209 -0.046,-0.786441 0.27123,-1.108534 0.31694,-0.321793 0.8068,-0.517375 1.46928,-0.579649 0.31187,-0.02932 0.6315,-0.0046 0.95874,0.07359 0.32723,0.07822 0.68768,0.225495 1.08173,0.442532 0.0625,-0.231372 0.12527,-0.461353 0.18872,-0.690415 z"
         style="font-style:normal;font-variant:normal;font-weight:normal;font-stretch:normal;font-size:15.00000191px;line-height:100%;font-family:'Ume Mincho Balsa';-inkscape-font-specification:'Ume Mincho Balsa, Normal';text-align:center;letter-spacing:-0.60000008px;writing-mode:lr-tb;text-anchor:middle;stroke:#ffffff;stroke-opacity:1;fill:#ffffff;fill-opacity:1;stroke-width:0.27414518;stroke-miterlimit:4;stroke-dasharray:none"
         id="path5541"
         inkscape:original-d="m 284.53242,45.712899 0.35156,0 0,2.34375 -0.35156,0 q -0.41015,-0.878906 -0.99609,-1.40625 -0.58594,-0.527344 -1.23047,-0.527344 -0.58594,0 -0.9082,0.351563 -0.32227,0.351562 -0.32227,0.878906 0,0.527344 0.38086,0.791016 0.38086,0.263672 1.31836,0.498047 1.17187,0.292969 1.75781,0.732422 0.58594,0.439453 0.58594,1.259766 0,0.820312 -0.64453,1.259765 -0.64453,0.439454 -1.81641,0.439454 -0.58594,0 -1.11328,-0.205079 -0.52734,-0.205078 -0.9375,-0.55664 l -0.41016,0.761719 -0.35156,0 0,-2.578126 0.35156,0 q 0.41016,1.054688 1.02539,1.611329 0.61524,0.55664 1.43555,0.55664 0.76172,0 1.14258,-0.410156 0.38086,-0.410156 0.38086,-0.878906 0,-0.527344 -0.41016,-0.791016 -0.41015,-0.263672 -1.40625,-0.498047 -1.23047,-0.234375 -1.75781,-0.732422 -0.52734,-0.498047 -0.52734,-1.259766 0,-0.703125 0.61523,-1.171875 0.61524,-0.46875 1.61133,-0.46875 0.46875,0 0.9082,0.175781 0.43946,0.175782 0.90821,0.585938 l 0.41015,-0.761719 z"
         inkscape:connector-curvature="0" />
      <path
         d="m 286.74536,38.491773 c 0.18428,0.0019 0.37294,0.02579 0.5659,0.07159 0.30932,0.07412 0.62997,0.204345 0.9619,0.390568 0.54042,0.303203 0.90337,0.729749 1.0912,1.27477 0.37795,1.096705 0.78443,2.249183 1.19161,3.39491 0.0634,0.178384 0.19536,0.271791 0.39579,0.281485 0,0 0.0133,3.51e-4 0.0133,3.51e-4 0,0 0,0 0,0 0.23232,0.0017 0.32666,-0.273188 0.29023,-0.817216 0.13362,0.04317 0.2672,0.08678 0.40072,0.130812 0.11374,0.699245 -0.054,1.097094 -0.51164,1.190409 0,0 0,0 0,0 -0.0893,0.01855 -0.18971,0.02543 -0.30125,0.02071 -0.24033,-0.01017 -0.46604,-0.08933 -0.67762,-0.238455 -0.2115,-0.149062 -0.34905,-0.31249 -0.41269,-0.491226 -0.14271,0.161997 -0.31138,0.295023 -0.5065,0.399116 -0.34429,0.184907 -0.7709,0.278184 -1.28143,0.281892 -0.23959,0.0017 -0.47919,0.0048 -0.71882,0.0093 -0.55978,0.01034 -1.04862,-0.119476 -1.46795,-0.395708 -0.41882,-0.275899 -0.68239,-0.572109 -0.79304,-0.892424 -0.24522,-0.709806 -0.16659,-1.238499 0.23336,-1.584931 0.39979,-0.346294 0.85397,-0.58951 1.36167,-0.730599 0.37537,-0.104314 0.84643,-0.186691 1.41097,-0.240839 0.19952,-0.01833 0.41105,-0.03293 0.63448,-0.0434 -0.0357,-0.102792 -0.0713,-0.205428 -0.10668,-0.307882 -0.15335,-0.443509 -0.41129,-0.76269 -0.77603,-0.956482 -0.0776,-0.0412 -0.15772,-0.07818 -0.24049,-0.110881 0,0 0,0 0,0 -0.30457,-0.119983 -0.6452,-0.181869 -1.02076,-0.183302 -0.35776,-0.0014 -0.67953,0.07614 -0.96436,0.232655 -0.28492,0.156565 -0.37458,0.3901 -0.26891,0.697185 0.0705,0.205019 0.0516,0.351972 -0.0573,0.441036 -0.10892,0.08908 -0.26216,0.13646 -0.45989,0.142625 -0.23726,0.0074 -0.39128,-0.09109 -0.46211,-0.297121 -0.17653,-0.513484 -0.0271,-0.925617 0.44886,-1.226041 0.47552,-0.300143 0.91455,-0.446544 1.31143,-0.446555 0.23844,-6e-6 0.47713,0.0012 0.71608,0.0037 z m 2.02363,2.423204 c -0.22381,0.01994 -0.4321,0.04368 -0.62464,0.07065 0,0 0,0 0,0 -0.53263,0.07684 -0.94804,0.177103 -1.24343,0.292981 -0.40216,0.157767 -0.70339,0.381233 -0.9031,0.667313 -0.19983,0.286256 -0.23824,0.607683 -0.11471,0.961687 0.12373,0.354588 0.33323,0.609555 0.62877,0.764733 0.29617,0.155502 0.72189,0.226624 1.28102,0.222765 0.47879,-0.0033 0.90229,-0.104881 1.27208,-0.304508 0.18565,-0.09942 0.35777,-0.223054 0.51683,-0.37068 -0.27578,-0.776011 -0.55004,-1.551981 -0.81282,-2.30494 z"
         style="font-style:normal;font-variant:normal;font-weight:normal;font-stretch:normal;font-size:15.00000191px;line-height:100%;font-family:'Ume Mincho Balsa';-inkscape-font-specification:'Ume Mincho Balsa, Normal';text-align:center;letter-spacing:-0.60000008px;writing-mode:lr-tb;text-anchor:middle;stroke:#ffffff;stroke-opacity:1;fill:#ffffff;fill-opacity:1;stroke-width:0.27414518;stroke-miterlimit:4;stroke-dasharray:none"
         id="path5543"
         inkscape:original-d="m 289.49883,45.712899 q 0.70312,0 1.34766,0.498047 0.64453,0.498047 0.64453,1.435547 l 0,3.808594 q 0,0.292969 0.29297,0.292969 0.35156,0 0.58593,-0.9375 l 0.35157,0.117187 q -0.23438,1.406251 -1.23047,1.406251 -0.35157,0 -0.58594,-0.234375 -0.23438,-0.234375 -0.23438,-0.527344 -0.82031,0.761719 -1.99218,0.761719 l -0.70313,0 q -0.82031,0 -1.28906,-0.46875 -0.46875,-0.468751 -0.46875,-0.996094 0,-1.171875 0.76172,-1.728516 0.76172,-0.556641 1.58203,-0.791016 0.82031,-0.234375 2.10937,-0.351562 l 0,-0.351563 q 0,-0.761719 -0.43945,-1.083984 -0.43945,-0.322266 -1.14258,-0.322266 -0.52734,0 -1.02539,0.263672 -0.49804,0.263672 -0.49804,0.791015 0,0.351563 -0.20508,0.498047 -0.20508,0.146485 -0.49805,0.146485 -0.35156,0 -0.35156,-0.351563 0,-0.878906 0.84961,-1.376953 0.84961,-0.498047 1.43554,-0.498047 l 0.70313,0 z m 1.17187,2.753907 q -1.28906,0.175781 -1.96289,0.439453 -0.67382,0.263672 -1.11328,0.732422 -0.43945,0.46875 -0.43945,1.054687 0,0.585938 0.35156,0.84961 0.35156,0.263672 1.17188,0.263672 1.05468,0 1.99218,-0.761719 l 0,-2.578125 z"
         inkscape:connector-curvature="0" />
      <path
         d="m 293.41635,44.608284 c -0.12015,-0.01139 -0.24034,-0.02236 -0.36058,-0.03291 -0.99968,-2.86169 -2.02227,-5.812152 -2.81882,-8.439389 -0.26994,-0.0273 -0.53958,-0.05263 -0.80898,-0.07595 -0.0302,-0.09907 -0.0603,-0.198092 -0.0901,-0.297061 0.37009,-0.112459 0.74156,-0.219763 1.11486,-0.322334 0.1458,0.01593 0.29167,0.03242 0.43762,0.04946 0.38751,1.328093 0.81478,2.674688 1.26241,4.032358 0.54339,-0.39092 1.15309,-0.532471 1.81415,-0.433348 0.90945,0.13637 1.71762,0.523532 2.4144,1.140367 0.69826,0.618139 1.17437,1.352665 1.43794,2.201481 0.28516,0.918318 0.21607,1.583942 -0.19719,2.001586 -0.41475,0.419135 -1.09012,0.556133 -2.04746,0.425483 -0.63853,-0.08714 -1.25716,-0.329958 -1.8621,-0.736105 -0.0995,0.160417 -0.19816,0.322482 -0.29613,0.486355 z m 1.99808,-0.228398 c 0.56079,0.07719 1.00872,-0.05467 1.35566,-0.392049 0.34612,-0.336601 0.39172,-0.913554 0.13253,-1.731164 -0.25879,-0.816383 -0.6482,-1.442995 -1.17717,-1.883677 -0.52831,-0.440137 -1.0625,-0.702425 -1.59884,-0.782724 -0.70103,-0.104956 -1.31814,0.0061 -1.84012,0.336409 0.40887,1.231359 0.85455,2.535558 1.29802,3.823793 0.50078,0.325891 1.1085,0.530111 1.82992,0.629412 z"
         style="font-style:normal;font-variant:normal;font-weight:normal;font-stretch:normal;font-size:15.00000191px;line-height:100%;font-family:'Ume Mincho Balsa';-inkscape-font-specification:'Ume Mincho Balsa, Normal';text-align:center;letter-spacing:-0.60000008px;writing-mode:lr-tb;text-anchor:middle;stroke:#ffffff;stroke-opacity:1;fill:#ffffff;fill-opacity:1;stroke-width:0.27414518;stroke-miterlimit:4;stroke-dasharray:none"
         id="path5545"
         inkscape:original-d="m 293.99648,52.333994 -0.35156,0 0,-9.66797 -0.76172,0 0,-0.351563 1.17188,-0.527344 0.41015,0 0,4.746095 q 0.9961,-0.820313 1.9336,-0.820313 1.28906,0 2.05078,0.908203 0.76172,0.908204 0.76172,2.373047 0,1.582032 -0.84961,2.460938 -0.84961,0.878907 -2.25586,0.878907 -0.9375,0 -1.64063,-0.585938 l -0.46875,0.585938 z m 2.10938,-0.527344 q 0.82031,0 1.52344,-0.703125 0.70312,-0.703125 0.70312,-2.109376 0,-1.40625 -0.58593,-2.050781 -0.58594,-0.644531 -1.34766,-0.644531 -0.99609,0 -1.9336,0.703125 l 0,4.335938 q 0.58594,0.46875 1.64063,0.46875 z"
         inkscape:connector-curvature="0" />
      <path
         d="m 303.06297,46.052674 c 0.49345,0.1331 0.9862,0.271629 1.47874,0.415314 0.0244,0.103143 0.0487,0.206387 0.0728,0.309756 -1.23613,-0.361578 -2.47245,-0.689568 -3.71617,-0.979874 -0.0297,-0.104467 -0.0594,-0.208732 -0.0891,-0.312851 0.47539,0.111009 0.95005,0.227515 1.42433,0.349291 -0.99071,-3.696736 -1.24695,-4.390575 -2.21785,-7.974249 -0.58797,-0.140556 -1.17583,-0.27582 -1.76389,-0.405087 -0.0275,-0.09901 -0.0548,-0.197999 -0.082,-0.296963 0.69531,0.01277 1.39059,0.03439 2.08786,0.06257 0.14723,0.03546 0.29443,0.07122 0.4416,0.107261 0.93005,3.542916 1.42401,5.070289 2.36368,8.724828 z"
         style="font-style:normal;font-variant:normal;font-weight:normal;font-stretch:normal;font-size:15.00000191px;line-height:100%;font-family:'Ume Mincho Balsa';-inkscape-font-specification:'Ume Mincho Balsa, Normal';text-align:center;letter-spacing:-0.60000008px;writing-mode:lr-tb;text-anchor:middle;stroke:#ffffff;stroke-opacity:1;fill:#ffffff;fill-opacity:1;stroke-width:0.27414518;stroke-miterlimit:4;stroke-dasharray:none"
         id="path5547"
         inkscape:original-d="m 303.5918,51.923837 1.46484,0 0,0.351563 -3.6914,0 0,-0.351563 1.40625,0 0,-9.257813 -1.64063,0 0,-0.351563 2.05078,-0.527344 0.41016,0 0,10.13672 z"
         inkscape:connector-curvature="0" />
      <path
         d="m 308.37396,42.630895 c 0.54079,0.167433 1.07973,0.446684 1.61277,0.840468 0.53316,0.393867 0.95125,0.803558 1.2525,1.227098 0.30124,0.423538 0.48818,0.828767 0.56075,1.212789 0.0231,0.122158 0.0457,0.244255 0.0679,0.366294 -1.60308,-0.548399 -3.19953,-1.083415 -4.78946,-1.590059 0.009,0.05011 0.019,0.100674 0.0306,0.151687 0.16908,0.74766 0.49436,1.393362 0.97353,1.936289 0.47974,0.543574 0.98895,0.9123 1.54487,1.107377 0.59582,0.20908 1.07843,0.293714 1.45178,0.248055 0.37224,-0.04552 0.69073,-0.234101 0.94642,-0.569906 0.12992,0.09543 0.25958,0.191081 0.38898,0.286966 -0.16786,0.434807 -0.48858,0.713587 -0.94583,0.841709 -0.45822,0.128394 -1.03815,0.06165 -1.74519,-0.189876 -0.82453,-0.293322 -1.56309,-0.806099 -2.2471,-1.542796 -0.68349,-0.736133 -1.13567,-1.544212 -1.34378,-2.426241 -0.20827,-0.882681 -0.10447,-1.480791 0.33444,-1.802169 0.43711,-0.32007 1.07443,-0.355409 1.90648,-0.0978 0,0 3.6e-4,1.12e-4 3.6e-4,1.12e-4 z m 2.43717,2.947161 c -0.1504,-0.568244 -0.46541,-1.099718 -0.93981,-1.589101 -0.47433,-0.489302 -0.94362,-0.80381 -1.40022,-0.946645 -0.41541,-0.129946 -0.79478,-0.06527 -1.13574,0.190466 -0.2666,0.198777 -0.368,0.566837 -0.31201,1.106318 1.25835,0.398593 2.52135,0.814168 3.78778,1.238962 z"
         style="font-style:normal;font-variant:normal;font-weight:normal;font-stretch:normal;font-size:15.00000191px;line-height:100%;font-family:'Ume Mincho Balsa';-inkscape-font-specification:'Ume Mincho Balsa, Normal';text-align:center;letter-spacing:-0.60000008px;writing-mode:lr-tb;text-anchor:middle;stroke:#ffffff;stroke-opacity:1;fill:#ffffff;fill-opacity:1;stroke-width:0.27414518;stroke-miterlimit:4;stroke-dasharray:none"
         id="path5549"
         inkscape:original-d="m 309.96446,45.712899 q 0.76172,0 1.43554,0.410156 0.67383,0.410157 0.9961,0.996094 0.32226,0.585938 0.32226,1.230469 l 0,0.410156 -4.56665,0 q -0.004,0.08789 -0.004,0.175782 0,1.289062 0.58594,1.992187 0.58594,0.703126 1.40625,0.703126 0.8789,0 1.46484,-0.322266 0.58594,-0.322266 1.05469,-1.083985 l 0.35156,0.175782 q -0.35156,0.878906 -1.08398,1.40625 -0.73242,0.527344 -1.78711,0.527344 -1.23047,0 -2.08008,-0.937501 -0.84961,-0.9375 -0.84961,-2.460937 0,-1.523438 0.79102,-2.373047 0.79101,-0.84961 1.96289,-0.84961 z m 1.8164,2.636719 q -0.0586,-0.9375 -0.61523,-1.552734 -0.55664,-0.615235 -1.20117,-0.615235 -0.58594,0 -1.20118,0.673828 -0.47973,0.523682 -0.58593,1.494141 l 3.60351,0 z"
         inkscape:connector-curvature="0" />
    </g>
  </g>
</svg>
