<?xml version="1.0" encoding="UTF-8" standalone="no"?>
<!-- Created with Inkscape (http://www.inkscape.org/) -->

<svg
   xmlns:dc="http://purl.org/dc/elements/1.1/"
   xmlns:cc="http://creativecommons.org/ns#"
   xmlns:rdf="http://www.w3.org/1999/02/22-rdf-syntax-ns#"
   xmlns:svg="http://www.w3.org/2000/svg"
   xmlns="http://www.w3.org/2000/svg"
   xmlns:sodipodi="http://sodipodi.sourceforge.net/DTD/sodipodi-0.dtd"
   xmlns:inkscape="http://www.inkscape.org/namespaces/inkscape"
   width="46.163601mm"
   height="42.774715mm"
   viewBox="0 0 46.163601 42.774715"
   version="1.1"
   id="svg51485"
   inkscape:version="0.91 r13725"
   sodipodi:docname="pif-02.svg">
  <defs
     id="defs51479">
    <clipPath
       clipPathUnits="userSpaceOnUse"
       id="clipPath1755-8">
      <rect
         style="fill:#ffffff;fill-opacity:1;fill-rule:evenodd;stroke:#000000;stroke-width:1.875;stroke-linecap:round;stroke-linejoin:round;stroke-miterlimit:4;stroke-dasharray:none;stroke-opacity:1"
         id="rect1757-46"
         width="160.91911"
         height="73.499458"
         x="-66.708733"
         y="91.882065" />
    </clipPath>
    <inkscape:path-effect
       effect="spiro"
       id="path-effect1540"
       is_visible="true" />
    <inkscape:path-effect
       effect="spiro"
       id="path-effect1544"
       is_visible="true" />
    <inkscape:path-effect
       effect="spiro"
       id="path-effect1548"
       is_visible="true" />
    <inkscape:path-effect
       effect="spiro"
       id="path-effect1552"
       is_visible="true" />
    <inkscape:path-effect
       effect="spiro"
       id="path-effect1556"
       is_visible="true" />
    <inkscape:path-effect
       effect="spiro"
       id="path-effect1560"
       is_visible="true" />
    <inkscape:path-effect
       effect="spiro"
       id="path-effect1564"
       is_visible="true" />
    <inkscape:path-effect
       effect="spiro"
       id="path-effect1568"
       is_visible="true" />
    <inkscape:path-effect
       effect="spiro"
       id="path-effect1572"
       is_visible="true" />
    <inkscape:path-effect
       effect="spiro"
       id="path-effect1598"
       is_visible="true" />
    <inkscape:path-effect
       effect="spiro"
       id="path-effect1643"
       is_visible="true" />
    <inkscape:path-effect
       effect="spiro"
       id="path-effect1647"
       is_visible="true" />
    <inkscape:path-effect
       effect="spiro"
       id="path-effect1651"
       is_visible="true" />
    <inkscape:path-effect
       effect="spiro"
       id="path-effect1658"
       is_visible="true" />
    <inkscape:path-effect
       effect="spiro"
       id="path-effect1664"
       is_visible="true" />
    <inkscape:path-effect
       effect="spiro"
       id="path-effect1668"
       is_visible="true" />
    <inkscape:path-effect
       effect="spiro"
       id="path-effect1672"
       is_visible="true" />
  </defs>
  <sodipodi:namedview
     id="base"
     pagecolor="#ffffff"
     bordercolor="#666666"
     borderopacity="1.0"
     inkscape:pageopacity="0.0"
     inkscape:pageshadow="2"
     inkscape:zoom="2.079"
     inkscape:cx="-125.22227"
     inkscape:cy="64.293689"
     inkscape:document-units="mm"
     inkscape:current-layer="layer1"
     showgrid="false"
     inkscape:window-width="1920"
     inkscape:window-height="1031"
     inkscape:window-x="0"
     inkscape:window-y="27"
     inkscape:window-maximized="1"
     fit-margin-top="0"
     fit-margin-left="0"
     fit-margin-right="0"
     fit-margin-bottom="0"
     borderlayer="true" />
  <metadata
     id="metadata51482">
    <rdf:RDF>
      <cc:Work
         rdf:about="">
        <dc:format>image/svg+xml</dc:format>
        <dc:type
           rdf:resource="http://purl.org/dc/dcmitype/StillImage" />
        <dc:title />
      </cc:Work>
    </rdf:RDF>
  </metadata>
  <g
     inkscape:label="Layer 1"
     inkscape:groupmode="layer"
     id="layer1"
     transform="translate(-85.346424,-77.65503)">
    <g
       transform="matrix(0.78508307,0,0,0.78499377,140.48011,139.10012)"
       id="g5435"
       style="fill:none;stroke:#ffffff;stroke-width:1.27382302;stroke-opacity:1">
      <path
         sodipodi:nodetypes="ccccccc"
         inkscape:connector-curvature="0"
         id="path1604"
         d="m -66.079814,-34.208433 13.150608,7.592508 6.964387,-3.895793 0.129126,-17.029138 -6.546796,-11.339381 -13.697325,7.855985 z"
         style="fill:none;stroke:#ffffff;stroke-width:0.6740647;stroke-linecap:round;stroke-linejoin:round;stroke-miterlimit:4;stroke-dasharray:none;stroke-opacity:1" />
      <path
         sodipodi:nodetypes="ccccc"
         inkscape:connector-curvature="0"
         id="path1522"
         d="m -66.079816,-51.024248 13.15061,7.59251 0,16.815808 -13.150608,-7.592503 z"
         style="fill:none;stroke:#ffffff;stroke-width:0.6740647;stroke-linecap:round;stroke-linejoin:round;stroke-miterlimit:4;stroke-dasharray:none;stroke-opacity:1" />
      <path
         inkscape:connector-curvature="0"
         id="path1633-3"
         d="m -52.929206,-43.431738 7.098198,-4.098146"
         style="fill:none;stroke:#ffffff;stroke-width:0.6740647;stroke-linecap:butt;stroke-linejoin:miter;stroke-miterlimit:4;stroke-dasharray:none;stroke-opacity:1" />
      <path
         inkscape:connector-curvature="0"
         id="path1528"
         d="m -45.831008,-50.849568 33.845427,-19.540667"
         style="fill:none;stroke:#ffffff;stroke-width:0.6740647;stroke-linecap:butt;stroke-linejoin:miter;stroke-miterlimit:4;stroke-dasharray:none;stroke-opacity:1" />
      <path
         inkscape:connector-curvature="0"
         id="path1530"
         d="m -52.412967,-62.234492 27.276776,-15.748253"
         style="fill:none;stroke:#ffffff;stroke-width:0.6740647;stroke-linecap:butt;stroke-linejoin:miter;stroke-miterlimit:4;stroke-dasharray:none;stroke-opacity:1" />
      <path
         inkscape:connector-curvature="0"
         id="path1532"
         d="m -45.885893,-34.002072 33.900312,-19.572355"
         style="fill:none;stroke:#ffffff;stroke-width:0.6740647;stroke-linecap:butt;stroke-linejoin:miter;stroke-miterlimit:4;stroke-dasharray:none;stroke-opacity:1" />
      <path
         sodipodi:nodetypes="cc"
         inkscape:connector-curvature="0"
         id="path1534"
         d="m -45.831008,-50.849568 -6.581959,-11.384924"
         style="fill:none;stroke:#ffffff;stroke-width:0.6740647;stroke-linecap:butt;stroke-linejoin:miter;stroke-miterlimit:4;stroke-dasharray:none;stroke-opacity:1" />
      <path
         inkscape:original-d="m -66.079814,-35.639852 c 0.371251,0.324425 0.742277,0.649075 1.113079,0.973948 0.370801,0.324875 0.145986,0.423807 0.218641,0.636048"
         inkscape:path-effect="#path-effect1540"
         inkscape:connector-curvature="0"
         id="path1538"
         d="m -66.079814,-35.639852 c 0.471728,0.176938 0.87509,0.529881 1.113079,0.973948 0.10636,0.198458 0.1805,0.414139 0.218641,0.636048"
         style="fill:none;stroke:#ffffff;stroke-width:0.6740647;stroke-linecap:butt;stroke-linejoin:miter;stroke-miterlimit:4;stroke-dasharray:none;stroke-opacity:1" />
      <path
         inkscape:original-d="m -66.079814,-37.528117 c 0.510387,0.317798 1.020549,0.635823 1.530486,0.954071 0.509937,0.318248 0.649523,1.152612 0.973948,1.729254"
         inkscape:path-effect="#path-effect1544"
         inkscape:connector-curvature="0"
         id="path1542"
         d="m -66.079814,-37.528117 c 0.576181,0.190581 1.10568,0.520659 1.530486,0.954071 0.468434,0.477924 0.808059,1.080931 0.973948,1.729254"
         style="fill:none;stroke:#ffffff;stroke-width:0.6740647;stroke-linecap:butt;stroke-linejoin:miter;stroke-miterlimit:4;stroke-dasharray:none;stroke-opacity:1" />
      <path
         inkscape:original-d="m -66.079814,-39.694654 c 0.609768,0.25817 1.219313,0.516565 1.828632,0.775185 0.609319,0.258617 1.722854,2.172936 2.583943,3.259743 0.861089,1.086804 0.397756,2.265693 0.596295,3.398876"
         inkscape:path-effect="#path-effect1548"
         inkscape:connector-curvature="0"
         id="path1546"
         d="m -66.079814,-39.694654 c 0.648019,0.150818 1.269648,0.414336 1.828632,0.775185 1.18362,0.764079 2.06029,1.951859 2.583943,3.259743 0.430622,1.075527 0.63509,2.240995 0.596295,3.398876"
         style="fill:none;stroke:#ffffff;stroke-width:0.6740647;stroke-linecap:butt;stroke-linejoin:miter;stroke-miterlimit:4;stroke-dasharray:none;stroke-opacity:1" />
      <path
         inkscape:original-d="m -66.079814,-42.338225 c 1.146435,0.40393 2.292642,0.808085 3.438628,1.212465 1.145985,0.40438 1.630095,2.027176 2.444808,3.041102 0.81471,1.013924 0.729028,3.471532 1.093207,5.207637 0.364176,1.736104 -0.145539,1.324874 -0.218644,1.987649"
         inkscape:path-effect="#path-effect1552"
         inkscape:connector-curvature="0"
         id="path1550"
         d="m -66.079814,-42.338225 c 1.230711,0.063 2.440586,0.489601 3.438628,1.212465 1.064186,0.770771 1.872515,1.858284 2.444808,3.041102 0.779896,1.611893 1.14054,3.41761 1.093207,5.207637 -0.01764,0.667081 -0.09086,1.332684 -0.218644,1.987649"
         style="fill:none;stroke:#ffffff;stroke-width:0.6740647;stroke-linecap:butt;stroke-linejoin:miter;stroke-miterlimit:4;stroke-dasharray:none;stroke-opacity:1" />
      <path
         inkscape:original-d="m -65.38414,-44.56439 c 2.047502,0.761707 4.09478,1.523639 6.141833,2.285795 2.047052,0.762157 1.709602,3.683548 2.564064,5.525662 0.854464,1.842111 -0.05278,4.041324 -0.0795,6.062326"
         inkscape:path-effect="#path-effect1556"
         inkscape:connector-curvature="0"
         id="path1554"
         d="m -65.38414,-44.56439 c 2.249478,-0.201683 4.571547,0.662517 6.141833,2.285795 1.433056,1.481416 2.208926,3.495361 2.564064,5.525662 0.350237,2.002284 0.323123,4.069915 -0.0795,6.062326"
         style="fill:none;stroke:#ffffff;stroke-width:0.6740647;stroke-linecap:butt;stroke-linejoin:miter;stroke-miterlimit:4;stroke-dasharray:none;stroke-opacity:1" />
      <path
         inkscape:original-d="m -65.602781,-46.194263 c 1.053678,-0.03998 2.107131,-0.07973 3.160359,-0.119259 1.05323,-0.03953 2.743181,0.900843 4.114432,1.351602 1.371253,0.450758 2.690175,3.975071 4.034927,5.962943 1.344749,1.987874 0.437506,2.345201 0.655922,3.518138"
         inkscape:path-effect="#path-effect1560"
         inkscape:connector-curvature="0"
         id="path1558"
         d="m -65.602781,-46.194263 c 1.041806,-0.180734 2.107895,-0.220963 3.160359,-0.119259 1.450743,0.140192 2.891265,0.559028 4.114432,1.351602 2.057155,1.332972 3.337889,3.612871 4.034927,5.962943 0.339829,1.145739 0.560048,2.326916 0.655922,3.518138"
         style="fill:none;stroke:#ffffff;stroke-width:0.6740647;stroke-linecap:butt;stroke-linejoin:miter;stroke-miterlimit:4;stroke-dasharray:none;stroke-opacity:1" />
      <path
         inkscape:original-d="m -65.622658,-48.18191 c 0.907918,-0.159237 1.81561,-0.31825 2.723077,-0.477035 0.907468,-0.158788 0.172488,-2.25e-4 0.258395,0"
         inkscape:path-effect="#path-effect1564"
         inkscape:connector-curvature="0"
         id="path1562"
         d="m -65.622658,-48.18191 c 0.874836,-0.301685 1.797785,-0.46337 2.723077,-0.477035 0.08612,-0.0013 0.17227,-0.0013 0.258395,0"
         style="fill:none;stroke:#ffffff;stroke-width:0.6740647;stroke-linecap:butt;stroke-linejoin:miter;stroke-miterlimit:4;stroke-dasharray:none;stroke-opacity:1" />
      <path
         inkscape:original-d="m -55.008617,-44.166862 c 0.444132,0.622571 0.888041,1.245369 1.331722,1.86839 0.443685,0.623021 0.159238,0.569568 0.238518,0.854689"
         inkscape:path-effect="#path-effect1568"
         inkscape:connector-curvature="0"
         id="path1566"
         d="m -55.008617,-44.166862 c 0.590824,0.498285 1.053443,1.147334 1.331722,1.86839 0.10666,0.276371 0.186657,0.563025 0.238518,0.854689"
         style="fill:none;stroke:#ffffff;stroke-width:0.6740647;stroke-linecap:butt;stroke-linejoin:miter;stroke-miterlimit:4;stroke-dasharray:none;stroke-opacity:1" />
      <path
         inkscape:original-d="m -54.909235,-28.464441 c 0.3315,-0.629648 0.689277,-1.259069 1.033576,-1.888268 0.344303,-0.629195 0.19899,-1.020549 0.298149,-1.530487"
         inkscape:path-effect="#path-effect1572"
         inkscape:connector-curvature="0"
         id="path1570"
         d="m -54.909235,-28.464441 c 0.453537,-0.560992 0.805442,-1.203897 1.033576,-1.888268 0.164826,-0.494456 0.265319,-1.010317 0.298149,-1.530487"
         style="fill:none;stroke:#ffffff;stroke-width:0.6740647;stroke-linecap:butt;stroke-linejoin:miter;stroke-miterlimit:4;stroke-dasharray:none;stroke-opacity:1" />
      <path
         sodipodi:nodetypes="cc"
         inkscape:connector-curvature="0"
         id="path1574"
         d="m -45.835694,-50.86054 -0.129125,17.029138"
         style="fill:none;stroke:#ffffff;stroke-width:0.6740647;stroke-linecap:butt;stroke-linejoin:miter;stroke-miterlimit:4;stroke-dasharray:none;stroke-opacity:1" />
      <path
         inkscape:connector-curvature="0"
         id="path1625"
         d="m -61.389183,-49.638097 c 1.627034,-0.256956 3.219655,-0.73095 4.722411,-1.405479 1.902068,-0.853765 3.64458,-2.018824 5.397041,-3.148274 0.420281,-0.270867 0.841688,-0.539995 1.260512,-0.81311"
         style="fill:none;stroke:#ffffff;stroke-width:0.6740647;stroke-linecap:butt;stroke-linejoin:miter;stroke-miterlimit:4;stroke-dasharray:none;stroke-opacity:1" />
      <path
         inkscape:connector-curvature="0"
         id="path1576"
         d="m -50.009219,-58.324645 c 3.828269,-2.496416 7.431358,-5.31972 11.163926,-7.957081 3.805976,-2.689228 7.748026,-5.185859 11.806028,-7.477151"
         style="fill:none;stroke:#ffffff;stroke-width:0.6740647;stroke-linecap:butt;stroke-linejoin:miter;stroke-miterlimit:4;stroke-dasharray:none;stroke-opacity:1" />
      <path
         inkscape:connector-curvature="0"
         id="path1621"
         d="m -54.586662,-45.590316 c 1.153962,-1.677553 2.517088,-3.21107 4.047781,-4.553753 0.68909,-0.604451 1.411619,-1.170097 2.152825,-1.709375"
         style="fill:none;stroke:#ffffff;stroke-width:0.6740647;stroke-linecap:butt;stroke-linejoin:miter;stroke-miterlimit:4;stroke-dasharray:none;stroke-opacity:1" />
      <path
         inkscape:connector-curvature="0"
         id="path1580"
         d="m -48.386056,-55.173128 c 1.722915,-1.253538 3.547535,-2.365157 5.436763,-3.350351 4.142901,-2.160439 8.579829,-3.70668 12.761754,-5.790576 4.178343,-2.082111 8.072578,-4.685873 12.143342,-6.971178 1.440122,-0.808476 2.902563,-1.577195 4.385096,-2.304987"
         style="fill:none;stroke:#ffffff;stroke-width:0.6740647;stroke-linecap:butt;stroke-linejoin:miter;stroke-miterlimit:4;stroke-dasharray:none;stroke-opacity:1" />
      <path
         inkscape:connector-curvature="0"
         id="path1617"
         d="m -51.291715,-35.918121 c 1.268742,-0.29691 2.500366,-0.752075 3.657271,-1.351601 0.595296,-0.308492 1.170209,-0.654639 1.741555,-1.005507"
         style="fill:none;stroke:#ffffff;stroke-width:0.6740647;stroke-linecap:butt;stroke-linejoin:miter;stroke-miterlimit:4;stroke-dasharray:none;stroke-opacity:1" />
      <path
         inkscape:connector-curvature="0"
         id="path1584"
         d="m -45.892889,-41.594913 c 2.851453,-1.7511 5.627745,-3.627786 8.276192,-5.67299 4.161145,-3.213349 7.99906,-6.836315 12.243912,-9.938242 3.285945,-2.401205 6.806326,-4.481429 10.494783,-6.201461"
         style="fill:none;stroke:#ffffff;stroke-width:0.6740647;stroke-linecap:butt;stroke-linejoin:miter;stroke-miterlimit:4;stroke-dasharray:none;stroke-opacity:1" />
      <path
         inkscape:connector-curvature="0"
         id="path1613"
         d="m -51.291715,-32.101838 c 1.821285,-1.163075 3.632244,-2.342318 5.432594,-3.537542"
         style="fill:none;stroke:#ffffff;stroke-width:0.6740647;stroke-linecap:butt;stroke-linejoin:miter;stroke-miterlimit:4;stroke-dasharray:none;stroke-opacity:1" />
      <path
         inkscape:connector-curvature="0"
         id="path1588"
         d="m -45.859121,-38.959064 c 0.465591,-0.309098 0.930559,-0.619321 1.404916,-0.914789 4.04351,-2.518628 8.668247,-3.909141 13.038971,-5.803933 4.834473,-2.095837 9.391693,-4.830168 13.516007,-8.109604"
         style="fill:none;stroke:#ffffff;stroke-width:0.6740647;stroke-linecap:butt;stroke-linejoin:miter;stroke-miterlimit:4;stroke-dasharray:none;stroke-opacity:1" />
      <path
         inkscape:original-d="m -61.94551,-51.978319 c 2.888942,-1.351824 5.777657,-2.703425 8.666146,-4.054801"
         inkscape:path-effect="#path-effect1598"
         inkscape:connector-curvature="0"
         id="path1596"
         d="m -61.94551,-51.978319 8.666146,-4.054801"
         style="fill:none;stroke:#ffffff;stroke-width:0.6740647;stroke-linecap:butt;stroke-linejoin:miter;stroke-miterlimit:4;stroke-dasharray:none;stroke-opacity:1" />
      <path
         inkscape:connector-curvature="0"
         id="path1639"
         d="m -52.412966,-62.234492 0,3.219095"
         style="fill:none;stroke:#ffffff;stroke-width:0.6740647;stroke-linecap:butt;stroke-linejoin:miter;stroke-miterlimit:4;stroke-dasharray:none;stroke-opacity:1" />
      <path
         inkscape:original-d="m -51.848258,-58.915523 c 0.291749,0.05278 0.58327,0.105785 0.874566,0.159012 0.291296,0.05323 0.172487,0.18529 0.258394,0.278272"
         inkscape:path-effect="#path-effect1643"
         inkscape:connector-curvature="0"
         id="path1641"
         d="m -51.848258,-58.915523 c 0.295273,-0.08306 0.627428,-0.02267 0.874566,0.159012 0.102593,0.07542 0.19077,0.17038 0.258394,0.278272"
         style="fill:none;stroke:#ffffff;stroke-width:0.6740647;stroke-linecap:butt;stroke-linejoin:miter;stroke-miterlimit:4;stroke-dasharray:none;stroke-opacity:1" />
      <path
         inkscape:original-d="m -51.092951,-57.206145 c 0.384504,0.264794 0.768782,0.529814 1.152835,0.795058 0.384056,0.265247 1.007301,1.430884 1.510614,2.146662"
         inkscape:path-effect="#path-effect1647"
         inkscape:connector-curvature="0"
         id="path1645"
         d="m -51.092951,-57.206145 c 0.414839,0.216583 0.802971,0.48426 1.152835,0.795058 0.660004,0.586308 1.181559,1.327464 1.510614,2.146662"
         style="fill:none;stroke:#ffffff;stroke-width:0.6740647;stroke-linecap:butt;stroke-linejoin:miter;stroke-miterlimit:4;stroke-dasharray:none;stroke-opacity:1" />
      <path
         inkscape:original-d="m -48.548761,-52.853196 c 0.338125,0.364177 0.676025,0.715329 1.013699,1.073331 0.337677,0.358001 0.59652,1.364626 0.894443,2.047277"
         inkscape:path-effect="#path-effect1651"
         inkscape:connector-curvature="0"
         id="path1649"
         d="m -48.548761,-52.853196 c 0.384767,0.309279 0.726895,0.671532 1.013699,1.073331 0.435797,0.610531 0.742571,1.312701 0.894443,2.047277"
         style="fill:none;stroke:#ffffff;stroke-width:0.6740647;stroke-linecap:butt;stroke-linejoin:miter;stroke-miterlimit:4;stroke-dasharray:none;stroke-opacity:1" />
      <g
         style="fill:none;stroke:#ffffff;stroke-width:0.6740647;stroke-miterlimit:4;stroke-dasharray:none;stroke-opacity:1"
         transform="translate(-22.121484,-3.072388)"
         id="g5387">
        <path
           style="fill:none;stroke:#ffffff;stroke-width:0.6740647;stroke-linecap:round;stroke-linejoin:miter;stroke-miterlimit:4;stroke-dasharray:none;stroke-opacity:1"
           d="m -42.125855,-58.889001 c 0.417751,0.04563 0.853345,-0.128606 1.124384,-0.449753 0.142117,-0.168391 0.239946,-0.373831 0.281096,-0.590302"
           id="path1656"
           inkscape:connector-curvature="0"
           inkscape:path-effect="#path-effect1658"
           inkscape:original-d="m -42.125855,-58.889001 c 0.375021,-0.150141 0.749814,-0.300059 1.124384,-0.449753 0.374571,-0.149692 0.187622,-0.393759 0.281096,-0.590302"
           sodipodi:nodetypes="ccc" />
        <path
           style="fill:none;stroke:#ffffff;stroke-width:0.6740647;stroke-linecap:round;stroke-linejoin:miter;stroke-miterlimit:4;stroke-dasharray:none;stroke-opacity:1"
           d="m -40.720375,-59.929056 c 2.25e-4,1.221636 2.25e-4,2.377353 0,3.599438"
           id="path1660"
           inkscape:connector-curvature="0"
           sodipodi:nodetypes="cc" />
        <path
           style="fill:none;stroke:#ffffff;stroke-width:0.6740647;stroke-linecap:round;stroke-linejoin:miter;stroke-miterlimit:4;stroke-dasharray:none;stroke-opacity:1"
           d="m -39.763356,-59.914226 c 0.286909,0.148618 0.611131,0.2245 0.934194,0.218641 0.365171,-0.0066 0.727846,-0.118214 1.033576,-0.318023"
           id="path1662"
           inkscape:connector-curvature="0"
           inkscape:path-effect="#path-effect1664"
           inkscape:original-d="m -39.763356,-59.914226 c 0.311623,0.07265 0.62302,0.145536 0.934194,0.218641 0.311173,0.0731 0.689276,-0.212241 1.033576,-0.318023" />
        <path
           style="fill:none;stroke:#ffffff;stroke-width:0.6740647;stroke-linecap:round;stroke-linejoin:miter;stroke-miterlimit:4;stroke-dasharray:none;stroke-opacity:1"
           d="m -39.594408,-58.175034 c 0.182561,-0.19032 0.431933,-0.315252 0.693675,-0.347522 0.261741,-0.03227 0.53399,0.02835 0.75731,0.168633 0.251173,0.157776 0.437624,0.416079 0.506316,0.704631 0.06869,0.288553 0.0183,0.603952 -0.138601,0.855673 -0.183872,0.294993 -0.512729,0.494595 -0.859288,0.521549 -0.346559,0.02696 -0.702324,-0.119399 -0.929596,-0.382414"
           id="path1666"
           inkscape:connector-curvature="0"
           inkscape:path-effect="#path-effect1668"
           inkscape:original-d="m -39.594408,-58.175034 c 0.503765,0.06603 0.947673,-0.245369 1.450985,-0.178889 0.503313,0.06648 0.162549,1.321561 0.367715,1.560304 0.205164,0.238742 -1.139361,-0.159238 -1.788884,0.139135"
           sodipodi:nodetypes="cccc" />
        <path
           style="fill:none;stroke:#ffffff;stroke-width:0.6740647;stroke-linecap:round;stroke-linejoin:miter;stroke-miterlimit:4;stroke-dasharray:none;stroke-opacity:1"
           d="m -39.763356,-59.914226 c 0.151795,0.215564 0.254501,0.465482 0.298146,0.72549 0.05721,0.340792 0.01166,0.698154 -0.129199,1.013702"
           id="path1670"
           inkscape:connector-curvature="0"
           inkscape:path-effect="#path-effect1672"
           inkscape:original-d="m -39.763356,-59.914226 c 0.09961,0.241605 0.198989,0.483435 0.298146,0.72549 0.09916,0.242055 -0.08591,0.675577 -0.129199,1.013702" />
        <circle
           style="fill:none;fill-opacity:1;stroke:#ffffff;stroke-width:0.6740647;stroke-linecap:round;stroke-linejoin:round;stroke-miterlimit:4;stroke-dasharray:none;stroke-dashoffset:0;stroke-opacity:1"
           id="path1674"
           cx="-36.344601"
           cy="-59.844662"
           r="0.37765312" />
      </g>
      <path
         sodipodi:nodetypes="ccc"
         inkscape:connector-curvature="0"
         d="m -60.500124,-66.941468 14.069069,8.12278 c 6.999749,4.04095 17.765459,10.256892 17.765459,10.256892"
         style="fill:none;stroke:#ffffff;stroke-width:0.67406476;stroke-linecap:round;stroke-linejoin:miter;stroke-miterlimit:4;stroke-dasharray:2.0221942, 2.02219419999999994;stroke-dashoffset:0;stroke-opacity:1"
         id="path5391" />
      <path
         inkscape:connector-curvature="0"
         id="path5394"
         d="m -49.229036,-60.700131 3.042449,-1.756558 -2.793497,-1.612826"
         style="fill:none;stroke:#ffffff;stroke-width:0.67406476;stroke-linecap:round;stroke-linejoin:miter;stroke-miterlimit:4;stroke-dasharray:2.0221942, 2.02219419999999994;stroke-dashoffset:0;stroke-opacity:1" />
    </g>
    <g
       transform="matrix(0.2822222,0,0,0.2822222,65.015738,72.881201)"
       clip-path="url(#clipPath1755-8)"
       style="font-style:normal;font-weight:normal;line-height:0.01%;font-family:sans-serif;letter-spacing:0px;word-spacing:0px;fill:#ffffff;fill-opacity:1;stroke:#ffffff;stroke-width:0.75;stroke-linecap:round;stroke-linejoin:round;stroke-miterlimit:4;stroke-dasharray:none;stroke-opacity:1"
       id="flowRoot51250">
      <path
         d="m 85.824219,150.92969 q 1.40625,0 2.285156,0.70312 0.878906,0.70313 0.878906,2.16797 0,1.23047 -1.992187,2.98828 -2.929688,2.57813 -2.929688,3.28125 l 4.101563,0 0.761718,-1.75781 0.351563,0 -0.351563,2.63672 -5.859375,0 0,-0.52735 q 0,-1.17187 3.164063,-3.98437 1.757812,-1.52344 1.757812,-2.63672 0,-1.28906 -0.644531,-1.875 -0.644531,-0.58594 -1.523437,-0.58594 -0.644532,0 -1.142578,0.41016 -0.498047,0.41016 -0.673829,0.99609 0.527344,0.46875 0.322266,0.84961 -0.205078,0.38086 -0.615234,0.38086 -0.234375,-0.0586 -0.410157,-0.20508 -0.175781,-0.14648 -0.234375,-0.43945 0,-0.9375 0.732422,-1.66992 0.732422,-0.73242 2.021485,-0.73242 z"
         style="font-style:normal;font-variant:normal;font-weight:normal;font-stretch:normal;font-size:15px;line-height:100%;font-family:'Ume Mincho Balsa';-inkscape-font-specification:'Ume Mincho Balsa, Normal';text-align:start;writing-mode:lr-tb;text-anchor:start;fill:#ffffff;fill-opacity:1;stroke:#ffffff;stroke-width:0.75;stroke-linecap:round;stroke-linejoin:round;stroke-miterlimit:4;stroke-dasharray:none;stroke-opacity:1"
         id="path4198" />
    </g>
    <rect
       style="color:#000000;clip-rule:nonzero;display:inline;overflow:visible;visibility:visible;opacity:1;isolation:auto;mix-blend-mode:normal;color-interpolation:sRGB;color-interpolation-filters:linearRGB;solid-color:#000000;solid-opacity:1;fill:none;fill-opacity:1;fill-rule:nonzero;stroke:#ffffff;stroke-width:0.51395392;stroke-linecap:round;stroke-linejoin:round;stroke-miterlimit:4;stroke-dasharray:none;stroke-dashoffset:0;stroke-opacity:1;color-rendering:auto;image-rendering:auto;shape-rendering:auto;text-rendering:auto;enable-background:accumulate"
       id="rect10519"
       width="45.649647"
       height="42.227062"
       x="85.603401"
       y="77.945709"
       clip-path="none" />
  </g>
</svg>
