<?xml version="1.0" encoding="UTF-8" standalone="no"?>
<!-- Created with Inkscape (http://www.inkscape.org/) -->

<svg
   xmlns:dc="http://purl.org/dc/elements/1.1/"
   xmlns:cc="http://creativecommons.org/ns#"
   xmlns:rdf="http://www.w3.org/1999/02/22-rdf-syntax-ns#"
   xmlns:svg="http://www.w3.org/2000/svg"
   xmlns="http://www.w3.org/2000/svg"
   xmlns:sodipodi="http://sodipodi.sourceforge.net/DTD/sodipodi-0.dtd"
   xmlns:inkscape="http://www.inkscape.org/namespaces/inkscape"
   width="45.94413mm"
   height="33.518589mm"
   viewBox="0 0 45.94413 33.518589"
   version="1.1"
   id="svg70715"
   inkscape:version="0.91 r13725"
   sodipodi:docname="poesie-05.svg">
  <defs
     id="defs70709">
    <marker
       inkscape:stockid="Arrow1Send"
       orient="auto"
       refY="0"
       refX="0"
       id="Arrow1Send"
       style="overflow:visible"
       inkscape:isstock="true">
      <path
         inkscape:connector-curvature="0"
         id="path2444"
         d="M 0,0 5,-5 -12.5,0 5,5 Z"
         style="fill:#000000;fill-opacity:1;fill-rule:evenodd;stroke:#000000;stroke-width:1.00000003pt;stroke-opacity:1"
         transform="matrix(-0.2,0,0,-0.2,-1.2,0)" />
    </marker>
    <clipPath
       clipPathUnits="userSpaceOnUse"
       id="clipPath1755-1">
      <rect
         style="fill:#ffffff;fill-opacity:1;fill-rule:evenodd;stroke:#000000;stroke-width:1.875;stroke-linecap:round;stroke-linejoin:round;stroke-miterlimit:4;stroke-dasharray:none;stroke-opacity:1"
         id="rect1757-9"
         width="160.91911"
         height="73.499458"
         x="-66.708733"
         y="91.882065" />
    </clipPath>
    <clipPath
       clipPathUnits="userSpaceOnUse"
       id="clipPath63062">
      <rect
         style="fill:none;fill-opacity:1;fill-rule:evenodd;stroke:#000000;stroke-width:1.87499988;stroke-linecap:round;stroke-linejoin:round;stroke-miterlimit:4;stroke-dasharray:none;stroke-opacity:1"
         id="rect63064"
         width="160.91916"
         height="116.89165"
         x="-64.854698"
         y="1866.7703" />
    </clipPath>
    <inkscape:path-effect
       is_visible="true"
       id="path-effect62667"
       effect="spiro" />
    <inkscape:path-effect
       is_visible="true"
       id="path-effect62671"
       effect="spiro" />
    <inkscape:path-effect
       is_visible="true"
       id="path-effect62675"
       effect="spiro" />
    <inkscape:path-effect
       is_visible="true"
       id="path-effect62679"
       effect="spiro" />
    <inkscape:path-effect
       is_visible="true"
       id="path-effect62683"
       effect="spiro" />
    <inkscape:path-effect
       is_visible="true"
       id="path-effect62687"
       effect="spiro" />
    <inkscape:path-effect
       is_visible="true"
       id="path-effect62799"
       effect="spiro" />
    <inkscape:path-effect
       is_visible="true"
       id="path-effect62803"
       effect="spiro" />
    <inkscape:path-effect
       is_visible="true"
       id="path-effect62807"
       effect="spiro" />
    <inkscape:path-effect
       effect="spiro"
       id="path-effect62811"
       is_visible="true" />
    <inkscape:path-effect
       effect="spiro"
       id="path-effect62815"
       is_visible="true" />
    <inkscape:path-effect
       effect="spiro"
       id="path-effect62819"
       is_visible="true" />
    <inkscape:path-effect
       is_visible="true"
       id="path-effect62823"
       effect="spiro" />
    <inkscape:path-effect
       is_visible="true"
       id="path-effect62827"
       effect="spiro" />
    <clipPath
       clipPathUnits="userSpaceOnUse"
       id="clipPath1755-1-5">
      <rect
         style="fill:#ffffff;fill-opacity:1;fill-rule:evenodd;stroke:#000000;stroke-width:1.875;stroke-linecap:round;stroke-linejoin:round;stroke-miterlimit:4;stroke-dasharray:none;stroke-opacity:1"
         id="rect1757-9-8"
         width="160.91911"
         height="73.499458"
         x="-66.708733"
         y="91.882065" />
    </clipPath>
    <clipPath
       clipPathUnits="userSpaceOnUse"
       id="clipPath1755-1-8">
      <rect
         style="fill:#ffffff;fill-opacity:1;fill-rule:evenodd;stroke:#000000;stroke-width:1.875;stroke-linecap:round;stroke-linejoin:round;stroke-miterlimit:4;stroke-dasharray:none;stroke-opacity:1"
         id="rect1757-9-0"
         width="160.91911"
         height="73.499458"
         x="-66.708733"
         y="91.882065" />
    </clipPath>
  </defs>
  <sodipodi:namedview
     id="base"
     pagecolor="#ffffff"
     bordercolor="#666666"
     borderopacity="1.0"
     inkscape:pageopacity="0.0"
     inkscape:pageshadow="2"
     inkscape:zoom="5.0184016"
     inkscape:cx="-6.3824843"
     inkscape:cy="76.790461"
     inkscape:document-units="mm"
     inkscape:current-layer="layer4"
     showgrid="false"
     fit-margin-top="0"
     fit-margin-left="0"
     fit-margin-right="0"
     fit-margin-bottom="0"
     inkscape:window-width="1920"
     inkscape:window-height="1031"
     inkscape:window-x="0"
     inkscape:window-y="27"
     inkscape:window-maximized="1" />
  <metadata
     id="metadata70712">
    <rdf:RDF>
      <cc:Work
         rdf:about="">
        <dc:format>image/svg+xml</dc:format>
        <dc:type
           rdf:resource="http://purl.org/dc/dcmitype/StillImage" />
        <dc:title />
      </cc:Work>
    </rdf:RDF>
  </metadata>
  <g
     inkscape:label="Layer 1"
     inkscape:groupmode="layer"
     id="layer1"
     transform="translate(16.924446,-88.228802)">
    <rect
       y="88.493385"
       x="-16.659863"
       height="32.989422"
       width="45.414963"
       id="rect63048"
       style="fill:#ffffff;fill-opacity:1;fill-rule:evenodd;stroke:#000000;stroke-width:0.52916664;stroke-linecap:round;stroke-linejoin:round;stroke-miterlimit:4;stroke-dasharray:none;stroke-opacity:1" />
    <g
       id="g63011"
       transform="matrix(0.28222223,0,0,0.28222223,1.3789943,-438.35069)"
       clip-path="url(#clipPath63062)">
      <path
         style="opacity:1;fill:none;fill-opacity:1;fill-rule:nonzero;stroke:#000000;stroke-width:1.875;stroke-linecap:round;stroke-linejoin:round;stroke-miterlimit:4;stroke-dasharray:none;stroke-dashoffset:0;stroke-opacity:1"
         d="m 92.341733,1932.3037 c 1.894012,-0.7989 3.736434,-1.7202 5.51199,-2.756 4.529037,-2.6422 8.612857,-6.0294 12.126337,-9.9216 2.95213,-3.2703 5.52601,-6.9347 7.16558,-11.0239 1.06123,-2.6468 1.72686,-5.4568 3.03158,-7.9924 1.76254,-3.4254 4.61512,-6.2008 6.33878,-9.6459 1.73324,-3.4643 2.22933,-7.426 2.20478,-11.2996 -0.024,-3.7879 -0.51906,-7.5568 -1.10239,-11.2996 -0.25816,-1.6564 -0.53378,-3.3101 -0.8268,-4.9607"
         id="path62665"
         inkscape:connector-curvature="0"
         inkscape:path-effect="#path-effect62667"
         inkscape:original-d="m 92.341733,1932.3037 c 1.65454,-0.7359 3.67559,-1.8383 5.51199,-2.756 1.83638,-0.9177 8.085157,-6.6153 12.126337,-9.9216 4.04118,-3.3062 4.77799,-7.3502 7.16558,-11.0239 2.38757,-3.6737 2.02199,-5.3292 3.03158,-7.9924 1.0096,-2.6632 4.22679,-6.4316 6.33878,-9.6459 2.11198,-3.2144 1.47079,-7.534 2.20478,-11.2996 0.734,-3.7656 -0.73399,-7.534 -1.10239,-11.2996 -0.36841,-3.7655 -0.55026,-3.3081 -0.8268,-4.9607" />
      <path
         style="opacity:1;fill:none;fill-opacity:1;fill-rule:nonzero;stroke:#000000;stroke-width:1.875;stroke-linecap:round;stroke-linejoin:round;stroke-miterlimit:4;stroke-dasharray:none;stroke-dashoffset:0;stroke-opacity:1"
         d="m 44.387533,1922.6577 c 1.517803,0.4099 2.996516,0.9644 4.40959,1.6536 3.33068,1.6244 6.27139,3.9808 9.64595,5.512 4.317056,1.9588 9.169899,2.4896 13.50435,4.4096 2.066497,0.9154 3.989004,2.1358 6.071461,3.0143 2.082457,0.8785 4.416851,1.4059 6.606079,0.8441 1.865422,-0.4787 3.460032,-1.7086 4.758367,-3.1311 1.298336,-1.4224 2.347167,-3.0502 3.509603,-4.5857 3.11191,-4.1106 7.047203,-7.5707 9.921557,-11.8508 2.47897,-3.6913 4.10685,-7.9031 6.61438,-11.5751 1.4717,-2.1551 3.23881,-4.1083 5.23638,-5.7876"
         id="path62669"
         inkscape:connector-curvature="0"
         inkscape:path-effect="#path-effect62671"
         inkscape:original-d="m 44.387533,1922.6577 c 1.47079,0.5503 2.94066,1.1015 4.40959,1.6536 1.46892,0.5522 6.43157,3.6737 9.64595,5.512 3.21439,1.8383 9.00384,2.9388 13.50435,4.4096 4.50051,1.4708 8.45263,2.5713 12.67754,3.8584 4.22492,1.287 5.51292,-5.1455 8.26797,-7.7168 2.75505,-2.5713 6.61531,-7.9014 9.921557,-11.8508 3.30625,-3.9493 4.41052,-7.7177 6.61438,-11.5751 2.20384,-3.8575 3.49185,-3.8593 5.23638,-5.7876" />
      <path
         style="opacity:1;fill:none;fill-opacity:1;fill-rule:nonzero;stroke:#000000;stroke-width:1.875;stroke-linecap:round;stroke-linejoin:round;stroke-miterlimit:4;stroke-dasharray:none;stroke-dashoffset:0;stroke-opacity:1"
         d="m 69.191423,1867.5379 c 0.271831,1.1909 0.96553,2.281 1.9292,3.0316 0.717732,0.5591 1.562976,0.9247 2.387312,1.3096 0.824336,0.3849 1.652331,0.8053 2.297878,1.4464 0.598645,0.5945 1.015378,1.361 1.237268,2.175 0.22189,0.8139 0.253077,1.674 0.140722,2.5102 -0.285849,2.1273 -1.477278,4.0409 -2.929565,5.6214 -1.452287,1.5805 -3.173086,2.8854 -4.787205,4.3002 -2.445478,2.1435 -4.715761,4.6465 -5.78758,7.7167 -0.597137,1.7105 -0.801339,3.5402 -1.420855,5.2428 -0.309758,0.8512 -0.726944,1.6724 -1.314328,2.3621 -0.587383,0.6896 -1.353879,1.2435 -2.225597,1.4899 -0.754994,0.2134 -1.555488,0.1912 -2.337296,0.1253 -0.781808,-0.066 -1.564794,-0.1735 -2.347884,-0.1253 -1.707084,0.1051 -3.285609,0.9426 -4.681718,1.9305 -1.396109,0.988 -2.67409,2.145 -4.137442,3.0303 -1.533301,0.9276 -3.234505,1.5357 -4.852549,2.306 -1.618045,0.7704 -3.202101,1.7467 -4.242221,3.206 -0.509755,0.7152 -0.877662,1.541 -0.998079,2.411 -0.120417,0.87 0.01593,1.7844 0.446879,2.5497 0.314745,0.5589 0.778344,1.0275 1.311487,1.3842 0.533143,0.3566 1.134713,0.604 1.75494,0.7677 1.240453,0.3273 2.540661,0.3225 3.823553,0.3285 5.438223,0.025 10.934974,0.2757 16.26033,-0.8268 4.580627,-0.9483 8.912713,-2.8792 12.95314,-5.2364 4.261836,-2.4864 8.237666,-5.4589 11.85076,-8.8191 3.530154,-3.283 6.745644,-6.9592 10.74836,-9.646 1.788247,-1.2003 3.710426,-2.1864 5.543601,-3.3169 1.833176,-1.1306 3.601076,-2.4287 4.929146,-4.1242 2.11465,-2.6998 2.95204,-6.2176 3.03159,-9.646 0.0626,-2.7002 -0.31112,-5.41 -1.1024,-7.9924"
         id="path62673"
         inkscape:connector-curvature="0"
         inkscape:path-effect="#path-effect62675"
         inkscape:original-d="m 69.191423,1867.5379 c 0.55215,0.9178 1.28707,2.0202 1.9292,3.0316 0.64212,1.0115 3.12439,1.8364 4.68519,2.756 1.56078,0.9196 0.91959,3.1225 1.37799,4.6852 0.45839,1.5627 -5.14358,6.6134 -7.71677,9.9216 -2.57319,3.3081 -3.85745,5.1435 -5.78758,7.7167 -1.93013,2.5732 -3.30624,6.0623 -4.96078,9.0948 -1.65453,3.0325 -3.12251,-9e-4 -4.68518,0 -1.56266,9e-4 -5.87851,3.3063 -8.81916,4.9608 -2.94066,1.6545 -6.06224,3.6737 -9.09477,5.512 -3.03252,1.8382 -0.36652,3.3062 -0.5512,4.9607 -0.18467,1.6546 4.59426,1.6527 6.88998,2.4804 2.29572,0.8278 10.84116,-0.5521 16.26033,-0.8268 5.41918,-0.2746 8.63637,-3.4918 12.95314,-5.2364 4.31679,-1.7445 7.90144,-5.8803 11.85076,-8.8191 3.94932,-2.9388 7.16651,-6.4316 10.74836,-9.646 3.58185,-3.2144 6.982767,-4.9617 10.472747,-7.4411 3.48999,-2.4795 2.02199,-6.4316 3.03159,-9.646 1.00959,-3.2144 -0.73399,-5.3292 -1.1024,-7.9924" />
      <path
         style="opacity:1;fill:none;fill-opacity:1;fill-rule:nonzero;stroke:#000000;stroke-width:3.75;stroke-linecap:round;stroke-linejoin:round;stroke-miterlimit:4;stroke-dasharray:none;stroke-dashoffset:0;stroke-opacity:1"
         d="m 31.158783,1914.3898 c -1.826327,1.6657 -3.663704,3.3193 -5.51197,4.9607 -2.359514,2.0954 -4.810195,4.2694 -6.06318,7.1656 -0.709116,1.6391 -0.996407,3.4586 -0.8268,5.2364"
         id="path62677"
         inkscape:connector-curvature="0"
         inkscape:path-effect="#path-effect62679"
         inkscape:original-d="m 31.158783,1914.3898 c -1.74452,1.5608 -3.67371,3.3062 -5.51197,4.9607 -1.83827,1.6546 -4.04118,4.7761 -6.06318,7.1656 -2.02199,2.3895 -0.55026,3.49 -0.8268,5.2364" />
      <path
         style="opacity:1;fill:none;fill-opacity:1;fill-rule:nonzero;stroke:#000000;stroke-width:3.75;stroke-linecap:round;stroke-linejoin:round;stroke-miterlimit:4;stroke-dasharray:none;stroke-dashoffset:0;stroke-opacity:1"
         d="m 13.244863,1938.9181 c -0.657691,1.2033 -1.124602,2.5106 -1.378,3.8583 -0.321177,1.7082 -0.298109,3.4754 0.0146,5.1851 0.04639,0.2536 0.09908,0.5061 0.15801,0.7571"
         id="path62681"
         inkscape:connector-curvature="0"
         inkscape:path-effect="#path-effect62683"
         inkscape:original-d="m 13.244863,1938.9181 c -0.4584,1.1933 -0.91773,2.5713 -1.378,3.8583 -0.46026,1.2871 0.38303,2.8875 0.0146,5.1851 -0.3684,2.2976 0.0671,-0.1625 0.15801,0.7571"
         sodipodi:nodetypes="cccc" />
      <path
         style="opacity:1;fill:none;fill-opacity:1;fill-rule:nonzero;stroke:#000000;stroke-width:3.75;stroke-linecap:round;stroke-linejoin:round;stroke-miterlimit:4;stroke-dasharray:none;stroke-dashoffset:0;stroke-opacity:1"
         d="m 19.583633,1939.4693 c -0.08229,1.8456 -0.26639,3.6866 -0.55119,5.5119 -0.72232,4.6294 -2.088973,9.1423 -2.75599,13.78 -0.673887,4.6855 -0.612448,9.5459 0.82679,14.0555 1.452836,4.5522 4.248558,8.5711 7.44117,12.1264 1.253558,1.396 2.58005,2.7377 4.082551,3.8614 1.502502,1.1237 3.190661,2.0277 5.012209,2.4773 2.063924,0.5094 4.285624,0.413 6.269457,-0.351 1.983833,-0.764 3.714072,-2.2046 4.754493,-4.0585 1.100327,-1.9606 1.401825,-4.3012 1.149297,-6.5352 -0.252529,-2.2341 -1.029934,-4.3785 -1.976087,-6.418 -1.858934,-4.007 -4.373238,-7.6693 -6.88996,-11.2995 -2.513136,-3.625 -5.042099,-7.2409 -7.71677,-10.7484 -2.770906,-3.6337 -5.721721,-7.1884 -7.71677,-11.2995 -0.813443,-1.6762 -1.460699,-3.4331 -1.9292,-5.2364"
         id="path62685"
         inkscape:connector-curvature="0"
         inkscape:path-effect="#path-effect62687"
         inkscape:original-d="m 19.583633,1939.4693 c -0.18279,1.7445 -0.36652,3.6737 -0.55119,5.5119 -0.18467,1.8383 -1.8364,9.1857 -2.75599,13.78 -0.9196,4.5942 0.55213,9.3694 0.82679,14.0555 0.27466,4.6861 4.96172,8.0833 7.44117,12.1264 2.47945,4.043 6.06412,4.2249 9.09476,6.3387 3.03065,2.1139 7.35025,-2.9406 11.02395,-4.4095 3.67372,-1.469 -0.55025,-8.6364 -0.82679,-12.9532 -0.27653,-4.3168 -4.59238,-7.534 -6.88996,-11.2995 -2.2976,-3.7656 -5.14358,-7.1665 -7.71677,-10.7484 -2.5732,-3.5818 -5.14358,-7.534 -7.71677,-11.2995 -2.5732,-3.7656 -1.28519,-3.4919 -1.9292,-5.2364" />
      <path
         style="opacity:1;fill:none;fill-opacity:1;fill-rule:nonzero;stroke:#000000;stroke-width:1.875;stroke-linecap:round;stroke-linejoin:round;stroke-miterlimit:4;stroke-dasharray:none;stroke-dashoffset:0;stroke-opacity:1"
         d="m -71.639585,1894.8222 c 0.73139,2.4814 1.466318,4.9618 2.20478,7.4412 2.157718,7.2444 4.345876,14.4808 6.33878,21.7723 1.366695,5.0004 2.705487,10.1632 5.78758,14.3312 2.687803,3.6348 6.645804,6.3151 11.02395,7.4411 4.743864,1.22 9.76441,0.6401 14.60674,1.378 4.719931,0.7193 9.155705,2.6703 13.77994,3.8584 4.1291,1.0609 8.4338422,1.5097 12.6775502,1.1024 4.59816276,-0.4413 9.0336422,-1.8694 13.504338,-3.0316 4.3994908,-1.1437 8.8644188,-2.0359 13.2287598,-3.3072 4.202437,-1.2241 8.317037,-2.8048 12.12634,-4.9607 2.419417,-1.3693 4.706032,-2.965 6.88997,-4.6852 0.980521,-0.7723 1.951419,-1.5809 2.693038,-2.5849 0.741619,-1.0039 1.242811,-2.2326 1.165352,-3.4783 -0.04741,-0.7624 -0.310863,-1.5054 -0.721856,-2.1494 -0.410992,-0.6439 -0.966591,-1.1903 -1.595623,-1.6237 -1.258065,-0.8669 -2.780887,-1.2736 -4.296891,-1.4633 -4.190395,-0.5242 -8.426589,0.5042 -12.40195,1.9292 -3.667877,1.3148 -7.228354,2.9778 -11.02396,3.8584 -5.4815614,1.2717 -11.1926784,0.8567 -16.8115278,0.5512 -3.7654441,-0.2047 -7.533555,-0.357 -11.2995602,-0.5512 -2.293755,-0.1183 -4.594683,-0.252 -6.884947,-0.079 -2.290264,0.1732 -4.585818,0.6648 -6.619393,1.7324 -1.745342,0.9163 -3.269693,2.2501 -4.40958,3.8584"
         id="path62797"
         inkscape:connector-curvature="0"
         inkscape:path-effect="#path-effect62799"
         inkscape:original-d="m -71.639585,1894.8222 c 0.73586,2.4795 1.4708,4.9599 2.20478,7.4412 0.734,2.4813 4.2268,14.5139 6.33878,21.7723 2.11199,7.2584 3.85932,9.5532 5.78758,14.3312 1.92825,4.7779 7.35023,4.9598 11.02395,7.4411 3.67371,2.4814 9.73877,0.9178 14.60674,1.378 4.86797,0.4603 9.18757,2.5713 13.77994,3.8584 4.59238,1.2871 8.4526402,0.734 12.6775502,1.1024 4.22490801,0.3684 9.003838,-2.022 13.504338,-3.0316 4.5005198,-1.0096 8.8201098,-2.2057 13.2287598,-3.3072 4.40864,-1.1014 8.08517,-3.3081 12.12634,-4.9607 4.04118,-1.6527 4.59426,-3.1244 6.88997,-4.6852 2.29572,-1.5608 2.5732,-4.0431 3.85839,-6.0632 1.28519,-2.0201 -4.40864,-3.4919 -6.61437,-5.2364 -2.20574,-1.7445 -8.26703,1.2852 -12.40195,1.9292 -4.13493,0.644 -7.34837,2.5713 -11.02396,3.8584 -3.67559,1.2871 -11.2067498,0.3665 -16.8115278,0.5512 -5.60478,0.1847 -7.5321,-0.3684 -11.2995602,-0.5512 -3.76745,-0.1828 -9.00195,1.1014 -13.50434,1.6536 -4.50239,0.5521 -2.93878,2.5713 -4.40958,3.8584" />
      <path
         style="opacity:1;fill:none;fill-opacity:1;fill-rule:nonzero;stroke:#000000;stroke-width:1.875;stroke-linecap:round;stroke-linejoin:round;stroke-miterlimit:4;stroke-dasharray:none;stroke-dashoffset:0;stroke-opacity:1"
         d="m -21.204995,1890.9639 5.51198,0 c 2.219256,0 4.452618,0.01 6.63526,0.4098 2.1826416,0.4015 4.3272458,1.2133 6.0422902,2.6217 1.7528813,1.4395 2.97668909,3.4282 3.90603759,5.4973 0.92934851,2.0691 1.59386851,4.2461 2.43273041,6.3535 1.3701004,3.442 3.2036088,6.6943 4.40958,10.1972 0.6465871,1.8781 1.1088495,3.8196 1.37799,5.7875"
         id="path62801"
         inkscape:connector-curvature="0"
         inkscape:path-effect="#path-effect62803"
         inkscape:original-d="m -21.204995,1890.9639 c 1.83826,0 3.67558,0 5.51198,0 1.83638,9e-4 8.4526302,2.0201 12.6775502,3.0315 4.224908,1.0115 4.226778,7.8996 6.338768,11.8508 2.11198,3.9512 2.94066,6.7972 4.40958,10.1972 1.46892,3.3999 0.9196,3.8574 1.37799,5.7875" />
      <path
         style="opacity:1;fill:none;fill-opacity:1;fill-rule:nonzero;stroke:#000000;stroke-width:1.875;stroke-linecap:round;stroke-linejoin:round;stroke-miterlimit:4;stroke-dasharray:none;stroke-dashoffset:0;stroke-opacity:1"
         d="m 8.0084832,1927.6185 c 0.091776,-1.468 0.091776,-2.9416 0,-4.4096 -0.2936982,-4.6977 -1.5240326,-9.4006 -0.82679,-14.0555 0.3154088,-2.1057 1.057262,-4.2038 2.48038,-5.7876 0.8234508,-0.9164 1.8816808,-1.6489 3.0765208,-1.9493 1.19484,-0.3004 2.528894,-0.1357 3.537859,0.5713 0.995194,0.6974 1.593883,1.844 1.913915,3.0163 0.320031,1.1723 0.396506,2.3948 0.566465,3.5981 0.466074,3.2997 1.646913,6.4809 3.30719,9.3703 0.924339,1.6086 2.011699,3.1657 2.48039,4.9608 0.317378,1.2156 0.333853,2.5085 0.04755,3.7318"
         id="path62805"
         inkscape:connector-curvature="0"
         inkscape:path-effect="#path-effect62807"
         inkscape:original-d="m 8.0084832,1927.6185 c 9.3e-4,-1.4708 9.3e-4,-2.9406 0,-4.4096 -9.4e-4,-1.4689 -0.55026,-9.3713 -0.82679,-14.0555 -0.27655,-4.6843 1.65452,-3.8593 2.48038,-5.7876 0.8258598,-1.9282 4.4105198,-0.9196 6.6143798,-1.378 2.20385,-0.4584 1.65453,4.4086 2.48038,6.6144 0.82586,2.2057 2.20573,6.246 3.30719,9.3703 1.10146,3.1244 1.65453,3.3063 2.48039,4.9608 0.82586,1.6546 -0.410851,1.5261 0.04755,3.7318"
         sodipodi:nodetypes="ccccscccc" />
      <path
         inkscape:original-d="m 31.158783,1914.3898 c -1.74452,1.5608 -3.67371,3.3062 -5.51197,4.9607 -1.83827,1.6546 -4.04118,4.7761 -6.06318,7.1656 -2.02199,2.3895 -0.55026,3.49 -0.8268,5.2364"
         inkscape:path-effect="#path-effect62811"
         inkscape:connector-curvature="0"
         id="path62809"
         d="m 31.158783,1914.3898 c -1.826327,1.6657 -3.663704,3.3193 -5.51197,4.9607 -2.359514,2.0954 -4.810195,4.2694 -6.06318,7.1656 -0.709116,1.6391 -0.996407,3.4586 -0.8268,5.2364"
         style="opacity:1;fill:none;fill-opacity:1;fill-rule:nonzero;stroke:#ffffff;stroke-width:1.25;stroke-linecap:round;stroke-linejoin:round;stroke-miterlimit:4;stroke-dasharray:none;stroke-dashoffset:0;stroke-opacity:1" />
      <path
         inkscape:original-d="m 13.244863,1938.9181 c -0.4584,1.1933 -0.91773,2.5713 -1.378,3.8583 -0.46026,1.2871 0.38303,2.8875 0.0146,5.1851 -0.3684,2.2976 0.0671,-0.1625 0.15801,0.7571"
         inkscape:path-effect="#path-effect62815"
         inkscape:connector-curvature="0"
         id="path62813"
         d="m 13.244863,1938.9181 c -0.657691,1.2033 -1.124602,2.5106 -1.378,3.8583 -0.321177,1.7082 -0.298109,3.4754 0.0146,5.1851 0.04639,0.2536 0.09908,0.5061 0.15801,0.7571"
         style="opacity:1;fill:none;fill-opacity:1;fill-rule:nonzero;stroke:#ffffff;stroke-width:1.25;stroke-linecap:round;stroke-linejoin:round;stroke-miterlimit:4;stroke-dasharray:none;stroke-dashoffset:0;stroke-opacity:1"
         sodipodi:nodetypes="cccc" />
      <path
         inkscape:original-d="m 19.583633,1939.4693 c -0.18279,1.7445 -0.36652,3.6737 -0.55119,5.5119 -0.18467,1.8383 -1.8364,9.1857 -2.75599,13.78 -0.9196,4.5942 0.55213,9.3694 0.82679,14.0555 0.27466,4.6861 4.96172,8.0833 7.44117,12.1264 2.47945,4.043 6.06412,4.2249 9.09476,6.3387 3.03065,2.1139 7.35025,-2.9406 11.02395,-4.4095 3.67372,-1.469 -0.55025,-8.6364 -0.82679,-12.9532 -0.27653,-4.3168 -4.59238,-7.534 -6.88996,-11.2995 -2.2976,-3.7656 -5.14358,-7.1665 -7.71677,-10.7484 -2.5732,-3.5818 -5.14358,-7.534 -7.71677,-11.2995 -2.5732,-3.7656 -1.28519,-3.4919 -1.9292,-5.2364"
         inkscape:path-effect="#path-effect62819"
         inkscape:connector-curvature="0"
         id="path62817"
         d="m 19.583633,1939.4693 c -0.08229,1.8456 -0.26639,3.6866 -0.55119,5.5119 -0.72232,4.6294 -2.088973,9.1423 -2.75599,13.78 -0.673887,4.6855 -0.612448,9.5459 0.82679,14.0555 1.452836,4.5522 4.248558,8.5711 7.44117,12.1264 1.253558,1.396 2.58005,2.7377 4.082551,3.8614 1.502502,1.1237 3.190661,2.0277 5.012209,2.4773 2.063924,0.5094 4.285624,0.413 6.269457,-0.351 1.983833,-0.764 3.714072,-2.2046 4.754493,-4.0585 1.100327,-1.9606 1.401825,-4.3012 1.149297,-6.5352 -0.252529,-2.2341 -1.029934,-4.3785 -1.976087,-6.418 -1.858934,-4.007 -4.373238,-7.6693 -6.88996,-11.2995 -2.513136,-3.625 -5.042099,-7.2409 -7.71677,-10.7484 -2.770906,-3.6337 -5.721721,-7.1884 -7.71677,-11.2995 -0.813443,-1.6762 -1.460699,-3.4331 -1.9292,-5.2364"
         style="opacity:1;fill:none;fill-opacity:1;fill-rule:nonzero;stroke:#ffffff;stroke-width:1.25;stroke-linecap:round;stroke-linejoin:round;stroke-miterlimit:4;stroke-dasharray:none;stroke-dashoffset:0;stroke-opacity:1" />
      <path
         style="opacity:1;fill:#ffffff;fill-opacity:1;fill-rule:nonzero;stroke:#000000;stroke-width:1.875;stroke-linecap:round;stroke-linejoin:round;stroke-miterlimit:4;stroke-dasharray:none;stroke-dashoffset:0;stroke-opacity:1"
         d="m -28.080699,1867.8132 c 1.785122,2.4708 3.264991,5.1618 4.395314,7.9927 1.920275,4.8093 2.837265,10.0176 5.23638,14.6068 2.368469,4.5306 6.061979,8.2226 9.9215502,11.5751 4.9154385,4.2697 10.1939793,8.1148 15.709148,11.5752 3.0750588,1.9294 6.2324218,3.7456 9.1095408,5.9594 2.87712,2.2137 5.492942,4.8665 7.150779,8.0961 0.932715,1.817 1.552602,3.8216 1.579374,5.8639 0.02677,2.0422 -0.570408,4.1234 -1.854964,5.7113 -1.407986,1.7404 -3.559569,2.7868 -5.772853,3.1229 -2.213283,0.3361 -4.48698,0.01 -6.629107,-0.6426 -5.1070932,-1.5503 -9.47196,-4.8415 -13.7799278,-7.9923 -3.9163254,-2.8643 -7.8869772,-5.6665 -11.5751602,-8.8192 -4.698722,-4.0165 -8.918205,-8.5844 -13.77994,-12.4019 -4.546492,-3.57 -9.611286,-6.4461 -14.88234,-8.8192 -5.1464,-2.317 -10.504058,-4.1644 -15.98474,-5.512"
         id="path62821"
         inkscape:connector-curvature="0"
         inkscape:path-effect="#path-effect62823"
         inkscape:original-d="m -28.080699,1867.8132 c 1.56078,1.1033 0.629734,2.2042 4.395314,7.9927 3.76558,5.7885 3.49185,9.7369 5.23638,14.6068 1.74452,4.8698 6.61531,7.7158 9.9215502,11.5751 3.30626,3.8593 10.473698,7.7158 15.709148,11.5752 5.2354398,3.8593 10.8411498,9.3694 16.2603198,14.0555 5.41918,4.6861 -0.18279,7.7158 -0.27559,11.5752 -0.0928,3.8593 -8.26704,1.6526 -12.40196,2.4803 -4.1349098,0.8278 -9.1856898,-5.3291 -13.7799278,-7.9923 -4.59426,-2.6632 -7.7158302,-5.8804 -11.5751602,-8.8192 -3.85932,-2.9388 -9.18569,-8.2689 -13.77994,-12.4019 -4.59426,-4.1331 -9.92063,-5.8804 -14.88234,-8.8192 -4.96172,-2.9388 -10.65556,-3.6756 -15.98474,-5.512"
         sodipodi:nodetypes="csssssscssssc" />
      <path
         style="opacity:1;fill:#ffffff;fill-opacity:1;fill-rule:nonzero;stroke:#000000;stroke-width:1.875;stroke-linecap:round;stroke-linejoin:round;stroke-miterlimit:4;stroke-dasharray:none;stroke-dashoffset:0;stroke-opacity:1"
         d="m 46.130313,1868.0675 c -0.80087,2.5438 -1.474779,5.1275 -2.01838,7.7384 -0.845748,4.0621 -1.382023,8.2113 -2.75599,12.1264 -1.393453,3.9706 -3.616063,7.6006 -6.06317,11.0239 -1.369177,1.9154 -2.81565,3.7792 -4.40958,5.512 -0.990763,1.0771 -2.043587,2.1101 -2.858733,3.3255 -0.815147,1.2154 -1.386557,2.6565 -1.275247,4.1157 0.08767,1.1493 0.606162,2.2543 1.405885,3.0844 0.799723,0.8302 1.871224,1.3857 3.003685,1.6007 1.589293,0.3017 3.247766,-0.058 4.722022,-0.7237 1.474256,-0.6659 2.793616,-1.6254 4.097148,-2.5834 2.428595,-1.7848 4.844637,-3.5893 7.16557,-5.512 2.506647,-2.0765 4.913443,-4.3038 6.88997,-6.89 2.455604,-3.2131 4.200409,-6.9229 5.51198,-10.7483 1.404466,-4.0964 2.331063,-8.3498 3.85838,-12.402 0.957625,-2.5407 2.145742,-4.987 3.30719,-7.4412 0.368648,-0.779 0.734778,-1.5592 1.098381,-2.3405"
         id="path62825"
         inkscape:connector-curvature="0"
         inkscape:path-effect="#path-effect62827"
         inkscape:original-d="m 46.130313,1868.0675 c -0.3684,1.7464 -0.54758,2.5011 -2.01838,7.7384 -1.4708,5.2373 -1.83638,8.0833 -2.75599,12.1264 -0.9196,4.043 -4.04117,7.3483 -6.06317,11.0239 -2.022,3.6756 -3.48998,3.3063 -4.40958,5.512 -0.91961,2.2057 -2.20386,5.3273 -4.13398,7.4412 -1.93014,2.1138 2.94065,3.1225 4.40957,4.6851 1.46893,1.5627 6.61531,-2.1138 8.81917,-3.3071 2.20385,-1.1934 4.04305,-3.7675 7.16557,-5.512 3.12252,-1.7445 4.59425,-4.5943 6.88997,-6.89 2.29572,-2.2957 3.67559,-7.1665 5.51198,-10.7483 1.83638,-3.5819 2.57319,-8.2689 3.85838,-12.402 1.28519,-4.133 2.20573,-4.9617 3.30719,-7.4412 1.10145,-2.4794 -0.462409,-0.9635 1.098381,-2.3405"
         sodipodi:nodetypes="cscsccccsscccc" />
    </g>
    <path
       d="m -56.623617,-93.503209 a 5.2903581,5.3130741 0 0 1 -3.104749,-4.34704 5.2903581,5.3130741 0 0 1 2.234771,-4.856131 5.2903581,5.3130741 0 0 1 5.308612,-0.44192"
       sodipodi:open="true"
       sodipodi:end="5.1572695"
       sodipodi:start="1.9917755"
       sodipodi:ry="5.3130741"
       sodipodi:rx="5.2903581"
       sodipodi:cy="-98.352394"
       sodipodi:cx="-54.461689"
       sodipodi:type="arc"
       id="path70445"
       style="fill:none;fill-opacity:1;fill-rule:evenodd;stroke:#000000;stroke-width:0.52916688;stroke-linecap:round;stroke-linejoin:round;stroke-miterlimit:4;stroke-dasharray:none;stroke-opacity:1;marker-end:url(#Arrow1Send)"
       transform="matrix(-0.92406757,-0.38222916,0.38323845,-0.92364944,0,0)" />
  </g>
  <g
     inkscape:groupmode="layer"
     id="layer4"
     inkscape:label="vecto">
    <g
       transform="matrix(0.28222222,0,0,0.28222222,-20.921667,-14.379644)"
       clip-path="url(#clipPath1755-1-8)"
       style="font-style:normal;font-weight:normal;line-height:0.01%;font-family:sans-serif;letter-spacing:0px;word-spacing:0px;fill:#000000;fill-opacity:1;stroke:#000000;stroke-width:0.375;stroke-linecap:round;stroke-linejoin:round;stroke-miterlimit:4;stroke-dasharray:none;stroke-opacity:1"
       id="flowRoot63170-9">
      <path
         d="m 83.773437,150.92969 5.214844,0 -0.175781,0.82031 -4.511719,0 -0.292969,3.75 q 0.585938,-0.52734 1.054688,-0.73242 0.46875,-0.20508 0.996094,-0.20508 1.171875,0 2.080078,0.79102 0.908203,0.79101 0.908203,2.43164 0,1.46484 -0.849609,2.34375 -0.84961,0.8789 -2.25586,0.8789 -1.289062,0 -2.197265,-0.73242 -0.908204,-0.73242 -0.908204,-1.49414 0,-0.35156 0.175782,-0.55664 0.175781,-0.20508 0.527343,-0.26367 0.351563,0 0.556641,0.17578 0.205078,0.17578 0.205078,0.52734 0,0.35156 -0.410156,0.64453 0.117187,0.46875 0.615234,0.82032 0.498047,0.35156 1.435547,0.35156 0.878906,0 1.494141,-0.70313 0.615234,-0.70312 0.615234,-2.05078 0,-1.28906 -0.55664,-1.96289 -0.556641,-0.67383 -1.435547,-0.67383 -0.46875,0 -0.9375,0.26368 -0.46875,0.26367 -0.996094,0.9082 l -0.761719,-0.0586 0.410156,-5.27343 z"
         style="font-style:normal;font-variant:normal;font-weight:normal;font-stretch:normal;font-size:15px;line-height:100%;font-family:'Ume Mincho Balsa';-inkscape-font-specification:'Ume Mincho Balsa, Normal';text-align:start;writing-mode:lr-tb;text-anchor:start;fill:#000000;stroke:#000000;stroke-width:0.375;stroke-linecap:round;stroke-linejoin:round;stroke-miterlimit:4;stroke-dasharray:none;stroke-opacity:1"
         id="path4204" />
    </g>
  </g>
</svg>
