<?xml version="1.0" encoding="UTF-8" standalone="no"?>
<!-- Created with Inkscape (http://www.inkscape.org/) -->

<svg
   xmlns:dc="http://purl.org/dc/elements/1.1/"
   xmlns:cc="http://creativecommons.org/ns#"
   xmlns:rdf="http://www.w3.org/1999/02/22-rdf-syntax-ns#"
   xmlns:svg="http://www.w3.org/2000/svg"
   xmlns="http://www.w3.org/2000/svg"
   xmlns:sodipodi="http://sodipodi.sourceforge.net/DTD/sodipodi-0.dtd"
   xmlns:inkscape="http://www.inkscape.org/namespaces/inkscape"
   width="46.032455mm"
   height="54.375294mm"
   viewBox="0 0 46.032455 54.375294"
   version="1.1"
   id="svg64529"
   inkscape:version="0.91 r13725"
   sodipodi:docname="poesie-08-blanc.svg">
  <defs
     id="defs64523">
    <inkscape:path-effect
       is_visible="true"
       id="path-effect62078"
       effect="spiro" />
    <inkscape:path-effect
       effect="spiro"
       id="path-effect62074"
       is_visible="true" />
    <inkscape:path-effect
       is_visible="true"
       id="path-effect62070"
       effect="spiro" />
    <inkscape:path-effect
       is_visible="true"
       id="path-effect62066"
       effect="spiro" />
    <inkscape:path-effect
       is_visible="true"
       id="path-effect62062"
       effect="spiro" />
    <inkscape:path-effect
       effect="spiro"
       id="path-effect62058"
       is_visible="true" />
    <inkscape:path-effect
       effect="spiro"
       id="path-effect62054"
       is_visible="true" />
    <inkscape:path-effect
       effect="spiro"
       id="path-effect62050"
       is_visible="true" />
    <inkscape:path-effect
       effect="spiro"
       id="path-effect62046"
       is_visible="true" />
    <inkscape:path-effect
       is_visible="true"
       id="path-effect62042"
       effect="spiro" />
    <inkscape:path-effect
       is_visible="true"
       id="path-effect62038"
       effect="spiro" />
    <inkscape:path-effect
       effect="spiro"
       id="path-effect62034"
       is_visible="true" />
    <inkscape:path-effect
       effect="spiro"
       id="path-effect62030"
       is_visible="true" />
    <inkscape:path-effect
       is_visible="true"
       id="path-effect62026"
       effect="spiro" />
    <inkscape:path-effect
       effect="spiro"
       id="path-effect62022"
       is_visible="true" />
    <inkscape:path-effect
       is_visible="true"
       id="path-effect62018"
       effect="spiro" />
    <inkscape:path-effect
       is_visible="true"
       id="path-effect62014"
       effect="spiro" />
    <inkscape:path-effect
       effect="spiro"
       id="path-effect62010"
       is_visible="true" />
    <inkscape:path-effect
       effect="spiro"
       id="path-effect62006"
       is_visible="true" />
    <inkscape:path-effect
       is_visible="true"
       id="path-effect62002"
       effect="spiro" />
    <inkscape:path-effect
       effect="spiro"
       id="path-effect61998"
       is_visible="true" />
    <inkscape:path-effect
       effect="spiro"
       id="path-effect61994"
       is_visible="true" />
    <inkscape:path-effect
       effect="spiro"
       id="path-effect61990"
       is_visible="true" />
    <inkscape:path-effect
       is_visible="true"
       id="path-effect61986"
       effect="spiro" />
    <inkscape:path-effect
       is_visible="true"
       id="path-effect61982"
       effect="spiro" />
    <inkscape:path-effect
       is_visible="true"
       id="path-effect61978"
       effect="spiro" />
    <inkscape:path-effect
       is_visible="true"
       id="path-effect61974"
       effect="spiro" />
    <inkscape:path-effect
       is_visible="true"
       id="path-effect61970"
       effect="spiro" />
    <inkscape:path-effect
       is_visible="true"
       id="path-effect61966"
       effect="spiro" />
    <inkscape:path-effect
       effect="spiro"
       id="path-effect61962"
       is_visible="true" />
    <inkscape:path-effect
       effect="spiro"
       id="path-effect61958"
       is_visible="true" />
    <inkscape:path-effect
       is_visible="true"
       id="path-effect61954"
       effect="spiro" />
    <inkscape:path-effect
       effect="spiro"
       id="path-effect61950"
       is_visible="true" />
    <inkscape:path-effect
       is_visible="true"
       id="path-effect61946"
       effect="spiro" />
    <inkscape:path-effect
       is_visible="true"
       id="path-effect61942"
       effect="spiro" />
    <inkscape:path-effect
       effect="spiro"
       id="path-effect61938"
       is_visible="true" />
    <inkscape:path-effect
       is_visible="true"
       id="path-effect61934"
       effect="spiro" />
    <inkscape:path-effect
       effect="spiro"
       id="path-effect61930"
       is_visible="true" />
    <inkscape:path-effect
       effect="spiro"
       id="path-effect61926"
       is_visible="true" />
    <inkscape:path-effect
       effect="spiro"
       id="path-effect61922"
       is_visible="true" />
    <inkscape:path-effect
       is_visible="true"
       id="path-effect61918"
       effect="spiro" />
    <inkscape:path-effect
       is_visible="true"
       id="path-effect61914"
       effect="spiro" />
    <inkscape:path-effect
       is_visible="true"
       id="path-effect61910"
       effect="spiro" />
    <inkscape:path-effect
       effect="spiro"
       id="path-effect61906"
       is_visible="true" />
    <clipPath
       clipPathUnits="userSpaceOnUse"
       id="clipPath1755">
      <rect
         style="fill:#ffffff;fill-opacity:1;fill-rule:evenodd;stroke:#000000;stroke-width:1.875;stroke-linecap:round;stroke-linejoin:round;stroke-miterlimit:4;stroke-dasharray:none;stroke-opacity:1"
         id="rect1757"
         width="160.91911"
         height="73.499458"
         x="-66.708733"
         y="91.882065" />
    </clipPath>
    <clipPath
       clipPathUnits="userSpaceOnUse"
       id="clipPath64456">
      <rect
         style="fill:#ffffff;fill-opacity:1;fill-rule:evenodd;stroke:#000000;stroke-width:1.875;stroke-linecap:round;stroke-linejoin:round;stroke-miterlimit:4;stroke-dasharray:none;stroke-opacity:1"
         id="rect64454"
         width="160.91911"
         height="73.499458"
         x="-66.708733"
         y="91.882065" />
    </clipPath>
    <clipPath
       clipPathUnits="userSpaceOnUse"
       id="clipPath1755-0">
      <rect
         style="fill:#ffffff;fill-opacity:1;fill-rule:evenodd;stroke:#000000;stroke-width:1.875;stroke-linecap:round;stroke-linejoin:round;stroke-miterlimit:4;stroke-dasharray:none;stroke-opacity:1"
         id="rect1757-2"
         width="160.91911"
         height="73.499458"
         x="-66.708733"
         y="91.882065" />
    </clipPath>
    <clipPath
       clipPathUnits="userSpaceOnUse"
       id="clipPath5438">
      <rect
         style="fill:#ffffff;fill-opacity:1;fill-rule:evenodd;stroke:#000000;stroke-width:1.875;stroke-linecap:round;stroke-linejoin:round;stroke-miterlimit:4;stroke-dasharray:none;stroke-opacity:1"
         id="rect5440"
         width="160.91911"
         height="73.499458"
         x="-66.708733"
         y="91.882065" />
    </clipPath>
    <clipPath
       clipPathUnits="userSpaceOnUse"
       id="clipPath1755-1">
      <rect
         style="fill:#ffffff;fill-opacity:1;fill-rule:evenodd;stroke:#000000;stroke-width:1.875;stroke-linecap:round;stroke-linejoin:round;stroke-miterlimit:4;stroke-dasharray:none;stroke-opacity:1"
         id="rect1757-9"
         width="160.91911"
         height="73.499458"
         x="-66.708733"
         y="91.882065" />
    </clipPath>
  </defs>
  <sodipodi:namedview
     id="base"
     pagecolor="#ffffff"
     bordercolor="#666666"
     borderopacity="1.0"
     inkscape:pageopacity="0.0"
     inkscape:pageshadow="2"
     inkscape:zoom="3.3352942"
     inkscape:cx="13.059973"
     inkscape:cy="62.557319"
     inkscape:document-units="mm"
     inkscape:current-layer="layer1"
     showgrid="false"
     fit-margin-top="0"
     fit-margin-left="0"
     fit-margin-right="0"
     fit-margin-bottom="0"
     inkscape:window-width="1920"
     inkscape:window-height="1031"
     inkscape:window-x="0"
     inkscape:window-y="27"
     inkscape:window-maximized="1" />
  <metadata
     id="metadata64526">
    <rdf:RDF>
      <cc:Work
         rdf:about="">
        <dc:format>image/svg+xml</dc:format>
        <dc:type
           rdf:resource="http://purl.org/dc/dcmitype/StillImage" />
        <dc:title></dc:title>
      </cc:Work>
    </rdf:RDF>
  </metadata>
  <g
     inkscape:label="Layer 1"
     inkscape:groupmode="layer"
     id="layer1"
     transform="translate(82.736467,-71.752828)">
    <rect
       style="color:#000000;clip-rule:nonzero;display:inline;overflow:visible;visibility:visible;opacity:1;isolation:auto;mix-blend-mode:normal;color-interpolation:sRGB;color-interpolation-filters:linearRGB;solid-color:#000000;solid-opacity:1;fill:#ffffff;fill-opacity:1;fill-rule:nonzero;stroke:none;stroke-width:0.50747895;stroke-linecap:round;stroke-linejoin:round;stroke-miterlimit:4;stroke-dasharray:none;stroke-dashoffset:0;stroke-opacity:1;color-rendering:auto;image-rendering:auto;shape-rendering:auto;text-rendering:auto;enable-background:accumulate"
       id="rect56851"
       width="45.524975"
       height="26.059227"
       x="-82.482727"
       y="99.815155" />
    <rect
       y="73.739052"
       x="-82.482727"
       height="26.059227"
       width="45.524975"
       id="rect8672"
       style="color:#000000;clip-rule:nonzero;display:inline;overflow:visible;visibility:visible;opacity:1;isolation:auto;mix-blend-mode:normal;color-interpolation:sRGB;color-interpolation-filters:linearRGB;solid-color:#000000;solid-opacity:1;fill:#ffffff;fill-opacity:1;fill-rule:nonzero;stroke:none;stroke-width:0.50747895;stroke-linecap:round;stroke-linejoin:round;stroke-miterlimit:4;stroke-dasharray:none;stroke-dashoffset:0;stroke-opacity:1;color-rendering:auto;image-rendering:auto;shape-rendering:auto;text-rendering:auto;enable-background:accumulate" />
  </g>
  <g
     inkscape:groupmode="layer"
     id="layer2"
     inkscape:label="vecto" />
</svg>
