<?xml version="1.0" encoding="UTF-8" standalone="no"?>
<!-- Created with Inkscape (http://www.inkscape.org/) -->

<svg
   xmlns:dc="http://purl.org/dc/elements/1.1/"
   xmlns:cc="http://creativecommons.org/ns#"
   xmlns:rdf="http://www.w3.org/1999/02/22-rdf-syntax-ns#"
   xmlns:svg="http://www.w3.org/2000/svg"
   xmlns="http://www.w3.org/2000/svg"
   xmlns:sodipodi="http://sodipodi.sourceforge.net/DTD/sodipodi-0.dtd"
   xmlns:inkscape="http://www.inkscape.org/namespaces/inkscape"
   id="svg2"
   version="1.1"
   inkscape:version="0.91 r13725"
   width="100.00001"
   height="62.860744"
   viewBox="0 0 100.00001 62.860744"
   sodipodi:docname="logo-Rhizome.svg">
  <metadata
     id="metadata8">
    <rdf:RDF>
      <cc:Work
         rdf:about="">
        <dc:format>image/svg+xml</dc:format>
        <dc:type
           rdf:resource="http://purl.org/dc/dcmitype/StillImage" />
        <dc:title></dc:title>
      </cc:Work>
    </rdf:RDF>
  </metadata>
  <defs
     id="defs6" />
  <sodipodi:namedview
     pagecolor="#ffffff"
     bordercolor="#666666"
     borderopacity="1"
     objecttolerance="10"
     gridtolerance="10"
     guidetolerance="10"
     inkscape:pageopacity="0"
     inkscape:pageshadow="2"
     inkscape:window-width="751"
     inkscape:window-height="480"
     id="namedview4"
     showgrid="false"
     fit-margin-top="0"
     fit-margin-left="0"
     fit-margin-right="0"
     fit-margin-bottom="0"
     inkscape:zoom="1.3015873"
     inkscape:cx="34.836613"
     inkscape:cy="29.561498"
     inkscape:window-x="0"
     inkscape:window-y="28"
     inkscape:window-maximized="0"
     inkscape:current-layer="svg2" />
  <g
     id="g4140"
     transform="translate(-33.512195,-44.627054)"
     style="fill:#000000">
    <path
       style="fill:#000000"
       d="m 33.512195,105.40407 c 0,-1.14606 2.7,-5.34788 6,-9.337374 3.3,-3.9895 6,-7.551818 6,-7.916263 0,-0.364446 -2.475,-0.662628 -5.5,-0.662628 -4.222222,0 -5.5,-0.348485 -5.5,-1.5 0,-1.215686 1.611111,-1.5 8.5,-1.5 10.598557,0 10.742885,0.615326 2.5,10.658457 -3.3,4.02072 -6,7.542408 -6,7.825968 0,0.28357 2.7,0.51557 6,0.51557 5.333333,0 6,0.22223 6,2 0,1.85186 -0.666667,2 -9,2 -8.453891,0 -9,-0.12643 -9,-2.08373 z m 23.765777,-0.83424 c -3.018906,-2.69739 -3.265777,-3.38393 -3.265777,-9.082025 0,-5.698097 0.246871,-6.384637 3.265777,-9.082029 7.970165,-7.121342 18.458927,-0.087 16.925105,11.350902 -1.201839,8.962252 -10.383323,12.658242 -16.925105,6.813152 z m 10.234223,-3.08203 c 2.298187,-2.298182 2.726174,-8.693953 0.75,-11.20789 -3.873255,-4.927259 -9.75,-1.788236 -9.75,5.207895 0,4.191648 2.618242,7.999995 5.5,7.999995 0.825,0 2.4,-0.9 3.5,-2 z m 11,-5.515879 0,-11.515885 2.75,0.04574 c 1.5125,0.02516 4.213348,-0.243892 6.001884,-0.597892 2.152994,-0.426136 4.026234,-0.136262 5.543378,0.85781 1.965039,1.287543 2.561857,1.303752 4.189246,0.113775 2.943819,-2.152572 7.303837,-1.69023 10.060947,1.066876 2.2632,2.263209 2.45455,3.198659 2.45455,12.000005 0,8.87879 -0.13969,9.54545 -2,9.54545 -1.831,0 -2,-0.66666 -2,-7.889211 0,-6.235151 -0.3947,-8.376642 -1.88253,-10.214039 -1.65179,-2.039868 -2.19851,-2.180852 -4.460494,-1.150224 -2.449205,1.115932 -2.592425,1.613598 -2.867473,9.964039 -0.264371,8.026275 -0.463164,8.789435 -2.289508,8.789435 -1.785302,0 -2.027302,-0.75144 -2.254332,-6.999995 -0.139883,-3.85 -0.478429,-7.982507 -0.752324,-9.18335 -0.687819,-3.015613 -4.148201,-3.938975 -6.565008,-1.751795 -1.610983,1.457919 -1.928336,3.118488 -1.928336,10.090133 0,7.678347 -0.159776,8.345007 -2,8.345007 -1.884218,0 -2,-0.66666 -2,-11.515879 z M 120.0122,106.58901 c -7.68519,-3.32441 -8.73551,-18.228879 -1.5554,-22.071561 2.47039,-1.322108 7.64041,-1.322108 10.11079,0 2.42977,1.300374 4.94461,6.09176 4.94461,9.420696 0,2.506244 -0.12771,2.54966 -7.5,2.54966 -6.80419,0 -7.5,0.183413 -7.5,1.976947 0,1.087321 1.14343,2.726158 2.54096,3.641848 2.09822,1.37481 2.99766,1.45682 5.16194,0.47071 2.10795,-0.96045 2.89271,-0.92246 4.00923,0.19405 1.18433,1.18433 1.17365,1.56635 -0.0727,2.60074 -1.94266,1.61226 -7.64372,2.29649 -10.13942,1.21691 z m 8.5,-14.529776 c 0,-2.144567 -2.85156,-4.571429 -5.37143,-4.571429 -2.69276,0 -4.62857,1.756572 -4.62857,4.2 0,1.493333 0.85185,1.8 5,1.8 3.66667,0 5,-0.380952 5,-1.428571 z M 68.524786,77.699084 c -1.772264,-1.435092 -2.314138,-3.164962 -2.740898,-8.75 -0.588334,-7.699561 -1.462396,-9.461279 -4.694138,-9.461279 -3.761034,0 -4.577555,1.908612 -4.577555,10.7 0,8.186667 -0.03414,8.3 -2.5,8.3 l -2.5,0 0,-16.531385 c 0,-14.235258 0.22236,-16.616712 1.600925,-17.145717 2.328538,-0.893544 3.366395,1.445815 3.383762,7.627102 0.01191,4.238889 0.28198,5.183333 1.215313,4.25 1.889807,-1.889807 7.559474,-1.440526 9.774564,0.774564 2.263,2.263 2.897049,4.50179 3.264123,11.525436 0.224816,4.301653 0.570209,5.043929 2.472933,5.314522 2.129348,0.302821 2.222349,-0.03198 2.5,-9 0.264764,-8.551729 0.452166,-9.314522 2.28838,-9.314522 1.864504,0 2,0.666667 2,9.84037 0,9.135719 -0.169051,9.977114 -2.360784,11.75 -2.957362,2.3922 -6.267543,2.436053 -9.126625,0.120909 z m -34.012591,-10.568422 0,-11.357143 5.75,-0.06231 c 3.1625,-0.03427 6.570362,0.167198 7.573027,0.447708 1.706361,0.47738 1.716348,0.627898 0.156044,2.352014 -0.916841,1.013098 -2.26454,1.612692 -2.994886,1.332431 -0.730347,-0.28026 -2.263067,-0.0091 -3.406044,0.602623 -1.852926,0.991656 -2.078141,2.029547 -2.078141,9.577004 0,8.36247 -0.03023,8.464816 -2.5,8.464816 l -2.5,0 0,-11.357143 z m 41.389987,-15.06895 c -0.909796,-2.370891 0.377503,-4.765333 2.356989,-4.384119 2.377993,0.45796 2.377993,5.162464 0,5.620424 -0.964163,0.18568 -2.024808,-0.370657 -2.356989,-1.236305 z"
       id="path4142"
       inkscape:connector-curvature="0" />
  </g>
</svg>
